PLACE,FIRST,LAST,RACES,POINTS
1,Ebony,Beesley,10,150
2,Mikayla,Kirkby,10,130
3,Will,Kirkby,9,127
4,Louis,Holmes,8,125
5,Eiliyah,Daneen,9,125
6,Logan,Beesley,6,123
7,April,Wainwright,9,121
8,Mason,Beesley,8,120
9,Lyra,Haythorpe,8,113
10,Vinny,Holmes,7,111
11,Anna,Scott,6,101
12,Lily,Chivers,5,100
13,Sienna,Bayliss,4,100
14,Eleanor,Stoltz,7,97
15,Michelle,Scott,5,93
16,Braxton,Safstrom,8,89
17,William,Trew,6,88
18,Tom,Roberts,3,82
19,Jack,Haythorpe,8,82
20,Ivie,Safstrom,8,80
21,Avery,McDermid,6,78
22,Skylar,Beesley,10,69
23,Emily,Harris,7,66
24,Polly,Byrne,8,66
25,Archie,Clarke,5,65
26,Poppy,Wainwright,6,64
27,Grace,Chivers,5,63
28,Harry,Scott,6,63
29,Jimmy,Byrne,5,62
30,Leo,Stoltz,3,62
31,Sophie,Pedrotti,7,61
32,Chase,Carter,6,61
33,Julia,Starr,4,60
34,Noah,Pedrotti,6,60
35,Bonnie,Scott,6,59
36,Ellie,Beesley,6,53
37,Millie,McIntosh,3,51
38,Mohid,Zaman,9,51
39,Leni,Hughes,3,51
40,James,Trew,3,50
41,Maison,Hooke,5,47
42,Alice,McIntosh,4,46
43,Ronny,Epps,7,46
44,Miles,Clarke,3,46
45,Chloe,Beesley,6,46
46,Jonty,McDermid,5,43
47,Ruby,Carter,6,43
48,Joshua,Feuerherdt,2,41
49,Ashton ,Chivers,4,41
50,Olivia,Douglas,2,40
51,Ruby,Douglas,2,40
52,Sese,Van Rees,2,40
53,Grace,Carney,2,40
54,Zahli,Bayliss,2,38
55,Casey,Smith,3,36
56,Joel,Van Rees,2,35
57,Cooper,Smith,3,35
58,Harry,Griffin,4,34
59,Callen,Bayliss,2,33
60,Thomas,Lee,9,31
61,Sihanna,Carter,5,31
62,Patrick,Harris,6,30
63,Eden,Haythorpe,7,30
64,Owen,Carney,3,26
65,Alicia,Crowley,2,24
66,Erin,Bradshaw,2,24
67,Sarah,Crowley,3,23
68,Alice,Griffin,3,22
69,Leo,Epps,7,21
70,Floyd,Cartner,1,20
71,Lewis,Lonsdale,1,18
72,Evie,Niblett,4,17
73,Mila,Hughes,3,10
74,Sophie,Schubert,1,9
75,Alannah,Ralph,2,9
76,Jayson,Carter,1,9
77,Charlotte,Schubert,1,8
78,Mitchell,Nurse,2,5
79,Mietta,Watchman,1,4
80,Lilah,Maddern,2,4
81,Miriam,Niblett,4,4
82,Harry,Cripps,1,0
83,Tim,Creer,1,0
84,Phoebe,Lonsdale,1,0
85,Tullie,Rowe,1,0
86,Tully,Cripps,1,0
87,Abbey,Cartner,1,0
88,Max,Rowe,1,0
89,Luke,Feuerherdt,1,0
90,Will,de Vries,1,0
91,Anna,de Vries,1,0
92,Lewis,McIntosh,1,0
93,Luella,Griffin,1,0
94,Hugh,Casey,1,0
95,Zarwa,Daneen,2,0
96,Julianna,Hicks,1,0
97,Suzie,Pedrotti,1,0
98,Jemma,Smith,2,0
99,Samuel,Nurse,1,0
100,Daniel,Smith,2,0
101,Cohen,Smith,1,0
102,Mel,Ralph,1,0
103,Jacob,Ralph,2,0
104,Eryn,McManus,1,0
105,Tanner,Fear,1,0
106,Samuel,Preston,1,0
107,Jemma,Carter,1,0
108,Liam,Carter,1,0
109,Elijah,Willits,1,0
