PLACE,FIRST,LAST,RACES,POINTS
1,Avery,McDermid,6,100
2,Mason,Beesley,8,96
3,William,Trew,6,90
4,Ebony,Beesley,10,86
5,Noah,Pedrotti,6,85
6,Jonty,McDermid,5,82
7,April,Wainwright,9,73
8,Archie,Clarke,5,70
9,Harry,Scott,6,67
10,Logan,Beesley,6,67
11,Emily,Harris,7,60
12,Braxton,Safstrom,8,59
13,James,Trew,3,55
14,Chase,Carter,6,43
15,Eiliyah,Daneen,9,39
16,Ruby,Carter,6,35
17,Sophie,Pedrotti,7,33
18,Jimmy,Byrne,5,33
19,Maison,Hooke,5,31
20,Joshua,Feuerherdt,2,28
21,Sarah,Crowley,3,27
22,Louis,Holmes,8,27
23,Lyra,Haythorpe,8,25
24,Callen,Bayliss,2,23
25,Erin,Bradshaw,2,22
26,Floyd,Cartner,1,20
27,Max,Rowe,1,20
28,Tim,Creer,1,19
29,Lewis,McIntosh,1,19
30,Luke,Feuerherdt,1,18
31,Hugh,Casey,1,18
32,Elijah,Willits,1,18
33,Alice,McIntosh,4,17
34,Alicia,Crowley,2,16
35,Tanner,Fear,1,16
36,Lewis,Lonsdale,1,15
37,Phoebe,Lonsdale,1,14
38,Jayson,Carter,1,14
39,Tullie,Rowe,1,13
40,Suzie,Pedrotti,1,13
41,Samuel,Preston,1,13
42,Abbey,Cartner,1,12
43,Will,de Vries,1,12
44,Sienna,Bayliss,4,12
45,Chloe,Beesley,6,12
46,Millie,McIntosh,3,11
47,Leni,Hughes,3,11
48,Julia,Starr,4,11
49,Tully,Cripps,1,10
50,Mitchell,Nurse,2,9
51,Eryn,McManus,1,9
52,Ronny,Epps,7,8
53,Cohen,Smith,1,7
54,Poppy,Wainwright,6,6
55,Patrick,Harris,6,6
56,Olivia,Douglas,2,5
57,Mietta,Watchman,1,4
58,Mikayla,Kirkby,10,4
59,Harry,Cripps,1,3
60,Casey,Smith,3,3
61,Tom,Roberts,3,3
62,Sihanna,Carter,5,3
63,Jemma,Carter,1,3
64,Polly,Byrne,8,3
65,Bonnie,Scott,6,2
66,Liam,Carter,1,2
67,Daniel,Smith,2,1
68,Ellie,Beesley,6,1
69,Leo,Stoltz,3,1
70,Anna,de Vries,1,0
71,Ruby,Douglas,2,0
72,Ivie,Safstrom,8,0
73,Mohid,Zaman,9,0
74,Luella,Griffin,1,0
75,Alice,Griffin,3,0
76,Harry,Griffin,4,0
77,Eleanor,Stoltz,7,0
78,Leo,Epps,7,0
79,Sophie,Schubert,1,0
80,Charlotte,Schubert,1,0
81,Will,Kirkby,9,0
82,Zarwa,Daneen,2,0
83,Lilah,Maddern,2,0
84,Ashton ,Chivers,4,0
85,Lily,Chivers,5,0
86,Grace,Chivers,5,0
87,Julianna,Hicks,1,0
88,Vinny,Holmes,7,0
89,Anna,Scott,6,0
90,Miles,Clarke,3,0
91,Jemma,Smith,2,0
92,Mila,Hughes,3,0
93,Samuel,Nurse,1,0
94,Joel,Van Rees,2,0
95,Sese,Van Rees,2,0
96,Owen,Carney,3,0
97,Grace,Carney,2,0
98,Cooper,Smith,3,0
99,Mel,Ralph,1,0
100,Alannah,Ralph,2,0
101,Jacob,Ralph,2,0
102,Thomas,Lee,9,0
103,Michelle,Scott,5,0
104,Miriam,Niblett,4,0
105,Evie,Niblett,4,0
106,Skylar,Beesley,10,0
107,Eden,Haythorpe,7,0
108,Jack,Haythorpe,8,0
109,Zahli,Bayliss,2,0
