place,first,last,net Time,diff
1,Damien,Bilsborrow,30:55,- 3:52
2,Paul,McMahon,27:10,- 1:36
3,Melissa,Douglas,38:21,- 0:52
4,Patrick,Hartney,28:03,- 0:50
5,Ben,McDermid,24:10,- 0:49
6,Tracy,Wilson,26:14,- 0:45
7,Justin,Lee,27:46,- 0:35
8,Leon,Hamond,26:35,- 0:30
9,Aaron,Anderson,28:09,- 0:25
10,Andrew,Buchanan,21:12,- 0:24
11,Steve,Brereton,25:34,- 0:22
12,Alan,Buchanan,28:06,- 0:15
13,Gavin,Fiedler,26:18,- 0:22
14,Chris,McCormack,25:39,- 0:17
15,Lee,McCullagh,22:22,- 0:18
16,Michael,Bieleny,24:04,- 0:17
17,Leeza,Meharry,29:08,- 0:10
18,Erica,Wilkinson,27:24,- 0:07
19,Scott,Roberts,31:55,- 0:01
20,Michael,Hogan,27:17,- 0:01
21,Shayne,Rushan,33:08,+ 0:02
22,David,Tarrant,24:59,+ 0:07
23,Alison,Cartner,29:20,+ 0:02
24,Brad,Russell,30:43,+ 0:03
25,Gaby,Walsh,32:55,+ 0:08
26,Angela,Slattery,33:37,+ 0:12
27,Ingrid,Douglass,28:25,+ 0:16
28,Jenny,Buchanan,31:10,+ 0:23
29,Jennifer,Jones,31:11,+ 0:24
30,Janet,Hodnett,30:32,+ 0:49
31,Jaclyn,Munge,29:07,+ 1:11
32,David,Ottrey,27:17,+ 1:21
33,Simon,Austin,25:10,+ 1:21
34,Brendan,Munge,26:12,+ 1:26
35,Shann,Anderson,35:49,+ 1:34
36,Madeleine,Evely,29:01,+ 1:37
37,Wayne,Forbes,34:43,+ 2:09