first,last,start,pace,est Time
Eric,Aardvark,00:00,8:0,8:00
Jack,Wright,00:00,7:55,7:55
Eloise,Arthur,00:20,7:42,7:42
Tara,Anderson,00:40,7:19,7:19
Maire,Coleman,00:50,7:15,7:15
Neve,Coleman,00:50,7:9,7:09
Connar,Pearson,01:00,6:57,6:57
Oscar,Terry,01:00,7:4,7:04
Ciaran,Nobel,01:10,6:52,6:52
Eliza,Christie,01:10,6:46,6:46
Aedan,Hamilton,01:30,6:33,6:33
Livinia,Douglass,01:30,6:26,6:26
Vincent,Weatherhead,01:30,6:27,6:27
Nicholas,Meharry,01:50,6:13,6:13
Imogen,Douglass,01:50,6:12,6:12
Nellie,Rose,02:00,6:3,6:03
Imogen,Thompson,02:10,5:50,5:50
Liam,Carroll,02:10,5:52,5:52
Tom,Coleman,02:10,5:46,5:46
James,Kealy,02:10,5:55,5:55
Madelaine,Hearn,02:20,5:41,5:41
Lucinda,Terry,02:20,5:40,5:40
Morgan,Dunn,02:20,5:44,5:44
Tanner,Nally,02:30,5:28,5:28
Beatrice,Lonsdale,02:30,5:29,5:29
Lachlan,Walsh,02:40,5:22,5:22
Zac,Walsh,02:50,5:11,5:11
Noah,Walsh,03:00,4:59,4:59
Rachael,Hamilton,03:00,5:5,5:05
Tara,Carroll,03:00,5:0,5:00
Floyd,Cartner,03:00,4:56,4:56
Dylan,Evans,03:00,5:3,5:03
Ava,Perez,03:10,4:54,4:54
Brayden,Roberts,03:10,4:49,4:49
Michaela,Meharry,03:20,4:36,4:36
Olivia,Houlden,03:20,4:40,4:40
Steffany,Roberts,03:20,4:36,4:36
Leila,Padgham,03:20,4:42,4:42
Bronte,Walsh,03:30,4:27,4:27
Harry,Wright,03:40,4:18,4:18
Jayden,Walsh,03:40,4:19,4:19
Blaze,Houlden,03:40,4:20,4:20
Luke,Padgham,04:00,3:57,3:57
Will,Hogan,04:10,3:52,3:52
Bailey,Evans,04:20,3:45,3:45