PLACE,FIRST,LAST,TIME,PACE,CLUB
1,Anne,Buckley,1:05:49.7,04:42.1,HARRIERS
2,Melissa,Douglas,1:14:39.8,05:20.0,UNI
3,Nadene,Macdonald,1:20:23.9,05:44.6,HARRIERS
4,Vicki,Lane,1:21:35.4,05:49.7,UNI
5,Janelle,Giffin,1:23:59.4,05:60.0,UNI
6,Leah,Cripps,1:27:29.2,06:14.9,UNI
7,Deanna,Marshall,1:31:01.3,06:30.1,OTHER
8,Sue,Taylor,1:31:01.9,06:30.1,UNI
