PLACE,FIRST,LAST,TIME,PACE,CLUB
1,Nigel,Preston,0:51:56.2,03:42.6,UNI
2,Chris,Giffin,1:03:00.6,04:30.0,UNI
3,David,Heislers,1:06:08.8,04:43.5,UNI
4,Garnet,Rodda,1:17:33.8,05:32.4,HARRIERS
5,Craig,Graham,1:19:39.2,05:41.4,EAGLEHAWK
6,Troy,Davis,1:26:58.5,06:12.8,UNI
