place,first,last,net Time,diff
1,Imogen,Thompson,18:28,- 0:32
2,Sophie,Shoebridge,18:46,- 0:14
3,Callum,Tucker,14:04,+ 1:10
4,Kath,O'Shea,20:59,+ 2:02
5,Tullie,Rowe,17:11,+ 3:32
6,Murray,Cordell,18:48,+ 3:42
7,David,Lonsdale,18:01,+ 4:04
8,Amber,Lyons,21:15,+ 4:00
9,Jack,Cripps,18:54,+ 4:36
10,Tom,Colman,22:35,+ 4:35
11,Micheala,Meharry,19:36,+ 4:39
12,Luke,Creer,22:11,+ 4:41
13,Kaidyn,Tucker,22:05,+ 5:20
14,Tim,Creer,21:56,+ 5:26
15,Darcy,Tucker,21:29,+ 5:32
16,Andrew,Creer,17:14,+ 6:02