PLACE,FIRST,LAST,TIME,PACE,CLUB
1,Rossi,Evans,1:04:26.8,04:36.2,HARRIERS
2,Todd,Foster,1:10:06.0,05:00.4,UNI
3,Ross,Douglas,1:16:45.8,05:29.0,UNI
4,Craig,Graham,1:25:15.5,06:05.4,EAGLEHAWK
5,George,Thomas,1:28:13.2,06:18.1,UNI
6,Kevin,de Vries,1:29:27.3,06:23.4,UNI
