place,first,last,start,pace,est Time
1,Eric,Aardvark,00:00,7:0,56:00
2,Scott,Alterater,00:00,4:11,33:28
3,Shann,Anderson,00:00,5:14,41:52
4,Aaron,Anderson,00:00,4:15,34:00
5,Simon,Austin,00:00,3:45,30:00
6,Michael,Bieleny,00:00,3:40,29:20
7,Andrew,Boshcetti,00:00,5:25,43:20
8,Brian,Brasher,00:00,5:12,41:36
9,Steve,Brereton,00:00,4:15,34:00
10,John,Brewin,00:00,5:7,40:56
11,Sam,Brewin,00:00,4:58,39:44
12,Ryan,Brook,00:00,4:20,34:40
13,Hayden,Brook,00:00,4:48,38:24
14,Jenny,Buchanan,00:00,4:36,36:48
15,Alan,Buchanan,00:00,4:18,34:24
16,Andrew,Buchanan,00:00,3:20,26:40
17,Emma,Burke,00:00,5:14,41:52
18,Alison,Cartner,00:00,4:41,37:28
19,Troy,Cartner,00:00,3:49,30:32
20,Charles,Chambers,00:00,4:0,32:00
21,Kylie,Cheal,00:00,5:21,42:48
22,Matt,Constable,00:00,4:52,38:56
23,Steve,Corrie,00:00,4:36,36:48
24,Andrew,Creer,00:00,3:58,31:44
25,Gary,Crouch,00:00,4:31,36:08
26,Conor,Cunningham,00:00,4:44,37:52
27,Owen,Davies,00:00,4:28,35:44
28,John,Doering,00:00,6:1,48:08
29,Ingrid,Douglass,00:00,4:30,36:00
30,Melissa,Douglass,00:00,5:39,45:12
31,Alan,East,00:00,6:2,48:16
32,Andrew,Evely,00:00,4:59,39:52
33,Maddy,Evely,00:00,4:35,36:40
34,Craig,Feuerherdt,00:00,3:59,31:52
35,Gavin,Fiedler,00:00,4:22,34:56
36,Jason,Fletcher,00:00,3:48,30:24
37,Wayne,Forbes,00:00,5:26,43:28
38,Liz,Foster,00:00,4:52,38:56
39,Todd,Foster,00:00,4:25,35:20
40,Richard,Gleisner,00:00,3:25,27:20
41,Tracie,Gleisner,00:00,6:0,48:00
42,Genevieve,Green,00:00,4:55,39:20
43,Luke,Gregory,00:00,3:56,31:28
44,Sheridan,Hail,00:00,5:27,43:36
45,Leon,Hamond,00:00,4:15,34:00
46,David,Heislers,00:00,4:29,35:52
47,Matthew,Heislers,00:00,4:9,33:12
48,Janet,Hodnett,00:00,4:50,38:40
49,Julie,Hogan,00:00,6:18,50:24
50,Michael,Hogan,00:00,4:19,34:32
51,Dan,Holland,00:00,4:45,38:00
52,Pam,Holland,00:00,7:0,56:00
53,Brett,Houlden,00:00,4:29,35:52
54,Josh,Hunter,00:00,4:14,33:52
55,Stacy,Hunter,00:00,5:15,42:00
56,Russell,Jenkins,00:00,3:52,30:56
57,Bryan,Keely,00:00,3:25,27:20
58,Patrick,Kenny,00:00,3:46,30:08
59,Georgie,Lanyon,00:00,4:18,34:24
60,Jennifer,Lee,00:00,4:53,39:04
61,Justin,Lee,00:00,4:34,36:32
62,Greg,McBain,00:00,4:28,35:44
63,Tina,McBain,00:00,4:49,38:32
64,Chris,McCormack,00:00,4:13,33:44
65,Lee,McCullagh,00:00,3:48,30:24
66,Alison,McCullagh,00:00,5:12,41:36
67,John,McCullagh,00:00,4:20,34:40
68,Ben,McDermid,00:00,3:49,30:32
69,Lisa,McDermid,00:00,5:42,45:36
70,Emma,Moylan,00:00,4:30,36:00
71,Ali,Musk,00:00,6:49,54:32
72,Peter,Noble,00:00,5:12,41:36
73,Justin,O'Brien,00:00,4:45,38:00
74,Scott,Padgham,00:00,4:51,38:48
75,Max,Pearse,00:00,4:15,34:00
76,Verity,Perez,00:00,6:15,50:00
77,Kevin,Perez,00:00,5:5,40:40
78,Julia,Perez,00:00,5:50,46:40
79,David,Perris,00:00,4:57,39:36
80,Jeff,Pethybridge,00:00,4:5,32:40
81,Catherine,Pethybridge,00:00,5:57,47:36
82,Maree,Platt,00:00,5:23,43:04
83,Roy,Preece,00:00,4:38,37:04
84,Brock,Prime,00:00,4:0,32:00
85,Holly,Randall,00:00,4:32,36:16
86,Maree,Reid,00:00,5:42,45:36
87,Laura,Reynolds,00:00,5:12,41:36
88,Marianne,Richardson,00:00,6:10,49:20
89,Nicole,Richardson,00:00,5:12,41:36
90,Scott,Roberts,00:00,5:0,40:00
91,Shayne,Rushan,00:00,4:47,38:16
92,Brad,Russell,00:00,4:58,39:44
93,Jim,Russell,00:00,3:57,31:36
94,Mark,Saxon,00:00,4:35,36:40
95,Jodie,Scoble,00:00,5:50,46:40
96,Jason,Sim,00:00,3:50,30:40
97,Maria,Slater,00:00,4:38,37:04
98,Angela,Slattery,00:00,5:17,42:16
99,Penny,Spencer,00:00,5:0,40:00
100,David,Tarrant,00:00,3:56,31:28
101,John,Taylor,00:00,5:49,46:32
102,Harry,Terry,00:00,5:26,43:28
103,Laura,Terry,00:00,4:58,39:44
104,Kim,Townrow,00:00,4:53,39:04
105,Russell,Tremayne,00:00,4:9,33:12
106,Jackie,Tremayne,00:00,5:4,40:32
107,Michael,Turner,00:00,6:0,48:00
108,Rebecca,Tweed,00:00,3:54,31:12
109,Daniel,Vains,00:00,4:12,33:36
110,Gabby,Walsh,00:00,5:25,43:20
111,Fraser,Walsh,00:00,3:55,31:20
112,Noah,Walsh,00:00,5:22,42:56
113,Frances,Walsh,00:00,5:21,42:48
114,Nick,Walsh,00:00,4:45,38:00
115,Natalie,Watson,00:00,6:12,49:36
116,Brian,Watson,00:00,3:56,31:28
117,Joanne,Weatherhead,00:00,5:45,46:00
118,Helen,WeeHee,00:00,5:16,42:08
119,Erica,Wilkinson,00:00,4:19,34:32
120,Tracy,Wilson,00:00,4:3,32:24