place,first,last,net Time,diff
1,Emerson,Sim,15:47,- 0:43
2,Amy,Sim,16:57,- 0:27
3,David,Lonsdale,14:26,- 0:16
4,Will,Gleisner,16:59,- 0:16
5,Melissa,Douglas,13:30,- 0:06
6,Will,Crane,14:51,- 0:09
7,Tara,Anderson,19:57,- 0:03
8,Andrew,Buchanan,09:14,- 0:01
9,Matthew,Saxon,13:56,+ 0:14
10,Phoebe,a'Beckett,15:59,+ 0:23
11,Callum,Tucker,12:53,+ 0:32
12,Adam,Fleming,10:35,+ 0:38
13,Tracie,Gleisner,15:05,+ 0:38
14,Will,McCaig,13:30,+ 0:36
15,Emily,Heislers,15:16,+ 0:46
16,Carrisa,Brook,14:11,+ 0:47
17,Harrison,Pitson,19:55,+ 1:55
18,Tullie,Rowe,15:25,+ 2:25
19,Kaidyn,Tucker,21:18,+ 5:42