place,first,last,club,net Time,pace
1,Kyall,Britten,STH,1:25:44,4:05
2,Ben,McDermid,UNI,1:26:56,4:08
3,Darren,Hartland,STH,1:31:04,4:20
4,Andrew,Meyers,STH,1:34:23,4:30
5,Damien,Hughes,INV,1:35:15,4:32
6,Jarrod,Draper,INV,1:37:08,4:38
7,Tim,Lovell,INV,1:44:57,5:00
8,Ryan,Brook,UNI,1:50:51,5:17
9,Justin,O'Brien,UNI,1:55:59,5:31