Place,First,Last,NET Time,Pace,Diff
1,Josephine,Robinson,0:19:41.1,05:47.4,-01:16.9
2,Shelley,Tuohey,0:16:08.0,04:44.7,-01:12.4
3,David,Howes,0:17:22.2,05:06.5,-01:13.0
4,Luke,Creer,0:20:28.7,06:01.4,-00:29.3
5,Lynley,McDonald,0:20:37.1,06:03.8,-00:20.9
6,Tim,Creer,0:15:28.1,04:33.0,-00:17.1
7,Tullie,Rowe,0:13:21.7,03:55.8,-00:14.3
8,Tyler,Wilkie,0:17:42.2,05:12.4,-00:12.2
9,Carrisa,Brook,0:15:14.0,04:28.8,-00:07.4
10,Melanie,Makris,0:19:38.2,05:46.5,-00:05.0
11,Melissa,Douglas,0:15:18.4,04:30.1,-00:06.4
12,Bridie,Blake-Burrows,0:13:30.6,03:58.4,+00:01.4
13,Wil,McCaig,0:13:04.3,03:50.7,-00:01.1
14,Stephen,Wainwright,0:16:13.2,04:46.2,+00:17.8
15,Phoebe,Lonsdale,0:16:06.0,04:44.1,+00:20.8
16,Nathan,Jones,0:18:08.7,05:20.2,+00:34.7
17,Max,Rowe,0:14:57.9,04:24.1,+00:44.5
18,Harry,Seaward,0:15:05.2,04:26.2,+01:05.4
19,Lachlan,Feuerherdt,0:16:31.3,04:51.6,+01:06.5
20,Zach,Condon,0:22:01.1,06:28.6,+01:54.1
21,Phoebe,Martin,0:20:06.0,05:54.7,+01:51.2
22,Lou,Bray,0:20:41.2,06:05.1,+01:59.2
23,Tully,Cripps,0:27:10.0,07:59.4,+03:01.6
24,Beatrice,Lonsdale,0:18:31.0,05:26.8,+03:13.0
25,Andrew,Creer,0:20:28.7,06:01.4,+08:17.7
NEW,Jack,Fry,0:14:21.2,04:13.3
NEW,Brodie,Coombs,0:15:39.9,04:36.4
NEW,Joshua,Condon,0:19:48.5,05:49.6
NEW,Ryan,Brook,0:17:27.5,05:08.1
NEW,Connor,Bedson,0:15:20.5,04:30.7
NEW,Abbey,Seaward,0:22:44.6,06:41.4
