Place,First,Last,NET Time,Pace,Diff
1,Spencer,Lavery,0:05:01.7,05:01.7,-00:33.3
2,Mitchell,Bray,0:05:33.1,05:33.1,-00:21.9
3,Lucy,McCaig,0:04:34.8,04:34.8,-00:25.2
4,Maddie,Bray,0:05:37.8,05:37.8,-00:18.2
5,Harry,Cripps,0:05:08.7,05:08.7,-00:14.3
6,Declan,Lavery,0:04:44.5,04:44.5,-00:06.5
7,William,Robinson,0:04:15.3,04:15.3,+00:00.3
8,Lacey,Wilkie,0:05:16.1,05:16.1,+00:00.1
9,Elliot,Lavery,0:05:26.7,05:26.7,-00:05.3
10,Joshua,Feuerherdt,0:04:36.9,04:36.9,-00:05.1
11,Luke,Feuerherdt,0:04:20.5,04:20.5,-00:04.5
12,Lachlan,Feuerherdt,0:04:05.1,04:05.1,+00:04.1
13,Abbey,Cartner,0:04:16.1,04:16.1,+00:08.1
14,Lewis,Lonsdale,0:04:20.1,04:20.1,+00:10.1
15,Jonty,McDermid,0:05:41.3,05:41.3,+00:07.3
16,Avery,McDermid,0:04:42.5,04:42.5,+00:09.5
17,Tadhg,Hughan,0:04:43.5,04:43.5,+00:10.5
18,Jesse,Brook,0:06:16.5,06:16.5,+00:17.5
19,Sean,Hughan,0:06:34.9,06:34.9,+00:29.9
20,Genevieve,Robinson,0:08:42.3,08:42.3,+00:43.3
21,Poppy,Wainwright,0:06:47.0,06:47.0,+00:48.0
22,Olivia,Douglas,0:06:11.2,06:11.2,+00:54.2
23,Geoffrey,Robinson,0:10:39.3,10:39.3,+05:57.3
NEW,Catherine,Fry,0:05:18.4,05:18.4
NEW,Catherine,Coombs,0:07:03.7,07:03.7
NEW,Coree,Fry,0:07:12.3,07:12.3
NEW,Georgia,Bray,0:07:49.4,07:49.4
NEW,Bryce,Coombs,0:08:15.4,08:15.4
NEW,Mia,Brook,0:09:17.5,09:17.5
