place,first,last,start,pace,est Time
1,Eric,Aardvark,00:00,7:0,56:00
2,Pam,Holland,00:00,7:0,56:00
3,Ali,Musk,01:30,6:49,54:32
4,Julie,Hogan,06:00,6:15,50:00
5,Verity,Perez,06:00,6:15,50:00
6,Natalie,Watson,06:20,6:12,49:36
7,Alan,East,06:40,6:10,49:20
8,Marianne,Richardson,06:40,6:10,49:20
9,John,Doering,07:50,6:1,48:08
10,Michael,Turner,08:00,6:0,48:00
11,Catherine,Pethybridge,08:20,5:57,47:36
12,Jodie,Scoble,09:20,5:50,46:40
13,Julia,Perez,09:20,5:50,46:40
14,Simone,Healy,09:20,5:50,46:40
15,John,Taylor,09:30,5:49,46:32
16,Joanne,Weatherhead,09:40,5:48,46:24
17,Maree,Reid,10:20,5:42,45:36
18,Tracie,Gleisner,10:20,5:42,45:36
19,Biljana,Ansted,10:40,5:40,45:20
20,Lisa,McDermid,11:00,5:37,44:56
21,Sheridan,Hail,12:20,5:27,43:36
22,Wayne,Forbes,12:30,5:26,43:28
23,Harry,Terry,12:30,5:26,43:28
24,Andrew,Boshcetti,12:40,5:25,43:20
25,Gabby,Walsh,12:40,5:25,43:20
26,Maree,Platt,12:40,5:25,43:20
27,Kylie,Buchanan,12:50,5:24,43:12
28,Noah,Walsh,13:00,5:22,42:56
29,Frances,Walsh,13:10,5:21,42:48
30,Melissa,Douglass,13:20,5:20,42:40
31,Angela,Slattery,13:30,5:19,42:32
32,Shann,Anderson,13:50,5:16,42:08
33,Helen,WeeHee,13:50,5:16,42:08
34,Emma,Burke,14:10,5:14,41:52
35,Brian,Brasher,14:20,5:12,41:36
36,Alison,McCullagh,14:20,5:12,41:36
37,Peter,Noble,14:20,5:12,41:36
38,Nicole,Richardson,14:20,5:12,41:36
39,Stacy,Hunter,14:30,5:11,41:28
40,Kylie,Cheal,15:00,5:7,40:56
41,Jarrah,O'Shea,15:00,5:7,40:56
42,John,Brewin,15:20,5:5,40:40
43,Kevin,Perez,15:20,5:5,40:40
44,Jackie,Tremayne,15:50,5:1,40:08
45,Scott,Roberts,16:00,5:0,40:00
46,Laura,Terry,16:00,5:0,40:00
47,Penny,Spencer,16:00,5:0,40:00
48,Andrew,Evely,16:10,4:59,39:52
49,David,Perris,16:20,4:57,39:36
50,Brad,Russell,16:20,4:58,39:44
51,Sam,Brewin,16:20,4:58,39:44
52,Genevieve,Green,16:40,4:55,39:20
53,Jaclyn,Munge,16:50,4:54,39:12
54,Matt,Constable,17:00,4:52,38:56
55,Liz,Foster,17:00,4:52,38:56
56,Jennifer,Lee,17:00,4:53,39:04
57,Kim,Townrow,17:00,4:53,39:04
58,Scott,Padgham,17:10,4:51,38:48
59,Janet,Hodnett,17:20,4:50,38:40
60,Tina,McBain,17:30,4:49,38:32
61,Hayden,Brook,17:40,4:48,38:24
62,Conor,Cunningham,17:40,4:48,38:24
63,Laura,Reynolds,17:40,4:47,38:16
64,Justin,O'Brien,17:50,4:46,38:08
65,Shayne,Rushan,18:00,4:45,38:00
66,Nick,Walsh,18:00,4:45,38:00
67,Dan,Holland,18:00,4:45,38:00
68,Alison,Cartner,18:10,4:44,37:52
69,Justin,Lee,18:40,4:40,37:20
70,Roy,Preece,19:00,4:38,37:04
71,Maria,Slater,19:00,4:38,37:04
72,Jenny,Buchanan,19:10,4:36,36:48
73,Steve,Corrie,19:10,4:36,36:48
74,Lisa,Wilkinson,19:10,4:36,36:48
75,Mark,Saxon,19:20,4:35,36:40
76,Maddy,Evely,19:20,4:35,36:40
77,Gary,Crouch,19:30,4:34,36:32
78,Ingrid,Douglass,19:40,4:33,36:24
79,Holly,Randall,19:40,4:32,36:16
80,Brett,Houlden,19:50,4:31,36:08
81,Owen,Davies,20:00,4:30,36:00
82,David,Heislers,20:00,4:30,36:00
83,Emma,Moylan,20:00,4:30,36:00
84,Greg,McBain,20:20,4:28,35:44
85,Todd,Foster,20:40,4:25,35:20
86,Michael,Hogan,21:00,4:23,35:04
87,Alan,Buchanan,21:20,4:20,34:40
88,John,McCullagh,21:20,4:20,34:40
89,Erica,Wilkinson,21:20,4:20,34:40
90,Ryan,Brook,21:30,4:19,34:32
91,Georgie,Lanyon,21:30,4:19,34:32
92,Aaron,Anderson,21:40,4:17,34:16
93,Gavin,Fiedler,21:40,4:18,34:24
94,Steve,Brereton,22:00,4:15,34:00
95,Leon,Hamond,22:00,4:15,34:00
96,Max,Pearse,22:00,4:15,34:00
97,Josh,Hunter,22:10,4:14,33:52
98,Michael,Gibbon,22:10,4:14,33:52
99,Chris,McCormack,22:20,4:13,33:44
100,Daniel,Vains,22:20,4:12,33:36
101,Scott,Alterater,22:30,4:11,33:28
102,Russell,Tremayne,22:50,4:9,33:12
103,Matthew,Heislers,22:50,4:9,33:12
104,Jeff,Pethybridge,23:00,4:7,32:56
105,Tracy,Wilson,23:20,4:5,32:40
106,Andrew,Creer,23:50,4:1,32:08
107,Brock,Prime,24:00,4:0,32:00
108,Charles,Chambers,24:00,4:0,32:00
109,Brian,Watson,24:10,3:59,31:52
110,Craig,Feuerherdt,24:20,3:57,31:36
111,Jim,Russell,24:20,3:57,31:36
112,Luke,Gregory,24:30,3:56,31:28
113,David,Tarrant,24:30,3:56,31:28
114,Rebecca,Tweed,24:30,3:56,31:28
115,Russell,Jenkins,25:00,3:52,30:56
116,Jason,Fletcher,25:20,3:50,30:40
117,Jason,Sim,25:20,3:50,30:40
118,Ben,McDermid,25:30,3:49,30:32
119,Troy,Cartner,25:30,3:49,30:32
120,Lee,McCullagh,25:40,3:48,30:24
121,Patrick,Kenny,25:50,3:46,30:08
122,Simon,Austin,26:00,3:45,30:00
123,Michael,Bieleny,26:30,3:41,29:28
124,Fraser,Walsh,28:00,3:30,28:00
125,Richard,Gleisner,28:20,3:27,27:36
126,Bryan,Keely,28:40,3:25,27:20
127,Andrew,Buchanan,29:00,3:22,26:56