place,first,last,net Time,diff
1,Toby,McCaig,04:48,- 0:42
2,Ella,Meharry,06:31,- 0:29
3,Jack,Meharry,05:31,- 0:14
4,Anna,deVries,07:01,+ 0:01
5,Cooper,Charnas,05:05,+ 0:08
6,Billy,Meade,04:48,+ 0:03
7,Will,Gleisner,05:43,+ 0:13
8,Abbey,Cartner,04:59,+ 0:14
9,Avery,McDermid,06:01,+ 0:16
10,Lachlan,Feuerherdt,05:02,+ 0:26
11,Lewis,Lonsdale,05:04,+ 0:20
12,Luke,Feuerherdt,05:20,+ 0:25
13,Will,deVries,07:31,+ 0:31
14,Kane,Charnas,07:59,+ 1:01
15,Amelia,Charnas,08:00,+ 1:05
16,Jack,Gleisner,06:46,+ 1:14
17,Will,Smith,06:58,+ 1:13
18,Jesse,Brook,08:50,+ 1:40
19,Joshua,Feuerherdt,07:27,+ 1:42
20,Lucy,McCaig,07:47,+ 2:02
21,Paige,a'Beckett,08:40,+ 2:59