place,first,last,net Time,diff
1,Imogen,Douglass,5:52,- 0:28
2,Nellie,Rose,6:04,- 0:26
3,Tara,Anderson,7:03,- 0:09
4,Eliza,Christie,6:17,+ 0:05
5,Brayden,Roberts,4:38,+ 0:08
6,Bailey,Evans,3:42,+ 0:12
7,Morgan,Dunn,5:53,+ 0:17
8,Stephanie,Roberts,4:27,+ 0:17
9,Dylan,Evans,5:00,+ 0:30
10,Imogen,Thompson,6:12,+ 0:42
11,Tara,Carroll,5:15,+ 0:45