place,first,last,net Time,diff
1,Jarrod,Draper,43:31,- 1:29
2,Charles,Chambers,39:05,- 0:35
3,Lee,McCullagh,36:17,- 0:23
4,Natalie,Watson,57:05,- 0:15
5,Michael,Bieleny,36:28,- 0:12
6,Jenny,Buchanan,47:31,- 0:09
7,Ingrid,Douglass,45:27,- 0:03
8,Rebecca,Tweed,40:54,+ 0:04
9,Gavin,Fiedler,45:08,+ 0:08
10,Andrew,Creer,39:42,+ 0:12
11,Keith,Cassilles-Southgate,39:38,+ 0:48
12,Justin,Lee,47:16,+ 0:56
13,Alison,Cartner,47:57,+ 1:07
14,Tina,McBain,49:30,+ 1:10
15,Chris,McCormack,40:33,+ 1:13
16,Nicole,Richardson,51:26,+ 1:16
17,Mark,Saxon,45:46,+ 1:26
18,Ben,McDermid,41:03,+ 1:33
19,Andrew,Hosking,40:08,+ 1:38
20,Alan,East,06:23,+ 1:43
21,Travis,Kelly,44:55,+ 1:55
22,Greg,McBain,45:38,+ 1:58
23,Laura,Terry,52:36,+ 2:06
24,Genevieve,Green,49:01,+ 2:11
25,Ryan,Brook,46:34,+ 2:34
26,Russell,Jenkins,45:39,+ 2:39
27,Leeza,Meharry,50:47,+ 3:17
28,Frances,Walsh,57:09,+ 3:29