place,first,last,net Time,diff
1,Paul,Buncle,30:40,- 4:20
2,Melissa,Douglas,23:51,- 4:14
3,Fraser,Lourie,27:17,- 3:58
4,Stacey,Lonsdale,28:51,- 3:39
5,Jarrah,O'Shea,21:44,- 3:41
6,Briana,Cowan,29:08,- 3:22
7,Maree,Reid,26:03,- 2:47
8,Millie,Lourie,28:44,- 2:31
9,Chris,McCormack,18:56,- 2:09
10,Matthew,Creer,22:59,- 2:01
11,Leeza,Meharry,23:05,- 1:55
12,Michelle,Bieleny,30:39,- 1:51
13,Melissa,Wilkie,28:12,- 1:48
14,Carol,Sing,28:13,- 1:47
15,Genevieve,Green,23:35,- 1:45
16,Charles,Chambers,18:16,- 1:49
17,Maddy,Evely,22:17,- 1:18
18,David,Heislers,22:40,- 1:10
19,Andrew,Hosking,18:53,- 1:07
20,Julie,Everly,31:24,- 1:06
21,Maree,Platt,26:39,- 1:06
22,Richard,Gleisner,16:31,- 0:59
23,Justin,Lee,22:14,- 1:01
24,Ryan,Brook,20:45,- 1:00
25,Leon,Keely,17:47,- 0:58
26,Shayne,Rushan,23:45,- 0:45
27,Tracy,Wilson,19:36,- 0:49
28,Alison,Cartner,22:48,- 0:47
29,Bryan,Keely,17:01,- 0:39
30,Troy,Davis,26:52,- 0:38
31,Rick,Jackel,21:56,- 0:34
32,Jeff,Pethybridge,20:00,- 0:30
33,Aaron,Anderson,21:00,- 0:35
34,Michael,Bieleny,17:55,- 0:30
35,Natalie,Watson,28:24,- 0:21
36,Michael,Turner,30:18,- 0:17
37,Jason,Fletcher,19:15,- 0:10
38,Ingrid,Douglass,22:27,- 0:08
39,Catherine,Pethybridge,29:42,- 0:03
40,John,Doering,30:14,+ 0:04
41,Conor,Cunningham,23:56,+ 0:01
42,Craig,Feuerherdt,19:59,+ 0:09
43,Georgie,Lanyon,21:33,+ 0:08
44,Andrew,Buchanan,17:06,+ 0:11
45,Angela,Slattery,26:57,+ 0:17
46,Laura,Terry,26:08,+ 0:38
47,Rebecca,Tweed,20:37,+ 0:57
48,Justin,O'Brien,25:59,+ 1:59
49,Brad,Russell,27:33,+ 1:58
50,Callum,Tucker,28:03,+ 3:03
51,Lisa,McDermid,31:49,+ 3:19
52,Megan,McDonald,32:01,+ 3:16
53,Gavin,Fiedler,25:15,+ 3:25
54,Janet,Hodnett,30:00,+ 5:20
55,Matthew,Heislers,26:23,+ 5:23