place,first,last,net Time,diff
1,Alan,East,43:02,- 2:02
2,Wayne,Forbes,34:32,- 1:49
3,David,Heislers,32:50,- 1:47
4,Gary,Crouch,30:06,- 1:44
5,Liz,Foster,34:32,- 1:28
6,Jodie,Scoble,36:23,- 1:29
7,Stewart,Scoble,29:14,- 1:33
8,John,Rose,29:38,- 1:30
9,Leon,Hamond,28:33,- 1:25
10,Wolf,Heiden,28:48,- 1:17
11,Jan,Densley,30:00,- 1:15
12,Alison,Cartner,32:10,- 1:03
13,Michael,Bieleny,25:00,- 0:54
14,John,Brewin,33:37,- 0:46
15,Andrew,Buchanan,24:09,- 0:42
16,Brad,Russell,33:23,- 0:46
17,Ben,McDermid,27:17,- 0:36
18,Harry,Terry,39:30,- 0:34
19,Greg,McBain,30:14,- 0:33
20,Jenny,Buchanan,32:12,- 0:19
21,Ingrid,Douglass,31:10,- 0:12
22,Jeff,Pethybridge,28:50,- 0:05
23,Justin,Lee,30:42,- 0:05
24,Gavin,Fiedler,30:26,+ 0:07
25,Gaby,Walsh,37:30,+ 0:20
26,Jennifer,Jones,33:36,+ 0:30
27,Shayne,Rushan,40:32,+ 0:42
28,John,Doering,40:23,+ 0:54
29,Mark,Nicholson,35:45,+ 1:15
30,Tracy,Wilson,29:45,+ 1:59