member,first,last,start,pace,est Time
144,Tiffany,McCullough,00:00,8:0,24:00
142,Olivia,Kealy,00:20,7:53,23:39
222,Virginia,Grills-Marsily,01:20,7:35,22:45
235,Aoife,Cunningham,01:20,7:35,22:45
204,Cain,Charnas,01:30,7:30,22:30
205,Amelia,Charnas,01:30,7:30,22:30
207,Lewis,Kallour,03:00,7:0,21:00
196,Kathryne,Charnas,03:00,6:59,20:57
206,Elisa,Christie,03:20,6:55,20:45
177,Ella,Fisher,03:30,6:50,20:30
155,Katie,Dean,03:40,6:47,20:21
179,Imogen,Douglas,03:40,6:47,20:21
148,Matisse,Grills-Marsily,03:50,6:45,20:15
135,Ruby,Fletcher,04:00,6:40,20:00
134,Collette,Fletcher,04:10,6:37,19:51
136,Kath,O'Shea,04:10,6:36,19:48
106,Suellen,Bambrick,04:20,6:35,19:45
146,David,Ashman,04:30,6:30,19:30
209,Olivia,Douglas,04:30,6:30,19:30
181,Tom,Coleman,04:50,6:25,19:15
152,Karina,Bray,04:50,6:24,19:12
159,Renelle,McManus,04:50,6:23,19:09
186,Nellie,Rose,04:50,6:22,19:06
141,Eliza,O'Sullivan,05:00,6:19,18:57
175,Livinia,Douglas,05:10,6:18,18:54
21,Michelle,Bieleny,05:20,6:14,18:42
158,Amber,Lyons,05:20,6:14,18:42
165,Sophie,Shoebridge,05:20,6:13,18:39
208,Houston,Pearse,05:20,6:13,18:39
300,Lucinda,Terry,05:30,6:10,18:30
162,Layla,Day,05:40,6:6,18:18
174,Charlie,Lourie,05:50,6:3,18:09
211,Jesse,Brook,06:00,6:0,18:00
223,Jack,Meharry,06:00,6:0,18:00
229,Harrison,Pitson,06:00,6:0,18:00
166,Jayden,Padgham,06:00,5:59,17:57
171,Oliver,Sanderson,06:10,5:29,17:51
163,Samara,Finch,06:10,5:56,17:48
178,Millie,Lourie,06:20,5:54,17:42
101,Paula,Saxon,06:30,5:50,17:30
105,Toby,McCaig,06:30,5:50,17:30
195,Luke,Creer,06:30,5:50,17:30
210,Fiona,Dangerfield,06:30,5:50,17:30
214,Amy,Sim,06:40,5:48,17:24
150,Rebecca,Ashman,06:40,5:46,17:18
249,Will,Gleisner,06:50,5:45,17:15
270,Tyler,Wilkie,06:50,5:45,17:15
147,Lachlan,Feuerherdt,06:50,5:43,17:09
161,Henry,Cordell,06:50,5:43,17:09
173,Melanie,Cuzzillo,07:00,5:40,17:00
187,Nicole,Kelly,07:00,5:40,17:00
89,Natalie,Watson,07:00,5:39,16:57
139,Leila,Padgham,07:10,5:38,16:54
197,Lewis,Fisher,07:20,5:32,16:36
138,Danni,Padgham,07:30,5:31,16:33
170,Abbey,Saxon,07:30,5:31,16:33
35,Conor,Cunningham,07:30,5:30,16:30
215,Emerson,Sim,07:30,5:30,16:30
230,McKinley,Grills-Marsily,07:30,5:30,16:30
190,Micheala,Meharry,07:30,5:29,16:27
191,Phoebe,Lonsdale,07:30,5:29,16:27
200,Jack,Cripps,07:30,5:29,16:27
185,Morgan,Dunn,07:40,5:26,16:18
277,Luke,Feuerherdt,07:40,5:26,16:18
99,Oscar,Terry,07:50,5:25,16:15
269,Cooper,Charnas,07:50,5:25,16:15
180,Ella,Finch,07:50,5:24,16:12
188,Darcy,Tucker,07:50,5:23,16:09
1,Ashlee,Bull,07:50,5:22,16:06
182,Hanna,Crane,08:00,5:21,16:03
228,Sam,Pitson,08:00,5:20,16:00
154,Andrew,Dean,08:10,5:18,15:54
183,Murray,Cordell,08:20,5:15,15:45
164,Imogen,Thompson,08:20,5:12,15:36
176,Kaidyn,Tucker,08:20,5:12,15:36
213,Phoebe,a'Beckett,08:20,5:12,15:36
153,Amy,Dean,08:30,5:11,15:33
149,Tom,Meharry,08:50,5:5,15:15
157,Sayyu,Hamond,09:00,5:0,15:00
184,Will,Crane,09:00,5:0,15:00
189,Tim,Creer,09:00,4:59,14:57
172,Bailey,Dunn,09:20,4:54,14:42
194,David,Lonsdale,09:20,4:52,14:36
22,Ross,Douglas,09:30,4:50,14:30
77,Brad,Russell,09:30,4:50,14:30
193,Emily,Heislers,09:30,4:50,14:30
132,Tracie,Gleisner,09:30,4:49,14:27
169,Floyd,Cartner,09:30,4:49,14:27
151,Bella,Livingston,09:50,4:43,14:09
227,Joseph,Glanville,10:00,4:40,14:00
201,Beatrice,Lonsdale,10:10,4:38,13:54
275,Max,Rowe,10:10,4:38,13:54
160,Sebastian,Rowe,10:10,4:37,13:51
168,Zedekiah,Marshall,10:20,4:34,13:42
198,Matthew,Saxon,10:20,4:34,13:42
39,Melissa,Douglas,10:20,4:32,13:36
156,Miles,Livingston,10:30,4:30,13:30
131,Carrisa,Brook,10:40,4:28,13:24
212,Miles,Livingston,10:40,4:28,13:24
114,Bridie,Blake-Burrows,11:00,4:20,13:00
192,Nicholas,Ashman,11:00,4:20,13:00
203,Tullie,Rowe,11:00,4:20,13:00
133,Bweku,Hamond,11:10,4:18,12:54
219,Will,McCaig,11:10,4:18,12:54
140,Luke,Padgham,11:30,4:9,12:27
218,Noah,Walsh,11:30,4:9,12:27
202,Callum,Tucker,11:40,4:7,12:21
224,Cooper,Hale,11:40,4:6,12:18
145,Leon,Hamond,11:50,4:3,12:09
216,Ava,Terry,12:00,4:0,12:00
217,Freya,Berenyl,12:00,4:0,12:00
220,Ella,Meharry,12:00,4:0,12:00
137,Anton,Paholek,12:10,3:57,11:51
19,Troy,Cartner,12:10,3:56,11:48
167,Jack,Meade,12:10,3:56,11:48
42,Craig,Feuerherdt,12:30,3:50,11:30
143,Maxine,Paholek,12:30,3:50,11:30
33,Andrew,Creer,13:00,3:40,11:00
221,Billy,Meade,13:30,3:30,10:30
46,Richard,Gleisner,14:00,3:20,10:00
97,Adam,Fleming,14:00,3:19,09:57