Place,Member,First,Last,Start,Pace,Est Time
1,3705,Sienna,Bayliss,00:00,08:00,0:08:00.0
2,379,Quinn,Holmes,00:40,07:22,0:07:22.0
3,382,Genevieve,Robinson,00:40,07:20,0:07:20.0
4,3727,Samuel,Preston,00:50,07:09,0:07:09.0
5,3708,Janine,Butcher,01:10,06:51,0:06:51.0
6,390,Ruby,Douglas,01:40,06:25,0:06:25.0
7,335,Lenny,Hancock,01:40,06:15,0:06:15.0
8,154,Sean,Hughan,01:40,06:15,0:06:15.0
9,211,Jesse,Brook,02:00,06:03,0:06:03.0
10,348,Tazma,Ferrie,02:00,06:02,0:06:02.0
11,234,Finn,Cunningham,02:00,05:58,0:05:58.0
12,326,Sachin,Cody,02:10,05:50,0:05:50.0
13,355,Millie,McIntosh,02:10,05:47,0:05:47.0
14,372,Belle,Howes,02:10,05:47,0:05:47.0
15,381,April,Wainwright,02:20,05:44,0:05:44.0
16,178,Annabel,Hancock,02:20,05:43,0:05:43.0
17,3704,Callen,Bayliss,02:20,05:42,0:05:42.0
18,216,Ava,Terry,02:20,05:41,0:05:41.0
19,123,Michael,Terry,02:20,05:39,0:05:39.0
20,3716,Gus,Edwards,02:20,05:38,0:05:38.0
21,250,Tully,Cripps,02:20,05:35,0:05:35.0
22,28,Mitchell,Bray,02:20,05:35,0:05:35.0
23,345,Jordan,Baker,02:30,05:33,0:05:33.0
24,324,Quinlan,Cody,02:30,05:32,0:05:32.0
25,271,Will,Smith,02:30,05:29,0:05:29.0
26,246,Poppy,Wainwright,02:40,05:25,0:05:25.0
27,255,Dylan,Sim,02:40,05:24,0:05:24.0
28,209,Olivia,Douglas,02:40,05:21,0:05:21.0
29,284,Imogen,Stewart,02:40,05:20,0:05:20.0
30,298,Elliot,Lavery,02:40,05:18,0:05:18.0
31,260,Thomas,Henderson,02:40,05:18,0:05:18.0
32,44,Geoffrey,Robinson,02:40,05:15,0:05:15.0
33,368,Eden,Howes,02:40,05:15,0:05:15.0
34,245,Lacey,Wilkie,02:50,05:12,0:05:12.0
35,258,Ivy,Bray,02:50,05:10,0:05:10.0
36,3711,Eryn,McManus,03:00,05:05,0:05:05.0
37,358,Lewis,McIntosh,03:00,05:04,0:05:04.0
38,3709,Scott,Butcher,03:00,05:00,0:05:00.0
39,50,Harry,Cripps,03:00,04:59,0:04:59.0
40,282,Anna,deVries,03:00,04:56,0:04:56.0
41,305,Jonty,McDermid,03:10,04:54,0:04:54.0
42,293,Spencer,Lavery,03:10,04:51,0:04:51.0
43,391,Sebastian,Boromeo,03:10,04:49,0:04:49.0
44,267,Kayla,McManus,03:10,04:48,0:04:48.0
45,283,Lily,Sanderson,03:10,04:46,0:04:46.0
46,297,Declan,Lavery,03:20,04:44,0:04:44.0
47,276,Joshua,Feuerherdt,03:20,04:37,0:04:37.0
48,174,Sam,Hancock,03:20,04:36,0:04:36.0
49,281,Will,deVries,03:20,04:35,0:04:35.0
50,153,Tadhg,Hughan,03:30,04:33,0:04:33.0
51,99,Oscar,Terry,03:30,04:32,0:04:32.0
52,3706,Ebony,Butcher,03:30,04:32,0:04:32.0
53,360,Phoebe,Martin,03:30,04:27,0:04:27.0
54,319,Nikolas,Makris,03:40,04:20,0:04:20.0
55,252,Jasmine,Murphy,03:40,04:18,0:04:18.0
56,274,Avery,McDermid,03:40,04:17,0:04:17.0
57,277,Luke,Feuerherdt,03:40,04:16,0:04:16.0
58,272,Abbey,Cartner,03:50,04:13,0:04:13.0
59,279,Lucy,McCaig,03:50,04:11,0:04:11.0
60,337,Steff,Roberts,03:50,04:09,0:04:09.0
61,189,Tim,Creer,04:00,04:03,0:04:03.0
62,266,Lewis,Lonsdale,04:00,04:01,0:04:01.0
63,191,Phoebe,Lonsdale,04:00,04:00,0:04:00.0
64,147,Lachlan,Feuerherdt,04:00,03:59,0:03:59.0
65,131,Carrisa,Brook,04:00,03:55,0:03:55.0
66,254,William,Robinson,04:00,03:55,0:03:55.0
