PLACE,FIRST,LAST,RACES,POINTS
1,April,Wainwright,4,110
2,Genevieve,Robinson,4,97
3,Lewis,Lonsdale,4,95
4,William,Robinson,4,92
5,Harry,Cripps,4,82
6,Jonty,McDermid,4,82
7,Avery,McDermid,4,73
8,Joshua,Feuerherdt,3,69
9,Luke,Feuerherdt,3,65
10,Will,deVries,3,65
11,Geoffrey,Robinson,3,63
12,Tully,Cripps,4,62
13,Olivia,Douglas,4,60
14,Elliot,Lavery,2,55
15,Jasmine,Murphy,3,52
16,Lucy,McCaig,2,50
17,Poppy,Wainwright,3,46
18,Ruby,Douglas,4,43
19,Lacey,Wilkie,2,43
20,Sam,Hancock,1,40
21,Phoebe,Martin,1,35
22,Kayla,McManus,2,35
23,Annabel,Hancock,2,33
24,Belle,Howes,1,25
25,Samuel,Preston,2,23
26,Ivy,Bray,2,21
27,Phoebe,Lonsdale,1,20
28,Eden,Howes,1,15
29,Declan,Lavery,1,14
30,Callen,Bayliss,2,14
31,Lenny,Hancock,1,13
32,Janine,Butcher,1,0
33,Sienna,Bayliss,1,0
34,Charli,Green,1,0
35,Craig,Feuerherdt,1,0
36,Dylan,Sim,1,0
37,Finn,Cunningham,1,0
38,Ebony,Butcher,1,0
39,Gus,Edwards,1,0
40,Eryn,McManus,1,0
41,Kim,Carter,1,0
42,Liam,Carter,1,0
43,Scott,Butcher,1,0
44,Ebony,Woodward,1,0
45,Sebastian,Stewart,1,0
46,Skylar,Woodward,1,0
47,Mason,Woodward,1,0
48,Anna,deVries,1,0
49,Jemma,Carter,1,0
50,Lachlan,Edwards,1,0
