PLACE,FIRST,LAST,RACES,POINTS
1,Ben,McDermid,4,178
2,Chris,Giffin,4,169
3,Michael,Bieleny,3,134
4,Sarah,Jalim,4,133
5,Tim,Lauder,3,127
6,Josephine,Robinson,4,126
7,David,Lonsdale,4,122
8,Shayne,Rushan,4,120
9,Alison,Cartner,4,119
10,Craig,Green,3,117
11,Ross,Douglas,4,105
12,Darren,Rowe,3,105
13,David,Cripps,3,104
14,Stephen,Wainwright,4,104
15,Alan,Buchanan,3,101
16,Tim,Lovell,3,100
17,Paul,Lomax,4,99
18,Kevin,deVries,2,98
19,Sue,Taylor,3,96
20,Angus,McPherson,3,95
21,David,Heislers,3,94
22,Justin,Lee,3,88
23,Simon,Hunt,3,86
24,Rik,McCaig,2,84
25,Frances,Walsh,3,84
26,Karl,Lanyon,2,80
27,Andrea,Smith,3,80
28,Maree,Platt,3,75
29,Beth,Lavery,3,74
30,Lauren,Hancock,2,71
31,Melissa,Wilkie,2,70
32,Andrew,Creer,2,69
33,Clare,Montgomery,3,67
34,Philip,Shambrook,2,62
35,Brian,Watson,1,60
36,Charles,Chambers,2,59
37,Rebecca,Wilkinson,2,58
38,Georgie,Lanyon,2,54
39,Troy,Davis,2,54
40,Jenny,Buchanan,2,52
41,Greg,Carter,2,50
42,Trinity,Sanderson,2,49
43,Justin,O'Brien,2,46
44,Vicki,Bayliss,2,45
45,Fraser,Walsh,2,43
46,Nigel,Preston,2,41
47,Travis,Edwards,2,40
48,Darren,Hartland,2,39
49,James,Toomey,2,39
50,Andrew,Wilkie,1,36
51,Leah,Cripps,1,26
52,Jon,McIntosh,1,23
53,Alan,East,1,22
54,Gavin,Fiedler,1,21
55,Danny,Burgess,1,21
56,Taylor,Lovell,2,19
57,Mark,Logan,1,0
58,Conor,Cunningham,1,0
59,Ashlee,Diston,1,0
60,David,Howes,1,0
61,Jay,Sanderson,1,0
62,Finn,MacGregor,1,0
63,Matthew,Creer,1,0
64,Emma,Gibbons,1,0
65,Stephen,Van Rees,1,0
66,Chloe,Green,1,0
67,Lukas,Jara,1,0
