Place,First,Last,NET Time,Pace,Diff
1,Michael,Hogan,0:54:33.8,04:57,-04:19.0
2,Dean,Trew,0:57:55.2,05:15,-00:24.5
3,Russell,Easton,0:54:00.9,04:54,-00:04.9
4,Jon,McIntosh,0:55:19.4,05:01,+00:07.4
5,David,Lonsdale,0:48:06.3,04:21,+00:15.9
6,Steven,Field,0:43:25.9,03:56,+00:22.5
7,Brett,Dobbin,0:54:20.2,04:55,+00:25.5
8,Rebecca,Kirkby,0:47:25.0,04:18,+00:29.8
9,Kelvin,Niblett,0:53:30.6,04:51,+01:04.2
10,Ben,McDermid,0:57:06.6,05:10,+01:21.5
11,Jayson,Carter,0:48:44.3,04:25,+01:27.0
12,Lisa,Wilkinson,0:55:42.5,05:03,+01:36.7
13,Mitch,Fitzgerald,0:47:08.4,04:16,+01:41.5
14,James,Harper,0:49:11.6,04:27,+01:54.3
15,Peter,Compston,0:59:29.6,05:23,+02:27.2
16,James,Trew,0:45:17.6,04:06,+02:47.4
17,Andrea,Smith,0:59:37.3,05:24,+02:57.0
18,Anne,McIntosh,0:56:32.1,05:07,+03:10.5
19,Janet,Hodnett,1:05:56.1,05:58,+03:22.5
20,Benjamin ,Ward,0:50:38.0,04:35,+04:04.9
21,Ross,Douglas,1:04:11.6,05:49,+04:23.6
22,Damien,Roberts,1:05:06.0,05:54,+06:13.2
23,Craig,Green,0:56:29.9,05:07,+09:12.6
24,Alison,Cartner,1:08:43.5,06:14,+14:15.7
NEW,Millie,McIntosh,0:59:11.7,05:22
NEW,Daniel,Compston,0:59:13.6,05:22
