PLACE,FIRST,LAST,RACES,POINTS
1,April,Wainwright,13,249
2,Jonty,McDermid,13,233
3,Mason,Woodward,15,221
4,Avery,McDermid,13,218
5,Ebony,Woodward,15,211
6,Ruby,Douglas,13,206
7,Joshua,Feuerherdt,11,206
8,Luke,Feuerherdt,11,196
9,Braxton,Safstrom,10,193
10,Lewis,Lonsdale,11,171
11,Logan,Beesley,8,169
12,Skylar,Woodward,15,167
13,Tully,Cripps,9,163
14,Genevieve,Robinson,9,158
15,Geoffrey,Robinson,10,156
16,Chloe,Beesley,9,156
17,Ellie,Beesley,8,151
18,Eiliyah,Daneen,10,147
19,Xavier,Marwood,8,134
20,Tom,Roberts,5,128
21,Liam,Carter,5,126
22,Savannah,Marwood,8,121
23,Samuel,Preston,4,113
24,Jaron,Ekanayake,5,112
25,Harry,Cripps,7,102
26,James,Trew,6,98
27,Olivia,Douglas,5,93
28,William,Trew,6,92
29,Jemma,Carter,5,92
30,Abigail,Epworth,7,91
31,Edie,Gibbons,5,87
32,Harry,Scott,5,84
33,Will,de Vries,6,82
34,Jye,Ekanayake,4,81
35,Elliott,Lavery,5,74
36,Poppy,Wainwright,4,71
37,Owen,Draper,5,71
38,William,Robinson,5,70
39,Ivy,Bray,4,69
40,Anna,de Vries,3,66
41,Sebastian,Stewart,3,65
42,Bonnie,Scott,4,54
43,Tobias,Preston,2,52
44,Isabella,Draper,2,48
45,Jimeal,Ekanayake,2,40
46,Miller,Armstrong,2,40
47,Genevieve,Draper,3,39
48,Noah,Armstrong,2,35
49,Phoebe,Martin,2,31
50,Max,Rowe,2,30
51,Lily,Sanderson,1,30
52,Jack,Wright,2,25
53,Oliver,Clarke,3,24
54,Tanner,Fear,2,20
55,Lucy,McCaig,1,16
56,Lacey,Wilkie,1,14
57,Eden,Howes,1,14
58,Belle,Howes,1,13
59,Spencer,Epworth,3,10
60,Indie,Colley,2,5
61,Darren,Rowe,1,0
62,Megan,Howes,1,0
63,Giana,Ekanayake,1,0
64,Ruby,Meharry,1,0
65,Jaxton,Ekanayake,1,0
66,Hunter,Pearce,1,0
67,Spencer,Lavery,1,0
