PLACE,FIRST,LAST,RACES,POINTS
1,Mumtaz,Hussain,11,424
2,Darren,Rowe,10,413
3,Chris,Giffin,13,412
4,David,Lonsdale,11,405
5,Ross,Douglas,13,397
6,David,Cripps,11,394
7,Justin,Lee,13,375
8,Rebecca,Wilkinson,10,371
9,Damien,Roberts,13,361
10,Greg,Carter,9,352
11,Alan,East,9,336
12,Maree,Platt,11,332
13,Shayne,Rushan,9,325
14,Ben,McDermid,15,322
15,Craig,Feuerherdt,9,319
16,Andrew,Creer,11,317
17,Danny,Burgess,9,303
18,Alison,Cartner,8,296
19,Lisa,Wilkinson,8,275
20,Todd,Foster,7,275
21,Sue,Taylor,8,247
22,John,Robinson,7,245
23,David,Heislers,6,237
24,Leah,Cripps,8,235
25,Janelle,Giffin,6,234
26,Liz,Foster,6,228
27,Nicholas,Cherry,8,223
28,Clare,Montgomery,6,219
29,Justine,Rowe,6,219
30,Fiona,Dangerfield,6,218
31,Gavin,Fiedler,5,192
32,Troy,Davis,6,190
33,Tim,Lauder,5,187
34,Travis,Edwards,6,177
35,Matthew,Schepisi,5,166
36,Jeremy,Draper,4,160
37,Craig,Green,7,157
38,Nigel,Preston,4,153
39,Melissa,Wilkie,5,153
40,Michael,Gibbons,4,151
41,Tarli,Bird,4,143
42,Beth,Lavery,5,138
43,Alan,Buchanan,4,135
44,Jenny,Buchanan,3,132
45,Janet,Hodnett,4,132
46,Kevin,de Vries,4,123
47,Vicki,Lane,4,116
48,Garry,Marwood,3,110
49,Jack,Milligan,3,106
50,Greg,McBain,3,106
51,Lee,McCullagh,3,103
52,Trinity,Sanderson,4,98
53,Alistair,Stewart,2,94
54,Kathleen,Pleasants,4,93
55,Stephen,van Rees,2,86
56,Andrew,Wilkie,2,82
57,Wil,McCaig,3,78
58,James,Russell,3,77
59,Rik,McCaig,2,76
60,Charles,Chambers,2,76
61,Philip,Shambrook,3,75
62,Megan,McDonald,2,72
63,Sarah,Jalim,2,72
64,David,Howes,3,67
65,Josephine,Robinson,3,65
66,Tina,McBain,2,60
67,Bec,Lacy,2,60
68,Thomas,Lee,2,60
69,Frances,Walsh,1,60
70,Jennifer,Lee,2,60
71,Emma,Gibbons,2,58
72,Jay,Sanderson,1,43
73,Lachlan,Cherry,2,42
74,Brian,Watson,1,40
75,Brad,Russell,2,40
76,Mathew,Creer,1,38
77,Rhianna,Wik-Gamble,2,36
78,Kye,Jenkyn,1,0
79,Hamish,Draper,1,0
80,Melissa,Douglas,1,0
81,Ben,Stolz,1,0
82,Tanner,Fear,1,0
83,Tyler,Wilkie,1,0
84,Julie,Marr,1,0
85,Leeza,Meharry,1,0
86,Mel,Debham,1,0
87,Wes,Jenkyn,1,0
88,Beatrice,Lonsdale,1,0
89,Michaela,Meharry,1,0
90,Ann-Marie,Wangdi,1,0
91,Andrew,Buchanan,1,0
92,Andrew,Van Agtmaal,1,0
93,Harry,Wright,1,0
94,Kim,Carter,1,0
95,Genevieve,Draper,1,0
96,Tyler,Swann,1,0
97,Charlotte,Murphy,1,0
98,Phoebe,Lonsdale,1,0
99,Matthew,Heislers,1,0
100,Amelia,Mitchell,1,0
101,David,Burrow,1,0
