place,first,last,net Time,diff
1,Dane,Heiden,3:41,- 0:21
1,Jake,Russell,3:19,- 0:21
3,Teddrah,Thorpe,5:27,- 0:16
4,Bree,Heiden,4:45,- 0:10
5,Imogen,Douglass,5:56,- 0:06
6,Madeline,Theobold,3:36,- 0:04