place,first,last,net Time,club
1,Hugh,Schaeche,15:14.0,HARRIERS
2,Jack,Meade,16:53.9,BUAC
3,Will,McCaig,17:51.6,BUAC
4,Harry,Seaward,18:39.8,BUAC
5,Spencer,Evans,18:58.0,BUAC
6,Harrison,Boyd,19:56.1,HARRIERS
7,Joshua,Condon,26:37.5,BUAC
8,Zachary,Candon,45:18.8,BUAC