place,first,last,net Time,diff
1,Tobias,Ansted,17:24,- 0:36
2,Beatrice,Lonsdale,20:23,+ 0:35
3,Blaze,Houlden,17:12,+ 0:42
4,Amber,Lyons,21:41,+ 1:06
5,Callum,Tucker,17:02,+ 1:15
6,Greg,Christie,19:04,+ 1:22
7,Sebastian,Rowe,18:56,+ 1:25
8,David,Lonsdale,17:06,+ 1:30
9,Morgan,Dunn,21:36,+ 1:30
10,James,Kealy,20:39,+ 1:41
11,Matthew,Heislers,14:10,+ 1:48
12,Tullie,Rowe,19:50,+ 1:50
13,Ash,Bull,19:00,+ 1:54
14,Bailey,Dunn,20:43,+ 2:07
15,Will,Crane,20:08,+ 3:02