PLACE,FIRST,LAST,RACES,POINTS
1,Eiliyah,Daneen,3,69
2,Eleanor,Stoltz,3,61
3,Will,Kirkby,2,56
4,Ivie,Safstrom,3,52
5,Braxton,Safstrom,3,48
6,Ebony,Beesley,3,48
7,Lyra,Haythorpe,3,42
8,Millie,McIntosh,2,40
9,Tom,Roberts,1,40
10,Sienna,Bayliss,2,40
11,Logan,Beesley,2,39
12,Poppy,Wainwright,3,38
13,Lily,Chivers,2,35
14,Julia,Starr,2,35
15,Avery,McDermid,3,34
16,April,Wainwright,3,34
17,Mohid,Zaman,3,33
18,Mason,Beesley,2,33
19,Sophie,Pedrotti,3,31
20,Zahli,Bayliss,1,30
21,Alice,McIntosh,3,26
22,Callen,Bayliss,1,26
23,William,Trew,2,25
24,Ruby,Carter,2,25
25,Alicia,Crowley,2,24
26,Leo,Stoltz,1,24
27,Harry,Scott,2,23
28,Chloe,Beesley,2,23
29,Alice,Griffin,2,22
30,Louis,Holmes,2,22
31,Joshua,Feuerherdt,1,21
32,Mikayla,Kirkby,3,20
33,Chase,Carter,2,19
34,Ellie,Beesley,2,19
35,Lewis,Lonsdale,1,18
36,Sarah,Crowley,2,18
37,Noah,Pedrotti,2,17
38,Jack,Haythorpe,3,17
39,Jonty,McDermid,2,16
40,Skylar,Beesley,3,16
41,Sihanna,Carter,2,14
42,Ronny,Epps,3,12
43,Polly,Byrne,3,11
44,Sophie,Schubert,1,9
45,Jimmy,Byrne,2,9
46,Charlotte,Schubert,1,8
47,Grace,Chivers,2,6
48,Thomas,Lee,3,6
49,Evie,Niblett,1,5
50,Harry,Griffin,3,4
51,Miriam,Niblett,2,4
52,Vinny,Holmes,2,2
53,Mason,Hooke,2,2
54,Ashton ,Chivers,2,1
55,Eden,Haythorpe,2,1
56,Max,Rowe,1,0
57,Will,de Vries,1,0
58,Anna,de Vries,1,0
59,Lewis,McIntosh,1,0
60,Mitchell,Nurse,1,0
61,Luella,Griffin,1,0
62,Leo,Epps,3,0
63,Lilah,Maddern,1,0
64,Leni,Hughes,1,0
65,Julianna,Hicks,1,0
66,Anna,Scott,1,0
67,Archie,Clarke,1,0
68,Miles,Clarke,1,0
69,Jemma,Smith,1,0
70,Bonnie,Scott,1,0
71,Michelle,Scott,1,0
72,Eryn,McManus,1,0
73,Tanner,Fear,1,0
74,Jemma,Carter,1,0
75,Liam,Carter,1,0
