place,first,last,net Time,diff
1,Mitchell,Bray,6:48,-0:43
2,Oliver,Sanderson,4:17,-0:29
3,Lachlan,Feuerherdt,4:23,-0:14
4,William,Robinson,4:34,-0:20
5,Archie,Ross,5:31,-0:11
6,Billy,Meade,4:11,-0:10
7,Oscar,Terry,5:14,-0:11
8,Lacey,Wilkie,5:34,-0:03
9,Harry,Cripps,5:45,-0:10
10,Abbey,Cartner,4:26,-0:06
11,Luke,Feuerherdt,4:46,0:00
12,Lucy,McCaig,5:08,0:00
13,Ava,Terry,6:16,0:06
14,Joshua,Feuerherdt,5:29,0:07
15,Lewis,Lonsdale,4:31,0:09
16,Jack,Gleisner,5:41,0:12
17,Charlotte,Crane,5:32,0:16
18,Jesse,Brook,7:08,0:18
19,Olivia,Douglas,6:19,0:31
20,Tim,Creer,5:23,0:39
21,Luke,Creer,5:58,0:59
22,Will,deVries,6:43,1:13
23,Matthew,Creer,10:53,2:58
New,Tully,Cripps,6:39,
New,Poppy,Wainwright,6:40,
New,Geoffrey,Robinson,7:02,
New,Tadgh,Hughan,5:32,
New,Eloise,Wilby,5:36,
New,Annabel,Hancock,6:28,
New,Sean,Hughan,7:51,
New,Matilda,Wilby,6:01,