PLACE,FIRST,LAST,RACES,POINTS
1,Geoffrey,Robinson,1,40
2,Will,de Vries,1,35
3,William,Trew,1,30
4,Luke,Feuerherdt,1,26
5,Jonty,McDermid,1,25
6,Harry,Cripps,1,24
7,Jasmine,Murphy,1,23
8,Phoebe,Lonsdale,1,22
9,William,Robinson,1,21
10,Andrea,Smith,1,20
11,Avery,McDermid,1,19
12,Ross,Douglas,1,18
13,Mumtaz,Hussain,1,17
14,David,Cripps,1,16
15,Ethan,Marwood,1,15
16,Tullie,Rowe,1,14
17,Mason,Woodward,1,13
18,Max,Rowe,1,12
19,Kane,Safstrom,1,11
20,Lynley,McDonald,1,10
21,Leah,Cripps,1,9
22,Charlotte,Murphy,1,8
23,Ben,McDermid,1,7
24,Kim,Carter,1,6
25,Tanner,Fear,1,5
26,Bec,Woodward,1,4
27,Jazlin,Fear,1,3
28,Lesley,Fabian,1,2
29,Melinda,Marwood,1,1
30,Lisa,Wilkinson,1,0
31,Liz,Stewart,1,0
32,Renelle,McManus,1,0
33,Poppy,Wainwright,1,0
34,Tully,Cripps,1,0
35,Joshua,Feuerherdt,1,0
36,Anna,de Vries,1,0
37,Imogen,Stewart,1,0
38,Lewis,McIntosh,1,0
39,Jodie,McLeod,1,0
40,Scott ,McLeod,1,0
41,Sarah,Trew,1,0
42,Dean,Trew,1,0
43,Kale,Beesley,1,0
44,Hannah,Niblett,1,0
45,Ebony,Woodward,1,0
46,Logan,Beesley,1,0
