PLACE,FIRST,LAST,RACES,POINTS
1,Floyd,Cartner,7,117
2,Mason,Woodward,8,112
3,William,Trew,6,99
4,Luke,Feuerherdt,4,98
5,Kane,Safstrom,6,94
6,Phoebe,Lonsdale,8,93
7,Jonty,McDermid,6,91
8,Dean,Trew,6,86
9,Lewis,Lonsdale,7,85
10,Avery,McDermid,7,85
11,Abbey,Cartner,5,79
12,Eiliyah,Daneen,7,78
13,Genevieve,Draper,5,76
14,Lewis,McIntosh,4,74
15,Harry,Cripps,6,69
16,Lachlan,Feuerherdt,4,69
17,Mumtaz,Hussain,7,69
18,Xavier,Marwood,4,69
19,Rebecca,Kirkby,6,66
20,Joshua,Feuerherdt,3,63
21,Michelle,Scott,6,63
22,Geoffrey,Robinson,5,60
23,Jimi,Read,3,59
24,Tully,Cripps,6,58
25,Andrea,Smith,5,55
26,Joshua,Condon,3,53
27,Bec,Woodward,8,52
28,Harry,Scott,6,51
29,Amelia,Mitchell,5,51
30,Tim,Creer,3,50
31,Max,Rowe,6,50
32,David,Cripps,5,48
33,Sonya,Walker,5,48
34,Sarah,Trew,5,48
35,Hamish,Draper,5,47
36,Will,de Vries,5,46
37,Kelvin,Niblett,4,46
38,Logan,Beesley,4,45
39,Anthony,Byrne,5,45
40,Tullie,Rowe,7,44
41,Imogen,Stewart,3,44
42,Isabella,Draper,5,42
43,Scott,McLeod,3,41
44,Zach,Condon,2,40
45,Harry,Byrne,2,40
46,Thom,Hosking,4,37
47,Beatrice,Lonsdale,3,35
48,Poppy,Wainwright,3,35
49,Leigh,Draper,2,35
50,Ethan,Marwood,5,31
51,Kate,Byrne,2,30
52,Lynley,McDonald,5,28
53,Chris,Giffin,2,27
54,Lily,Sanderson,2,26
55,Josephine,Robinson,6,24
56,Jasmine,Murphy,2,24
57,Freya,Nicoletti,2,24
58,Anna,de Vries,2,22
59,Ben,McDermid,6,21
60,Liz,Stewart,2,21
61,Renelle,McManus,3,21
62,Luke,Creer,3,21
63,William,Robinson,3,21
64,Tammy,Fear,5,21
65,Ebony,Woodward,8,20
66,Charlotte,Murphy,5,19
67,Ross,Douglas,4,18
68,Lesley,Fabian,5,18
69,Tanner,Fear,6,18
70,Jennifer,Lee,2,17
71,Louise,Firli,2,14
72,Melinda,Marwood,5,13
73,Lachlan,Edwards,1,13
74,Kim,Carter,2,13
75,Elijah,Willits,3,13
76,Bec,Lacy,2,12
77,Jodie,McLeod,3,11
78,Travis,Edwards,1,10
79,Leah,Cripps,5,9
80,Kevin,de Vries,3,8
81,Janelle,Willits,2,7
82,Andrew,Creer,1,6
83,Aida,Escall,3,4
84,Jazlin,Fear,6,3
85,Lisa,Wilkinson,1,0
86,Justin,Lee,2,0
87,Megan,McDonald,3,0
88,Olivia,Douglas,1,0
89,Ally,Collett,1,0
90,Lou,Bray,1,0
91,Jaron,Ekanayake,1,0
92,Fin,Bray,1,0
93,Jon,McIntosh,1,0
94,April,Wainwright,1,0
95,Sebastian,Boromeo,1,0
96,Mel,Debnam-Smith,1,0
97,James,Trew,1,0
98,Harry,Wright,1,0
99,Kale,Beesley,1,0
100,Zac,Firli,2,0
101,Hannah,Niblett,1,0
102,Cooper,Firli,2,0
103,Skylar,Woodward,1,0
104,Noah,Willits,2,0
105,Tanae,Bull,1,0
106,Lyn,Sebire,1,0
107,Karl,Stoltz,1,0
108,Michelle,Vanzuyden,1,0
109,Charley,Collins,2,0
