PLACE,FIRST,LAST,RACES,POINTS
1,Mason,Woodward,8,152
2,Braxton,Safstrom,7,151
3,Genevieve,Robinson,7,143
4,Ebony,Woodward,8,128
5,Miriam,Niblett,5,124
6,Avery,McDermid,7,119
7,Liam,Carter,5,119
8,Lewis,Lonsdale,7,118
9,Jonty,McDermid,6,113
10,Leo,Stoltz,4,110
11,Bonnie,Scott,6,103
12,Eiliyah,Daneen,7,96
13,Mikayla,Kirkby,5,95
14,Naghmana,Tehseen,6,95
15,Geoffrey,Robinson,6,92
16,William,Trew,6,82
17,Max,Rowe,5,80
18,April,Wainwright,7,76
19,Harry,Scott,6,73
20,Xavier,Marwood,4,71
21,Savannah,Marwood,5,71
22,Alice,McIntosh,4,66
23,Skylar,Woodward,6,62
24,Tanner,Fear,4,58
25,Joshua,Feuerherdt,3,57
26,Eryn,McManus,5,56
27,Owen,Draper,5,55
28,Ronny,Epps,4,53
29,Kayla,McManus,4,52
30,Chloe,Beesley,4,52
31,Oliver,Clarke,3,51
32,Jemma,Carter,4,46
33,Luke,Feuerherdt,2,45
34,Polly,Byrne,5,45
35,Ellie,Beesley,4,43
36,Ruby,Douglas,6,40
37,Edie,Gibbons,1,40
38,Jimi,Read,3,39
39,Tom,Roberts,4,37
40,Floyd,Cartner,2,35
41,Zachary,Dyer,2,35
42,Giana,Ekanayake,1,35
43,Ivy,Bray,1,30
44,Jaxton,Ekanayake,1,30
45,Logan,Beesley,4,27
46,Sebastian,Stewart,2,27
47,Poppy,Wainwright,1,26
48,William,Robinson,3,26
49,Jaron,Ekanayake,1,24
50,Callum,Fyffe,2,24
51,Gabe,Nicoletti,2,23
52,Charley,Collins,2,21
53,Abbey,Cartner,2,20
54,Zac,Firli,2,20
55,Lily,Sanderson,1,16
56,Olivia,Douglas,1,9
57,James,Trew,1,9
58,Anna,de Vries,1,8
59,Evie,Niblett,2,8
60,Tully,Cripps,1,7
61,Will,de Vries,1,5
62,Isabella,Draper,1,5
63,Luke,Collins,3,4
64,Jacob,Draper,2,4
65,Hannah,Draper,2,3
66,Phoebe,Lonsdale,1,0
67,Tullie,Rowe,1,0
68,Charlotte,Murphy,1,0
69,Sebastian,Boromeo,1,0
70,Eden,McMahon,1,0
71,Spencer,McMahon,1,0
72,Harry,Byrne,1,0
73,Louise,Firli,1,0
74,Leigh,Draper,1,0
75,Brooke,Carter,1,0
76,Ruby,Carter,1,0
77,Chase,Carter,1,0
78,Sihanna,Carter,1,0
79,Hannah,Niblett,2,0
80,Tanae,Bull,1,0
81,Krystal,Bellbin,2,0
82,Louise,Fyffe,1,0
83,Charli,Hosking,1,0
