first,last,start,pace,est Time
Lilly,Cahill,00:10,6:59,57:16
Julie,Hogan,02:20,6:43,55:05
Jessey,Wilson,04:30,6:27,52:53
Catherine,Hunter,05:20,6:21,52:04
Alan,East,06:10,6:15,51:15
Melissa,Douglas,08:00,6:1,49:20
Verity,Perez,08:00,6:2,49:28
John,Doering,08:10,6:0,49:12
Natalie,Watson,08:30,5:58,48:56
Loretta,Hanns,08:40,5:56,48:39
Sam,MacLeod,08:40,5:56,48:39
Drew,Cahill,08:50,5:55,48:31
Ella,Wright,08:50,5:55,48:31
John,Taylor,09:20,5:52,48:06
Shann,Anderson,10:40,5:42,46:44
Carl,Bailey,11:00,5:39,46:20
Mikhaela,Wilson,12:00,5:32,45:22
Angus,McCormack,12:10,5:31,45:14
Andrew,Boshcetti,12:20,5:30,45:06
Greg,Christy,12:20,5:30,45:06
Wayne,Forbes,12:30,5:28,44:50
Danny,Padgham,13:10,5:24,44:17
Jodie,Scoble,13:30,5:21,43:52
Ian,Beckerleg,13:40,5:20,43:44
Angela,Slattery,13:40,5:20,43:44
Alison,McCullagh,13:40,5:20,43:44
Lilly,Walsh,13:50,5:19,43:36
Sheridan,Hail,13:50,5:19,43:36
Gabby,Walsh,14:00,5:18,43:28
Harry,Terry,14:20,5:15,43:03
Helen,WeeHee,14:20,5:15,43:03
Jackie,Tremayne,14:50,5:11,42:30
Rachel,Howe,15:00,5:10,42:22
Phil,Lloyd,15:20,5:8,42:06
Brian,Brasher,15:20,5:8,42:06
Peter,Noble,15:30,5:6,41:49
Brad,Russell,15:40,5:5,41:41
Tyson,Hawke,15:40,5:5,41:41
Len,Nally,15:50,5:4,41:33
Jodie,Giles,16:10,5:2,41:16
Lucy,Ruck,16:10,5:2,41:16
Tony,Gellatly,16:20,5:1,41:08
Chris,Hamond,16:20,5:0,41:00
Jennifer,Jones,16:20,5:0,41:00
Shayne,Rushan,16:20,5:0,41:00
Kevin,Perez,16:20,5:0,41:00
Tina,McBain,16:20,5:0,41:00
Harriette,Slater,16:20,5:0,41:00
Damien,Bilsborrow,16:30,4:59,40:52
David,Perris,16:30,4:59,40:52
Chris,Tremayne,16:50,4:57,40:35
Frances,Walsh,16:50,4:57,40:35
Roy,Preece,17:00,4:56,40:27
Sam,Brewin,17:10,4:54,40:11
Janet,Hodnett,17:10,4:54,40:11
Navec,Lorkin,17:10,4:54,40:11
Trevor,Hanns,17:20,4:53,40:03
Liz,Foster,17:50,4:50,39:38
Tom,Houlden,17:50,4:50,39:38
Craig,Hunter,17:50,4:49,39:30
Matt,Constable,17:50,4:50,39:38
Scott,Padgham,17:50,4:49,39:30
Alison,Cartner,18:10,4:47,39:13
John,Brewin,18:20,4:46,39:05
Emma,Moylan,18:20,4:46,39:05
Hayden,Brooke,18:20,4:46,39:05
Patrick,Hartney,18:40,4:43,38:41
Scott,Roberts,18:40,4:44,38:49
Genevieve,Green,18:40,4:44,38:49
Laura,Terry,18:40,4:44,38:49
Brett,Houlden,18:50,4:42,38:32
John,McCullagh,19:10,4:40,38:16
Nick,Walsh,19:10,4:40,38:16
Gary,Crouch,19:20,4:38,38:00
Leeza,Meharry,19:20,4:39,38:08
Maria,Slater,19:20,4:38,38:00
Ned,Slater,19:20,4:39,38:08
Peter,Sykes,19:20,4:39,38:08
Lisa,Wilkinson,19:20,4:38,38:00
Russell,Jenkins,19:30,4:37,37:51
Gervase,Birt,19:40,4:36,37:43
Joe,Hartney,19:40,4:36,37:43
Ian,Frost,19:50,4:35,37:35
Mark,Saxon,19:50,4:35,37:35
David,Heislers,20:00,4:34,37:27
Justin,Lee,20:00,4:34,37:27
Ingrid,Douglass,20:10,4:32,37:10
Jaclyn,Munge,20:10,4:33,37:19
Steve,Durkin,20:20,4:31,37:02
Paul,McMahon,20:20,4:31,37:02
Thomas,Mosley,20:20,4:31,37:02
Andrew,Creer,20:30,4:30,36:54
Owen,Davies,20:30,4:30,36:54
Ryan,Brooke,20:30,4:30,36:54
Steve,Corrie,20:50,4:28,36:38
Todd,Foster,21:00,4:26,36:21
Jenny,Buchanan,21:20,4:24,36:05
Tony,DiPace,21:20,4:24,36:05
Xavier,Walsh,21:30,4:23,35:57
Cameron,Turnbull,21:30,4:23,35:57
Alan,Buchanan,21:40,4:22,35:48
Josh,Evely,21:40,4:21,35:40
Greg,McBain,21:40,4:22,35:48
Jeff,Pethybridge,21:40,4:22,35:48
Aaron,Semmens,21:50,4:20,35:32
Leon,Hamond,22:00,4:19,35:24
Erica,Wilkinson,22:10,4:18,35:16
Steve,McDougal,22:10,4:18,35:16
Gavin,Fiedler,22:20,4:16,34:59
Michael,Hogan,22:20,4:17,35:07
David,Ottrey,22:20,4:16,34:59
Tracy,Wilson,22:20,4:16,34:59
Madeleine,Evely,22:30,4:15,34:51
Steve,Brereton,22:40,4:14,34:43
John,Rose,22:40,4:14,34:43
Andrew,Mason,22:40,4:14,34:43
Aaron,Anderson,22:50,4:13,34:35
Jo-Anne,Keely,23:00,4:12,34:26
Craig,Fruerherdt,23:10,4:10,34:10
Daniel,Vains,23:10,4:11,34:18
Matthew,Heislers,23:10,4:11,34:18
Chris,McCormack,23:30,4:8,33:54
Josh,Hunter,23:30,4:8,33:54
Brendan,Munge,24:00,4:4,33:21
Mike,Neilson,24:00,4:4,33:21
Rebecca,Tweed,24:10,4:3,33:13
Ben,McDermid,24:20,4:2,33:04
Jarrod,Epps,24:40,3:59,32:40
Rick,Jackal,24:40,3:59,32:40
Russell,Tremayne,24:40,4:0,32:48
Mac,Biner,24:50,3:58,32:32
Luke,Gregory,25:10,3:56,32:15
David,Tarrant,25:10,3:56,32:15
Brian,Watson,25:10,3:56,32:15
Jamie,Cook,25:20,3:55,32:07
Fraser,Walsh,25:30,3:53,31:51
Jim,Russell,25:40,3:52,31:42
Jason,Fletcher,26:00,3:50,31:26
Patrick,Kenny,26:30,3:46,30:53
Simon,Austin,26:40,3:45,30:45
Chris,Naunton,26:40,3:45,30:45
Jason,Sim,27:00,3:42,30:20
Lee,McCullagh,27:20,3:40,30:04
Michael,Bieleny,27:40,3:37,29:39
Bryan,Keely,29:20,3:25,28:01
Andrew,Buchanan,30:40,3:16,26:47
Richard,Gleisner,30:40,3:16,26:47