1;AABM-3796;0000-00-00;00:00:33.501;;52;-47;2ef739
2;2;0000-00-00;00:01:50.677;11573;82;-39;68e12e
3;AAAA-1068;0000-00-00;00:04:42.175;;62;-43;010c09
4;100;0000-00-00;00:05:51.170;11573;93;-33;8d861c
5;AABM-3712;0000-00-00;00:06:51.326;;59;-51;5f2288
6;186;0000-00-00;00:07:41.317;11573;72;-31;fb566d
7;197;0000-00-00;00:09:42.175;11573;92;-39;281840
8;233;0000-00-00;00:10:01.738;11573;96;-42;89f6a8
9;54;0000-00-00;00:10:41.408;11573;82;-41;d8dc09
10;6;0000-00-00;00:10:43.188;11573;74;-35;68d7cc
11;AABM-3758;0000-00-00;00:12:51.294;;76;-42;d48a5d
12;52;0000-00-00;00:12:52.495;11573;86;-40;a1b650
13;241;0000-00-00;00:13:14.286;11573;76;-39;75b592
14;AAAA-1078;0000-00-00;00:13:32.456;;68;-40;c910a1
15;74;0000-00-00;00:13:41.419;11573;96;-29;2b2b15
16;AABM-3747;0000-00-00;00:14:01.431;;45;-49;4580fc
17;77;0000-00-00;00:14:41.501;11573;88;-32;df0d60
18;AAAA-1040;0000-00-00;00:14:52.425;;25;-47;88eeab
19;254;0000-00-00;00:15:11.716;11573;34;-39;432fa5
20;63;0000-00-00;00:15:11.925;11573;42;-39;c21a93
21;AACT-359;0000-00-00;00:15:12.638;;90;-38;a0509e
22;22;0000-00-00;00:15:21.484;11573;80;-41;0a9fc8
23;AACT-333;0000-00-00;00:16:21.548;;78;-45;5a7e77
24;AABM-3763;0000-00-00;00:16:42.287;;73;-48;78c2f8
25;29;0000-00-00;00:16:51.868;11573;67;-42;a84520
26;AACT-400;0000-00-00;00:17:01.281;;56;-42;83c916
27;501;0000-00-00;00:17:21.852;11573;93;-56;26aedf
28;AAAA-1074;0000-00-00;00:17:31.863;;60;-46;194955
29;AABM-3714;0000-00-00;00:17:43.263;;58;-40;d270da
30;AAAA-1072;0000-00-00;00:17:43.535;;74;-48;adfe0c
31;AAAA-1029;0000-00-00;00:18:01.224;;72;-39;ac57be
32;55;0000-00-00;00:18:02.096;11573;69;-38;d8f8dd
33;AABM-3797;0000-00-00;00:18:02.405;;60;-53;6375c9
34;AABM-3760;0000-00-00;00:18:02.664;;40;-43;1cb9dc
35;AAAA-1099;0000-00-00;00:18:13.454;;66;-51;f21942
36;14;0000-00-00;00:18:42.388;11573;76;-36;9349ec
37;AAAA-1020;0000-00-00;00:19:11.721;;82;-43;dbbe07
38;AAAA-1003;0000-00-00;00:19:22.262;;62;-49;827b93
39;AACT-350;0000-00-00;00:22:31.067;;80;-43;161ac1
40;94;0000-00-00;00:22:41.402;11573;54;-45;9c5104
41;AABM-3730;0000-00-00;00:23:02.603;;48;-44;aa27e5
42;65;0000-00-00;00:23:21.051;11573;28;-33;53c302
43;51;0000-00-00;00:23:21.191;11573;64;-41;965643
44;84;0000-00-00;00:23:31.811;11573;70;-39;1908b5
45;AACT-308;0000-00-00;00:24:21.854;;68;-54;2c5dc9
46;125;0000-00-00;00:24:41.490;11573;64;-41;401e0e
47;AAAA-1031;0000-00-00;00:25:12.332;;76;-43;155c85
48;88;0000-00-00;00:25:58.962;11573;74;-37;d3f990
49;AABM-3763;0000-00-00;00:52:54.402;;104;-52;478acf
50;AAAA-1040;0000-00-00;00:53:15.169;;42;-45;df08ff
51;AABM-3714;0000-00-00;00:53:51.279;;67;-48;deeff9
52;AACT-359;0000-00-00;00:54:36.114;;85;-41;c18956
53;233;0000-00-00;00:54:55.849;11573;70;-42;fa304f
54;AAAA-1029;0000-00-00;00:54:56.503;;63;-50;b90e41
55;AAAA-1099;0000-00-00;00:55:16.138;;77;-51;d231ee
56;AABM-3797;0000-00-00;00:55:20.255;;71;-50;9d3a7a
57;AAAA-1078;0000-00-00;00:55:24.444;;66;-42;345f9a
58;AACT-333;0000-00-00;00:55:27.754;;90;-47;60f473
59;54;0000-00-00;00:55:32.248;11573;96;-45;2ca3b2
60;84;0000-00-00;00:55:39.010;11573;126;-38;6717d4
61;14;0000-00-00;00:55:44.186;11573;114;-41;b48ba7
62;254;0000-00-00;00:55:53.706;11573;72;-40;596071
63;AAAA-1020;0000-00-00;00:55:53.787;;43;-45;1db2bb
64;63;0000-00-00;00:55:55.136;11573;83;-43;b63971
65;AAAA-1072;0000-00-00;00:55:55.793;;39;-48;b7ca23
66;AABM-3760;0000-00-00;00:55:56.340;;90;-44;e2d28c
67;125;0000-00-00;00:56:03.423;11573;87;-35;5cc722
68;501;0000-00-00;00:56:07.050;11573;202;-52;33b214
69;29;0000-00-00;00:56:07.397;11573;104;-39;5da683
70;241;0000-00-00;00:56:11.322;11573;96;-39;178885
71;AACT-350;0000-00-00;00:56:15.977;;161;-48;f6f908
72;AACT-400;0000-00-00;00:56:22.768;;63;-51;8679e8
73;51;0000-00-00;00:56:25.332;11573;90;-39;30438a
74;2;0000-00-00;00:56:25.697;11573;108;-38;f3afa6
75;197;0000-00-00;00:56:27.785;11573;75;-44;454e69
76;AABM-3758;0000-00-00;00:56:32.162;;88;-42;cec121
77;AACT-308;0000-00-00;00:56:32.671;;44;-49;6a4dac
78;AABM-3712;0000-00-00;00:56:44.442;;92;-46;6214b8
79;100;0000-00-00;00:56:59.611;11573;100;-37;55bf88
80;74;0000-00-00;00:57:00.825;11573;144;-35;b91551
81;77;0000-00-00;00:57:03.661;11573;124;-29;7064e5
82;52;0000-00-00;00:57:12.722;11573;116;-35;5f95df
83;88;0000-00-00;00:57:14.472;11573;49;-40;e66878
84;AAAA-1003;0000-00-00;00:57:14.510;;48;-47;983452
85;AAAA-1031;0000-00-00;00:57:23.951;;58;-51;46a24c
86;94;0000-00-00;00:57:26.804;11573;88;-37;1472f3
87;186;0000-00-00;00:57:43.968;11573;107;-40;6230ea
88;22;0000-00-00;00:57:52.223;11573;100;-37;c15900
89;AABM-3747;0000-00-00;00:58:13.469;;105;-45;97ecf2
90;AAAA-1068;0000-00-00;00:58:24.936;;86;-45;79a43a
91;AAAA-1074;0000-00-00;00:58:38.239;;70;-37;5a6e81
92;55;0000-00-00;00:58:40.368;11573;154;-40;f11af1
93;6;0000-00-00;00:59:16.502;11573;114;-40;7b955e
94;AABM-3730;0000-00-00;01:00:02.003;;70;-55;0c9448
95;65;0000-00-00;01:00:07.651;11573;104;-40;e08aa2
96;AABM-3796;0000-00-00;01:08:13.464;;136;-44;731044
