Processing Results for 2019 Season

Checking - c:\BUAC\BUAC 2019\01_College Classic\01_College_Classic_results.xlsx
 01_College_Classic result file found...
    LONG found...   6km     50 Members  1 Casuals   30 Males  21 Females  
    MEDIUM found... 3km     46 Members  5 Casuals   25 Males  26 Females  
    SHORT found...  1km     32 Members  6 Casuals   21 Males  17 Females  
    140 Total

Checking - c:\BUAC\BUAC 2019\02_Mandurang Meander\02_Mandurang_Meander_results.xlsx
 02_Mandurang_Meander result file found...
    LONG found...   6.52km  51 Members  0 Casuals   31 Males  20 Females  
    MEDIUM found... 3km     58 Members  0 Casuals   30 Males  28 Females  
    SHORT found...  1km     37 Members  1 Casuals   19 Males  19 Females  
    147 Total

Checking - c:\BUAC\BUAC 2019\03_Landry Lope\03_Landry_Lope_results.xlsx
 03_Landry_Lope result file found...
    LONG found...   6.93km  42 Members  2 Casuals   29 Males  15 Females  
    MEDIUM found... 3km     50 Members  3 Casuals   34 Males  19 Females  
    SHORT found...  1km     31 Members  1 Casuals   17 Males  15 Females  
    129 Total

Checking - c:\BUAC\BUAC 2019\04_Rifle Range Rattle\04_Rifle_Range_Rattle_results.xlsx
 04_Rifle_Range_Rattle result file found...
    LONG found...   7.92km  46 Members  2 Casuals   32 Males  16 Females  
    MEDIUM found... 3.44km  43 Members  2 Casuals   21 Males  24 Females  
    SHORT found...  1km     27 Members  5 Casuals   15 Males  17 Females  
    125 Total

Checking - c:\BUAC\BUAC 2019\05_Crusoe Crusade\05_Crusoe_Crusade_results.xlsx
 05_Crusoe_Crusade result file found...
    LONG found...   8.08km  48 Members  0 Casuals   34 Males  14 Females  
    MEDIUM found... 3.06km  57 Members  4 Casuals   32 Males  29 Females  
    SHORT found...  1km     45 Members  3 Casuals   27 Males  21 Females  
    157 Total

Checking - c:\BUAC\BUAC 2019\06_Ham St Hustle\06_Ham_St_Hustle_results.xlsx
 06_Ham_St_Hustle result file not found...

Checking - c:\BUAC\BUAC 2019\07_Sandhurst Slog\07_Sandhurst_Slog_results.xlsx
 07_Sandhurst_Slog result file not found...

Checking - c:\BUAC\BUAC 2019\08_Pearces Rd Rally\08_Pearces_Rd_Rally_results.xlsx
 08_Pearces_Rd_Rally result file not found...

Checking - c:\BUAC\BUAC 2019\09_Kangaroo Flat Falter\09_Kangaroo_Flat_Falter_results.xlsx
 09_Kangaroo_Flat_Falter result file not found...

Checking - c:\BUAC\BUAC 2019\10_Rocky Rises\10_Rocky_Rises_results.xlsx
 10_Rocky_Rises result file not found...

Checking - c:\BUAC\BUAC 2019\11_Hornets Hideaway\11_Hornets_Hideaway_results.xlsx
 11_Hornets_Hideaway result file not found...

Checking - c:\BUAC\BUAC 2019\12_Notleys Noodle\12_Notleys_Noodle_results.xlsx
 12_Notleys_Noodle result file not found...

