place,first,last,net Time,diff
1,Amy,Sim,18:22,- 2:38
2,Amber,Lyons,18:23,- 1:07
3,Imogen,Douglass,18:28,- 1:02
4,Joanne,Weatherhead,19:13,- 0:26
5,John,Rose,12:13,- 0:02
6,Nick,Moloney,11:20,+ 0:17
7,Bronte,Walsh,16:23,+ 0:23
8,Madeleine,Evely,12:18,+ 0:27
9,Jack,Cripps,13:32,+ 0:32
10,Luke,Padgham,15:25,+ 1:07
11,Scott,Roberts,15:07,+ 1:07
12,Steffany,Roberts,15:39,+ 1:09
13,Bronte,Foster,21:44,+ 3:44