PLACE, FIRST, LAST, TIME, PACE, CLUB
1,Jackson,Eadon,0:10:45.3,03:31.6,HARRIERS
2,Avery,McDermid,0:10:48.6,03:32.7,UNI
3,Thomas,McArthur,0:11:00.4,03:36.5,SOUTH BENDIGO
4,Mason,Beesley,0:11:17.4,03:42.1,UNI
5,James,Trew,0:12:10.2,03:59.4,UNI
6,Tanner,Fear,0:12:10.2,03:59.4,UNI
7,Tyler,Fynch,0:12:38.1,04:08.6,SOUTH BENDIGO
8,Jonty,McDermid,0:13:06.4,04:17.8,UNI
9,Abby,Kuhne,0:13:16.9,04:21.3,HARRIERS
10,April,Wainwright,0:13:38.0,04:28.2,UNI
11,Abbey,Cartner,0:13:46.2,04:30.9,UNI
12,Jayson,Carter,0:13:52.1,04:32.8,UNI
13,Isaiah,Oataway,0:13:54.1,04:33.5,HARRIERS
14,Callen,Bayliss,0:14:01.5,04:35.9,UNI
15,Ebony,Beesley,0:14:20.9,04:42.3,UNI
16,Ben,Sandeman,0:14:58.3,04:54.5,HARRIERS
17,Lucy,Richard,0:15:11.7,04:58.9,EAGLEHAWK
18,Erin,Bradshaw,0:15:18.7,05:01.2,UNI
19,Elise,Stoltz,0:15:42.0,05:08.9,UNI
20,Emma,Colt,0:15:57.2,05:13.8,UNI
21,Chase,Carter,0:16:12.0,05:18.7,UNI
22,James,Bradshaw,0:16:14.6,05:19.5,UNI
23,Geoff,Shaw,0:16:18.5,05:20.8,HARRIERS
24,Ashlie,Thomas,0:16:21.1,05:21.7,HARRIERS
25,Emily,Sandeman,0:16:38.7,05:27.4,HARRIERS
26,Geoff,Jordan,0:16:56.8,05:33.4,HARRIERS
27,Christie,Metherell,0:17:43.5,05:48.7,HARRIERS
28,Mick,Seymour,0:18:04.0,05:55.4,SOUTH BENDIGO
29,Jemma,Carter,0:18:19.4,06:00.5,UNI
30,Michelle,Scott,0:18:25.3,06:02.4,UNI
31,Liam,Carter,0:18:25.5,06:02.5,UNI
32,Bec,Beesley,0:18:35.1,06:05.6,UNI
33,Ruby,Carter,0:18:40.1,06:07.2,UNI
34,Thom,Hosking,0:18:54.5,06:12.0,UNI
35,Stacey,Macdonald,0:19:02.4,06:14.6,HARRIERS
36,Andrea,Stoltz,0:19:10.1,06:17.1,UNI
37,Chloe,Beesley,0:19:18.0,06:19.7,UNI
38,Eiliyah,Daneen,0:20:20.0,06:40.0,UNI
39,Harry,Cripps,0:21:48.2,07:08.9,UNI
40,Leo,Stoltz,0:23:13.8,07:37.0,UNI
41,Poppy,Wainwright,0:23:59.9,07:52.1,UNI
42,Tully,Cripps,0:23:59.9,07:52.1,UNI
43,Naghmana,Tehseen,0:26:38.3,08:44.0,UNI
44,Felix,Stoltz,0:31:51.1,10:26.6,UNI
