PLACE, FIRST, LAST, TIME, PACE, CLUB
1,Abby,Kuhne,0:13:16.9,04:21.3,HARRIERS
2,April,Wainwright,0:13:38.0,04:28.2,UNI
3,Abbey,Cartner,0:13:46.2,04:30.9,UNI
4,Ebony,Beesley,0:14:20.9,04:42.3,UNI
5,Lucy,Richard,0:15:11.7,04:58.9,EAGLEHAWK
6,Erin,Bradshaw,0:15:18.7,05:01.2,UNI
7,Elise,Stoltz,0:15:42.0,05:08.9,UNI
8,Emma,Colt,0:15:57.2,05:13.8,UNI
9,Ashlie,Thomas,0:16:21.1,05:21.7,HARRIERS
10,Emily,Sandeman,0:16:38.7,05:27.4,HARRIERS
11,Christie,Metherell,0:17:43.5,05:48.7,HARRIERS
12,Jemma,Carter,0:18:19.4,06:00.5,UNI
13,Michelle,Scott,0:18:25.3,06:02.4,UNI
14,Bec,Beesley,0:18:35.1,06:05.6,UNI
15,Ruby,Carter,0:18:40.1,06:07.2,UNI
16,Stacey,Macdonald,0:19:02.4,06:14.6,HARRIERS
17,Andrea,Stoltz,0:19:10.1,06:17.1,UNI
18,Eiliyah,Daneen,0:20:20.0,06:40.0,UNI
19,Poppy,Wainwright,0:23:59.9,07:52.1,UNI
20,Tully,Cripps,0:23:59.9,07:52.1,UNI
21,Naghmana,Tehseen,0:26:38.3,08:44.0,UNI
