place,first,last,club,net Time
1,Erin,Hilson,Sth Bgo,4:09
2,Yasmin,Hayes,Sth Bgo,4:12
3,Maddy,Kleyn,EGWK,4:28
4,Aoife,Cunnningham,BUAC,5:29
5,Nellie,Rose,BUAC,5:37
6,Ruby,Fletcher,BUAC,6:04
7,Eliza,Christie,BUAC,6:05
8,Tara,Anderson,BUAC,6:38
9,Raphy,Musk,BUAC,6:39
10,Sarah,Cunnningham,BUAC,6:49