Place,First,Last,NET Time,Pace,Diff
1,John,Starr,0:15:03.7,05:01,-03:17.3
2,Bonnie,Scott,0:17:43.1,05:54,-02:46.9
3,Sophie,Pedrotti,0:16:23.5,05:28,-01:18.5
4,Harry,Cripps,0:17:49.7,05:57,-01:10.3
5,Michelle,Scott,0:18:12.0,06:04,-00:54.0
6,James,Bradshaw,0:16:31.5,05:30,-00:43.5
7,Emily,Harris,0:15:30.2,05:10,-00:38.8
8,Kelvin,Niblett,0:13:39.4,04:33,-00:35.6
9,Harry,Scott,0:15:12.5,05:04,-00:02.5
10,Jonty,McDermid,0:13:11.9,04:24,+00:05.9
11,Julia,Starr,0:16:40.4,05:33,+00:10.4
12,Mason,Beesley,0:11:35.9,03:52,+00:17.9
13,Braxton,Safstrom,0:16:07.7,05:23,+00:22.7
14,Ebony,Beesley,0:14:19.2,04:46,+00:25.2
15,Abbey,Cartner,0:14:24.1,04:48,+00:33.1
16,Tanner,Fear,0:12:52.8,04:18,+00:34.8
17,Suzie,Pedrotti,0:15:08.8,05:03,+00:38.8
18,Logan,Beesley,0:18:02.1,06:01,+00:47.1
19,Jimmy,Byrne,0:16:47.6,05:36,+00:47.6
20,James,Trew,0:12:30.3,04:10,+01:06.3
21,Jayson,Carter,0:14:03.1,04:41,+01:09.1
22,Sarah,Trew,0:18:27.4,06:09,+01:33.4
23,Danny,Burgess,0:15:39.8,05:13,+01:39.8
24,Ben,McDermid,0:14:39.1,04:53,+01:42.1
25,Anthony,Byrne,0:14:59.4,05:00,+01:47.4
26,Charli,Hosking,0:21:53.4,07:18,+01:53.4
27,Ashton ,Chivers,0:26:21.8,08:47,+02:21.8
28,Poppy,Wainwright,0:21:12.1,07:04,+02:42.1
29,Thom,Hosking,0:19:13.1,06:24,+02:58.1
30,Avery,McDermid,0:14:38.5,04:53,+03:17.5
31,Eiliyah,Daneen,0:22:45.0,07:35,+03:30.0
32,Tully,Cripps,0:23:27.4,07:49,+03:57.4
33,Naghmana,Tehseen,0:28:52.7,09:38,+04:52.7
NEW,Will,de Vries,0:17:59.5,06:00
NEW,April,Wainwright,0:13:41.5,04:34
NEW,Leonie,Chivers,0:23:29.7,07:50
NEW,Lily,Chivers,0:29:21.3,09:47
NEW,Grace,Chivers,0:23:17.4,07:46
NEW,Oscar,Lethbridge,0:14:12.1,04:44
NEW,Emma,Colt,0:19:51.5,06:37
NEW,Abby,Colt,0:17:55.5,05:58
NEW,Sonya,Walker,0:18:12.4,06:04
NEW,Chase,Carter,0:16:18.2,05:26
NEW,Callen,Bayliss,0:14:44.5,04:55
NEW,Greg,Carter,0:14:11.8,04:44
NEW,Jemma,Carter,0:18:06.4,06:02
NEW,Liam,Carter,0:17:22.1,05:47
NEW,Chloe,Beesley,0:20:32.5,06:51
NEW,Brett,Dobbin,0:14:51.1,04:57
NEW,Belinda,Dobbin,0:21:09.4,07:03
