place,first,last,start,pace,est Time
1,Ethan,Fletcher,0:00,8:0,8:00
2,Sarah,Cunningham,0:20,7:37,7:37
3,Olivia,Kealy,0:30,7:26,7:26
4,Rex,Lourie,0:40,7:20,7:20
5,Joshua,Feuerherdt,0:50,7:10,7:10
6,Abbey,Reid,1:00,7:0,7:00
7,Luke,Creer,1:10,6:49,6:49
8,Lewis,Lonsdale,1:10,6:49,6:49
9,Avery,McDermid,1:20,6:45,6:45
10,Moira,Coleman,1:30,6:30,6:30
11,Amber,Anderson,1:30,6:30,6:30
12,Eliza,Christie,1:30,6:27,6:27
13,Tara,Anderson,1:40,6:23,6:23
14,Lucinda,Terry,1:40,6:22,6:22
15,Finn,Cunningham,1:40,6:20,6:20
16,Ruby,Fletcher,1:40,6:17,6:17
17,Oscar,Terry,1:40,6:17,6:17
18,Melana,Cordell,2:00,6:4,6:04
19,Aoife,Cunningham,2:00,6:3,6:03
20,Pheobe,Lonsdale,2:00,6:0,6:00
21,Manny,Rose,2:10,5:55,5:55
22,Albert,Cordell,2:10,5:55,5:55
23,Hannah,Crane,2:10,5:51,5:51
24,Tyler,Wilkie,2:20,5:43,5:43
25,Nellie,Rose,2:20,5:39,5:39
26,Harrison,Kelly,2:30,5:35,5:35
27,Georgia,Pearce,2:30,5:35,5:35
28,Abbey,Cartner,2:30,5:30,5:30
29,Nick,Meharry,2:30,5:26,5:26
30,Henry,Cordell,2:40,5:17,5:17
31,Tim,Creer,2:40,5:17,5:17
32,Vincent,Weatherhead,2:40,5:17,5:17
33,Max,Rowe,2:50,5:14,5:14
34,Kaidyn,Tucker,2:50,5:14,5:14
35,Luke,Feuerherdt,2:50,5:10,5:10
36,Nina,Lenard,3:00,5:3,5:03
37,Beatrice,Lonsdale,3:00,5:3,5:03
38,Lachlan,Feuerherdt,3:00,4:58,4:58
39,Emily,Heislers,3:10,4:52,4:52
40,Emerson,Sim,3:10,4:46,4:46
41,Jack,Meharry,3:20,4:45,4:45
42,Floyd,Cartner,3:20,4:37,4:37
43,Melissa,Douglas,3:30,4:30,4:30
44,Tullie,Rowe,3:40,4:18,4:18
45,Jake,Lyons,3:50,4:11,4:11
46,Noah,Walsh,3:50,4:10,4:10
47,Brayden,Roberts,3:50,4:7,4:07