Place,Member,First,Last,Start,Pace,Est Time
1,173,Melanie,Cuzzillo,00:50,06:54,0:55:12.0
2,2,Alan,East,01:20,06:50,0:54:40.0
3,145,Joshua,Condon,04:40,06:25,0:51:20.0
4,303,Paula,Meade,05:20,06:20,0:50:40.0
5,149,Janelle,Giffin,06:30,06:11,0:49:28.0
6,66,Megan,McDonald,07:00,06:08,0:49:04.0
7,37,John,Doering,07:10,06:06,0:48:48.0
8,196,Kathryne,Charnas,07:10,06:06,0:48:48.0
9,100,Justine,Rowe,07:20,06:05,0:48:40.0
10,329,Jolie,Middleton,08:10,05:59,0:47:52.0
11,233,Sue,Condon,08:30,05:56,0:47:28.0
12,40,Aida,Escall,08:40,05:55,0:47:20.0
13,57,Adam,Henderson,08:40,05:55,0:47:20.0
14,77,Brad,Russell,08:40,05:55,0:47:20.0
15,186,Jason,Anderton,08:40,05:55,0:47:20.0
16,16,Jennifer,Lee,09:30,05:49,0:46:32.0
17,214,Amy,Sim,09:40,05:47,0:46:16.0
18,98,Tanya,Fleming,10:00,05:45,0:46:00.0
19,189,Tim,Creer,10:00,05:45,0:46:00.0
20,197,Sue,Taylor,10:10,05:44,0:45:52.0
21,84,Craig,Green,10:20,05:42,0:45:36.0
22,11,Jane,McCaig,10:30,05:41,0:45:28.0
23,210,Fiona,Dangerfield,10:40,05:40,0:45:20.0
24,76,Cara,Smith,10:50,05:39,0:45:12.0
25,52,Leah,Cripps,11:10,05:36,0:44:48.0
26,334,Alex,Tranter,11:20,05:35,0:44:40.0
27,87,Frances,Walsh,11:30,05:34,0:44:32.0
28,237,Lou,Bray,11:30,05:34,0:44:32.0
29,194,Melanie,Woods,11:40,05:32,0:44:16.0
30,89,Natalie,Watson,11:50,05:31,0:44:08.0
31,199,Shann,Anderson,11:50,05:31,0:44:08.0
32,321,Brett,Houlden,12:20,05:28,0:43:44.0
33,81,Laura,Terry,12:20,05:27,0:43:36.0
34,123,Harry,Terry,12:20,05:27,0:43:36.0
35,127,Alison,McCullagh,12:30,05:26,0:43:28.0
36,333,Jon,McIntosh,12:30,05:26,0:43:28.0
37,331,Scott,Roberts,12:50,05:24,0:43:12.0
38,74,Maree,Platt,13:20,05:20,0:42:40.0
39,130,David,Pitson,13:20,05:20,0:42:40.0
40,268,Kirrily,Hall,13:40,05:18,0:42:24.0
41,181,Rob,Redmond,13:40,05:17,0:42:16.0
42,6,Shayne,Rushan,14:00,05:15,0:42:00.0
43,54,Kevin,deVries,14:00,05:15,0:42:00.0
44,91,Melissa,Wilkie,14:00,05:15,0:42:00.0
45,111,Troy,Davis,14:00,05:15,0:42:00.0
46,363,Philippa,Morris,14:10,05:14,0:41:52.0
47,370,James,Deacon,14:10,05:14,0:41:52.0
48,20,John,McCullagh,14:20,05:12,0:41:36.0
49,59,Tina,McBain,14:20,05:12,0:41:36.0
50,302,Peter,Noble,14:20,05:12,0:41:36.0
51,359,Anne,McIntosh,14:30,05:11,0:41:28.0
52,180,Lauren,Hancock,14:40,05:10,0:41:20.0
53,183,Janet,Hodnet,14:50,05:09,0:41:12.0
54,309,Blaze,Houlden,15:00,05:07,0:40:56.0
55,4,Gary,Crouch,15:20,05:05,0:40:40.0
56,251,Beth,Lavery,15:40,05:02,0:40:16.0
57,47,Genevieve,Green,15:50,05:01,0:40:08.0
58,35,Conor,Cunningham,16:00,05:00,0:40:00.0
59,45,Helen,Kavanagh,16:10,04:59,0:39:52.0
60,5,Jenny,Buchanan,16:20,04:58,0:39:44.0
61,315,Paul,Lomax,16:20,04:58,0:39:44.0
62,339,James,Toomey,16:20,04:57,0:39:36.0
63,162,Natalie,Jacobson,16:30,04:56,0:39:28.0
64,161,Amelia,Evans,16:50,04:54,0:39:12.0
65,350,David,Cripps,16:50,04:54,0:39:12.0
66,12,Josie,Aitken,17:00,04:52,0:38:56.0
67,330,Kate,Hadkins,17:00,04:52,0:38:56.0
68,22,Ross,Douglas,17:10,04:51,0:38:48.0
69,296,Ashlee,Diston,17:20,04:50,0:38:40.0
70,13,Gavin,Fiedler,17:40,04:48,0:38:24.0
71,29,Alison,Cartner,17:40,04:48,0:38:24.0
72,39,Melissa,Douglas,17:40,04:47,0:38:16.0
73,107,Hayden,Brook,17:40,04:47,0:38:16.0
74,307,Philip,Shambrook,17:40,04:47,0:38:16.0
75,90,Rory,Weightman,18:00,04:45,0:38:00.0
76,236,Harry,Seaward,18:10,04:44,0:37:52.0
77,241,Andrea,Smith,18:20,04:43,0:37:44.0
78,165,Jake,Power,18:30,04:41,0:37:28.0
79,352,Amy,Holmes,18:30,04:41,0:37:28.0
80,3,Alan,Buchanan,18:40,04:40,0:37:20.0
81,116,Roy,Preece,18:40,04:40,0:37:20.0
82,18,Georgie,Lanyon,19:00,04:38,0:37:04.0
83,14,Lisa,Wilkinson,19:00,04:37,0:36:56.0
84,308,Chris,Giffin,19:00,04:37,0:36:56.0
85,38,Cameron,Turnbull,19:10,04:36,0:36:48.0
86,9,Trinity,Sanderson,19:20,04:35,0:36:40.0
87,65,Ben,McDermid,19:20,04:35,0:36:40.0
88,117,Ingrid,Douglass,19:20,04:35,0:36:40.0
89,55,Justin,Lee,19:30,04:34,0:36:32.0
90,49,David,Heislers,19:40,04:33,0:36:24.0
91,93,Erica,Wilkinson,19:40,04:33,0:36:24.0
92,299,Jay,Sanderson,19:40,04:33,0:36:24.0
93,60,Greg,McBain,19:50,04:31,0:36:08.0
94,78,Mark,Saxon,19:50,04:31,0:36:08.0
95,203,Tullie,Rowe,20:00,04:30,0:36:00.0
96,384,Andrew,Wilkie,20:00,04:30,0:36:00.0
97,17,Karl,Lanyon,20:10,04:29,0:35:52.0
98,346,Paul,Vickery,20:10,04:29,0:35:52.0
99,26,Ryan,Brook,20:20,04:28,0:35:44.0
100,34,Matthew,Creer,20:20,04:28,0:35:44.0
101,231,Paul,Seaward,20:40,04:25,0:35:20.0
102,317,John,Flood,20:40,04:25,0:35:20.0
103,109,Tim,Lovell,20:50,04:24,0:35:12.0
104,351,Matt,Holmes,21:00,04:23,0:35:04.0
105,31,Charles,Chambers,21:00,04:22,0:34:56.0
106,70,Els,Viester,21:10,04:21,0:34:48.0
107,80,Bridie,Blake-Burrows,21:20,04:20,0:34:40.0
108,96,Steve,Brereton,21:30,04:19,0:34:32.0
109,94,David,Lonsdale,21:40,04:18,0:34:24.0
110,75,David,Sebastian,21:40,04:17,0:34:16.0
111,167,Jack,Meade,22:00,04:15,0:34:00.0
112,15,Rebecca,Wilkinson,22:10,04:14,0:33:52.0
113,85,Joanne,Russell,22:20,04:12,0:33:36.0
114,163,Shai,O'Brien,22:20,04:12,0:33:36.0
115,143,Maxine,Paholek,22:30,04:11,0:33:28.0
116,61,Chris,McCormack,23:00,04:08,0:33:04.0
117,137,Anton,Paholek,23:00,04:08,0:33:04.0
118,10,Lee,Bray,23:00,04:07,0:32:56.0
119,118,Tim,Lauder,23:00,04:07,0:32:56.0
120,125,Sarah,Jalim,23:00,04:07,0:32:56.0
121,343,Todd,Cody,23:40,04:02,0:32:16.0
122,336,Brock,Prime,24:10,03:59,0:31:52.0
123,95,Jason,Sim,24:20,03:58,0:31:44.0
124,42,Craig,Feuerherdt,24:40,03:55,0:31:20.0
125,63,John,Robinson,24:40,03:55,0:31:20.0
126,8,Rik,McCaig,25:40,03:48,0:30:24.0
127,88,Brian,Watson,25:50,03:46,0:30:08.0
128,247,Ross,McPhee,26:00,03:45,0:30:00.0
129,23,Michael,Bieleny,26:20,03:43,0:29:44.0
130,51,Andrew,Hosking,26:20,03:43,0:29:44.0
131,33,Andrew,Creer,26:40,03:40,0:29:20.0
132,97,Adam,Fleming,27:00,03:38,0:29:04.0
133,285,Luke,Crameri,27:00,03:38,0:29:04.0
134,166,David,Meade,27:20,03:35,0:28:40.0
135,62,Lee,McCullagh,27:30,03:34,0:28:32.0
136,115,Alexander,Evans,27:30,03:34,0:28:32.0
137,86,Fraser,Walsh,28:00,03:30,0:28:00.0
138,120,Tom,Barkmeyer,28:00,03:30,0:28:00.0
139,144,Nathan,Meade,28:30,03:26,0:27:28.0
140,46,Richard,Gleisner,28:40,03:25,0:27:20.0
141,48,Matthew,Heislers,28:40,03:25,0:27:20.0
142,27,Andrew,Buchanan,30:40,03:10,0:25:20.0
