Place,First,Last,NET Time,Pace,Diff
1,Clemence,Lavie,0:24:50.6,05:57,-00:52.3
2,Chantal,Taylor,0:31:17.5,07:30,+00:30.2
3,James,Harper,0:19:21.7,04:39,+00:56.7
4,Emma,Colt,0:20:05.7,04:49,+01:07.3
5,Mitch,Whitham,0:18:07.5,04:21,+01:14.2
6,Jayson,Carter,0:19:27.7,04:40,+01:31.8
7,Chase,Carter,0:22:07.6,05:18,+01:45.8
8,Lisa,Wilkinson,0:22:47.0,05:28,+02:25.2
9,Callen,Bayliss,0:21:08.3,05:04,+02:26.6
10,Alison,Cartner,0:25:44.2,06:10,+02:39.8
11,Gavin,Fiedler,0:26:06.7,06:16,+02:49.7
12,Emily,Harris,0:23:22.8,05:36,+03:30.2
13,Danny,Burgess,0:23:05.4,05:32,+03:37.8
14,Anthony,Byrne,0:22:05.1,05:18,+03:44.2
15,Ruby,Carter,0:28:57.3,06:57,+06:01.2
16,Sihanna,Carter,0:34:50.6,08:21,+06:16.7
NEW,Brooke,Carter,0:40:54.8,09:49
