place,first,last,net Time
1,Jack,Doering,28.21
2,Jody,Pickering,27.38
3,John,Jackel,27.4
4,Daryn,Taylor,27.39
5,Janet,Hodnett,23.11
6,Alan,Buchanan,20.33
7,Wolf,Heiden,20.34
8,Jessie,Wilson,23.07
9,Andrew,Evely,22.03
10,Fraser,Walsh,21.39
11,Justin,Lee,21.27
12,Leila,Bieleny,23.21
13,Pat,Kenny,17.18
14,Nick,Walsh,22.21
15,Jenny,Buchanan,21.58
16,Brad,Russell,26.02
17,Lisa,Wilkinson,21.33
18,Ben,McDermid,22.19
19,Ernie,Fleming,21.22
20,Michael,Bieleny,18.23
21,Alison,Cartner,23.17
22,Gaby,Walsh,25.38
23,Tony,Gellatly,22.32
24,Tracy,Wilson,20.38
25,Adam,Fleming,17.13
26,Leon,Hamond,21.2
27,Michael,Hogan,22.27
28,Jake,Russell,24.11
29,Laura,Douglas,25.15
30,Ingrid,Douglass,23.06
31,Shane,Freer,17.02
32,Julie,Hogan,31.34
33,Shayne,Rushan,28.57
34,David,Tarrant,20.39
35,Gary,Crouch,21.53
36,David,Perris,21.25
37,Gavin,Fiedler,21.58
38,Alison,McCullagh,25
39,Mark,Nicholson,25.13
40,Ernie,Fleming,38.49
41,David,Ottrey,21.51
42,Greg,McBain,23.22
43,Danny,Conway,23.42
44,Stewart,Scoble,24.35
45,Anne,Theobald,26.47
46,Jodie,Scoble,28.56
47,Alan,East,32
48,Mick,McCarthy,27.26