place,first,last,net Time,diff
1,Eliza,Christie,6:27,- 0:38
2,Amy,Bilsborrow,6:58,- 0:32
3,Stephanie,Roberts,4:32,+ 0:02
4,Dylan,Evans,5:00,+ 0:10
5,Bailey,Evans,3:46,+ 0:12
6,Livinia,Douglass,7:03,+ 0:35
7,Brayden,Roberts,5:03,+ 0:38
8,Xavier,Walsh,4:06,+ 0:45
9,Imogen,Douglass,7:08,+ 0:48
10,Nellie,Rose,7:28,+ 0:58