PLACE, FIRST, LAST, TIME, PACE, CLUB
1,Grace,Mulqueen,0:03:39.7,03:39.7,UNI
2,April,Wainwright,0:03:42.9,03:42.9,UNI
3,Milanke,Haasbroek,0:04:04.1,04:04.1,UNI
4,Emma,Colt,0:04:11.9,04:11.9,UNI
5,Abby,Colt,0:04:21.5,04:21.5,UNI
6,Erin,Bradshaw,0:04:22.9,04:22.9,UNI
7,Daphine,Andrews,0:04:23.8,04:23.8,HARRIERS
8,Lyra,Haythorpe,0:04:49.4,04:49.4,UNI
9,Georgie,Wings,0:04:49.9,04:49.9,HARRIERS
10,Magnolia,Andrews,0:04:56.9,04:56.9,HARRIERS
11,Addison ,Bickerdike,0:05:00.8,05:00.8,OTHER
12,Sienna,Bayliss,0:05:02.0,05:02.0,UNI
13,Bonnie,Scott,0:05:08.6,05:08.6,UNI
14,Remi,Matthews,0:05:08.8,05:08.8,HARRIERS
15,Jemma,Norton,0:05:14.3,05:14.3,SOUTH BENDIGO
16,Zahli,Bayliss,0:05:22.1,05:22.1,UNI
17,Matilda,Cinatl,0:05:24.4,05:24.4,HARRIERS
18,Alice,Griffin,0:05:25.0,05:25.0,UNI
19,Anna,Scott,0:05:30.0,05:30.0,UNI
20,Ruby,Metherell,0:05:41.9,05:41.9,HARRIERS
21,Piper,Ferguson,0:05:44.9,05:44.9,EAGLEHAWK
22,Sihanna,Carter,0:05:45.0,05:45.0,UNI
23,Ivie,Safstrom,0:05:45.2,05:45.2,UNI
24,Alirah,Norton,0:05:48.6,05:48.6,SOUTH BENDIGO
25,Eleanor,Stoltz,0:06:04.7,06:04.7,UNI
26,Zarwa,Daneen,0:06:10.6,06:10.6,UNI
27,Kylie,Campbell,0:06:42.5,06:42.5,SOUTH BENDIGO
28,Luella,Griffin,0:07:31.3,07:31.3,UNI
29,Audrey,Bradshaw,0:07:33.1,07:33.1,UNI
