PLACE, FIRST, LAST, TIME, PACE, CLUB
1,Milanke,Haasbroek,0:04:04.1,04:04.1,UNI
2,Daphine,Andrews,0:04:23.8,04:23.8,HARRIERS
3,Lyra,Haythorpe,0:04:49.4,04:49.4,UNI
4,Georgie,Wings,0:04:49.9,04:49.9,HARRIERS
5,Sienna,Bayliss,0:05:02.0,05:02.0,UNI
6,Bonnie,Scott,0:05:08.6,05:08.6,UNI
7,Remi,Matthews,0:05:08.8,05:08.8,HARRIERS
8,Matilda,Cinatl,0:05:24.4,05:24.4,HARRIERS
9,Piper,Ferguson,0:05:44.9,05:44.9,EAGLEHAWK
10,Alirah,Norton,0:05:48.6,05:48.6,SOUTH BENDIGO
