place,first,last,net Time,diff
1,David,Heislers,35:02,- 1:54
2,Ingrid,Douglass,34:43,- 1:41
3,Laura,Terry,39:51,- 1:37
4,Rebecca,Tweed,31:39,- 1:33
5,Brian,Watson,30:29,- 1:31
6,Richard,Gleisner,26:22,- 1:30
7,Maree,Platt,41:37,- 1:27
8,Chris,McCormack,30:59,- 1:25
9,Gavin,Fiedler,34:11,- 1:09
10,Alison,Cartner,36:18,- 1:02
11,Craig,Feuerherdt,30:19,- 1:01
12,Russell,Tremayne,32:35,- 0:37
13,$ Max,Pearse,33:21,+ 0:01
14,Ryan,Brook,35:46,+ 1:46
15,Melissa,Douglas,44:12,+ 5:00