place,first,last,net Time,diff
1,Craig,Feuerherdt,29:19,- 0:59
2,Justin,O'Brien,37:10,- 0:50
3,Leeza,Meharry,36:12,- 0:18
4,Ingrid,Douglass,33:43,- 0:18
5,Brian,Watson,29:49,- 0:06
6,Ben,McDermid,29:35,- 0:06
7,Brad,Russell,37:22,+ 0:07
8,Michael,Bieleny,27:44,+ 0:10
9,David,Heislers,34:37,+ 0:13
10,Shayne,Rushan,36:45,+ 0:15
11,Justin,Lee,34:17,+ 0:16
12,Rebecca,Tweed,31:06,+ 0:18
13,Nicole,Richardson,39:45,+ 0:23
14,Laura,Terry,39:01,+ 0:24
15,Tracy,Wilson,30:14,+ 0:33
16,Maree,Platt,40:50,+ 0:44
17,Alison,Cartner,35:35,+ 0:56
18,Carol,Sing,46:17,+ 3:57
19,Gary,Crouch,42:36,+ 8:35