place,first,last,start,pace,est Time
1,Olivia,Kealy,00:00,7:0,21:00
2,Tiffany,McCullough,00:00,7:0,21:00
3,Moira,Coleman,00:00,7:0,21:00
4,Milla,Finch,00:00,7:0,21:00
5,Kevin,Wheatley,00:00,7:0,21:00
6,Neve,Coleman,00:00,7:0,21:00
7,Cathleen,Farrelly,00:00,7:0,21:00
8,Kathryne,Charnas,00:20,6:55,20:45
9,Ruby,Fletcher,00:50,6:44,20:12
10,Serge,Finch,01:00,6:40,20:00
11,Ella,Fisher,01:00,6:39,19:57
12,Katie,Dean,01:20,6:35,19:45
13,Collette,Fletcher,01:20,6:32,19:36
14,Kath,O'Shea,01:30,6:30,19:30
15,Fiona,Dangerfield,01:30,6:30,19:30
16,Lucy,Terry,01:40,6:28,19:24
17,Lachlan,Walsh,02:20,6:15,18:45
18,Nellie,Rose,02:20,6:15,18:45
19,Karina,Bray,02:20,6:15,18:45
20,Layla,Day,02:30,6:10,18:30
21,William,Gleisner,02:30,6:10,18:30
22,Aoife,Cunningham,02:30,6:10,18:30
23,Murphy,Watson,02:30,6:10,18:30
24,Imogen,Douglass,02:30,6:10,18:30
25,Luke,Creer,02:50,6:5,18:15
26,David,Ashman,02:50,6:5,18:15
27,Eliza,O'Sullivan,03:00,6:0,18:00
28,Hamish,Walker,03:00,6:0,18:00
29,Tom,Colman,03:00,6:0,18:00
30,Oscar,Terry,03:00,6:0,18:00
31,Charlie,Lourie,03:10,5:58,17:54
32,Sophie,Shoebridge,03:10,5:57,17:51
33,Phoebe,Lonsdale,03:20,5:55,17:45
34,Lulu,Hamond,03:20,5:55,17:45
35,Imogen,Thompson,03:20,5:54,17:42
36,Gretel,Douglas,03:20,5:53,17:39
37,Tara,Anderson,03:20,5:53,17:39
38,Nicole,Kelly,03:30,5:50,17:30
39,Rebecca,Ashman,03:30,5:50,17:30
40,Kaidyn,Tucker,03:40,5:48,17:24
41,Amber,Lyons,03:50,5:45,17:15
42,Harry,Terry,03:50,5:45,17:15
43,Catelynd,Wheatley,03:50,5:45,17:15
44,Hanna,Crane,03:50,5:45,17:15
45,Zac,Walsh,04:00,5:41,17:03
46,Tim,Creer,04:00,5:40,17:00
47,Belinda,O'Sullivan,04:00,5:40,17:00
48,Jayden,Padgham,04:00,5:40,17:00
49,Abbey,Saxon,04:00,5:40,17:00
50,Leila,Padgham,04:10,5:38,16:54
51,Henry,Cordell,04:10,5:37,16:51
52,Lachlan,Feuerherdt,04:20,5:35,16:45
53,Danni,Padgham,04:20,5:33,16:39
54,Livinia,Douglass,04:20,5:32,16:36
55,Tracie,Gleisner,04:30,5:30,16:30
56,Lisa,Bortolotto,04:30,5:30,16:30
57,Matthew,Saxon,04:30,5:30,16:30
58,Amy,Sim,04:40,5:26,16:18
59,Micheala,Meharry,04:50,5:24,16:12
60,Megan,McDonald,04:50,5:23,16:09
61,Millie,Lourie,04:50,5:23,16:09
62,Ella,Finch,04:50,5:23,16:09
63,Riley,Tawton,04:50,5:22,16:06
64,James,Kealy,05:00,5:20,16:00
65,Darcy,Tucker,05:00,5:20,16:00
66,Jesse,Delves,05:00,5:20,16:00
67,Andrew,Dean,05:00,5:20,16:00
68,Peter,Thorpe,05:10,5:18,15:54
69,Beatrice,Lonsdale,05:10,5:16,15:48
70,Morgan,Dunn,05:20,5:15,15:45
71,Emily,Heislers,05:20,5:15,15:45
72,Michelle,Perry,05:20,5:15,15:45
73,Lewis,Fisher,05:20,5:15,15:45
74,Amy,Dean,05:30,5:11,15:33
75,Will,Crane,05:40,5:8,15:24
76,Jack,Bombardian,05:40,5:6,15:18
77,Greg,Christie,05:50,5:5,15:15
78,Tom,Meharry,05:50,5:3,15:09
79,Carissa,Brook,05:50,5:2,15:06
80,Ash,Bull,06:00,5:0,15:00
81,Murray,Cordell,06:00,5:0,15:00
82,Sayyu,Hamond,06:00,5:0,15:00
83,Nicholas,Ashman,06:00,5:0,15:00
84,Bailey,Dunn,06:10,4:58,14:54
85,Samara,Finch,06:10,4:58,14:54
86,Tullie,Rowe,06:20,4:55,14:45
87,Luke,Stevens,06:20,4:55,14:45
88,Bella,Livingston,06:20,4:52,14:36
89,Fraser,Lourie,06:30,4:50,14:30
90,Floyd,Cartner,06:30,4:49,14:27
91,Ross,Douglas,06:50,4:45,14:15
92,Blaze,Houlden,06:50,4:42,14:06
93,Sebastian,Rowe,07:00,4:40,14:00
94,Miles,Livingston,07:20,4:35,13:45
95,David,Lonsdale,07:30,4:30,13:30
96,Jack,Cripps,07:30,4:30,13:30
97,Henry,Bombardieri,07:30,4:30,13:30
98,Noah,Walsh,07:30,4:29,13:27
99,Matthew,Creer,07:40,4:28,13:24
100,Shaina,Brook,07:50,4:24,13:12
101,Callum,Tucker,07:50,4:24,13:12
102,John,Rose,08:00,4:20,13:00
103,Bweku,Hamond,08:10,4:18,12:54
104,Leon,Hamond,08:10,4:16,12:48
105,Riley,Walsh,08:20,4:14,12:42
106,Luke,Padgham,08:30,4:10,12:30
107,Maxwell,Pearse,08:50,4:5,12:15
108,Jim,Russell,09:20,3:55,11:45
109,Andrew,Creer,09:40,3:46,11:18
110,Matthew,Heislers,09:50,3:45,11:15
111,Fraser,Walsh,10:30,3:29,10:27