Place,First,Last,NET Time,Pace,Diff
1,Anne,McIntosh,0:34:45.4,05:04.4,-00:44.9
2,John,Flood,0:29:43.6,04:20.4,-00:31.7
3,Ben,McDermid,0:31:07.7,04:32.7,-00:02.4
4,David,Cripps,0:33:44.7,04:55.6,+00:10.8
5,Jon,McIntosh,0:37:25.4,05:27.8,+00:12.3
6,Chris,Giffin,0:32:02.7,04:40.7,+00:25.3
7,Rory,Weightman,0:33:09.3,04:50.4,+00:37.1
8,Rik,McCaig,0:26:32.9,03:52.5,+00:31.1
9,John,Robinson,0:27:32.5,04:01.2,+00:42.7
10,Justin,Lee,0:32:10.3,04:41.8,+00:53.4
11,Chris,McCormack,0:29:32.5,04:18.8,+01:00.0
12,Craig,Feuerherdt,0:27:44.0,04:02.9,+00:54.3
13,Alison,Cartner,0:33:59.3,04:57.7,+01:06.5
14,Tim,Lauder,0:29:11.4,04:15.7,+00:59.4
15,Jennifer,Lee,0:40:54.9,05:58.4,+01:04.3
16,Sarah,Jalim,0:29:20.1,04:16.9,+01:08.1
17,Jenny,Buchanan,0:35:10.5,05:08.1,+01:09.2
18,Rebecca,Wilkinson,0:30:21.5,04:25.9,+01:21.6
19,Lauren,Hancock,0:36:56.4,05:23.6,+01:32.9
20,Leah,Cripps,0:39:52.9,05:49.3,+01:31.3
21,Alan,Buchanan,0:33:35.4,04:54.2,+01:37.4
22,Gavin,Fiedler,0:34:18.4,05:00.5,+01:39.3
23,Shayne,Rushan,0:38:39.2,05:38.6,+01:53.5
24,Philip,Shambrook,0:35:02.2,05:06.9,+01:55.7
25,Ross,Douglas,0:35:30.4,05:11.0,+02:17.1
26,Andrea,Smith,0:34:40.2,05:03.7,+02:21.7
27,Kevin,deVries,0:38:34.1,05:37.8,+02:36.3
28,John,Doering,0:44:26.1,06:29.2,+02:39.0
29,Maree,Platt,0:39:25.7,05:45.4,+02:53.7
30,Sue,Taylor,0:42:19.5,06:10.7,+03:03.1
31,Janelle,Giffin,0:44:23.2,06:28.8,+03:44.6
32,Matthew,Heislers,0:29:26.2,04:17.8,+05:48.3
NEW,Danny,Burgess,0:32:11.0,04:41.9
NEW,Jenni,Jenkins,0:40:42.7,05:56.6
NEW,Russell,Jenkins,0:28:00.7,04:05.4
