Place,First,Last,NET Time,Pace,Diff
1,Thomas,Lee,1:07:09.0,06:43,-12:41.0
2,Fiona,Dangerfield,0:57:21.9,05:44,-01:38.1
3,Gavin,Fiedler,0:51:27.1,05:09,-01:02.9
4,Alan,East,1:06:41.1,06:40,-00:58.9
5,Nigel,Preston,0:34:27.0,03:27,-00:43.0
6,Todd,Foster,0:50:10.9,05:01,-00:19.1
7,Tarli,Bird,0:37:59.1,03:48,+00:19.1
8,Mumtaz,Hussain,0:47:08.1,04:43,+00:28.1
9,Craig,Feuerherdt,0:38:41.3,03:52,+00:31.3
10,Janet,Hodnett,0:51:50.5,05:11,+00:50.5
11,Darren,Rowe,0:50:51.3,05:05,+00:51.3
12,Ross,Douglas,0:51:26.3,05:09,+01:16.3
13,Liz,Foster,0:55:57.2,05:36,+01:17.2
14,David,Lonsdale,0:42:46.8,04:17,+01:26.8
15,Alison,Cartner,0:50:31.9,05:03,+01:31.9
16,Chris,Giffin,0:43:46.5,04:23,+02:06.5
17,Justin,Lee,0:47:57.1,04:48,+02:47.1
18,Ben,McDermid,0:46:28.1,04:39,+04:48.1
19,Stephen,van Rees,0:41:26.7,04:09,+05:26.7
20,Vicki,Lane,1:01:31.1,06:09,+08:11.1
21,Craig,Green,0:51:24.4,05:08,+11:34.4
NEW,David,Burrow,0:55:49.7,05:35
