PLACE, FIRST, LAST, TIME, PACE, CLUB
1,Kate,Wilson,0:03:56.3,03:56.3,SOUTH BENDIGO
2,Charlotte,Murphy,0:03:57.0,03:57.0,UNI
3,Emma,Benetti,0:04:10.0,04:10.0,HARRIERS
4,Jasmine,Murphy,0:04:24.7,04:24.7,UNI
5,Ebony,Woodward,0:04:28.7,04:28.7,UNI
6,April,Wainwright,0:04:34.3,04:34.3,UNI
7,Eryn,McManus,0:04:47.1,04:47.1,UNI
8,Eiliyah,Daneen,0:05:00.8,05:00.8,UNI
9,Stella,Nalder,0:05:04.3,05:04.3,EAGLEHAWK
10,Skylar,Woodward,0:05:21.5,05:21.5,UNI
11,Ruby,Carter,0:05:32.9,05:32.9,UNI
12,Sihanna,Carter,0:05:52.2,05:52.2,UNI
13,Ruby,Douglas,0:06:07.5,06:07.5,UNI
14,Ellie,Beesley,0:06:15.2,06:15.2,UNI
15,Kaylee,Llewellyn,0:06:39.1,06:39.1,EAGLEHAWK
16,Polly ,Bryne,0:06:41.3,06:41.3,UNI
17,Adele,Riordan,0:07:07.6,07:07.6,HARRIERS
18,Kim,Elkington,0:07:07.7,07:07.7,HARRIERS
