Place,First,Last,NET Time,Pace,Diff
1,Angus,McPherson,0:45:16.0,05:44,-00:41.1
2,Tim,Lauder,0:32:17.3,04:05,-00:37.7
3,Ben,McDermid,0:33:15.6,04:13,-00:34.7
4,Michael,Bieleny,0:30:28.3,03:51,-00:28.2
5,Craig,Green,0:30:38.6,03:53,-00:17.9
6,Stephen,Wainwright,0:38:44.1,04:54,+00:01.5
7,Clare,Montgomery,0:40:39.8,05:09,+00:06.6
8,Chris,Giffin,0:35:28.3,04:29,+00:42.7
9,Nigel,Preston,0:28:41.5,03:38,+00:54.6
10,Tim,Lovell,0:35:52.9,04:33,+00:59.4
11,Lauren,Hancock,0:41:24.2,05:14,+01:06.8
12,Alan,Buchanan,0:37:59.4,04:49,+01:07.4
13,Sarah,Jalim,0:32:11.0,04:04,+01:14.5
14,Shayne,Rushan,0:46:26.1,05:53,+01:16.4
15,Josephine,Robinson,0:49:29.3,06:16,+01:17.9
16,Rik,McCaig,0:31:38.5,04:00,+01:21.5
17,Alison,Cartner,0:40:17.8,05:06,+01:27.3
18,Rebecca,Wilkinson,0:35:17.6,04:28,+01:35.2
19,Justin,Lee,0:38:33.0,04:53,+02:04.7
20,Sue,Taylor,0:49:09.2,06:13,+02:08.9
21,David,Lonsdale,0:36:30.6,04:37,+02:32.4
22,Paul,Lomax,0:43:58.4,05:34,+03:09.4
23,Beth,Lavery,0:44:41.5,05:39,+03:13.0
24,Andrea,Smith,0:41:12.3,05:13,+03:17.1
25,Ross,Douglas,0:42:18.8,05:21,+03:44.1
26,Frances,Walsh,0:56:13.2,07:07,+04:04.8
27,David,Heislers,0:40:10.6,05:05,+05:17.1
28,Alan,East,0:55:22.6,07:01,+06:15.9
NEW,Matthew,Creer,0:39:03.0,04:57
NEW,Chloe,Green,0:52:03.5,06:35
NEW,Greg,Carter,0:35:48.6,04:32
NEW,Emma,Gibbons,0:47:49.2,06:03
NEW,Lukas,Jara,0:33:54.8,04:18
NEW,Travis,Edwards,0:38:44.6,04:54
