place,first,last,net Time,diff
1,Josephine,Robinson,20:10,-0:50
2,Jenelle,Seaward,17:41,-0:49
3,Alannah,Rielley,18:21,-0:40
4,Beatrice,Lonsdale,15:52,-0:42
5,Alexander,Evans,11:25,-0:40
6,Janelle,Giffin,18:01,-0:25
7,Melanie,Makris,19:34,-0:22
8,Bridie,Blake-Burrows,13:37,-0:23
9,Jack,Meade,12:52,-0:15
10,Harry,Seaward,14:23,-0:16
11,Rebecca,Ashman,19:43,-0:17
12,Adam,Fleming,11:23,-0:10
13,Paula,Rielley,23:36,-0:02
14,Lucinda,Terry,17:46,-0:02
15,Jasmine,Rielley,23:36,-0:02
16,Aaron,Hamilton,16:17,0:15
17,Tullie,Rowe,14:48,0:20
18,Fiona,Dangerfield,19:48,0:16
19,Max,Rowe,18:46,0:24
20,Phoebe,Lonsdale,17:16,0:38
New,Chris,Giffin,15:03,
New,Matthew,Heislers,10:54,