Place,Member,First,Last,Start,Pace,Est Time
1,435,Ashton ,Chivers,00:00,08:00,0:37:55.2
2,485,Alannah,Ralph,00:00,08:00,0:37:55.2
3,1084,Naghmana,Tehseen,00:00,08:00,0:37:55.2
4,433,Leonie,Chivers,00:50,07:50,0:37:07.8
5,437,Grace,Chivers,01:10,07:46,0:36:48.8
6,225,Lesley,Fabian,01:30,07:40,0:36:20.4
7,484,Mel,Ralph,03:20,07:18,0:34:36.1
8,1097,Evie,Niblett,03:30,07:15,0:34:21.9
9,1020,Mumtaz,Hussain,03:40,07:14,0:34:17.2
10,464,Jen,Pollard,04:00,07:09,0:33:53.5
11,1082,Mikayla,Kirkby,04:10,07:07,0:33:44.0
12,159,Renelle,McManus,04:20,07:06,0:33:39.2
13,3764,Belinda,Dobbin,04:30,07:03,0:33:25.0
14,482,Cohen,Smith,05:10,06:55,0:32:47.1
15,40,Aida,Escall,05:30,06:51,0:32:28.1
16,3752,Chloe,Beesley,05:30,06:51,0:32:28.1
17,436,Lily,Chivers,06:10,06:42,0:31:45.5
18,434,Grant,Chivers,06:10,06:41,0:31:40.7
19,1026,Eiliyah,Daneen,06:10,06:41,0:31:40.7
20,3776,Kathleen,Pleasants,06:20,06:40,0:31:36.0
21,3798,Charli,Hosking,06:20,06:40,0:31:36.0
22,489,David,Fagg,06:30,06:38,0:31:26.5
23,354,Alice,McIntosh,07:00,06:31,0:30:53.3
24,246,Poppy,Wainwright,07:10,06:30,0:30:48.6
25,356,Lynley,McDonald,07:10,06:30,0:30:48.6
26,824,Andrea,Stoltz,07:10,06:30,0:30:48.6
27,241,Andrea,Smith,07:10,06:29,0:30:43.9
28,1028,Mel,Debnam-Smith,07:10,06:29,0:30:43.9
29,1092,Sihanna,Carter,07:30,06:26,0:30:29.6
30,3778,Sebastian,Stewart,08:10,06:17,0:29:47.0
31,52,Leah,Cripps,08:10,06:16,0:29:42.2
32,250,Tully,Cripps,08:30,06:12,0:29:23.3
33,3762,Leo,Stoltz,09:10,06:03,0:28:40.6
34,453,Marcene,Haythrope,09:20,06:02,0:28:35.9
35,3742,Jemma,Carter,09:20,06:02,0:28:35.9
36,281,Will,de Vries,09:30,06:00,0:28:26.4
37,808,Lottie,Macmunn,09:40,05:58,0:28:16.9
38,74,Maree,Platt,09:40,05:57,0:28:12.2
39,16,Jennifer,Lee,09:50,05:55,0:28:02.7
40,54,Kevin,de Vries,09:50,05:55,0:28:02.7
41,458,Caitlin,Clarke,10:10,05:52,0:27:48.5
42,407,Cadi,Watchman,10:20,05:50,0:27:39.0
43,408,Trevor,Watchman,10:20,05:50,0:27:39.0
44,442,Marina,Damijanic,10:20,05:50,0:27:39.0
45,1046,Bonnie,Scott,10:20,05:50,0:27:39.0
46,1076,Sarah,Trew,10:20,05:50,0:27:39.0
47,39,Melissa,Douglas,10:30,05:48,0:27:29.5
48,466,Francesco,Biasi,10:30,05:48,0:27:29.5
49,1089,Ruby,Carter,10:30,05:48,0:27:29.5
50,3743,Liam,Carter,10:30,05:47,0:27:24.8
51,322,Thom,Hosking,10:40,05:45,0:27:15.3
52,400,Darren,Rowe,10:40,05:45,0:27:15.3
53,409,Merridee,Griffin,10:40,05:45,0:27:15.3
54,465,Deb,Banks,10:40,05:45,0:27:15.3
55,3753,Logan,Beesley,10:40,05:45,0:27:15.3
56,398,Angus,McPherson,10:50,05:43,0:27:05.8
57,1085,Michelle,Scott,10:50,05:43,0:27:05.8
58,1096,Miriam,Niblett,11:00,05:41,0:26:56.3
59,3720,Bec,Beesley,11:00,05:41,0:26:56.3
60,392,Mark,Logan,11:00,05:40,0:26:51.6
61,805,Bradie,Sheldon,11:00,05:40,0:26:51.6
62,359,Anne,McIntosh,11:10,05:38,0:26:42.1
63,804,Abby,Colt,11:20,05:36,0:26:32.6
64,1065,Sonya,Walker,11:20,05:36,0:26:32.6
65,3711,Eryn,McManus,11:30,05:34,0:26:23.2
66,463,Lila,Hensley,11:40,05:32,0:26:13.7
67,809,Nick,Best,11:50,05:31,0:26:08.9
68,267,Kayla,McManus,11:50,05:30,0:26:04.2
69,480,Casey,Smith,11:50,05:30,0:26:04.2
70,803,Emma,Colt,11:50,05:30,0:26:04.2
71,440,Sophie,Pedrotti,12:10,05:25,0:25:40.5
72,50,Harry,Cripps,12:20,05:24,0:25:35.8
73,266,Lewis,Lonsdale,12:40,05:20,0:25:16.8
74,441,Jimmy,Byrne,12:40,05:20,0:25:16.8
75,406,Mietta,Watchman,12:50,05:18,0:25:07.3
76,810,Owen,Best,12:50,05:17,0:25:02.6
77,1090,Chase,Carter,13:00,05:16,0:24:57.8
78,1035,Braxton,Safstrom,13:00,05:15,0:24:53.1
79,283,Lily,Sanderson,13:10,05:14,0:24:48.4
80,449,Belinda,Whelan,13:10,05:14,0:24:48.4
81,1025,Liz,Foster,13:10,05:14,0:24:48.4
82,420,Sarah,Crowley,13:20,05:11,0:24:34.1
83,22,Ross,Douglas,13:30,05:10,0:24:29.4
84,473,James,Bradshaw,13:30,05:10,0:24:29.4
85,1077,Dean,Trew,13:30,05:10,0:24:29.4
86,3760,Karl,Stoltz,13:30,05:10,0:24:29.4
87,1024,Todd,Foster,13:40,05:08,0:24:19.9
88,451,Julia,Starr,13:50,05:05,0:24:05.7
89,1047,Harry,Scott,13:50,05:04,0:24:01.0
90,276,Joshua,Feuerherdt,14:10,05:00,0:23:42.0
91,477,Michael,Carney,14:10,05:00,0:23:42.0
92,3774,Ryan,Haythorpe,14:10,05:00,0:23:42.0
93,425,Nathan,Crowley,14:20,04:59,0:23:37.3
94,355,Millie,McIntosh,14:30,04:57,0:23:27.8
95,826,Felix,Stoltz,14:30,04:57,0:23:27.8
96,3763,Brett,Dobbin,14:30,04:57,0:23:27.8
97,55,Justin,Lee,14:40,04:55,0:23:18.3
98,457,Emily,Harris,14:40,04:55,0:23:18.3
99,418,Vanessa,Bull,14:40,04:54,0:23:13.6
100,422,Quinn,Casey,14:50,04:52,0:23:04.1
101,333,Jon,McIntosh,15:00,04:50,0:22:54.6
102,455,Suzie,Pedrotti,15:00,04:50,0:22:54.6
103,14,Lisa,Wilkinson,15:10,04:48,0:22:45.1
104,481,Daniel,Smith,15:10,04:48,0:22:45.1
105,3788,Matthew,Schubert,15:10,04:48,0:22:45.1
106,421,Alicia,Crowley,15:10,04:47,0:22:40.4
107,3702,Vicki,Bayliss,15:20,04:46,0:22:35.6
108,488,John,Starr,15:20,04:45,0:22:30.9
109,497,Oscar,Lethbridge,15:30,04:44,0:22:26.2
110,817,Ewen,Jones,15:30,04:44,0:22:26.2
111,3730,Greg,Carter,15:30,04:44,0:22:26.2
112,474,Erin,Bradshaw,15:40,04:41,0:22:11.9
113,386,Danny,Burgess,15:50,04:40,0:22:07.2
114,1023,Matthew,Schepisi,16:00,04:37,0:21:53.0
115,459,Archie,Clarke,16:10,04:35,0:21:43.5
116,109,Tim,Lovell,16:20,04:34,0:21:38.8
117,381,April,Wainwright,16:20,04:34,0:21:38.8
118,147,Lachlan,Feuerherdt,16:30,04:32,0:21:29.3
119,183,Janet,Hodnett,16:30,04:31,0:21:24.5
120,3704,Callen,Bayliss,16:30,04:31,0:21:24.5
121,3754,Elijah,Willits,16:40,04:30,0:21:19.8
122,15,Rebecca,Wilkinson,16:40,04:29,0:21:15.1
123,3737,Ebony,Beesley,16:50,04:27,0:21:05.6
124,428,Matthew,Bell,17:00,04:25,0:20:56.1
125,825,Oscar,Stoltz,17:00,04:25,0:20:56.1
126,3766,Anthony,Byrne,17:00,04:24,0:20:51.4
127,49,David,Heislers,17:20,04:20,0:20:32.4
128,65,Ben,McDermid,17:30,04:19,0:20:27.7
129,1080,Jayson,Carter,17:30,04:18,0:20:22.9
130,1060,William,Trew,17:40,04:16,0:20:13.4
131,272,Abbey,Cartner,17:50,04:15,0:20:08.7
132,84,Craig,Green,17:50,04:14,0:20:04.0
133,1083,Rebecca,Kirkby,17:50,04:14,0:20:04.0
134,452,Noah,Pedrotti,18:00,04:13,0:19:59.2
135,394,Rhianna,Wik-Gamble,18:00,04:12,0:19:54.5
136,1051,Kane,Safstrom,18:00,04:12,0:19:54.5
137,191,Phoebe,Lonsdale,18:10,04:10,0:19:45.0
138,305,Jonty,McDermid,18:10,04:10,0:19:45.0
139,3701,Nigel,Preston,18:10,04:10,0:19:45.0
140,3755,Noah,Willits,18:20,04:07,0:19:30.8
141,3714,Tanner,Fear,18:30,04:06,0:19:26.0
142,189,Tim,Creer,18:30,04:05,0:19:21.3
143,203,Tullie,Rowe,18:40,04:04,0:19:16.6
144,438,Damian,Hughes,19:00,03:59,0:18:52.9
145,1099,Kelvin,Niblett,19:10,03:57,0:18:43.4
146,171,Oliver,Sanderson,19:30,03:54,0:18:29.2
147,358,Lewis,McIntosh,19:40,03:51,0:18:14.9
148,277,Luke,Feuerherdt,19:50,03:49,0:18:05.5
149,423,Hugh,Casey,19:50,03:48,0:18:00.7
150,432,Jarrod,Epps,19:50,03:48,0:18:00.7
151,1029,James,Trew,19:50,03:48,0:18:00.7
152,274,Avery,McDermid,20:00,03:47,0:17:56.0
153,51,Andrew,Hosking,20:10,03:44,0:17:41.8
154,275,Max,Rowe,20:30,03:41,0:17:27.5
155,3738,Mason,Beesley,21:10,03:33,0:16:49.6
156,169,Floyd,Cartner,21:10,03:32,0:16:44.9
