Place,First,Last,NET Time,Pace,Diff
1,Matilda,Compston,0:06:16.5,06:17,-01:05.5
2,Jemma,Carter,0:04:27.4,04:27,-00:51.6
3,Zarwa,Daneen,0:06:39.3,06:39,-00:35.7
4,Angus,Carney,0:05:44.0,05:44,-00:28.0
5,Jack,Haythorpe,0:05:23.4,05:23,-00:22.6
6,Alec,Bradshaw,0:05:17.6,05:18,-00:21.4
7,Jimmy,Byrne,0:04:33.9,04:34,-00:21.1
8,Abby,Colt,0:04:20.4,04:20,-00:20.6
9,Lottie,Macmunn,0:04:39.2,04:39,-00:18.8
10,Erin,Bradshaw,0:04:00.9,04:01,-00:18.1
11,James,Bradshaw,0:05:59.6,06:00,-00:16.4
12,Leo,Stoltz,0:04:55.3,04:55,-00:14.7
13,Eden,Haythorpe,0:05:06.0,05:06,-00:14.0
14,Mitchell,Nurse,0:04:34.2,04:34,-00:12.8
15,Bonnie,Scott,0:05:01.3,05:01,-00:12.7
16,Lyra,Haythorpe,0:04:54.2,04:54,-00:10.8
17,Harry,Scott,0:03:59.0,03:59,-00:09.0
18,Jonty,McDermid,0:03:33.1,03:33,-00:06.9
19,Samuel,Nurse,0:05:43.2,05:43,-00:06.8
20,Bradie,Sheldon,0:03:38.6,03:39,-00:06.4
21,Owen,Carney,0:05:30.9,05:31,-00:03.1
22,Thomas,Lee,0:07:11.6,07:12,-00:02.4
23,Ellie,Beesley,0:05:08.9,05:09,-00:02.1
24,James,Trew,0:03:26.0,03:26,-00:01.0
25,April,Wainwright,0:03:51.4,03:51,+00:03.4
26,Eleanor,Stoltz,0:05:47.7,05:48,+00:05.7
27,Poppy,Wainwright,0:05:10.6,05:11,+00:09.6
28,Hugo,Beesley,0:08:15.2,08:15,+00:15.2
29,Chase,Carter,0:04:40.4,04:40,+00:15.4
30,Grace,Carney,0:06:15.9,06:16,+00:15.9
31,Tully,Cripps,0:05:18.9,05:19,+00:18.9
32,Mohid,Zaman,0:06:14.0,06:14,+00:19.0
33,Ivie,Safstrom,0:06:31.1,06:31,+00:24.1
34,Polly,Byrne,0:06:14.4,06:14,+01:04.4
35,Anna,Scott,0:06:44.5,06:45,+01:08.5
NEW,Milla,Rielly,0:05:34.5,05:34
NEW,Henry,Kerlin,0:06:12.5,06:12
NEW,Edith,Kerlin,0:05:19.3,05:19
NEW,Jazmin,Marshall,0:04:51.2,04:51
NEW,Dean,Trew,0:04:10.8,04:11
