Place,First,Last,NET Time,Pace,Diff
1,Russell,Easton,0:39:33.2,05:04,-01:27.0
2,Jayson,Carter,0:35:01.5,04:29,-01:25.3
3,Rossi,Evans,0:34:14.1,04:23,-00:31.2
4,Steven,Field,0:31:07.7,03:59,-00:30.1
5,Lisa,Wilkinson,0:38:42.2,04:57,-00:20.8
6,Peter,Compston,0:39:38.7,05:05,-00:19.0
7,Michael,Bieleny,0:31:34.7,04:03,-00:10.9
8,David,Lonsdale,0:34:30.0,04:25,+00:00.3
9,Mitch,Fitzgerald,0:32:41.6,04:11,+00:09.1
10,James,Harper,0:35:58.0,04:36,+00:10.2
11,James,Trew,0:31:10.0,03:59,+00:11.2
12,Andrew,Creer,0:33:24.4,04:17,+00:12.9
13,Rebecca,Kirkby,0:33:19.8,04:16,+00:23.9
14,Benjamin ,Ward,0:36:19.9,04:39,+00:24.3
15,Dean,Trew,0:42:19.5,05:25,+00:24.7
16,Ross,Douglas,0:42:49.6,05:29,+00:31.4
17,Phoebe,Lonsdale,0:34:13.3,04:23,+00:53.9
18,Matthew,Bell,0:31:24.8,04:01,+01:12.9
19,Kerry,Amor,1:01:12.9,07:50,+01:20.3
20,Jake,Delaney,0:31:22.9,04:01,+01:34.4
21,Anne,McIntosh,0:39:33.8,05:04,+01:48.9
22,David,Cripps,0:34:29.9,04:25,+01:49.6
23,Justin,Lee,0:41:59.3,05:23,+02:01.6
24,Alison,Cartner,0:43:10.9,05:32,+02:10.7
25,Jon,McIntosh,0:41:34.5,05:19,+03:26.2
26,Melissa,Douglas,0:58:05.9,07:26,+04:43.8
27,Leah,Cripps,0:50:00.5,06:24,+06:24.2
28,Andrea,Smith,0:50:03.5,06:25,+08:32.1
