place,first,last,start,pace,est Time
1,Eric,Aardvark,0:00,8:0,8:00
2,Sarah,Cunningham,0:20,7:37,7:37
3,Rex,Lourie,0:30,7:30,7:30
4,Olivia,Kealy,0:30,7:26,7:26
5,Ethan,Fletcher,1:00,7:3,7:03
6,Abbey,Reid,1:00,7:0,7:00
7,Joshua,Feuerherdt,1:10,6:54,6:54
8,Luke,Creer,1:10,6:49,6:49
9,Avery,McDermid,1:20,6:45,6:45
10,Oscar,Terry,1:20,6:37,6:37
11,Finn,Cunningham,1:30,6:30,6:30
12,Moira,Coleman,1:30,6:30,6:30
13,Amber,Anderson,1:30,6:30,6:30
14,Kevin,Wheatley,1:30,6:30,6:30
15,Eliza,Christie,1:30,6:27,6:27
16,Jasmine,Padgham,1:40,6:19,6:19
17,Tara,Anderson,1:40,6:17,6:17
18,Jack,Gleisner,1:40,6:16,6:16
19,Lucinda,Terry,1:50,6:12,6:12
20,Aoife,Cunningham,2:00,6:3,6:03
21,Ruby,Fletcher,2:00,6:3,6:03
22,Matthew,Saxon,2:00,6:0,6:00
23,Jade,Kelly,2:10,5:55,5:55
24,Hannah,Crane,2:10,5:51,5:51
25,Rebecca,Ashman,2:20,5:45,5:45
26,Nellie,Rose,2:20,5:39,5:39
27,Tyler,Wilkie,2:20,5:38,5:38
28,Nick,Meharry,2:20,5:38,5:38
29,Georgia,Pearce,2:30,5:35,5:35
30,Albert,Cordell,2:30,5:31,5:31
31,Melana,Cordell,2:30,5:30,5:30
32,Abbey,Cartner,2:30,5:30,5:30
33,Manny,Rose,2:30,5:27,5:27
34,Catelynd,Wheatley,2:40,5:25,5:25
35,Pheobe,Lonsdale,2:40,5:18,5:18
36,Henry,Cordell,2:40,5:17,5:17
37,Tim,Creer,2:40,5:17,5:17
38,Vincent,Weatherhead,2:40,5:17,5:17
39,Lewis,Lonsdale,2:50,5:15,5:15
40,Kaidyn,Tucker,2:50,5:14,5:14
41,Luke,Feuerherdt,2:50,5:10,5:10
42,Nina,Lenard,3:00,5:3,5:03
43,Beatrice,Lonsdale,3:00,5:3,5:03
44,Jayden,Padgham,3:10,4:55,4:55
45,Lachlan,Feuerherdt,3:10,4:50,4:50
46,Max,Rowe,3:10,4:50,4:50
47,Harrison,Kelly,3:10,4:50,4:50
48,Emily,Heislers,3:10,4:50,4:50
49,Emerson,Sim,3:10,4:46,4:46
50,Jack,Meharry,3:20,4:45,4:45
51,Morgan,Dunn,3:40,4:25,4:25
52,Floyd,Cartner,3:40,4:20,4:20
53,Bailey,Dunn,3:40,4:20,4:20
54,Tullie,Rowe,3:40,4:18,4:18
55,Jake,Lyons,3:50,4:11,4:11
56,Noah,Walsh,3:50,4:10,4:10
57,Brayden,Roberts,3:50,4:7,4:07
58,Melissa,Douglas,4:00,4:0,4:00