Place,Member,First,Last,Start,Pace,Est Time
1,3781,Hamish,Draper,02:10,07:27,0:29:48.0
2,398,Angus,McPherson,02:20,07:25,0:29:40.0
3,3748,Amelia,Mitchell,02:40,07:20,0:29:20.0
4,3708,Janine,Butcher,02:40,07:20,0:29:20.0
5,3750,Genevieve,Draper,03:20,07:11,0:28:44.0
6,3749,Isabelle,Draper,03:20,07:10,0:28:40.0
7,250,Tully,Cripps,03:40,07:06,0:28:24.0
8,52,Leah,Cripps,04:40,06:50,0:27:20.0
9,79,Liz,Stewart,05:20,06:40,0:26:40.0
10,9,Trinity,Sanderson,05:50,06:33,0:26:12.0
11,3776,Kathleen,Pleasants,05:50,06:33,0:26:12.0
12,210,Fiona,Dangerfield,06:00,06:29,0:25:56.0
13,374,Liam,Deacon,06:10,06:28,0:25:52.0
14,3709,Scott,Butcher,06:30,06:23,0:25:32.0
15,356,Lynley,McDonald,07:00,06:15,0:25:00.0
16,344,Tim,Hughan,07:10,06:13,0:24:52.0
17,98,Tanya,Fleming,07:20,06:11,0:24:44.0
18,225,Lesley,Fabian,07:20,06:09,0:24:36.0
19,50,Harry,Cripps,07:30,06:07,0:24:28.0
20,3779,Mathilda,Stewart,07:40,06:04,0:24:16.0
21,150,Rebecca,Ashman,07:50,06:02,0:24:08.0
22,281,Will,deVries,08:00,06:00,0:24:00.0
23,159,Renelle,McManus,08:00,06:00,0:24:00.0
24,40,Aida,Escall,08:00,06:00,0:24:00.0
25,66,Megan,McDonald,08:00,06:00,0:24:00.0
26,316,Isabella,Makris,08:00,05:59,0:23:56.0
27,376,Sarah,Hadkins,08:20,05:55,0:23:40.0
28,380,Matthew,Hadkins,08:20,05:55,0:23:40.0
29,142,Zach,Condon,08:20,05:55,0:23:40.0
30,305,Jonty,McDermid,08:30,05:53,0:23:32.0
31,145,Joshua,Condon,08:40,05:50,0:23:20.0
32,347,Louise,Toomey,08:40,05:50,0:23:20.0
33,341,Greg,Toomey,08:50,05:48,0:23:12.0
34,307,Philip,Shambrook,08:50,05:47,0:23:08.0
35,237,Lou,Bray,09:00,05:45,0:23:00.0
36,24,Karina,Bray,09:00,05:45,0:23:00.0
37,377,Juliet,Deacon,09:00,05:44,0:22:56.0
38,3720,Bec,Woodward,09:10,05:43,0:22:52.0
39,274,Avery,McDermid,09:30,05:37,0:22:28.0
40,54,Kevin,deVries,09:30,05:37,0:22:28.0
41,310,Melanie,Makris,09:40,05:35,0:22:20.0
42,214,Amy,Sim,09:40,05:34,0:22:16.0
43,3716,Gus,Edwards,09:40,05:34,0:22:16.0
44,157,Bec,Lacy,09:50,05:33,0:22:12.0
45,3721,Gabrielle,Dean,09:50,05:32,0:22:08.0
46,3722,Natasha,Dean,10:00,05:31,0:22:04.0
47,195,Luke,Creer,10:00,05:30,0:22:00.0
48,3735,Travis,Edwards,10:00,05:29,0:21:56.0
49,3777,Alistair,Stewart,10:00,05:29,0:21:56.0
50,3717,Lachlan,Edwards,10:10,05:28,0:21:52.0
51,3706,Ebony,Butcher,10:20,05:26,0:21:44.0
52,43,Josephine,Robinson,10:20,05:26,0:21:44.0
53,252,Jasmine,Murphy,10:20,05:25,0:21:40.0
54,3793,Anna,Christen,10:30,05:23,0:21:32.0
55,84,Craig,Green,10:40,05:19,0:21:16.0
56,3703,Trent,Bayliss,10:40,05:19,0:21:16.0
57,3715,Chloe,Green,11:00,05:16,0:21:04.0
58,13,Gavin,Fiedler,11:00,05:15,0:21:00.0
59,332,Nathan,Jones,11:20,05:11,0:20:44.0
60,55,Justin,Lee,11:20,05:11,0:20:44.0
61,331,Scott,Roberts,11:20,05:10,0:20:40.0
62,95,Jason,Sim,11:30,05:08,0:20:32.0
63,360,Phoebe,Martin,11:30,05:08,0:20:32.0
64,215,Emerson,Sim,11:30,05:07,0:20:28.0
65,300,Lucinda,Terry,11:40,05:05,0:20:20.0
66,156,Will,Murphy,11:50,05:03,0:20:12.0
67,254,William,Robinson,12:10,04:57,0:19:48.0
68,270,Tyler,Wilkie,12:20,04:55,0:19:40.0
69,158,Annalise,Murphy,12:20,04:55,0:19:40.0
70,364,David,Howes,12:20,04:55,0:19:40.0
71,3713,Jazlin,Fear,12:30,04:52,0:19:28.0
72,266,Lewis,Lonsdale,12:40,04:51,0:19:24.0
73,191,Phoebe,Lonsdale,12:40,04:50,0:19:20.0
74,34,Matthew,Creer,12:40,04:50,0:19:20.0
75,295,Jeremy,Carlson,12:40,04:50,0:19:20.0
76,350,David,Cripps,12:50,04:47,0:19:08.0
77,386,Danny,Burgess,13:00,04:46,0:19:04.0
78,201,Beatrice,Lonsdale,13:00,04:45,0:19:00.0
79,337,Steff,Roberts,13:00,04:45,0:19:00.0
80,400,Darren,Rowe,13:00,04:45,0:19:00.0
81,272,Abbey,Cartner,13:00,04:44,0:18:56.0
82,373,Shelley,Tuohey,13:00,04:44,0:18:56.0
83,198,Matthew,Saxon,13:20,04:40,0:18:40.0
84,78,Mark,Saxon,13:40,04:35,0:18:20.0
85,369,Stephen,Wainwright,13:40,04:35,0:18:20.0
86,131,Carrisa,Brook,13:50,04:33,0:18:12.0
87,147,Lachlan,Feuerherdt,13:50,04:32,0:18:08.0
88,275,Max,Rowe,14:00,04:30,0:18:00.0
89,3714,Tanner,Fear,14:00,04:30,0:18:00.0
90,3745,Gus,MacGregor,14:00,04:30,0:18:00.0
91,253,Charlotte,Murphy,14:00,04:29,0:17:56.0
92,189,Tim,Creer,14:20,04:25,0:17:40.0
93,387,Connor,Bedson,14:30,04:22,0:17:28.0
94,3707,Kyle,Butcher,14:40,04:20,0:17:20.0
95,339,James,Toomey,14:50,04:18,0:17:12.0
96,236,Harry,Seaward,15:00,04:15,0:17:00.0
97,171,Oliver,Sanderson,15:10,04:13,0:16:52.0
98,169,Floyd,Cartner,15:10,04:12,0:16:48.0
99,39,Melissa,Douglas,15:20,04:10,0:16:40.0
100,65,Ben,McDermid,15:50,04:03,0:16:12.0
101,105,Toby,McCaig,16:00,04:00,0:16:00.0
102,94,David,Lonsdale,16:00,04:00,0:16:00.0
103,80,Bridie,Blake-Burrows,16:00,04:00,0:16:00.0
104,203,Tullie,Rowe,16:00,04:00,0:16:00.0
105,63,John,Robinson,16:10,03:58,0:15:52.0
106,167,Jack,Meade,16:20,03:55,0:15:40.0
107,42,Craig,Feuerherdt,16:20,03:54,0:15:36.0
108,219,Wil,McCaig,17:40,03:35,0:14:20.0
