Place,First,Last,NET Time,Pace,Diff
1,David,Howes,0:42:48.8,05:29,-00:20.8
2,Angus,McPherson,0:42:56.8,05:30,-00:12.8
3,Darren,Rowe,0:42:52.3,05:30,-00:09.5
4,Alan,Buchanan,0:36:46.4,04:43,+00:22.4
5,Stephen,Wainwright,0:38:27.8,04:56,+00:30.2
6,Ben,McDermid,0:32:02.2,04:06,+00:42.4
7,Jon,McIntosh,0:41:48.3,05:22,+00:51.3
8,Michael,Bieleny,0:30:51.0,03:57,+00:57.0
9,Ross,Douglas,0:40:42.4,05:13,+01:03.4
10,Paul,Lomax,0:41:23.0,05:18,+01:12.8
11,Philip,Shambrook,0:38:55.4,04:59,+01:29.0
12,Andrea,Smith,0:38:43.8,04:58,+01:40.8
13,Chris,Giffin,0:35:46.6,04:35,+01:43.0
14,Greg,Carter,0:35:46.9,04:35,+01:58.9
15,Maree,Platt,0:42:51.4,05:30,+02:10.0
16,Sarah,Jalim,0:33:01.4,04:14,+02:28.4
17,Sue,Taylor,0:48:46.6,06:15,+02:37.6
18,Jenny,Buchanan,0:40:26.5,05:11,+02:44.5
19,Alison,Cartner,0:41:10.2,05:17,+02:49.2
20,Josephine,Robinson,0:48:35.8,06:14,+02:50.2
21,Kevin,deVries,0:42:32.4,05:27,+03:01.2
22,Tim,Lovell,0:37:32.5,04:49,+03:05.5
23,Rebecca,Wilkinson,0:36:38.7,04:42,+03:21.9
24,Shayne,Rushan,0:47:57.5,06:09,+03:22.1
25,Gavin,Fiedler,0:43:03.8,05:31,+03:24.8
26,Travis,Edwards,0:40:45.3,05:13,+03:34.5
27,David,Lonsdale,0:37:06.6,04:45,+03:34.2
28,Leah,Cripps,0:44:57.1,05:46,+03:36.7
29,Greg,McBain,0:39:22.8,05:03,+03:37.8
30,Frances,Walsh,0:47:11.5,06:03,+03:38.5
31,Justin,Lee,0:41:54.9,05:22,+05:30.9
32,Janelle,Giffin,0:50:29.8,06:28,+05:38.8
