Position,av number,Name,Club,Time
1,1921,"Glenn McMillan","(SPA)","15:37.32"
2,11134,"Kaleb Laker","(KSB)","15:37.40"
3,1030,"Stephen van Rees","(BEU)","15:44.40"
4,11149,"Alex Murray","(UNA)","15:51.17"
5,11133,"Alexander Howard","(BYC)","15:54.46"
6,11107,"Nigel Preston","(BEU)","16:03.59"
7,11142,"Seth Chan","(ANW)","16:04.66"
8,3136,"Ned Verwey","(FKN)","16:06.57"
9,3075,"Harrison Boyd","(BGO)","16:11.34"
10,2942,"Grant Simpson","(BEL)","16:12.32"
11,3022,"Ashley Rogers","(BYC)","16:17.95"
"-",11130,"Jai Edmonds","(COL)",DNS
"-",11136,"Jarrod McMullen","(CHI)",DNS
"-",11139,"Paul Prentice","(BOH)",DNS
