place,member,first,last,start,Pace,est Time
1,34,Matthew,Creer,0:00,7:59,7:59
2,154,Sean,Hughan,0:00,7:59,7:59
3,244,Jaron,Ekanayake,0:10,7:50,7:50
4,326,Sachin,Cody,0:10,7:53,7:53
5,322,Thom,Hosking,0:30,7:30,7:30
6,204,Kane,Charnas,0:40,7:20,7:20
7,205,Amelia,Charnas,0:50,7:10,7:10
8,324,Quinlan,Cody,0:50,7:06,7:06
9,128,George,Pitson,1:00,6:56,6:56
10,44,Geoffrey,Robinson,1:20,6:42,6:42
11,178,Annabel,Hancock,1:20,6:45,6:45
12,220,Ella,Meharry,1:30,6:31,6:31
13,264,Katelyn,Kelly,1:40,6:18,6:18
14,207,Lewis,Kallour,1:50,6:15,6:15
15,216,Ava,Terry,1:50,6:13,6:13
16,246,Poppy,Wainwright,1:50,6:06,6:06
17,258,Ivy,Bray,1:50,6:12,6:12
18,271,Will,Smith,1:50,6:15,6:15
19,293,Spencer,Lavery,1:50,6:15,6:15
20,323,Jana,Steen,1:50,6:11,6:11
21,25,Maddi,Bray,2:00,5:56,5:56
22,28,Mitchell,Bray,2:00,6:03,6:03
23,209,Olivia,Douglas,2:00,5:57,5:57
24,250,Tully,Cripps,2:00,6:00,6:00
25,262,Annabelle,McPhee,2:00,6:05,6:05
26,234,Finn,Cunningham,2:10,5:49,5:49
27,292,Jye,Ekanayake,2:10,5:55,5:55
28,313,Layla,Boulger,2:10,5:53,5:53
29,50,Harry,Cripps,2:20,5:43,5:43
30,58,Archie,Ross,2:20,5:40,5:40
31,211,Jesse,Brook,2:20,5:43,5:43
32,239,Paula,a'Beckett,2:20,5:39,5:39
33,255,Dylan,Sim,2:20,5:43,5:43
34,260,Thomas,Henderson,2:20,5:43,5:43
35,281,Will,deVries,2:20,5:45,5:45
36,316,Isabella,Makris,2:20,5:38,5:38
37,36,Henry,Turnbull,2:30,5:34,5:34
38,153,Tadhg,Hughan,2:30,5:32,5:32
39,175,Matilda,Wilby,2:30,5:32,5:32
40,223,Jack,Meharry,2:30,5:31,5:31
41,235,Aoife,Cunningham,2:30,5:35,5:35
42,282,Anna,deVries,2:30,5:30,5:30
43,284,Imogen,Stewart,2:30,5:28,5:28
44,298,Elliot,Lavery,2:30,5:32,5:32
45,172,Eloise,Wilby,2:40,5:17,5:17
46,232,Jack,Gleisner,2:40,5:17,5:17
47,245,Lacey,Wilkie,2:40,5:18,5:18
48,252,Jasmine,Murphy,2:40,5:18,5:18
49,261,Charlotte,Crane,2:40,5:20,5:20
50,265,Joshua,Kelly,2:40,5:19,5:19
51,274,Avery,McDermid,2:40,5:17,5:17
52,280,Paige,a'Beckett,2:40,5:25,5:25
53,195,Luke,Creer,3:00,4:59,4:59
54,229,Harrison,Pitson,3:00,4:56,4:56
55,242,Halle,Blake-Burrows,3:00,4:57,4:57
56,249,Will,Gleisner,3:00,4:58,4:58
57,276,Joshua,Feuerherdt,3:00,5:03,5:03
58,290,Sabine,Stewart,3:00,5:04,5:04
59,300,Lucinda,Terry,3:00,4:59,4:59
60,99,Oscar,Terry,3:10,4:50,4:50
61,279,Lucy,McCaig,3:10,4:48,4:48
62,283,Lily,Sanderson,3:10,4:50,4:50
63,295,Jeremy,Carlson,3:10,4:53,4:53
64,297,Declan,Lavery,3:10,4:51,4:51
65,189,Tim,Creer,3:20,4:43,4:43
66,191,Phoebe,Lonsdale,3:20,4:43,4:43
67,215,Emerson,Sim,3:20,4:43,4:43
68,228,Sam,Pitson,3:20,4:45,4:45
69,238,Alex,Parry,3:20,4:36,4:36
70,269,Cooper,Charnas,3:20,4:40,4:40
71,291,Sarah,Wilkes,3:20,4:45,4:45
72,311,Jack,Kelly,3:20,4:44,4:44
73,83,Sam,Stewart,3:30,4:30,4:30
74,139,Leila,Padgham,3:30,4:35,4:35
75,267,Kayla,McManus,3:30,4:34,4:34
76,272,Abbey,Cartner,3:30,4:30,4:30
77,273,Harrison,Kelly,3:30,4:33,4:33
78,277,Luke,Feuerherdt,3:30,4:32,4:32
79,254,William,Robinson,3:40,4:22,4:22
80,266,Lewis,Lonsdale,3:40,4:21,4:21
81,289,Josh,Smith,3:40,4:18,4:18
82,319,Nikolas,Makris,3:40,4:25,4:25
83,327,Martin,Steen,3:40,4:16,4:16
84,112,Jett,Grundy,3:50,4:12,4:12
85,147,Lachlan,Feuerherdt,3:50,4:10,4:10
86,198,Matthew,Saxon,3:50,4:11,4:11
87,19,Troy,Cartner,4:00,4:00,4:00
88,105,Toby,McCaig,4:00,4:05,4:05
89,169,Floyd,Cartner,4:00,4:05,4:05
90,171,Oliver,Sanderson,4:00,4:04,4:04
91,176,Kaidyn,Tucker,4:00,4:05,4:05
92,221,Billy,Meade,4:00,4:00,4:00
93,256,Jesse,Delves,4:00,4:02,4:02