place,first,last,net Time,diff
1,Andrew,Evely,47:43,- 2:07
2,Craig,Feuerherdt,39:17,- 0:23
3,Janet,Hodnett,47:38,- 0:22
4,Andrew,Creer,40:32,- 0:18
5,Michael,Bieleny,37:03,- 0:17
6,Ben,McDermid,38:42,- 0:08
7,Brian,Watson,39:35,- 0:05
8,Tracy,Wilson,41:08,- 0:02
9,Gavin,Fiedler,43:09,+ 0:09
10,Ryan,Brook,44:07,+ 0:17
11,Owen,Davies,45:41,+ 0:21
12,Richard,Gleisner,35:18,+ 0:28
13,Shayne,Rushan,48:33,+ 0:43
14,Maree,Platt,55:24,+ 0:54
15,Bryan,Keely,35:09,+ 0:59
16,Brad,Russell,51:09,+ 0:59
17,Lisa,McDermid,54:17,+ 1:17
18,Michael,Hogan,45:12,+ 1:22
19,Jenny,Buchanan,48:02,+ 1:42
20,Angela,Slattery,53:48,+ 1:48
21,Laura,Terry,52:28,+ 2:28
22,Melissa,Douglass,57:48,+ 5:18