Place,Member,First,Last,Start,Pace,Est Time
1,837,Otto,Gamble,-1:20,08:36,0:08:36.0
2,857,Audrey,Bradshaw,-1:30,08:33,0:08:33.0
3,838,Lachlan,Kirkby,00:10,07:52,0:07:52.0
4,493,Hugo,Beesley,00:10,07:48,0:07:48.0
5,840,Elke,Gamble,00:20,07:39,0:07:39.0
6,444,Lenny,Byrne,00:30,07:34,0:07:34.0
7,842,Penny,Gamble,00:30,07:33,0:07:33.0
8,410,Luella,Griffin,00:30,07:30,0:07:30.0
9,861,Clementine,Field,00:50,07:08,0:07:08.0
10,496,Melanie,Lethbridge,00:50,07:07,0:07:07.0
11,1070,Thomas,Lee,01:10,06:52,0:06:52.0
12,426,Zarwa,Daneen,01:20,06:36,0:06:36.0
13,832,Rani,Sheldon,01:30,06:28,0:06:28.0
14,443,Julianna,Hicks,01:40,06:21,0:06:21.0
15,811,Matilda,Compston,01:50,06:12,0:06:12.0
16,495,Kaitlyn,Smith,01:50,06:09,0:06:09.0
17,436,Lily,Chivers,02:00,06:03,0:06:03.0
18,403,Ivie,Safstrom,02:00,06:02,0:06:02.0
19,405,Mohid,Zaman,02:00,06:00,0:06:00.0
20,473,James,Bradshaw,02:00,06:00,0:06:00.0
21,479,Grace,Carney,02:00,06:00,0:06:00.0
22,419,Will,Kirkby,02:00,05:58,0:05:58.0
23,434,Grant,Chivers,02:00,05:58,0:05:58.0
24,415,Leo,Epps,02:00,05:56,0:05:56.0
25,844,Sharon,Sheldon,02:00,05:56,0:05:56.0
26,815,Jack,Macmunn,02:10,05:50,0:05:50.0
27,390,Ruby,Douglas,02:10,05:49,0:05:49.0
28,820,Layla,Burn,02:20,05:44,0:05:44.0
29,821,Angus,Carney,02:20,05:44,0:05:44.0
30,470,Samuel,Nurse,02:20,05:43,0:05:43.0
31,413,Eleanor,Stoltz,02:20,05:42,0:05:42.0
32,437,Grace,Chivers,02:20,05:41,0:05:41.0
33,1014,Tom,Roberts,02:20,05:40,0:05:40.0
34,454,Anna,Scott,02:20,05:36,0:05:36.0
35,460,Miles,Clarke,02:30,05:31,0:05:31.0
36,494,Kye,McCarthy,02:30,05:26,0:05:26.0
37,1042,Savannah,Marwood,02:40,05:24,0:05:24.0
38,3789,Jack,Haythorpe,02:40,05:23,0:05:23.0
39,478,Owen,Carney,02:40,05:21,0:05:21.0
40,3790,Zahli,Bayliss,02:40,05:20,0:05:20.0
41,411,Alice,Griffin,02:40,05:18,0:05:18.0
42,498,Alec,Bradshaw,02:40,05:18,0:05:18.0
43,816,Percy,Jones,02:50,05:13,0:05:13.0
44,1092,Sihanna,Carter,02:50,05:12,0:05:12.0
45,3767,Polly,Byrne,02:50,05:10,0:05:10.0
46,3751,Ellie,Beesley,02:50,05:09,0:05:09.0
47,209,Olivia,Douglas,02:50,05:07,0:05:07.0
48,3773,Eden,Haythorpe,02:50,05:06,0:05:06.0
49,1096,Miriam,Niblett,03:00,05:04,0:05:04.0
50,412,Harry,Griffin,03:00,05:03,0:05:03.0
51,855,Kaden,Hooke,03:00,05:03,0:05:03.0
52,246,Poppy,Wainwright,03:00,05:01,0:05:01.0
53,1046,Bonnie,Scott,03:00,05:01,0:05:01.0
54,250,Tully,Cripps,03:00,05:00,0:05:00.0
55,1082,Mikayla,Kirkby,03:00,05:00,0:05:00.0
56,50,Harry,Cripps,03:00,04:58,0:04:58.0
57,3705,Sienna,Bayliss,03:00,04:55,0:04:55.0
58,3762,Leo,Stoltz,03:00,04:55,0:04:55.0
59,3772,Lyra,Haythorpe,03:10,04:54,0:04:54.0
60,812,Jazmin,Marshall,03:10,04:51,0:04:51.0
61,1026,Eiliyah,Daneen,03:10,04:50,0:04:50.0
62,456,Patrick,Harris,03:10,04:48,0:04:48.0
63,845,Will,Jackson Sloane,03:10,04:47,0:04:47.0
64,354,Alice,McIntosh,03:10,04:46,0:04:46.0
65,1097,Evie,Niblett,03:20,04:41,0:04:41.0
66,440,Sophie,Pedrotti,03:20,04:40,0:04:40.0
67,808,Lottie,Macmunn,03:20,04:39,0:04:39.0
68,818,Lucy,Jones,03:20,04:37,0:04:37.0
69,455,Suzie,Pedrotti,03:20,04:36,0:04:36.0
70,1089,Ruby,Carter,03:20,04:36,0:04:36.0
71,402,Mitchell,Nurse,03:30,04:34,0:04:34.0
72,441,Jimmy,Byrne,03:30,04:34,0:04:34.0
73,827,Elise,Stoltz,03:30,04:34,0:04:34.0
74,355,Millie,McIntosh,03:30,04:32,0:04:32.0
75,457,Emily,Harris,03:30,04:31,0:04:31.0
76,414,Ronny,Epps,03:30,04:27,0:04:27.0
77,803,Emma,Colt,03:30,04:27,0:04:27.0
78,1090,Chase,Carter,03:40,04:25,0:04:25.0
79,835,Milanke,Haasbroek,03:40,04:23,0:04:23.0
80,3742,Jemma,Carter,03:40,04:23,0:04:23.0
81,804,Abby,Colt,03:40,04:20,0:04:20.0
82,1035,Braxton,Safstrom,03:40,04:20,0:04:20.0
83,420,Sarah,Crowley,03:40,04:17,0:04:17.0
84,451,Julia,Starr,03:40,04:16,0:04:16.0
85,421,Alicia,Crowley,03:50,04:14,0:04:14.0
86,450,Maison,Hooke,03:50,04:13,0:04:13.0
87,1077,Dean,Trew,03:50,04:11,0:04:11.0
88,266,Lewis,Lonsdale,04:00,04:01,0:04:01.0
89,459,Archie,Clarke,04:00,04:01,0:04:01.0
90,474,Erin,Bradshaw,04:00,04:01,0:04:01.0
91,1047,Harry,Scott,04:00,03:59,0:03:59.0
92,1080,Jayson,Carter,04:00,03:56,0:03:56.0
93,381,April,Wainwright,04:10,03:48,0:03:48.0
94,452,Noah,Pedrotti,04:10,03:47,0:03:47.0
95,805,Bradie,Sheldon,04:20,03:39,0:03:39.0
96,305,Jonty,McDermid,04:30,03:33,0:03:33.0
97,1029,James,Trew,04:30,03:26,0:03:26.0
