Place,First,Last,NET Time,Pace,Diff
1,Steve,Harris,0:23:06.5,06:18,-01:03.1
2,Chantal,Taylor,0:27:20.4,07:27,-00:22.1
3,Aden,Thomsen,0:15:16.7,04:10,-00:00.8
4,Mitch,Whitham,0:14:44.2,04:01,+00:03.4
5,Callen,Bayliss,0:16:55.8,04:37,+00:06.6
6,Matthew,Sheldon,0:22:04.9,06:01,+00:14.7
7,Mumtaz,Hussain,0:24:30.3,06:41,+00:17.0
8,Logan,Beesley,0:19:24.5,05:17,+00:23.1
9,Emma,Colt,0:17:59.1,04:54,+00:47.8
10,Vicki,Bayliss,0:18:23.2,05:01,+00:53.6
11,Mikayla,Kirkby,0:20:50.3,05:41,+00:53.9
12,Ruby,Carter,0:20:48.0,05:40,+00:55.2
13,James,Trew,0:15:01.8,04:06,+01:05.0
14,Sonya,Walker,0:22:29.4,06:08,+01:23.3
15,Lewis,Lonsdale,0:19:36.3,05:21,+01:37.3
16,Chloe,Beesley,0:26:46.9,07:18,+01:38.5
17,Lisa,Wilkinson,0:19:58.9,05:27,+01:45.2
18,Ebony,Beesley,0:18:18.8,04:59,+01:58.9
19,Abby,Colt,0:20:39.7,05:38,+02:00.4
20,Abbey,Cartner,0:17:41.8,04:49,+02:05.9
21,Naghmana,Tehseen,0:31:58.1,08:43,+02:36.5
22,Dean,Trew,0:21:50.2,05:57,+02:52.5
23,Owen,Draper,0:33:50.2,09:13,+02:53.2
24,Amelia,Mitchell,0:30:54.9,08:25,+03:08.7
25,Bec,Beesley,0:25:43.4,07:01,+04:00.6
NEW,Rebecca,Wilkinson,0:18:09.5,04:57
NEW,Steven,Field,0:15:39.1,04:16
NEW,Grace,Mulqueen,0:15:48.2,04:18
NEW,Kai,Thomsen,0:18:04.4,04:55
