PLACE,FIRST,LAST,RACES,POINTS
1,Mitch,Whitham,5,92
2,James,Trew,5,82
3,Matthew,Bell,4,79
4,Rebecca,Kirkby,5,65
5,David,Cripps,5,63
6,Andrew,Creer,4,56
7,David,Lonsdale,5,54
8,Zeb,Broadbent,3,53
9,Adam,Parker,3,50
10,Steven,Field,3,50
11,Mitch,Fitzgerald,4,46
12,Tom,Gamble,2,34
13,Phoebe,Lonsdale,2,28
14,James,Harper,3,28
15,Jayson,Carter,4,26
16,Lisa,Wilkinson,5,25
17,Rossi,Evans,3,25
18,Nigel,Preston,1,20
19,Max,Rowe,2,18
20,Benjamin ,Ward,3,16
21,Alison,Cartner,5,12
22,Nicholas,Cherry,1,12
23,Brett,Dobbin,2,12
24,Vanessa,Bull,1,10
25,Sheena,Carney,2,10
26,Vanessa,Garry,1,10
27,Gavin,Hicks,1,9
28,Richard,Martin,1,9
29,Rebecca,Wilkinson,1,8
30,Jon,McIntosh,1,8
31,Anne,McIntosh,3,8
32,Alex,Delbridge,1,7
33,Justin,Lee,2,6
34,Kelvin,Niblett,3,6
35,Ben,McDermid,3,3
36,Russell,Easton,3,3
37,Peter,Compston,5,3
38,Alan,Buchanan,5,2
39,Darren,Rowe,2,2
40,Shayne,Rushan,4,0
41,Ross,Douglas,4,0
42,Melissa,Douglas,3,0
43,Leah,Cripps,4,0
44,Kevin,de Vries,1,0
45,Maree,Platt,2,0
46,Janet,Hodnett,2,0
47,Sue,Taylor,3,0
48,Andrea,Smith,3,0
49,Lynley,McDonald,1,0
50,Leonie,Chivers,1,0
51,Kerry,Amor,3,0
52,Sam,Esmore,1,0
53,Clemence,Lavie,1,0
54,Damien,Roberts,5,0
55,Mel,Debnam-Smith,1,0
56,David,Burrow,2,0
57,Sarah,Trew,5,0
58,Dean,Trew,5,0
59,Michelle,Scott,4,0
60,Jeremy,Draper,1,0
61,Genevieve,Draper,1,0
