PLACE,FIRST,LAST,RACES,POINTS
1,Bradie,Sheldon,5,99
2,April,Wainwright,5,96
3,Sienna,Bayliss,5,64
4,Milanke,Haasbroek,3,53
5,Chase,Carter,3,45
6,Maison,Hooke,2,36
7,Kaden,Hooke,3,33
8,Ronny,Epps,2,32
9,Alec,Bradshaw,3,31
10,Alice,McIntosh,2,29
11,Leo,Stoltz,3,26
12,Mitchell,Nurse,2,25
13,Patrick,Harris,2,25
14,Bonnie,Scott,3,25
15,Ellie,Beesley,2,21
16,Polly,Byrne,4,19
17,Emily,Harris,1,18
18,Kye,McCarthy,2,18
19,Sarah,Crowley,1,17
20,Erin,Bradshaw,1,17
21,Abby,Colt,1,17
22,Sharon,Sheldon,4,17
23,Braxton,Safstrom,1,17
24,Ruby,Carter,1,15
25,Evie,Niblett,1,15
26,Anna,Scott,3,14
27,Will,Jackson Sloane,1,14
28,Eiliyah,Daneen,1,14
29,Sihanna,Carter,2,14
30,Poppy,Wainwright,3,13
31,Tom,Roberts,5,13
32,Ivie,Safstrom,1,12
33,Jimmy,Byrne,1,12
34,Tully,Cripps,2,10
35,Will,Kirkby,2,10
36,Layla,Burn,2,10
37,Miriam,Niblett,1,10
38,Owen,Carney,1,9
39,Karl,Stoltz,1,9
40,Zahli,Bayliss,5,9
41,Alice,Griffin,1,8
42,Eleanor,Stoltz,4,8
43,Matilda,Compston,2,8
44,Harry,Griffin,1,7
45,Angus,Carney,1,7
46,Grace,Chivers,2,5
47,Leo,Epps,2,4
48,Lenny,Byrne,4,4
49,Thomas,Lee,3,4
50,Samuel,Nurse,2,3
51,Rani,Sheldon,2,3
52,Zarwa,Daneen,4,2
53,Lily,Chivers,1,2
54,Mohid,Zaman,4,1
55,Clementine,Field,2,1
56,Luella,Griffin,1,0
57,Julianna,Hicks,1,0
58,Grace,Carney,1,0
59,Hugo,Beesley,5,0
60,Kaitlyn,Smith,1,0
61,Otto,Gamble,1,0
62,Lachlan,Kirkby,1,0
63,Elke,Gamble,1,0
64,Penny,Gamble,2,0
65,Audrey,Bradshaw,3,0
