place,first,last,club,net Time
1,Peter,Rice,BYM,26:20
2,Kyall,Britten,Sth Bgo,27:21
3,Mathew,Hooke,BYM,28:10
4,Lee,McCullagh,BUAC,29:13
5,Simon,Austin,BUAC,29:21
6,Ben,McDermid,BUAC,29:25
7,Craig,Feuerherdt,BUAC,29:53
8,Todd,Robertson,BYM,30:19
9,Russell,Fenwick,Sth Bgo,30:38
10,Ben,Sexton,BYM,30:50
11,Michael,Gibbons,BUAC,32:36
12,Alan,Fang,BYM,32:53
13,Aaron,Anderson,BUAC,33:02