Place,Member,First,Last,Start,Pace,Est Time
1,159,Renelle,McManus,00:00,08:00,1:04:24.0
2,806,Kerry,Amor,06:00,07:15,0:58:21.8
3,3776,Kathleen,Pleasants,06:00,07:15,0:58:21.8
4,74,Maree,Platt,12:00,06:30,0:52:19.5
5,356,Lynley,McDonald,12:30,06:27,0:51:55.4
6,427,Cath,O'Leary,13:30,06:20,0:50:59.0
7,54,Kevin,de Vries,14:10,06:15,0:50:18.8
8,210,Fiona,Dangerfield,14:10,06:15,0:50:18.8
9,1025,Liz,Foster,14:50,06:10,0:49:38.5
10,39,Melissa,Douglas,15:00,06:08,0:49:22.4
11,6,Shayne,Rushan,16:10,06:00,0:48:18.0
12,449,Belinda,Whelan,16:10,06:00,0:48:18.0
13,814,Sam,Esmore,16:20,05:58,0:48:01.9
14,458,Caitlin,Clarke,16:50,05:55,0:47:37.8
15,3740,Vicki,Lane,16:50,05:55,0:47:37.8
16,22,Ross,Douglas,17:10,05:52,0:47:13.6
17,76,Cara,Smith,17:30,05:50,0:46:57.5
18,1028,Mel,Debnam-Smith,17:30,05:50,0:46:57.5
19,3758,Janis,Bull,17:30,05:50,0:46:57.5
20,3777,Alistair,Stewart,17:30,05:50,0:46:57.5
21,182,Hannah,Crane,17:40,05:48,0:46:41.4
22,386,Danny,Burgess,18:10,05:45,0:46:17.3
23,1066,Jodie,McLeod,18:20,05:43,0:46:01.2
24,424,Lauren,Crowley,18:30,05:42,0:45:53.1
25,91,Melissa,Wilkie,18:50,05:40,0:45:37.0
26,1087,Deanna,Marshall,19:00,05:38,0:45:20.9
27,31,Charles,Chambers,19:20,05:36,0:45:04.8
28,197,Sue,Taylor,19:20,05:36,0:45:04.8
29,398,Angus,McPherson,19:40,05:33,0:44:40.7
30,52,Leah,Cripps,20:30,05:27,0:43:52.4
31,87,Frances,Walsh,20:30,05:27,0:43:52.4
32,807,Kristian,Dowler,20:40,05:26,0:43:44.3
33,13,Gavin,Fiedler,21:10,05:22,0:43:12.1
34,270,Tyler,Wilkie,21:10,05:22,0:43:12.1
35,1024,Todd,Foster,21:30,05:20,0:42:56.0
36,3,Alan,Buchanan,22:00,05:16,0:42:23.8
37,1074,David,Burrow,22:10,05:15,0:42:15.8
38,183,Janet,Hodnett,22:20,05:14,0:42:07.7
39,400,Darren,Rowe,23:30,05:05,0:40:55.2
40,333,Jon,McIntosh,24:00,05:01,0:40:23.1
41,476,Sheena,Carney,24:00,05:01,0:40:23.1
42,241,Andrea,Smith,24:10,05:00,0:40:15.0
43,55,Justin,Lee,24:30,04:58,0:39:58.9
44,3763,Brett,Dobbin,24:30,04:57,0:39:50.9
45,278,James,Russell,24:40,04:56,0:39:42.8
46,9,Trinity,Sanderson,24:50,04:55,0:39:34.8
47,29,Alison,Cartner,24:50,04:55,0:39:34.8
48,455,Suzie,Pedrotti,24:50,04:55,0:39:34.8
49,1003,Damien,Roberts,24:50,04:55,0:39:34.8
50,3739,Stephen,van Rees,24:50,04:55,0:39:34.8
51,1040,Erin,Williams,25:10,04:52,0:39:10.6
52,3760,Karl,Stoltz,25:30,04:50,0:38:54.5
53,18,Georgie,Lanyon,25:50,04:47,0:38:30.4
54,274,Avery,McDermid,25:50,04:47,0:38:30.4
55,1020,Mumtaz,Hussain,25:50,04:47,0:38:30.4
56,1080,Jayson,Carter,26:10,04:45,0:38:14.2
57,3702,Vicki,Bayliss,26:10,04:45,0:38:14.2
58,3766,Anthony,Byrne,26:10,04:45,0:38:14.2
59,14,Lisa,Wilkinson,26:30,04:43,0:37:58.2
60,408,Trevor,Watchman,26:30,04:43,0:37:58.2
61,3788,Matthew,Schubert,26:30,04:43,0:37:58.2
62,384,Andrew,Wilkie,26:30,04:42,0:37:50.1
63,109,Tim,Lovell,26:50,04:40,0:37:34.0
64,359,Anne,McIntosh,26:50,04:40,0:37:34.0
65,171,Oliver,Sanderson,27:10,04:37,0:37:09.9
66,65,Ben,McDermid,27:20,04:36,0:37:01.8
67,802,James,Harper,27:30,04:35,0:36:53.8
68,1051,Kane,Safstrom,27:30,04:35,0:36:53.8
69,3730,Greg,Carter,27:30,04:35,0:36:53.8
70,203,Tullie,Rowe,28:30,04:28,0:35:57.4
71,469,Paul,Boxshall,28:40,04:26,0:35:41.3
72,490,Aaron,Anderson,28:50,04:25,0:35:33.2
73,1099,Kelvin,Niblett,29:10,04:23,0:35:17.2
74,418,Vanessa,Bull,29:30,04:20,0:34:53.0
75,1031,Jack,Milligan,29:30,04:20,0:34:53.0
76,191,Phoebe,Lonsdale,29:40,04:19,0:34:45.0
77,350,David,Cripps,29:40,04:19,0:34:45.0
78,94,David,Lonsdale,29:50,04:18,0:34:36.9
79,84,Craig,Green,30:00,04:17,0:34:28.9
80,394,Rhianna,Wik-Gamble,30:00,04:17,0:34:28.9
81,472,John,Flood,30:00,04:16,0:34:20.8
82,438,Damian,Hughes,30:10,04:15,0:34:12.8
83,15,Rebecca,Wilkinson,30:20,04:14,0:34:04.7
84,430,Brianna,Maddern,30:20,04:14,0:34:04.7
85,49,David,Heislers,30:30,04:13,0:33:56.7
86,1083,Rebecca,Kirkby,30:30,04:13,0:33:56.7
87,432,Jarrod,Epps,30:40,04:12,0:33:48.6
88,1027,Andrew,Van Agtmaal,30:40,04:12,0:33:48.6
89,801,Rebecca ,Beagley,30:50,04:10,0:33:32.5
90,425,Nathan,Crowley,31:10,04:08,0:33:16.4
91,429,Gavin,Hicks,31:10,04:08,0:33:16.4
92,448,Rory,Flanagan,31:10,04:08,0:33:16.4
93,125,Sarah,Jalim,31:20,04:07,0:33:08.4
94,428,Matthew,Bell,31:40,04:04,0:32:44.2
95,1022,Ben,Stolz,31:50,04:03,0:32:36.2
96,88,Brian,Watson,32:00,04:01,0:32:20.1
97,499,Richard,Martin,32:00,04:01,0:32:20.1
98,8,Rik,McCaig,32:10,04:00,0:32:12.0
99,1023,Matthew,Schepisi,32:10,04:00,0:32:12.0
100,462,Eliot,Walton,33:20,03:52,0:31:07.6
101,23,Michael,Bieleny,33:20,03:51,0:30:59.6
102,169,Floyd,Cartner,33:30,03:50,0:30:51.5
103,51,Andrew,Hosking,33:40,03:49,0:30:43.5
104,275,Max,Rowe,33:40,03:49,0:30:43.5
105,447,Jake,Delaney,33:40,03:49,0:30:43.5
106,492,Zeb,Broadbent,33:40,03:49,0:30:43.5
107,399,Darren,Hartland,33:50,03:48,0:30:35.4
108,33,Andrew,Creer,35:10,03:38,0:29:14.9
109,404,Leon,Griffin,35:10,03:38,0:29:14.9
110,467,Glenn,McMillian,36:00,03:32,0:28:26.6
111,3701,Nigel,Preston,36:10,03:31,0:28:18.6
112,487,Ned,Buckell,36:30,03:28,0:27:54.4
