Place,Member,First,Last,Start,Pace,Est Time
1,34,Matthew,Creer,00:00,07:59,0:07:59.0
2,244,Jaron,Ekanayake,00:10,07:50,0:07:50.0
3,375,Dylan,Deacon,00:30,07:30,0:07:30.0
4,379,Quinn,Holmes,00:40,07:22,0:07:22.0
5,154,Sean,Hughan,00:50,07:10,0:07:10.0
6,205,Amelia,Charnas,00:50,07:10,0:07:10.0
7,322,Thom,Hosking,00:50,07:10,0:07:10.0
8,371,Sharon,Newton,01:00,07:01,0:07:01.0
9,128,George,Pitson,01:00,06:56,0:06:56.0
10,135,Alexia,Woods,01:40,06:18,0:06:18.0
11,207,Lewis,Kallour,01:40,06:15,0:06:15.0
12,345,Jordan,Baker,01:40,06:15,0:06:15.0
13,335,Lenny,Hancock,01:50,06:13,0:06:13.0
14,258,Ivy,Bray,01:50,06:12,0:06:12.0
15,323,Jana,Steen,01:50,06:11,0:06:11.0
16,355,Millie,McIntosh,01:50,06:08,0:06:08.0
17,305,Jonty,McDermid,01:50,06:07,0:06:07.0
18,250,Tully,Cripps,02:00,06:04,0:06:04.0
19,348,Tazma,Ferrie,02:00,06:02,0:06:02.0
20,328,Daniel,Noble,02:00,06:01,0:06:01.0
21,378,Aidan,Deacon,02:00,05:57,0:05:57.0
22,25,Maddi,Bray,02:00,05:56,0:05:56.0
23,28,Mitchell,Bray,02:00,05:55,0:05:55.0
24,44,Geoffrey,Robinson,02:00,05:55,0:05:55.0
25,313,Layla,Boulger,02:10,05:53,0:05:53.0
26,324,Quinlan,Cody,02:10,05:52,0:05:52.0
27,246,Poppy,Wainwright,02:10,05:50,0:05:50.0
28,326,Sachin,Cody,02:10,05:50,0:05:50.0
29,281,Will,deVries,02:20,05:45,0:05:45.0
30,234,Finn,Cunningham,02:20,05:44,0:05:44.0
31,178,Annabel,Hancock,02:20,05:43,0:05:43.0
32,211,Jesse,Brook,02:20,05:43,0:05:43.0
33,255,Dylan,Sim,02:20,05:43,0:05:43.0
34,58,Archie,Ross,02:20,05:40,0:05:40.0
35,123,Harry,Terry,02:20,05:39,0:05:39.0
36,316,Isabella,Makris,02:20,05:38,0:05:38.0
37,216,Ava,Terry,02:20,05:37,0:05:37.0
38,174,Sam,Hancock,02:20,05:36,0:05:36.0
39,235,Aoife,Cunningham,02:20,05:35,0:05:35.0
40,293,Spencer,Lavery,02:20,05:35,0:05:35.0
41,358,Lewis,McIntosh,02:20,05:35,0:05:35.0
42,36,Henry,Turnbull,02:30,05:34,0:05:34.0
43,50,Harry,Cripps,02:30,05:34,0:05:34.0
44,175,Matilda,Wilby,02:30,05:32,0:05:32.0
45,284,Imogen,Stewart,02:30,05:32,0:05:32.0
46,298,Elliot,Lavery,02:30,05:32,0:05:32.0
47,282,Anna,deVries,02:30,05:30,0:05:30.0
48,271,Will,Smith,02:30,05:29,0:05:29.0
49,280,Paige,a'Beckett,02:40,05:25,0:05:25.0
50,261,Charlotte,Crane,02:40,05:20,0:05:20.0
51,245,Lacey,Wilkie,02:40,05:18,0:05:18.0
52,252,Jasmine,Murphy,02:40,05:18,0:05:18.0
53,260,Thomas,Henderson,02:40,05:18,0:05:18.0
54,172,Eloise,Wilby,02:40,05:17,0:05:17.0
55,209,Olivia,Douglas,02:40,05:17,0:05:17.0
56,232,Jack,Gleisner,02:40,05:17,0:05:17.0
57,353,Cooper,Holmes,02:50,05:11,0:05:11.0
58,262,Annabelle,McPhee,02:50,05:07,0:05:07.0
59,290,Sabine,Stewart,03:00,05:04,0:05:04.0
60,189,Tim,Creer,03:00,05:00,0:05:00.0
61,279,Lucy,McCaig,03:00,05:00,0:05:00.0
62,195,Luke,Creer,03:00,04:59,0:04:59.0
63,249,Will,Gleisner,03:00,04:58,0:04:58.0
64,242,Halle,Blake-Burrows,03:00,04:57,0:04:57.0
65,229,Harrison,Pitson,03:00,04:56,0:04:56.0
66,295,Jeremy,Carlson,03:10,04:53,0:04:53.0
67,99,Oscar,Terry,03:10,04:52,0:04:52.0
68,105,Toby,McCaig,03:10,04:52,0:04:52.0
69,297,Declan,Lavery,03:10,04:51,0:04:51.0
70,191,Phoebe,Lonsdale,03:10,04:50,0:04:50.0
71,153,Tadhg,Hughan,03:10,04:48,0:04:48.0
72,362,Brody,Hale,03:10,04:47,0:04:47.0
73,283,Lily,Sanderson,03:10,04:46,0:04:46.0
74,228,Sam,Pitson,03:20,04:45,0:04:45.0
75,311,Jack,Kelly,03:20,04:44,0:04:44.0
76,276,Joshua,Feuerherdt,03:20,04:42,0:04:42.0
77,269,Cooper,Charnas,03:20,04:40,0:04:40.0
78,274,Avery,McDermid,03:20,04:38,0:04:38.0
79,238,Alex,Parry,03:20,04:36,0:04:36.0
80,300,Lucinda,Terry,03:30,04:29,0:04:29.0
81,277,Luke,Feuerherdt,03:40,04:25,0:04:25.0
82,83,Sam,Stewart,03:40,04:23,0:04:23.0
83,272,Abbey,Cartner,03:40,04:20,0:04:20.0
84,266,Lewis,Lonsdale,03:40,04:19,0:04:19.0
85,319,Nikolas,Makris,03:40,04:18,0:04:18.0
86,254,William,Robinson,03:40,04:16,0:04:16.0
87,327,Martin,Steen,03:40,04:16,0:04:16.0
88,112,Jett,Grundy,03:50,04:12,0:04:12.0
89,198,Matthew,Saxon,03:50,04:11,0:04:11.0
90,337,Steff,Roberts,03:50,04:09,0:04:09.0
91,147,Lachlan,Feuerherdt,04:00,04:01,0:04:01.0
92,320,Callum,Noble,04:00,04:01,0:04:01.0
93,171,Oliver,Sanderson,04:00,03:58,0:03:58.0
94,221,Billy,Meade,04:10,03:53,0:03:53.0
