Place,First,Last,NET Time,Pace,Diff
1,Stephen,Wainwright,0:15:10.1,05:03.4,-01:25.9
2,Lynley,McDonald,0:17:56.4,05:58.8,-00:45.6
3,Tim,Hughan,0:18:39.7,06:13.2,-00:38.3
4,Will,Murphy,0:15:09.2,05:03.1,-00:35.8
5,Darren,Rowe,0:14:36.7,04:52.2,-00:20.3
6,Mark,Saxon,0:12:39.2,04:13.1,-00:23.8
7,Wil,McCaig,0:11:33.8,03:51.3,-00:11.2
8,Bec,Murphy,0:17:16.3,05:45.4,+00:01.3
9,Beatrice,Lonsdale,0:14:28.3,04:49.4,+00:13.3
10,Phoebe,Lonsdale,0:14:30.1,04:50.0,+00:15.1
11,Jeremy,Carlson,0:15:53.9,05:18.0,+00:17.9
12,Liz,Stewart,0:19:54.0,06:38.0,+00:09.0
13,Matthew,Saxon,0:13:44.9,04:35.0,+00:11.9
14,Melanie,Makris,0:17:47.7,05:55.9,+00:23.7
15,Toby,McCaig,0:13:08.1,04:22.7,+00:23.1
16,Max,Rowe,0:14:18.3,04:46.1,+00:33.3
17,Jasmine,Murphy,0:16:46.3,05:35.4,+01:07.3
18,Janelle,Giffin,0:17:06.6,05:42.2,+01:39.6
19,Nathan,Jones,0:16:59.5,05:39.8,+01:50.5
20,Melissa,Douglas,0:15:42.9,05:14.3,+02:06.9
21,Tullie,Rowe,0:14:03.2,04:41.1,+02:06.2
22,Tyler,Wilkie,0:20:23.2,06:47.7,+05:05.2
23,Charlotte,Murphy,0:19:55.0,06:38.3,+05:01.0
NEW,Phoebe,Martin,0:16:06.1,05:22.0
NEW,Sam,Stewart,0:15:14.2,05:04.7
NEW,Lauren,Hancock,0:14:06.0,04:42.0
NEW,Billy,Meade,0:13:10.9,04:23.6
NEW,Natalie,Jacobson,0:13:25.0,04:28.3
NEW,Matthew,Hadkins,0:17:26.1,05:48.7
NEW,Sarah,Hadkins,0:17:32.9,05:51.0
NEW,David,Howes,0:16:23.5,05:27.8
