Place,Member,First,Last,Start,Pace,Est Time
1,257,Fin,Bray,00:00,07:59,0:27:56.5
2,383,Sharon,Carlson,00:50,07:45,0:27:07.5
3,212,Michelle,Parry,02:00,07:25,0:25:57.5
4,250,Tully,Cripps,03:10,07:06,0:24:51.0
5,338,Kathryn,Toomey,03:20,07:04,0:24:44.0
6,378,Aidan,Deacon,03:30,07:00,0:24:30.0
7,52,Leah,Cripps,04:00,06:50,0:23:55.0
8,155,Jasmine,Rielley,04:20,06:45,0:23:37.5
9,179,Paula,Rielley,04:20,06:45,0:23:37.5
10,146,David,Ashman,04:30,06:42,0:23:27.0
11,388,Abbey,Seaward,04:40,06:41,0:23:23.5
12,79,Liz,Stewart,04:40,06:40,0:23:20.0
13,304,Stephanie,Carlson,04:50,06:38,0:23:13.0
14,30,Amanda,Turnbull,05:20,06:28,0:22:38.0
15,374,Liam,Deacon,05:20,06:28,0:22:38.0
16,277,Luke,Feuerherdt,06:00,06:16,0:21:56.0
17,344,Tim,Hughan,06:10,06:13,0:21:45.5
18,290,Sabine,Stewart,06:20,06:12,0:21:42.0
19,136,Livinia,Douglass,06:20,06:11,0:21:38.5
20,239,Paula,a'Beckett,06:30,06:09,0:21:31.5
21,225,Lesley,Fabian,06:40,06:06,0:21:21.0
22,229,Harrison,Pitson,06:50,06:02,0:21:07.0
23,282,Anna,deVries,07:00,06:01,0:21:03.5
24,40,Aida,Escall,07:00,06:00,0:21:00.0
25,101,Paula,Saxon,07:00,06:00,0:21:00.0
26,173,Melanie,Cuzzillo,07:00,06:00,0:21:00.0
27,292,Jye,Ekanayake,07:00,05:59,0:20:56.5
28,316,Isabella,Makris,07:00,05:59,0:20:56.5
29,151,Jo,Williams,07:10,05:58,0:20:53.0
30,195,Luke,Creer,07:10,05:58,0:20:53.0
31,142,Zach,Condon,07:20,05:55,0:20:42.5
32,376,Sarah,Hadkins,07:20,05:55,0:20:42.5
33,380,Matthew,Hadkins,07:20,05:55,0:20:42.5
34,356,Lynley,McDonald,07:20,05:54,0:20:39.0
35,145,Joshua,Condon,07:40,05:50,0:20:25.0
36,174,Sam,Hancock,07:40,05:50,0:20:25.0
37,274,Avery,McDermid,07:40,05:48,0:20:18.0
38,284,Imogen,Stewart,07:50,05:47,0:20:14.5
39,366,Kirsten,Hale,07:50,05:46,0:20:11.0
40,24,Karina,Bray,07:50,05:45,0:20:07.5
41,66,Megan,McDonald,07:50,05:45,0:20:07.5
42,98,Tanya,Fleming,07:50,05:45,0:20:07.5
43,237,Lou,Bray,07:50,05:45,0:20:07.5
44,242,Halle,Blake-Burrows,07:50,05:45,0:20:07.5
45,377,Juliet,Deacon,08:00,05:44,0:20:04.0
46,28,Mitchell,Bray,08:10,05:41,0:19:53.5
47,243,Max,Bray,08:10,05:40,0:19:50.0
48,347,Louise,Toomey,08:10,05:40,0:19:50.0
49,150,Rebecca,Ashman,08:20,05:38,0:19:43.0
50,341,Greg,Toomey,08:20,05:38,0:19:43.0
51,214,Amy,Sim,08:20,05:37,0:19:39.5
52,210,Fiona,Dangerfield,08:20,05:36,0:19:36.0
53,99,Oscar,Terry,08:30,05:35,0:19:32.5
54,157,Bec,Murphy,08:30,05:35,0:19:32.5
55,43,Josephine,Robinson,08:30,05:34,0:19:29.0
56,263,Narelle,McPhee,08:30,05:34,0:19:29.0
57,310,Melanie,Makris,08:40,05:32,0:19:22.0
58,133,Gemma,McPhee,08:40,05:30,0:19:15.0
59,233,Sue,Condon,08:40,05:30,0:19:15.0
60,395,Ryan,Arscott,08:50,05:29,0:19:11.5
61,249,Will,Gleisner,08:50,05:28,0:19:08.0
62,11,Jane,McCaig,09:00,05:27,0:19:04.5
63,252,Jasmine,Murphy,09:00,05:25,0:18:57.5
64,269,Cooper,Charnas,09:00,05:25,0:18:57.5
65,297,Declan,Lavery,09:00,05:25,0:18:57.5
66,360,Phoebe,Martin,09:10,05:22,0:18:47.0
67,182,Hanna,Crane,09:20,05:21,0:18:43.5
68,149,Janelle,Giffin,09:20,05:20,0:18:40.0
69,164,Imogen,Thompson,09:20,05:19,0:18:36.5
70,134,Millicent,Woods,09:30,05:18,0:18:33.0
71,288,Kate,McIntosh,09:30,05:18,0:18:33.0
72,132,Tracie,Gleisner,09:40,05:15,0:18:22.5
73,152,Alannah,Rielley,09:40,05:15,0:18:22.5
74,193,Emily,Heislers,09:40,05:15,0:18:22.5
75,228,Sam,Pitson,09:40,05:14,0:18:19.0
76,270,Tyler,Wilkie,09:50,05:12,0:18:12.0
77,332,Nathan,Jones,09:50,05:11,0:18:08.5
78,32,Oliver,Turnbull,10:00,05:10,0:18:05.0
79,331,Scott,Roberts,10:00,05:10,0:18:05.0
80,26,Ryan,Brook,10:00,05:08,0:17:58.0
81,83,Sam,Stewart,10:10,05:05,0:17:47.5
82,300,Lucinda,Terry,10:10,05:05,0:17:47.5
83,361,Loch,Hale,10:20,05:04,0:17:44.0
84,156,Will,Murphy,10:20,05:03,0:17:40.5
85,240,Jenelle,Seaward,10:30,05:00,0:17:30.0
86,110,Holly,McPhee,10:30,04:59,0:17:26.5
87,325,Tom,Flood,10:30,04:59,0:17:26.5
88,253,Charlotte,Murphy,10:40,04:58,0:17:23.0
89,241,Andrea,Smith,10:40,04:57,0:17:19.5
90,158,Annalise,Murphy,10:50,04:55,0:17:12.5
91,364,David,Howes,10:50,04:55,0:17:12.5
92,349,Nathaniel,McMaster,10:50,04:54,0:17:09.0
93,357,Xavier,Holmes,10:50,04:54,0:17:09.0
94,400,Darren,Rowe,11:00,04:52,0:17:02.0
95,213,Phoebe,a'Beckett,11:00,04:51,0:16:58.5
96,272,Abbey,Cartner,11:00,04:50,0:16:55.0
97,295,Jeremy,Carlson,11:00,04:50,0:16:55.0
98,82,Sophie,Adamson,11:20,04:45,0:16:37.5
99,201,Beatrice,Lonsdale,11:20,04:45,0:16:37.5
100,337,Steff,Roberts,11:20,04:45,0:16:37.5
101,342,Sarah,Cody,11:30,04:44,0:16:34.0
102,373,Shelley,Tuohey,11:30,04:44,0:16:34.0
103,29,Alison,Cartner,11:30,04:42,0:16:27.0
104,180,Lauren,Hancock,11:30,04:42,0:16:27.0
105,184,Will,Crane,11:40,04:40,0:16:20.0
106,393,Koichi,Masuda,11:40,04:40,0:16:20.0
107,191,Phoebe,Lonsdale,11:50,04:38,0:16:13.0
108,275,Max,Rowe,11:50,04:38,0:16:13.0
109,259,Jasmine,Santley,11:50,04:37,0:16:09.5
110,314,Aaron,Hamilton,11:50,04:36,0:16:06.0
111,112,Jett,Grundy,12:00,04:35,0:16:02.5
112,369,Stephen,Wainwright,12:00,04:35,0:16:02.5
113,131,Carrisa,Brook,12:00,04:33,0:15:55.5
114,198,Matthew,Saxon,12:00,04:33,0:15:55.5
115,147,Lachlan,Feuerherdt,12:10,04:32,0:15:52.0
116,39,Melissa,Douglas,12:20,04:30,0:15:45.0
117,162,Natalie,Jacobson,12:20,04:28,0:15:38.0
118,171,Oliver,Sanderson,12:20,04:28,0:15:38.0
119,215,Emerson,Sim,12:30,04:25,0:15:27.5
120,221,Billy,Meade,12:40,04:24,0:15:24.0
121,339,James,Toomey,12:40,04:23,0:15:20.5
122,12,Josie,Aitken,12:50,04:21,0:15:13.5
123,177,Ben,Wilby,12:50,04:20,0:15:10.0
124,387,Connor,Bedson,12:50,04:19,0:15:06.5
125,189,Tim,Creer,13:00,04:16,0:14:56.0
126,236,Harry,Seaward,13:10,04:15,0:14:52.5
127,161,Amelia,Evans,13:20,04:11,0:14:38.5
128,63,John,Robinson,13:20,04:10,0:14:35.0
129,78,Mark,Saxon,13:20,04:10,0:14:35.0
130,224,Cooper,Hale,13:30,04:08,0:14:28.0
131,202,Callum,Tucker,13:40,04:07,0:14:24.5
132,114,Spencer,Evans,13:50,04:03,0:14:10.5
133,94,David,Lonsdale,14:00,04:00,0:14:00.0
134,105,Toby,McCaig,14:00,04:00,0:14:00.0
135,80,Bridie,Blake-Burrows,14:20,03:55,0:13:42.5
136,167,Jack,Meade,14:20,03:55,0:13:42.5
137,203,Tullie,Rowe,14:20,03:55,0:13:42.5
138,219,Wil,McCaig,14:50,03:45,0:13:07.5
139,352,Amy,Holmes,15:00,03:43,0:13:00.5
140,42,Craig,Feuerherdt,15:20,03:37,0:12:39.5
141,33,Andrew,Creer,15:30,03:35,0:12:32.5
142,48,Matthew,Heislers,16:00,03:27,0:12:04.5
143,312,Jack,Hickman,16:00,03:26,0:12:01.0
144,46,Richard,Gleisner,16:10,03:23,0:11:50.5
145,115,Alexander,Evans,16:30,03:16,0:11:26.0
146,97,Adam,Fleming,16:40,03:15,0:11:22.5
