Place,First,Last,NET Time,Pace,Diff
1,Lynley,McDonald,0:19:26.9,05:33.4,-01:12.1
2,Beatrice,Lonsdale,0:15:49.8,04:31.4,-00:47.7
3,Melissa,Douglas,0:14:54.1,04:15.5,-00:50.9
4,Josephine,Robinson,0:19:00.9,05:26.0,-00:28.1
5,Darren,Rowe,0:16:38.4,04:45.2,-00:23.6
6,James,Toomey,0:15:02.9,04:18.0,-00:17.6
7,Connor,Bedson,0:15:14.3,04:21.2,+00:07.8
8,Phoebe,Lonsdale,0:16:23.4,04:41.0,+00:10.4
9,Bridie,Blake-Burrows,0:13:54.1,03:58.3,+00:11.6
10,Tyler,Wilkie,0:18:34.1,05:18.3,+00:22.1
11,Max,Rowe,0:16:52.4,04:49.3,+00:39.4
12,Melanie,Makris,0:20:13.7,05:46.8,+00:51.7
NEW,Kevin,deVries,0:16:56.4,04:50.4
NEW,Myf,Trusscott,0:18:14.9,05:12.8
