Place,Member,First,Last,Start,Pace,Est Time
1,173,Melanie,Cuzzillo,00:50,06:54,0:59:20.4
2,145,Joshua,Condon,05:00,06:25,0:55:11.0
3,303,Paula,Meade,05:40,06:20,0:54:28.0
4,2,Alan,East,06:40,06:13,0:53:27.8
5,66,Megan,McDonald,07:30,06:08,0:52:44.8
6,37,John,Doering,07:40,06:06,0:52:27.6
7,196,Kathryne,Charnas,07:40,06:06,0:52:27.6
8,100,Justine,Rowe,07:50,06:05,0:52:19.0
9,329,Jolie,Middleton,08:40,05:59,0:51:27.4
10,341,Greg,Toomey,08:40,05:59,0:51:27.4
11,385,Jenni,Jenkins,09:00,05:57,0:51:10.2
12,57,Adam,Henderson,09:20,05:55,0:50:53.0
13,77,Brad,Russell,09:20,05:55,0:50:53.0
14,149,Janelle,Giffin,09:20,05:55,0:50:53.0
15,233,Sue,Condon,10:20,05:48,0:49:52.8
16,214,Amy,Sim,10:30,05:47,0:49:44.2
17,98,Tanya,Fleming,10:40,05:45,0:49:27.0
18,189,Tim,Creer,10:40,05:45,0:49:27.0
19,11,Jane,McCaig,11:20,05:41,0:48:52.6
20,76,Cara,Smith,11:40,05:39,0:48:35.4
21,334,Alex,Tranter,12:10,05:35,0:48:01.0
22,87,Frances,Walsh,12:20,05:34,0:47:52.4
23,237,Lou,Bray,12:20,05:34,0:47:52.4
24,194,Melanie,Woods,12:40,05:32,0:47:35.2
25,89,Natalie,Watson,12:50,05:31,0:47:26.6
26,199,Shann,Anderson,12:50,05:31,0:47:26.6
27,40,Aida,Escall,12:50,05:30,0:47:18.0
28,16,Jennifer,Lee,13:10,05:28,0:47:00.8
29,186,Jason,Anderton,13:10,05:28,0:47:00.8
30,81,Laura,Terry,13:20,05:27,0:46:52.2
31,123,Harry,Terry,13:20,05:27,0:46:52.2
32,363,Philippa,Morris,13:20,05:27,0:46:52.2
33,127,Alison,McCullagh,13:30,05:26,0:46:43.6
34,210,Fiona,Dangerfield,13:30,05:26,0:46:43.6
35,197,Sue,Taylor,13:50,05:24,0:46:26.4
36,331,Scott,Roberts,13:50,05:24,0:46:26.4
37,6,Shayne,Rushan,14:10,05:21,0:46:00.6
38,130,David,Pitson,14:20,05:20,0:45:52.0
39,268,Kirrily,Hall,14:40,05:18,0:45:34.8
40,181,Rob,Redmond,14:50,05:17,0:45:26.2
41,91,Melissa,Wilkie,15:00,05:15,0:45:09.0
42,111,Troy,Davis,15:00,05:15,0:45:09.0
43,370,James,Deacon,15:10,05:14,0:45:00.4
44,54,Kevin,deVries,15:20,05:13,0:44:51.8
45,74,Maree,Platt,15:20,05:13,0:44:51.8
46,20,John,McCullagh,15:30,05:12,0:44:43.2
47,59,Tina,McBain,15:30,05:12,0:44:43.2
48,302,Peter,Noble,15:30,05:12,0:44:43.2
49,251,Beth,Lavery,15:50,05:10,0:44:26.0
50,183,Janet,Hodnet,15:50,05:09,0:44:17.4
51,333,Jon,McIntosh,15:50,05:09,0:44:17.4
52,309,Blaze,Houlden,16:10,05:07,0:44:00.2
53,180,Lauren,Hancock,16:20,05:06,0:43:51.6
54,4,Gary,Crouch,16:30,05:05,0:43:43.0
55,47,Genevieve,Green,17:00,05:01,0:43:08.6
56,35,Conor,Cunningham,17:10,05:00,0:43:00.0
57,45,Helen,Kavanagh,17:20,04:59,0:42:51.4
58,52,Leah,Cripps,17:20,04:59,0:42:51.4
59,162,Natalie,Jacobson,17:50,04:56,0:42:25.6
60,321,Brett,Houlden,18:00,04:55,0:42:17.0
61,161,Amelia,Evans,18:00,04:54,0:42:08.4
62,359,Anne,McIntosh,18:00,04:54,0:42:08.4
63,12,Josie,Aitken,18:20,04:52,0:41:51.2
64,5,Jenny,Buchanan,18:40,04:50,0:41:34.0
65,296,Ashlee,Diston,18:40,04:50,0:41:34.0
66,307,Philip,Shambrook,18:40,04:50,0:41:34.0
67,107,Hayden,Brook,19:00,04:47,0:41:08.2
68,90,Rory,Weightman,19:20,04:45,0:40:51.0
69,236,Harry,Seaward,19:30,04:44,0:40:42.4
70,394,Rhianna,Wik-Gamble,19:50,04:42,0:40:25.2
71,165,Jake,Power,20:00,04:41,0:40:16.6
72,116,Roy,Preece,20:00,04:40,0:40:08.0
73,3,Alan,Buchanan,20:20,04:38,0:39:50.8
74,330,Kate,Hadkins,20:20,04:38,0:39:50.8
75,14,Lisa,Wilkinson,20:30,04:37,0:39:42.2
76,38,Cameron,Turnbull,20:40,04:36,0:39:33.6
77,117,Ingrid,Douglass,20:50,04:35,0:39:25.0
78,9,Trinity,Sanderson,21:00,04:33,0:39:07.8
79,13,Gavin,Fiedler,21:00,04:33,0:39:07.8
80,29,Alison,Cartner,21:00,04:33,0:39:07.8
81,93,Erica,Wilkinson,21:00,04:33,0:39:07.8
82,299,Jay,Sanderson,21:00,04:33,0:39:07.8
83,22,Ross,Douglas,21:10,04:32,0:38:59.2
84,350,David,Cripps,21:10,04:32,0:38:59.2
85,78,Mark,Saxon,21:20,04:31,0:38:50.6
86,203,Tullie,Rowe,21:30,04:30,0:38:42.0
87,315,Paul,Lomax,21:30,04:30,0:38:42.0
88,346,Paul,Vickery,21:40,04:29,0:38:33.4
89,26,Ryan,Brook,21:50,04:28,0:38:24.8
90,34,Matthew,Creer,21:50,04:28,0:38:24.8
91,386,Danny,Burgess,21:50,04:28,0:38:24.8
92,231,Paul,Seaward,22:10,04:25,0:37:59.0
93,241,Andrea,Smith,22:10,04:25,0:37:59.0
94,109,Tim,Lovell,22:20,04:24,0:37:50.4
95,384,Andrew,Wilkie,22:40,04:22,0:37:33.2
96,70,Els,Viester,22:50,04:21,0:37:24.6
97,339,James,Toomey,22:50,04:21,0:37:24.6
98,31,Charles,Chambers,23:00,04:20,0:37:16.0
99,60,Greg,McBain,23:00,04:20,0:37:16.0
100,80,Bridie,Blake-Burrows,23:00,04:20,0:37:16.0
101,96,Steve,Brereton,23:00,04:19,0:37:07.4
102,352,Amy,Holmes,23:00,04:19,0:37:07.4
103,75,David,Sebastian,23:20,04:17,0:36:50.2
104,39,Melissa,Douglas,23:30,04:16,0:36:41.6
105,55,Justin,Lee,23:30,04:16,0:36:41.6
106,17,Karl,Lanyon,23:40,04:15,0:36:33.0
107,18,Georgie,Lanyon,23:40,04:15,0:36:33.0
108,49,David,Heislers,23:40,04:15,0:36:33.0
109,65,Ben,McDermid,23:40,04:15,0:36:33.0
110,167,Jack,Meade,23:40,04:15,0:36:33.0
111,317,John,Flood,23:40,04:15,0:36:33.0
112,10,Lee,Bray,24:00,04:12,0:36:07.2
113,85,Joanne,Russell,24:00,04:12,0:36:07.2
114,163,Shai,O'Brien,24:00,04:12,0:36:07.2
115,143,Maxine,Paholek,24:10,04:11,0:35:58.6
116,308,Chris,Giffin,24:10,04:11,0:35:58.6
117,137,Anton,Paholek,24:40,04:08,0:35:32.8
118,15,Rebecca,Wilkinson,25:00,04:05,0:35:07.0
119,94,David,Lonsdale,25:00,04:05,0:35:07.0
120,351,Matt,Holmes,25:00,04:05,0:35:07.0
121,278,Jim,Russell,25:20,04:03,0:34:49.8
122,343,Todd,Cody,25:30,04:02,0:34:41.2
123,118,Tim,Lauder,25:50,04:00,0:34:24.0
124,336,Brock,Prime,26:00,03:59,0:34:15.4
125,95,Jason,Sim,26:10,03:58,0:34:06.8
126,23,Michael,Bieleny,26:30,03:55,0:33:41.0
127,42,Craig,Feuerherdt,26:30,03:55,0:33:41.0
128,61,Chris,McCormack,26:30,03:55,0:33:41.0
129,121,Russell,Jenkins,27:10,03:51,0:33:06.6
130,88,Brian,Watson,27:20,03:49,0:32:49.4
131,84,Craig,Green,27:30,03:48,0:32:40.8
132,399,Darren,Hartland,27:40,03:47,0:32:32.2
133,62,Lee,McCullagh,28:00,03:45,0:32:15.0
134,63,John,Robinson,28:00,03:45,0:32:15.0
135,247,Ross,McPhee,28:00,03:45,0:32:15.0
136,125,Sarah,Jalim,28:10,03:44,0:32:06.4
137,51,Andrew,Hosking,28:10,03:43,0:31:57.8
138,97,Adam,Fleming,29:00,03:38,0:31:14.8
139,285,Luke,Crameri,29:00,03:38,0:31:14.8
140,8,Rik,McCaig,29:10,03:37,0:31:06.2
141,33,Andrew,Creer,29:10,03:37,0:31:06.2
142,166,David,Meade,29:20,03:35,0:30:49.0
143,115,Alexander,Evans,29:30,03:34,0:30:40.4
144,120,Tom,Barkmeyer,29:40,03:33,0:30:31.8
145,86,Fraser,Walsh,30:10,03:30,0:30:06.0
146,144,Nathan,Meade,30:40,03:26,0:29:31.6
147,46,Richard,Gleisner,30:50,03:25,0:29:23.0
148,48,Matthew,Heislers,30:50,03:25,0:29:23.0
149,27,Andrew,Buchanan,32:50,03:11,0:27:22.6
