place,first,last,net Time,diff
1,Alan,Buchanan,35:05,- 1:35
2,Michael,Bieleny,29:57,- 1:38
3,Alan,East,50:12,- 1:18
4,John,Brewin,39:31,- 1:00
5,Tracy,Wilson,34:16,- 0:53
6,Erica,Wilkinson,35:09,- 0:50
7,Leon,Hamond,34:47,- 0:31
8,Chris,McCormack,33:33,- 0:31
9,Gaby,Walsh,42:02,- 0:16
10,Jenny,Buchanan,36:54,- 0:19
11,David,Tarrant,32:48,- 0:10
12,Andrew,Buchanan,27:55,- 0:06
13,Angela,Slattery,42:49,+ 0:15
14,Steve,Brereton,34:54,+ 0:26
15,Simon,Austin,31:49,+ 0:39
16,Brad,Russell,42:11,+ 0:59
17,Alison,Cartner,39:22,+ 1:11
18,Aaron,Anderson,37:32,+ 1:17
19,Nick,Walsh,40:43,+ 1:26
20,Gavin,Fiedler,36:07,+ 1:39
21,Justin,Lee,38:27,+ 2:03
22,Steve,Corrie,35:30,+ 2:32
23,Jennifer,Jones,40:24,+ 2:38
24,Phil,Lloyd,40:01,+ 2:56
25,Janet,Hodnett,43:54,+ 4:04