PLACE,NAME,PACE,TIME,GUESS,DIFF
1,David Lonsdale,4:29,15:13.0,15:18.0,+00:05.0
2,Toby McCaig,4:12,14:17.4,14:10.0,-00:07.4
3,Els Viester,5:55,20:06.3,20:24.0,+00:17.7
4,Tullie Rowe,5:51,19:53.7,19:33.0,-00:20.7
5,Lynley McDonald,6:31,22:10.2,21:45.6,-00:24.6
6,Wil McCaig,4:08,14:02.9,13:36.0,-00:26.9
7,Tim Creer,4:58,16:54.4,16:26.0,-00:28.4
8,Matthew Heislers,5:09,17:29.5,17:00.0,-00:29.5
9,Darren Hartland,5:09,17:29.8,17:00.0,-00:29.8
10,Max Rowe,5:50,19:51.4,20:24.0,+00:32.6
11,Leah Cripps,6:49,23:09.4,23:48.0,+00:38.6
12,Beatrice Lonsdale,5:28,18:33.8,17:51.0,-00:42.8
13,Ross Douglas,5:17,17:57.0,18:45.4,+00:48.4
14,Floyd Cartner,4:31,15:19.7,14:27.0,-00:52.7
15,Alison Cartner,5:18,18:01.9,18:59.0,+00:57.1
16,Megan McDonald,6:39,22:36.6,21:32.0,-01:04.6
17,Philip Shambrook,5:37,19:06.9,20:24.0,+01:17.1
18,Nathan Jones,5:16,17:54.8,16:26.0,-01:28.8
19,Josephine Robinson,6:05,20:40.4,18:59.0,-01:41.4
20,Oliver Sanderson,4:40,15:52.6,14:10.0,-01:42.6
21,Danny Burgess,5:27,18:32.3,20:24.0,+01:51.7
22,Phoebe Lonsdale,5:25,18:25.5,16:26.0,-01:59.5
23,Aida Escall,6:36,22:26.8,24:39.0,+02:12.2
24,Stephen Wainwright,5:02,17:06.1,20:24.0,+03:17.9
25,Hunter Gill,7:35,25:48.6,34:00.0,+08:11.4
