Place,Member,First,Last,Start,Pace,Est Time
1,257,Fin,Bray,00:00,07:59,0:23:57.0
2,212,Michelle,Parry,01:40,07:25,0:22:15.0
3,338,Kathryn,Toomey,02:50,07:04,0:21:12.0
4,155,Jasmine,Rielley,03:40,06:45,0:20:15.0
5,179,Paula,Rielley,03:40,06:45,0:20:15.0
6,146,David,Ashman,03:50,06:42,0:20:06.0
7,79,Liz,Stewart,04:20,06:35,0:19:45.0
8,30,Amanda,Turnbull,04:40,06:28,0:19:24.0
9,136,Livinia,Douglass,05:30,06:11,0:18:33.0
10,239,Paula,a'Beckett,05:30,06:09,0:18:27.0
11,225,Lesley,Fabian,05:40,06:06,0:18:18.0
12,229,Harrison,Pitson,05:50,06:02,0:18:06.0
13,282,Anna,deVries,06:00,06:01,0:18:03.0
14,101,Paula,Saxon,06:00,06:00,0:18:00.0
15,173,Melanie,Cuzzillo,06:00,06:00,0:18:00.0
16,195,Luke,Creer,06:00,05:59,0:17:57.0
17,292,Jye,Ekanayake,06:00,05:59,0:17:57.0
18,151,Jo,Williams,06:10,05:58,0:17:54.0
19,316,Isabella,Makris,06:20,05:55,0:17:45.0
20,142,Zach,Condon,06:20,05:52,0:17:36.0
21,52,Leah,Cripps,06:30,05:50,0:17:30.0
22,274,Avery,McDermid,06:40,05:48,0:17:24.0
23,66,Megan,McDonald,06:40,05:45,0:17:15.0
24,98,Tanya,Fleming,06:40,05:45,0:17:15.0
25,242,Halle,Blake-Burrows,06:40,05:45,0:17:15.0
26,347,Louise,Toomey,06:50,05:42,0:17:06.0
27,24,Karina,Bray,07:00,05:41,0:17:03.0
28,28,Mitchell,Bray,07:00,05:41,0:17:03.0
29,341,Greg,Toomey,07:00,05:41,0:17:03.0
30,43,Josephine,Robinson,07:00,05:40,0:17:00.0
31,243,Max,Bray,07:00,05:40,0:17:00.0
32,150,Rebecca,Ashman,07:10,05:38,0:16:54.0
33,214,Amy,Sim,07:10,05:37,0:16:51.0
34,210,Fiona,Dangerfield,07:10,05:36,0:16:48.0
35,310,Melanie,Makris,07:10,05:36,0:16:48.0
36,99,Oscar,Terry,07:20,05:35,0:16:45.0
37,157,Bec,Murphy,07:20,05:35,0:16:45.0
38,263,Narelle,McPhee,07:20,05:34,0:16:42.0
39,133,Gemma,McPhee,07:30,05:30,0:16:30.0
40,233,Sue,Condon,07:30,05:30,0:16:30.0
41,237,Lou,Bray,07:30,05:30,0:16:30.0
42,249,Will,Gleisner,07:40,05:28,0:16:24.0
43,11,Jane,McCaig,07:40,05:27,0:16:21.0
44,189,Tim,Creer,07:40,05:25,0:16:15.0
45,269,Cooper,Charnas,07:40,05:25,0:16:15.0
46,297,Declan,Lavery,07:40,05:25,0:16:15.0
47,182,Hanna,Crane,08:00,05:21,0:16:03.0
48,174,Sam,Hancock,08:00,05:20,0:16:00.0
49,164,Imogen,Thompson,08:00,05:19,0:15:57.0
50,134,Millicent,Woods,08:10,05:18,0:15:54.0
51,288,Kate,McIntosh,08:10,05:18,0:15:54.0
52,132,Tracie,Gleisner,08:20,05:15,0:15:45.0
53,152,Alannah,Rielley,08:20,05:15,0:15:45.0
54,193,Emily,Heislers,08:20,05:15,0:15:45.0
55,228,Sam,Pitson,08:20,05:14,0:15:42.0
56,252,Jasmine,Murphy,08:20,05:13,0:15:39.0
57,295,Jeremy,Carlson,08:20,05:12,0:15:36.0
58,32,Oliver,Turnbull,08:30,05:10,0:15:30.0
59,149,Janelle,Giffin,08:30,05:09,0:15:27.0
60,270,Tyler,Wilkie,08:40,05:06,0:15:18.0
61,331,Scott,Roberts,08:40,05:05,0:15:15.0
62,332,Nathan,Jones,08:50,05:03,0:15:09.0
63,156,Will,Murphy,09:00,05:00,0:15:00.0
64,240,Jenelle,Seaward,09:00,05:00,0:15:00.0
65,110,Holly,McPhee,09:00,04:59,0:14:57.0
66,325,Tom,Flood,09:00,04:59,0:14:57.0
67,300,Lucinda,Terry,09:10,04:58,0:14:54.0
68,241,Andrea,Smith,09:10,04:57,0:14:51.0
69,349,Nathaniel,McMaster,09:20,04:54,0:14:42.0
70,253,Charlotte,Murphy,09:20,04:53,0:14:39.0
71,213,Phoebe,a'Beckett,09:30,04:51,0:14:33.0
72,158,Annalise,Murphy,09:30,04:49,0:14:27.0
73,400,Darren,Rowe,09:30,04:49,0:14:27.0
74,82,Sophie,Adamson,09:40,04:45,0:14:15.0
75,342,Sarah,Cody,09:50,04:44,0:14:12.0
76,29,Alison,Cartner,09:50,04:42,0:14:06.0
77,191,Phoebe,Lonsdale,09:50,04:42,0:14:06.0
78,184,Will,Crane,10:00,04:40,0:14:00.0
79,131,Carrisa,Brook,10:10,04:38,0:13:54.0
80,259,Jasmine,Santley,10:10,04:37,0:13:51.0
81,314,Aaron,Hamilton,10:10,04:36,0:13:48.0
82,112,Jett,Grundy,10:20,04:35,0:13:45.0
83,39,Melissa,Douglas,10:20,04:32,0:13:36.0
84,201,Beatrice,Lonsdale,10:20,04:32,0:13:36.0
85,198,Matthew,Saxon,10:30,04:31,0:13:33.0
86,337,Steff,Roberts,10:30,04:30,0:13:30.0
87,171,Oliver,Sanderson,10:40,04:28,0:13:24.0
88,215,Emerson,Sim,10:40,04:25,0:13:15.0
89,275,Max,Rowe,10:40,04:25,0:13:15.0
90,339,James,Toomey,10:50,04:23,0:13:09.0
91,12,Josie,Aitken,11:00,04:21,0:13:03.0
92,177,Ben,Wilby,11:00,04:20,0:13:00.0
93,105,Toby,McCaig,11:20,04:15,0:12:45.0
94,161,Amelia,Evans,11:30,04:11,0:12:33.0
95,63,John,Robinson,11:30,04:10,0:12:30.0
96,202,Callum,Tucker,11:40,04:07,0:12:21.0
97,236,Harry,Seaward,11:40,04:07,0:12:21.0
98,114,Spencer,Evans,11:50,04:03,0:12:09.0
99,203,Tullie,Rowe,12:10,03:57,0:11:51.0
100,80,Bridie,Blake-Burrows,12:20,03:53,0:11:39.0
101,167,Jack,Meade,13:00,03:41,0:11:03.0
102,219,Wil,McCaig,13:00,03:39,0:10:57.0
103,33,Andrew,Creer,13:20,03:35,0:10:45.0
104,312,Jack,Hickman,13:40,03:26,0:10:18.0
105,46,Richard,Gleisner,13:50,03:23,0:10:09.0
106,115,Alexander,Evans,14:10,03:16,0:09:48.0
107,97,Adam,Fleming,14:20,03:15,0:09:45.0
108,48,Matthew,Heislers,14:40,03:07,0:09:21.0
