Place,Member,First,Last,Start,Pace,Est Time
1,1084,Naghmana,Tehseen,00:00,08:00,0:24:00.0
2,1097,Evie,Niblett,00:00,08:00,0:24:00.0
3,3748,Amelia,Mitchell,00:00,08:00,0:24:00.0
4,3749,Isabella,Draper,00:00,08:00,0:24:00.0
5,3782,Owen,Draper,00:00,08:00,0:24:00.0
6,225,Lesley,Fabian,01:00,07:40,0:23:00.0
7,464,Jen,Pollard,02:30,07:09,0:21:27.0
8,3781,Hamish,Draper,02:40,07:08,0:21:24.0
9,3760,Karl,Stoltz,03:20,06:55,0:20:45.0
10,3762,Leo,Stoltz,03:20,06:55,0:20:45.0
11,40,Aida,Escall,03:30,06:51,0:20:33.0
12,3798,Charli,Hosking,04:00,06:40,0:20:00.0
13,3776,Kathleen,Pleasants,04:20,06:33,0:19:39.0
14,356,Lynley,McDonald,04:30,06:30,0:19:30.0
15,241,Andrea,Smith,04:30,06:29,0:19:27.0
16,246,Poppy,Wainwright,04:30,06:29,0:19:27.0
17,1028,Mel,Debnam-Smith,04:30,06:29,0:19:27.0
18,250,Tully,Cripps,04:40,06:25,0:19:15.0
19,52,Leah,Cripps,05:00,06:21,0:19:03.0
20,1026,Eiliyah,Daneen,05:00,06:20,0:19:00.0
21,54,Kevin,de Vries,05:00,06:19,0:18:57.0
22,1085,Michelle,Scott,05:10,06:18,0:18:54.0
23,50,Harry,Cripps,05:10,06:17,0:18:51.0
24,3778,Sebastian,Stewart,05:10,06:17,0:18:51.0
25,453,Marcene,Haythrope,05:40,06:06,0:18:18.0
26,473,James,Bradshaw,05:50,06:02,0:18:06.0
27,74,Maree,Platt,06:10,05:57,0:17:51.0
28,425,Nathan,Crowley,06:10,05:56,0:17:48.0
29,16,Jennifer,Lee,06:20,05:55,0:17:45.0
30,1089,Ruby,Carter,06:20,05:55,0:17:45.0
31,442,Marina,Damijanic,06:30,05:50,0:17:30.0
32,3720,Bec,Beesley,06:30,05:50,0:17:30.0
33,466,Francesco,Biasi,06:40,05:48,0:17:24.0
34,407,Cadi,Watchman,06:40,05:45,0:17:15.0
35,408,Trevor,Watchman,06:40,05:45,0:17:15.0
36,465,Deb,Banks,06:40,05:45,0:17:15.0
37,3753,Logan,Beesley,06:40,05:45,0:17:15.0
38,359,Anne,McIntosh,07:10,05:38,0:16:54.0
39,1076,Sarah,Trew,07:10,05:38,0:16:54.0
40,3711,Eryn,McManus,07:20,05:34,0:16:42.0
41,355,Millie,McIntosh,07:20,05:33,0:16:39.0
42,463,Lila,Hensley,07:20,05:32,0:16:36.0
43,267,Kayla,McManus,07:30,05:30,0:16:30.0
44,333,Jon,McIntosh,07:30,05:30,0:16:30.0
45,451,Julia,Starr,07:30,05:30,0:16:30.0
46,420,Sarah,Crowley,07:40,05:25,0:16:15.0
47,457,Emily,Harris,07:40,05:25,0:16:15.0
48,322,Thom,Hosking,08:00,05:21,0:16:03.0
49,441,Jimmy,Byrne,08:00,05:20,0:16:00.0
50,406,Mietta,Watchman,08:10,05:18,0:15:54.0
51,283,Lily,Sanderson,08:20,05:14,0:15:42.0
52,449,Belinda,Whelan,08:20,05:14,0:15:42.0
53,477,Michael,Carney,08:20,05:14,0:15:42.0
54,1025,Liz,Foster,08:20,05:14,0:15:42.0
55,1035,Braxton,Safstrom,08:30,05:11,0:15:33.0
56,3702,Vicki,Bayliss,08:30,05:11,0:15:33.0
57,22,Ross,Douglas,08:30,05:10,0:15:30.0
58,1077,Dean,Trew,08:30,05:09,0:15:27.0
59,1024,Todd,Foster,08:40,05:08,0:15:24.0
60,1047,Harry,Scott,08:40,05:05,0:15:15.0
61,270,Tyler,Wilkie,08:50,05:02,0:15:06.0
62,3774,Ryan,Haythorpe,09:00,05:00,0:15:00.0
63,276,Joshua,Feuerherdt,09:20,04:55,0:14:45.0
64,418,Vanessa,Bull,09:20,04:54,0:14:42.0
65,422,Quinn,Casey,09:20,04:52,0:14:36.0
66,474,Erin,Bradshaw,09:20,04:52,0:14:36.0
67,14,Lisa,Wilkinson,09:40,04:48,0:14:24.0
68,3788,Matthew,Schubert,09:40,04:48,0:14:24.0
69,266,Lewis,Lonsdale,09:40,04:45,0:14:15.0
70,350,David,Cripps,09:40,04:45,0:14:15.0
71,55,Justin,Lee,10:00,04:41,0:14:03.0
72,386,Danny,Burgess,10:00,04:40,0:14:00.0
73,3737,Ebony,Beesley,10:10,04:38,0:13:54.0
74,1023,Matthew,Schepisi,10:10,04:37,0:13:51.0
75,109,Tim,Lovell,10:20,04:34,0:13:42.0
76,183,Janet,Hodnett,10:30,04:31,0:13:33.0
77,3754,Elijah,Willits,10:30,04:30,0:13:30.0
78,15,Rebecca,Wilkinson,10:30,04:29,0:13:27.0
79,147,Lachlan,Feuerherdt,10:40,04:28,0:13:24.0
80,272,Abbey,Cartner,10:40,04:25,0:13:15.0
81,428,Matthew,Bell,10:40,04:25,0:13:15.0
82,1099,Kelvin,Niblett,10:40,04:25,0:13:15.0
83,3766,Anthony,Byrne,10:50,04:24,0:13:12.0
84,49,David,Heislers,11:00,04:20,0:13:00.0
85,65,Ben,McDermid,11:00,04:19,0:12:57.0
86,305,Jonty,McDermid,11:00,04:19,0:12:57.0
87,1080,Jayson,Carter,11:10,04:18,0:12:54.0
88,1060,William,Trew,11:10,04:16,0:12:48.0
89,84,Craig,Green,11:20,04:14,0:12:42.0
90,1083,Rebecca,Kirkby,11:20,04:14,0:12:42.0
91,452,Noah,Pedrotti,11:20,04:13,0:12:39.0
92,394,Rhianna,Wik-Gamble,11:20,04:12,0:12:36.0
93,1051,Kane,Safstrom,11:20,04:12,0:12:36.0
94,191,Phoebe,Lonsdale,11:30,04:10,0:12:30.0
95,3755,Noah,Willits,11:40,04:07,0:12:21.0
96,3714,Tanner,Fear,11:40,04:06,0:12:18.0
97,203,Tullie,Rowe,11:50,04:04,0:12:12.0
98,358,Lewis,McIntosh,11:50,04:03,0:12:09.0
99,438,Damian,Hughes,12:00,03:59,0:11:57.0
100,171,Oliver,Sanderson,12:20,03:54,0:11:42.0
101,277,Luke,Feuerherdt,12:30,03:49,0:11:27.0
102,423,Hugh,Casey,12:40,03:48,0:11:24.0
103,432,Jarrod,Epps,12:40,03:48,0:11:24.0
104,1029,James,Trew,12:40,03:48,0:11:24.0
105,3738,Mason,Beesley,12:40,03:47,0:11:21.0
106,51,Andrew,Hosking,12:50,03:44,0:11:12.0
107,274,Avery,McDermid,12:50,03:44,0:11:12.0
108,275,Max,Rowe,13:00,03:41,0:11:03.0
109,169,Floyd,Cartner,13:20,03:32,0:10:36.0
