Place,Member,First,Last,Start,Pace,Est Time
1,3776,Kathleen,Pleasants,06:30,07:13,0:59:27.9
2,3747,Jeremy,Draper,10:30,06:43,0:55:20.7
3,427,Cath,O'Leary,13:40,06:20,0:52:11.2
4,54,Kevin,de Vries,14:30,06:15,0:51:30.0
5,210,Fiona,Dangerfield,14:30,06:15,0:51:30.0
6,1025,Liz,Foster,15:10,06:10,0:50:48.8
7,39,Melissa,Douglas,15:20,06:08,0:50:32.3
8,3740,Vicki,Lane,17:10,05:55,0:48:45.2
9,6,Shayne,Rushan,17:50,05:50,0:48:04.0
10,74,Maree,Platt,17:50,05:50,0:48:04.0
11,76,Cara,Smith,17:50,05:50,0:48:04.0
12,1028,Mel,Debnam-Smith,17:50,05:50,0:48:04.0
13,197,Sue,Taylor,18:30,05:45,0:47:22.8
14,1066,Jodie,McLeod,18:50,05:43,0:47:06.3
15,3758,Janis,Bull,19:00,05:42,0:46:58.1
16,91,Melissa,Wilkie,19:10,05:40,0:46:41.6
17,449,Belinda,Whelan,19:30,05:38,0:46:25.1
18,458,Caitlin,Clarke,19:30,05:38,0:46:25.1
19,3702,Vicki,Bayliss,19:50,05:35,0:46:00.4
20,398,Angus,McPherson,20:10,05:33,0:45:43.9
21,3777,Alistair,Stewart,20:10,05:33,0:45:43.9
22,22,Ross,Douglas,20:50,05:28,0:45:02.7
23,87,Frances,Walsh,21:00,05:27,0:44:54.5
24,13,Gavin,Fiedler,21:20,05:25,0:44:38.0
25,52,Leah,Cripps,21:20,05:25,0:44:38.0
26,270,Tyler,Wilkie,21:40,05:22,0:44:13.3
27,1003,Damien,Roberts,22:00,05:20,0:43:56.8
28,1024,Todd,Foster,22:00,05:20,0:43:56.8
29,400,Darren,Rowe,24:00,05:05,0:41:53.2
30,476,Sheena,Carney,24:00,05:05,0:41:53.2
31,241,Andrea,Smith,24:40,05:00,0:41:12.0
32,333,Jon,McIntosh,24:40,05:00,0:41:12.0
33,63,John,Robinson,25:00,04:58,0:40:55.5
34,29,Alison,Cartner,25:10,04:57,0:40:47.3
35,278,James,Russell,25:20,04:56,0:40:39.0
36,9,Trinity,Sanderson,25:20,04:55,0:40:30.8
37,55,Justin,Lee,25:20,04:55,0:40:30.8
38,418,Vanessa,Bull,25:20,04:55,0:40:30.8
39,3739,Stephen,van Rees,25:20,04:55,0:40:30.8
40,14,Lisa,Wilkinson,25:30,04:54,0:40:22.6
41,359,Anne,McIntosh,26:00,04:51,0:39:57.8
42,1099,Kelvin,Niblett,26:10,04:50,0:39:49.6
43,18,Georgie,Lanyon,26:30,04:47,0:39:24.9
44,1074,David,Burrow,26:40,04:46,0:39:16.6
45,455,Suzie,Pedrotti,26:50,04:45,0:39:08.4
46,3760,Karl,Stoltz,27:00,04:44,0:39:00.2
47,408,Trevor,Watchman,27:00,04:43,0:38:51.9
48,3788,Matthew,Schubert,27:00,04:43,0:38:51.9
49,384,Andrew,Wilkie,27:10,04:42,0:38:43.7
50,109,Tim,Lovell,27:30,04:40,0:38:27.2
51,1080,Jayson,Carter,27:30,04:40,0:38:27.2
52,1020,Mumtaz,Hussain,27:40,04:39,0:38:19.0
53,3766,Anthony,Byrne,27:40,04:38,0:38:10.7
54,65,Ben,McDermid,27:50,04:37,0:38:02.5
55,171,Oliver,Sanderson,27:50,04:37,0:38:02.5
56,203,Tullie,Rowe,29:00,04:29,0:36:56.6
57,84,Craig,Green,29:20,04:26,0:36:31.8
58,3730,Greg,Carter,29:20,04:26,0:36:31.8
59,191,Phoebe,Lonsdale,29:30,04:25,0:36:23.6
60,490,Aaron,Anderson,29:30,04:25,0:36:23.6
61,1051,Kane,Safstrom,29:30,04:25,0:36:23.6
62,428,Matthew,Bell,29:40,04:24,0:36:15.4
63,49,David,Heislers,29:50,04:23,0:36:07.1
64,15,Rebecca,Wilkinson,30:00,04:22,0:35:58.9
65,94,David,Lonsdale,30:10,04:20,0:35:42.4
66,469,Paul,Boxshall,30:10,04:20,0:35:42.4
67,472,John,Flood,30:50,04:16,0:35:09.4
68,350,David,Cripps,30:50,04:15,0:35:01.2
69,399,Darren,Hartland,30:50,04:15,0:35:01.2
70,438,Damian,Hughes,30:50,04:15,0:35:01.2
71,430,Brianna,Maddern,31:00,04:14,0:34:53.0
72,1031,Jack,Milligan,31:10,04:13,0:34:44.7
73,432,Jarrod,Epps,31:20,04:12,0:34:36.5
74,1027,Andrew,Van Agtmaal,31:20,04:12,0:34:36.5
75,429,Gavin,Hicks,31:50,04:08,0:34:03.5
76,448,Rory,Flanagan,31:50,04:08,0:34:03.5
77,1022,Ben,Stolz,32:30,04:03,0:33:22.3
78,8,Rik,McCaig,33:00,04:00,0:32:57.6
79,1023,Matthew,Schepisi,33:00,04:00,0:32:57.6
80,51,Andrew,Hosking,33:10,03:58,0:32:41.1
81,275,Max,Rowe,33:10,03:58,0:32:41.1
82,447,Jake,Delaney,33:30,03:56,0:32:24.6
83,33,Andrew,Creer,33:40,03:55,0:32:16.4
84,462,Eliot,Walton,34:00,03:52,0:31:51.7
85,23,Michael,Bieleny,34:10,03:51,0:31:43.4
86,169,Floyd,Cartner,35:10,03:44,0:30:45.8
87,467,Glenn,McMillian,36:50,03:32,0:29:06.9
88,3701,Nigel,Preston,37:00,03:31,0:28:58.6
89,404,Leon,Griffin,37:30,03:27,0:28:25.7
