Place,Member,First,Last,Start,Pace,Est Time
1,413,Eleanor,Stoltz,00:00,08:00,0:08:00.0
2,1070,Thomas,Lee,00:00,08:00,0:08:00.0
3,3760,Karl,Stoltz,00:00,08:00,0:08:00.0
4,419,Will,Kirkby,00:10,07:50,0:07:50.0
5,417,Charlotte,Schubert,00:20,07:44,0:07:44.0
6,405,Mohid,Zaman,00:20,07:38,0:07:38.0
7,3790,Zahli,Bayliss,00:40,07:23,0:07:23.0
8,1014,Tom,Roberts,01:20,06:45,0:06:45.0
9,3705,Sienna,Bayliss,01:40,06:24,0:06:24.0
10,403,Ivie,Safstrom,01:40,06:17,0:06:17.0
11,1073,Gabe,Nicoletti,01:50,06:14,0:06:14.0
12,390,Ruby,Douglas,01:50,06:06,0:06:06.0
13,416,Sophie,Schubert,02:00,06:03,0:06:03.0
14,3762,Leo,Stoltz,02:00,06:01,0:06:01.0
15,1026,Eiliyah,Daneen,02:10,05:53,0:05:53.0
16,3751,Ellie,Beesley,02:10,05:50,0:05:50.0
17,1082,Mikayla,Kirkby,02:20,05:38,0:05:38.0
18,246,Poppy,Wainwright,02:30,05:28,0:05:28.0
19,3752,Chloe,Beesley,02:30,05:28,0:05:28.0
20,3736,Skylar,Beesley,02:30,05:27,0:05:27.0
21,1097,Evie,Niblett,02:50,05:13,0:05:13.0
22,424,Lauren,Crowley,03:00,05:01,0:05:01.0
23,3753,Logan,Beesley,03:00,04:56,0:04:56.0
24,421,Alicia,Crowley,03:10,04:52,0:04:52.0
25,406,Mietta,Watchman,03:20,04:43,0:04:43.0
26,1080,Jayson,Carter,03:20,04:40,0:04:40.0
27,1035,Braxton,Safstrom,03:20,04:39,0:04:39.0
28,3704,Callen,Bayliss,03:30,04:32,0:04:32.0
29,276,Joshua,Feuerherdt,03:30,04:31,0:04:31.0
30,3737,Ebony,Beesley,03:50,04:09,0:04:09.0
31,266,Lewis,Lonsdale,04:00,04:03,0:04:03.0
32,3738,Mason,Beesley,04:10,03:54,0:03:54.0
33,169,Floyd,Cartner,04:40,03:16,0:03:16.0
34,274,Avery,McDermid,04:40,03:16,0:03:16.0
