place,first,last,club,net Time
1,Brian,Watson,UNI,28:33.6
2,Rossi,Evans,HAR,28:57.1
3,John,Robinson,UNI,30:29.8
4,Ben,McDermid,UNI,31:12.2
5,David,Heislers,UNI,35:18.6
6,Ross,Douglas,UNI,36:51.2
7,Craig,Graham,EGWK,40:34.0
8,Geoff,Jordan,HAR,40:40.6
9,Kevin,de Vries,UNI,44:37.3