Place,First,Last,NET Time,Pace,Diff
1,Michael,Gibbons,0:33:27.5,04:04,-00:36.0
2,Mumtaz,Hussain,0:39:04.4,04:45,-00:12.2
3,Gavin,Fiedler,0:43:40.2,05:18,-00:08.4
4,Matthew,Schepisi,0:31:53.7,03:52,+00:02.0
5,Janelle,Giffin,0:48:16.5,05:52,+00:04.3
6,David,Cripps,0:36:13.4,04:24,+00:14.5
7,Chris,Giffin,0:34:42.2,04:13,+00:22.2
8,Darren,Rowe,0:41:38.3,05:03,+00:26.3
9,Greg,Carter,0:35:13.5,04:16,+00:28.8
10,Tarli,Bird,0:31:34.6,03:50,+00:32.4
11,David,Lonsdale,0:34:48.0,04:13,+00:44.5
12,Ross,Douglas,0:42:31.9,05:10,+01:11.7
13,Ben,McDermid,0:36:19.3,04:24,+01:59.3
14,Justine,Rowe,0:52:07.2,06:20,+02:07.8
15,Kevin,de Vries,0:48:57.7,05:57,+02:16.1
16,Craig,Feuerherdt,0:34:09.0,04:09,+02:42.0
17,Maree,Platt,0:46:55.7,05:42,+02:42.4
18,Damien,Roberts,0:41:55.5,05:05,+04:42.5
19,Craig,Green,0:40:33.0,04:55,+07:43.6
20,Andrew,Creer,0:40:53.9,04:58,+08:54.0
NEW,Melissa,Rogers,0:48:13.5,05:51
