Place,First,Last,NET Time,Pace,Diff
1,Fiona,Preston,0:22:08.8,06:31,-03:14.4
2,Jonty,McDermid,0:19:21.2,05:42,-00:56.0
3,Beatrice,Lonsdale,0:15:37.1,04:36,-00:52.3
4,Tullie,Rowe,0:13:12.6,03:53,-00:23.4
5,Jazlin,Fear,0:16:11.0,04:46,-00:21.8
6,Max,Rowe,0:14:09.6,04:10,-00:14.0
7,Floyd,Cartner,0:14:19.9,04:13,+00:03.1
8,Abbey,Cartner,0:15:56.2,04:41,+00:28.0
9,Phoebe,Lonsdale,0:16:08.0,04:45,+00:39.8
10,Bec,Woodward,0:19:06.3,05:37,+00:41.3
11,Phoebe,Martin,0:20:44.1,06:06,+03:16.9
12,Hamish,Draper,0:27:42.3,08:09,+03:16.9
13,Mason,Woodward,0:25:11.0,07:24,+06:32.4
14,Genevieve,Draper,0:30:45.2,09:03,+06:43.6
15,Avery,McDermid,0:27:18.4,08:02,+08:16.0
16,Amelia,Mitchell,0:33:01.8,09:43,+08:53.4
NEW,Jaraon,Ekanyake,0:17:03.3,05:01
NEW,Jake,Wight,0:16:58.2,04:59
