member,first,last,start,pace,est Time
238,Rex,Lourie,00:00,8:0,08:00
248,Mitchell,Bray,00:00,8:0,08:00
237,Ethan,Fletcher,00:00,7:57,07:57
239,Xavier,Thomas,00:30,7:34,07:34
252,Allerah,Thomas,00:30,7:32,07:32
294,George,Pitson,00:30,7:30,07:30
204,Cain,Charnas,00:40,7:20,07:20
246,Rhyse,Thorpe,00:50,7:9,07:09
205,Amelia,Charnas,01:10,6:50,06:50
240,Kevin,Wheatley,01:10,6:48,06:48
259,Amber,Anderson,01:20,6:43,06:43
211,Jesse,Brook,01:20,6:42,06:42
220,Ella,Meharry,01:30,6:31,06:31
284,Greg,Dundas,01:30,6:30,06:30
234,Finn,Cunningham,01:40,6:25,06:25
209,Olivia,Douglas,01:40,6:24,06:24
207,Lewis,Kallour,01:40,6:20,06:20
264,Katelyn,Kelly,01:40,6:18,06:18
179,Imogen,Douglas,01:40,6:16,06:16
268,Moira,Coleman,01:50,6:11,06:11
253,Rebecca,Ashman,01:50,6:9,06:09
281,Will,deVries,01:50,6:9,06:09
244,Saige,Finch,02:00,6:4,06:04
243,Neve,Coleman,02:00,6:2,06:02
216,Ava,Terry,02:00,6:0,06:00
285,Luke,Crameri,02:00,6:0,06:00
286,Chris,Xu,02:00,6:0,06:00
287,Michael,Gillies Smith,02:00,6:0,06:00
271,Will,Smith,02:10,5:55,05:55
282,Anna,deVries,02:10,5:53,05:53
276,Joshua,Feuerherdt,02:10,5:52,05:52
250,Jasmine,Padgham,02:10,5:49,05:49
251,Jack,Meharry,02:10,5:49,05:49
36,Emily,Christie,02:10,5:48,05:48
235,Aoife,Cunningham,02:10,5:48,05:48
278,Maggie,Morisson,02:10,5:48,05:48
177,Ella,Fisher,02:20,5:45,05:45
262,Manny,Rose,02:20,5:42,05:42
300,Lucinda,Terry,02:20,5:40,05:40
245,Lacey,Wilkie,02:20,5:38,05:38
255,Dylan,Sim,02:20,5:38,05:38
263,Nick,Meharry,02:20,5:37,05:37
198,Matthew,Saxon,02:30,5:34,05:34
258,Cooper,Rea,02:30,5:34,05:34
260,Albert,Cordell,02:30,5:34,05:34
223,Jack,Meharry,02:30,5:31,05:31
283,Lily,Sanderson,02:30,5:31,05:31
148,Matisse,Grills-Marsily,02:30,5:30,05:30
241,Amity,Thorpe,02:30,5:30,05:30
257,Rossi,Stevens,02:30,5:30,05:30
232,Jack,Gleisner,02:30,5:28,05:28
233,Melana,Cordell,02:30,5:27,05:27
249,Will,Gleisner,02:30,5:27,05:27
280,Paige,a'Beckett,02:30,5:26,05:26
274,Avery,McDermid,02:40,5:22,05:22
270,Tyler,Wilkie,02:40,5:20,05:20
265,Joshua,Kelly,02:40,5:19,05:19
247,Jack,McCullough,02:40,5:16,05:16
261,Charlotte,Crane,02:40,5:16,05:16
254,William,Robinson,02:50,5:11,05:11
185,Morgan,Dunn,02:50,5:8,05:08
99,Oscar,Terry,02:50,5:7,05:07
191,Phoebe,Lonsdale,03:00,5:4,05:04
161,Henry,Cordell,03:00,5:2,05:02
242,Jordan,Wheatley,03:00,5:0,05:00
267,Kayla,McManus,03:00,4:56,04:56
279,Lucy,McCaig,03:10,4:55,04:55
277,Luke,Feuerherdt,03:10,4:52,04:52
269,Cooper,Charnas,03:10,4:50,04:50
189,Tim,Creer,03:10,4:49,04:49
275,Max,Rowe,03:10,4:49,04:49
131,Carrisa,Brook,03:20,4:45,04:45
181,Tom,Coleman,03:20,4:44,04:44
215,Emerson,Sim,03:20,4:43,04:43
266,Lewis,Lonsdale,03:20,4:39,04:39
147,Lachlan,Feuerherdt,03:20,4:37,04:37
272,Abbey,Cartner,03:20,4:36,04:36
273,Harrison,Kelly,03:30,4:33,04:33
236,Jake,Lyons,03:30,4:32,04:32
190,Micheala,Meharry,03:30,4:31,04:31
221,Billy,Meade,03:30,4:29,04:29
289,Josh,Smith,03:40,4:18,04:18
203,Tullie,Rowe,03:40,4:16,04:16
291,Sarah,Wilkes,03:40,4:16,04:16
105,Toby,McCaig,03:50,4:13,04:13
139,Leila,Padgham,03:50,4:12,04:12
176,Kaidyn,Tucker,04:00,4:5,04:05
169,Floyd,Cartner,04:00,4:2,04:02
256,Jesse,Delves,04:00,4:2,04:02
19,Troy,Cartner,04:00,4:0,04:00