member,first,last,start,pace,est Time
204,Charnas,Cain,00:00,7:20,07:20
290,Anderson,Amber,00:00,7:0,07:00
205,Charnas,Amelia,00:00,6:50,06:50
211,Brook,Jesse,00:00,6:42,06:42
220,Meharry,Ella,00:00,6:31,06:31
209,Douglas,Olivia,00:00,6:30,06:30
234,Cunningham,Finn,00:00,6:25,06:25
207,Kallour,Lewis,00:00,6:20,06:20
264,Kelly,Katelyn,00:00,6:18,06:18
216,Terry,Ava,00:00,6:10,06:10
281,deVries,Will,00:00,6:9,06:09
288,Bieleny,Jazz,00:00,6:1,06:01
271,Smith,Will,00:00,5:55,05:55
282,deVries,Anna,00:00,5:53,05:53
276,Feuerherdt,Joshua,00:00,5:52,05:52
36,Christie,Emily,00:00,5:48,05:48
235,Cunningham,Aoife,00:00,5:48,05:48
278,Morisson,Maggie,00:00,5:48,05:48
292,Ekanayake,Jye,00:00,5:41,05:41
245,Wilkie,Lacey,00:00,5:38,05:38
255,Sim,Dylan,00:00,5:38,05:38
223,Meharry,Jack,00:00,5:31,05:31
232,Gleisner,Jack,00:00,5:28,05:28
249,Gleisner,Will,00:00,5:27,05:27
280,a'Beckett,Paige,00:00,5:26,05:26
274,McDermid,Avery,00:00,5:22,05:22
283,Sanderson,Lily,00:00,5:20,05:20
265,Kelly,Joshua,00:00,5:19,05:19
261,Crane,Charlotte,00:00,5:16,05:16
254,Robinson,William,00:00,5:11,05:11
300,Terry,Lucinda,00:00,5:10,05:10
99,Terry,Oscar,00:00,5:7,05:07
279,McCaig,Lucy,00:00,5:2,05:02
277,Feuerherdt,Luke,00:00,4:52,04:52
267,McManus,Kayla,00:00,4:51,04:51
269,Charnas,Cooper,00:00,4:50,04:50
215,Sim,Emerson,00:00,4:43,04:43
272,Cartner,Abbey,00:00,4:40,04:40
266,Lonsdale,Lewis,00:00,4:39,04:39
147,Feuerherdt,Lachlan,00:00,4:37,04:37
273,Kelly,Harrison,00:00,4:33,04:33
221,Meade,Billy,00:00,4:29,04:29
289,Smith,Josh,00:00,4:18,04:18
291,Wilkes,Sarah,00:00,4:16,04:16
105,McCaig,Toby,00:00,4:13,04:13
169,Cartner,Floyd,00:00,4:5,04:05
176,Tucker,Kaidyn,00:00,4:5,04:05
256,Delves,Jesse,00:00,4:2,04:02
19,Cartner,Troy,00:00,4:0,04:00
257,Rossi,Stevens,00:00,5:30,05:30
232,Jack,Gleisner,00:00,5:28,05:28
233,Melana,Cordell,00:00,5:27,05:27
249,Will,Gleisner,00:00,5:27,05:27
280,Paige,a'Beckett,00:00,5:26,05:26
274,Avery,McDermid,00:00,5:22,05:22
270,Tyler,Wilkie,00:00,5:20,05:20
265,Joshua,Kelly,00:00,5:19,05:19
247,Jack,McCullough,00:00,5:16,05:16
261,Charlotte,Crane,00:00,5:16,05:16
254,William,Robinson,00:00,5:11,05:11
185,Morgan,Dunn,00:00,5:8,05:08
99,Oscar,Terry,00:00,5:7,05:07
191,Phoebe,Lonsdale,00:00,5:4,05:04
161,Henry,Cordell,00:00,5:2,05:02
242,Jordan,Wheatley,00:00,5:0,05:00
267,Kayla,McManus,00:00,4:56,04:56
279,Lucy,McCaig,00:00,4:55,04:55
277,Luke,Feuerherdt,00:00,4:52,04:52
269,Cooper,Charnas,00:00,4:50,04:50
189,Tim,Creer,00:00,4:49,04:49
275,Max,Rowe,00:00,4:49,04:49
131,Carrisa,Brook,00:00,4:45,04:45
181,Tom,Coleman,00:00,4:44,04:44
215,Emerson,Sim,00:00,4:43,04:43
266,Lewis,Lonsdale,00:00,4:39,04:39
147,Lachlan,Feuerherdt,00:00,4:37,04:37
272,Abbey,Cartner,00:00,4:36,04:36
273,Harrison,Kelly,00:00,4:33,04:33
236,Jake,Lyons,00:00,4:32,04:32
190,Micheala,Meharry,00:00,4:31,04:31
221,Billy,Meade,00:00,4:29,04:29
289,Josh,Smith,00:00,4:18,04:18
203,Tullie,Rowe,00:00,4:16,04:16
291,Sarah,Wilkes,00:00,4:16,04:16
105,Toby,McCaig,00:00,4:13,04:13
139,Leila,Padgham,00:00,4:12,04:12
176,Kaidyn,Tucker,00:00,4:5,04:05
169,Floyd,Cartner,00:00,4:2,04:02
256,Jesse,Delves,00:00,4:2,04:02
19,Troy,Cartner,00:00,4:0,04:00