place,first,last,net Time,diff
1,Bailey,Dunn,10:10,- 2:20
2,Julie,Evely,11:47,- 2:13
3,Sebastian,Rowe,10:00,- 2:00
4,Carissa,Brooke,10:06,- 1:54
5,Morgan,Dunn,10:40,- 1:26
6,Amy,Sim,10:51,- 0:55
7,Lucy,Terry,11:53,- 0:37
8,Harry,Terry,11:53,- 0:37
9,Steffany,Roberts,09:24,- 0:36
10,Jack,Cripps,08:26,- 0:36
11,John,Rose,07:40,- 0:22
12,Zac,Walsh,10:11,- 0:19
13,Floyd,Cartner,09:42,- 0:18
14,Shaina,Brooke,09:18,- 0:12
15,Matisse,Perez,09:38,- 0:14
16,Emily,Heislers,11:48,+ 1:14
17,Lachlan,Walsh,12:24,+ 1:24
18,Jayden,Walsh,13:42,+ 2:42