PLACE,FIRST,LAST,RACES,POINTS
1,April,Wainwright,8,186
2,William,Robinson,8,170
3,Lewis,Lonsdale,7,156
4,Genevieve,Robinson,8,153
5,Harry,Cripps,8,149
6,Joshua,Feuerherdt,6,136
7,Tully,Cripps,8,135
8,Jonty,McDermid,7,133
9,Avery,McDermid,7,118
10,Geoffrey,Robinson,7,108
11,Ebony,Woodward,4,98
12,Sebastian,Stewart,4,94
13,Luke,Feuerherdt,5,94
14,Will,deVries,5,82
15,Eden,Howes,4,77
16,Poppy,Wainwright,4,76
17,Mason,Woodward,4,76
18,Liam,Carter,3,70
19,Olivia,Douglas,5,66
20,Belle,Howes,4,66
21,Ruby,Douglas,5,61
22,Phoebe,Martin,3,59
23,Kayla,McManus,3,59
24,Elliot,Lavery,2,55
25,Jemma,Carter,3,55
26,Jasmine,Murphy,3,52
27,Lucy,McCaig,2,50
28,Ivy,Bray,3,47
29,Skylar,Woodward,3,47
30,Lewis,McIntosh,2,46
31,Lacey,Wilkie,2,43
32,Alice,McIntosh,2,40
33,Sam,Hancock,1,40
34,Phoebe,Lonsdale,2,40
35,Sebastian,Boromeo,2,39
36,Annabel,Hancock,2,33
37,Callen,Bayliss,3,30
38,Isabelle,Draper,2,30
39,Owen,Draper,3,29
40,Kim,Carter,2,26
41,Jake,Wight,2,24
42,Samuel,Preston,2,23
43,Abbey,Cartner,1,19
44,Declan,Lavery,1,14
45,Anna,deVries,2,13
46,Lenny,Hancock,1,13
47,Zacch,Martin,2,9
48,Sienna,Bayliss,2,8
49,Craig,Feuerherdt,1,0
50,Charlotte,Murphy,1,0
51,Charli,Green,1,0
52,Scott,Butcher,1,0
53,Janine,Butcher,1,0
54,Lachlan,Edwards,1,0
55,Ebony,Butcher,1,0
56,Eryn,McManus,1,0
57,Dylan,Sim,1,0
58,Finn,Cunningham,1,0
59,Madeline,Gibbons,1,0
60,Gus,Edwards,1,0
