Place,Member,First,Last,Start,Pace,Est Time
1,159,Renelle,McManus,-0:00,08:00,0:55:26.4
2,806,Kerry,Amor,04:20,07:22,0:51:03.1
3,3776,Kathleen,Pleasants,05:10,07:15,0:50:14.5
4,814,Sam,Esmore,11:20,06:22,0:44:07.3
5,74,Maree,Platt,11:30,06:20,0:43:53.4
6,427,Cath,O'Leary,11:30,06:20,0:43:53.4
7,54,Kevin,de Vries,12:10,06:15,0:43:18.8
8,210,Fiona,Dangerfield,12:10,06:15,0:43:18.8
9,1025,Liz,Foster,12:40,06:10,0:42:44.1
10,39,Melissa,Douglas,13:00,06:08,0:42:30.2
11,6,Shayne,Rushan,13:50,06:00,0:41:34.8
12,22,Ross,Douglas,13:50,06:00,0:41:34.8
13,458,Caitlin,Clarke,14:30,05:55,0:41:00.2
14,3740,Vicki,Lane,14:30,05:55,0:41:00.2
15,76,Cara,Smith,15:00,05:50,0:40:25.5
16,449,Belinda,Whelan,15:00,05:50,0:40:25.5
17,1028,Mel,Debnam-Smith,15:00,05:50,0:40:25.5
18,3758,Janis,Bull,15:00,05:50,0:40:25.5
19,3777,Alistair,Stewart,15:00,05:50,0:40:25.5
20,182,Hannah,Crane,15:10,05:48,0:40:11.6
21,386,Danny,Burgess,15:40,05:45,0:39:50.8
22,1066,Jodie,McLeod,15:50,05:43,0:39:37.0
23,424,Lauren,Crowley,16:00,05:42,0:39:30.1
24,91,Melissa,Wilkie,16:10,05:40,0:39:16.2
25,1087,Deanna,Marshall,16:20,05:38,0:39:02.3
26,31,Charles,Chambers,16:40,05:36,0:38:48.5
27,197,Sue,Taylor,16:40,05:36,0:38:48.5
28,398,Angus,McPherson,17:00,05:33,0:38:27.7
29,87,Frances,Walsh,17:40,05:27,0:37:46.1
30,807,Kristian,Dowler,17:50,05:26,0:37:39.2
31,13,Gavin,Fiedler,18:10,05:22,0:37:11.5
32,270,Tyler,Wilkie,18:10,05:22,0:37:11.5
33,52,Leah,Cripps,18:30,05:20,0:36:57.6
34,1024,Todd,Foster,18:30,05:20,0:36:57.6
35,3,Alan,Buchanan,19:00,05:16,0:36:29.9
36,183,Janet,Hodnett,19:10,05:14,0:36:16.0
37,400,Darren,Rowe,20:10,05:05,0:35:13.7
38,333,Jon,McIntosh,20:40,05:01,0:34:45.9
39,476,Sheena,Carney,20:40,05:01,0:34:45.9
40,241,Andrea,Smith,20:50,05:00,0:34:39.0
41,55,Justin,Lee,21:00,04:58,0:34:25.1
42,3763,Brett,Dobbin,21:10,04:57,0:34:18.2
43,278,James,Russell,21:20,04:56,0:34:11.3
44,9,Trinity,Sanderson,21:20,04:55,0:34:04.3
45,3739,Stephen,van Rees,21:20,04:55,0:34:04.3
46,1040,Erin,Williams,21:40,04:52,0:33:43.6
47,455,Suzie,Pedrotti,22:00,04:50,0:33:29.7
48,3702,Vicki,Bayliss,22:00,04:50,0:33:29.7
49,3760,Karl,Stoltz,22:00,04:50,0:33:29.7
50,18,Georgie,Lanyon,22:20,04:47,0:33:08.9
51,29,Alison,Cartner,22:20,04:47,0:33:08.9
52,274,Avery,McDermid,22:20,04:47,0:33:08.9
53,1020,Mumtaz,Hussain,22:20,04:47,0:33:08.9
54,1074,David,Burrow,22:20,04:46,0:33:02.0
55,1080,Jayson,Carter,22:30,04:45,0:32:55.0
56,3766,Anthony,Byrne,22:30,04:45,0:32:55.0
57,14,Lisa,Wilkinson,22:50,04:43,0:32:41.2
58,408,Trevor,Watchman,22:50,04:43,0:32:41.2
59,1003,Damien,Roberts,22:50,04:43,0:32:41.2
60,3788,Matthew,Schubert,22:50,04:43,0:32:41.2
61,384,Andrew,Wilkie,22:50,04:42,0:32:34.3
62,109,Tim,Lovell,23:10,04:40,0:32:20.4
63,171,Oliver,Sanderson,23:30,04:37,0:31:59.6
64,1099,Kelvin,Niblett,23:30,04:37,0:31:59.6
65,65,Ben,McDermid,23:30,04:36,0:31:52.7
66,802,James,Harper,23:40,04:35,0:31:45.8
67,1051,Kane,Safstrom,23:40,04:35,0:31:45.8
68,359,Anne,McIntosh,24:00,04:32,0:31:25.0
69,203,Tullie,Rowe,24:30,04:28,0:30:57.2
70,469,Paul,Boxshall,24:40,04:26,0:30:43.4
71,3730,Greg,Carter,24:40,04:26,0:30:43.4
72,490,Aaron,Anderson,24:50,04:25,0:30:36.4
73,394,Rhianna,Wik-Gamble,25:00,04:24,0:30:29.5
74,418,Vanessa,Bull,25:20,04:20,0:30:01.8
75,1031,Jack,Milligan,25:20,04:20,0:30:01.8
76,191,Phoebe,Lonsdale,25:30,04:19,0:29:54.9
77,84,Craig,Green,25:50,04:17,0:29:41.0
78,472,John,Flood,25:50,04:16,0:29:34.1
79,438,Damian,Hughes,26:00,04:15,0:29:27.1
80,15,Rebecca,Wilkinson,26:10,04:14,0:29:20.2
81,350,David,Cripps,26:10,04:14,0:29:20.2
82,430,Brianna,Maddern,26:10,04:14,0:29:20.2
83,49,David,Heislers,26:10,04:13,0:29:13.3
84,94,David,Lonsdale,26:10,04:13,0:29:13.3
85,1083,Rebecca,Kirkby,26:10,04:13,0:29:13.3
86,399,Darren,Hartland,26:20,04:12,0:29:06.4
87,432,Jarrod,Epps,26:20,04:12,0:29:06.4
88,1027,Andrew,Van Agtmaal,26:20,04:12,0:29:06.4
89,801,Rebecca ,Beagley,26:30,04:10,0:28:52.5
90,425,Nathan,Crowley,26:50,04:08,0:28:38.6
91,429,Gavin,Hicks,26:50,04:08,0:28:38.6
92,448,Rory,Flanagan,26:50,04:08,0:28:38.6
93,125,Sarah,Jalim,26:50,04:07,0:28:31.7
94,428,Matthew,Bell,27:20,04:04,0:28:10.9
95,1022,Ben,Stolz,27:20,04:03,0:28:04.0
96,88,Brian,Watson,27:40,04:01,0:27:50.1
97,499,Richard,Martin,27:40,04:01,0:27:50.1
98,8,Rik,McCaig,27:40,04:00,0:27:43.2
99,1023,Matthew,Schepisi,27:40,04:00,0:27:43.2
100,462,Eliot,Walton,28:40,03:52,0:26:47.8
101,23,Michael,Bieleny,28:50,03:51,0:26:40.8
102,169,Floyd,Cartner,28:50,03:50,0:26:33.9
103,275,Max,Rowe,29:00,03:49,0:26:27.0
104,447,Jake,Delaney,29:00,03:49,0:26:27.0
105,492,Zeb,Broadbent,29:00,03:49,0:26:27.0
106,51,Andrew,Hosking,29:10,03:47,0:26:13.1
107,33,Andrew,Creer,30:20,03:38,0:25:10.7
108,404,Leon,Griffin,30:20,03:38,0:25:10.7
109,467,Glenn,McMillian,31:00,03:32,0:24:29.2
110,3701,Nigel,Preston,31:00,03:31,0:24:22.2
111,487,Ned,Buckell,31:20,03:28,0:24:01.4
