Place,First,Last,NET Time,Pace,Diff
1,Damien,Roberts,0:39:26.1,04:53,-02:59.1
2,Richard,Martin,0:33:06.7,04:06,-02:10.3
3,Andrew,Creer,0:29:46.9,03:41,-01:51.9
4,Sue,Taylor,0:45:11.4,05:36,-01:48.5
5,Craig,Green,0:34:34.1,04:17,-01:47.5
6,Kathleen,Pleasants,0:58:34.1,07:15,-01:21.5
7,Anne,McIntosh,0:36:40.4,04:32,-01:10.1
8,Sam,Esmore,0:51:24.9,06:22,-01:06.3
9,Kerry,Amor,0:59:30.0,07:22,-01:06.0
10,Alison,Cartner,0:38:41.6,04:47,-00:53.9
11,James,Harper,0:37:03.1,04:35,-00:47.4
12,Matthew,Bell,0:32:53.5,04:04,-00:38.4
13,Vicki,Bayliss,0:39:01.0,04:50,-00:34.5
14,Lisa,Wilkinson,0:38:07.6,04:43,-00:31.4
15,Jon,McIntosh,0:40:35.2,05:01,-00:29.2
16,Justin,Lee,0:40:11.3,04:58,-00:12.7
17,Rebecca,Kirkby,0:34:01.9,04:13,-00:10.4
18,Rhianna,Wik-Gamble,0:35:31.5,04:24,-00:01.6
19,Leah,Cripps,0:43:19.9,05:22,+00:14.3
20,Gavin,Fiedler,0:43:59.1,05:27,+00:37.3
21,Anthony,Byrne,0:39:15.0,04:51,+00:52.2
22,David,Lonsdale,0:35:19.0,04:22,+01:14.8
23,Jack,Milligan,0:36:22.6,04:30,+02:18.4
24,Alan,Buchanan,0:43:34.6,05:24,+02:22.1
25,Belinda,Whelan,0:49:18.5,06:06,+03:15.1
26,Shayne,Rushan,0:49:52.0,06:10,+03:48.6
27,Maree,Platt,0:52:22.8,06:29,+03:54.0
28,Alistair,Stewart,0:50:21.0,06:14,+05:30.4
