PLACE,FIRST,LAST,RACES,POINTS
1,James,Bradshaw,6,126
2,Emma,Colt,6,123
3,Abbey,Cartner,5,109
4,Michelle,Scott,4,100
5,Julia,Starr,4,95
6,Abby,Colt,4,91
7,John,Starr,3,88
8,Emily,Harris,5,87
9,Archie,Clarke,2,80
10,Millie,McIntosh,3,79
11,James,Trew,5,77
12,Mason,Beesley,4,75
13,Callen,Bayliss,4,74
14,Ebony,Beesley,4,71
15,Sonya,Walker,3,70
16,Kelvin,Niblett,3,67
17,Ben,McDermid,5,65
18,Dean,Trew,4,61
19,Bonnie,Scott,4,58
20,Naghmana,Tehseen,5,58
21,Sophie,Pedrotti,3,56
22,Chase,Carter,4,56
23,Bec,Beesley,3,56
24,Alicia,Crowley,3,55
25,Harry,Scott,3,55
26,Jonty,McDermid,3,54
27,Lewis,McIntosh,2,50
28,Suzie,Pedrotti,3,49
29,Vicki,Bayliss,2,49
30,Justin,Lee,3,47
31,Ruby,Carter,2,46
32,Erin,Bradshaw,3,44
33,Leo,Stoltz,1,40
34,Danny,Burgess,3,39
35,Harry,Cripps,2,38
36,April,Wainwright,4,38
37,Jon,McIntosh,1,35
38,Poppy,Wainwright,5,30
39,Lynley,McDonald,2,27
40,Jimmy,Byrne,2,26
41,Avery,McDermid,2,25
42,Sarah,Crowley,1,25
43,Karl,Stoltz,1,24
44,Liam,Carter,2,23
45,Leah,Cripps,1,22
46,Lewis,Lonsdale,2,22
47,Leonie,Chivers,2,21
48,Grace,Chivers,2,20
49,Owen,Best,2,20
50,Eiliyah,Daneen,4,20
51,Marcene,Haythrope,1,19
52,Anthony,Byrne,2,19
53,Charli,Hosking,2,19
54,Rhianna,Wik-Gamble,1,17
55,Braxton,Safstrom,2,17
56,Nathan,Crowley,1,16
57,Jayson,Carter,2,16
58,Tully,Cripps,4,15
59,Tanner,Fear,2,14
60,Craig,Green,1,13
61,Logan,Beesley,2,12
62,Sarah,Trew,1,8
63,Aida,Escall,1,4
64,Thom,Hosking,2,3
65,Ashton ,Chivers,2,3
66,Kathleen,Pleasants,1,3
67,Chloe,Beesley,2,1
68,Ross,Douglas,1,0
69,Will,de Vries,1,0
70,Lily,Chivers,2,0
71,Caitlin,Clarke,1,0
72,Oscar,Lethbridge,1,0
73,Bradie,Sheldon,1,0
74,Lottie,Macmunn,1,0
75,Nick,Best,1,0
76,Miriam,Niblett,1,0
77,Nigel,Preston,1,0
78,Greg,Carter,1,0
79,Jemma,Carter,1,0
80,Brett,Dobbin,1,0
81,Belinda,Dobbin,1,0
