Place,Member,First,Last,Start,Pace,Est Time
1,1005,Ann-Marie,Wangdi,26:10,07:59,0:52:03.1
2,3748,Amelia,Mitchell,26:10,07:59,0:52:03.1
3,3750,Genevieve,Draper,26:10,07:59,0:52:03.1
4,3781,Hamish,Draper,26:10,07:59,0:52:03.1
5,40,Aida,Escall,27:00,07:51,0:51:10.9
6,1068,Nick,O'Meara,32:20,07:03,0:45:58.0
7,39,Melissa,Douglas,34:10,06:45,0:44:00.6
8,1069,Julie,Marr,34:10,06:45,0:44:00.6
9,1002,Tammy,Fear,34:30,06:43,0:43:47.6
10,1070,Thomas,Lee,34:30,06:43,0:43:47.6
11,3776,Kathleen,Pleasants,34:30,06:42,0:43:41.0
12,2,Alan,East,34:50,06:40,0:43:28.0
13,3741,Kim,Carter,34:50,06:39,0:43:21.5
14,201,Beatrice,Lonsdale,35:00,06:38,0:43:15.0
15,186,Jason,Anderton,36:00,06:29,0:42:16.3
16,233,Sue,Condon,36:10,06:27,0:42:03.2
17,270,Tyler,Wilkie,36:50,06:21,0:41:24.1
18,190,Michaela,Meharry,37:00,06:20,0:41:17.6
19,1028,Mel,Debnam-Smith,37:10,06:18,0:41:04.6
20,100,Justine,Rowe,37:50,06:12,0:40:25.4
21,43,Josephine,Robinson,38:00,06:11,0:40:18.9
22,191,Phoebe,Lonsdale,38:00,06:11,0:40:18.9
23,66,Megan,McDonald,38:00,06:10,0:40:12.4
24,157,Bec,Lacy,39:00,06:01,0:39:13.7
25,197,Sue,Taylor,40:00,05:52,0:38:15.0
26,149,Janelle,Giffin,40:10,05:51,0:38:08.5
27,1066,Jodie,McLeod,40:10,05:50,0:38:02.0
28,3732,Emma,Gibbons,40:30,05:47,0:37:42.4
29,54,Kevin,de Vries,40:40,05:46,0:37:35.9
30,1072,Michael,Farr,40:40,05:46,0:37:35.9
31,87,Frances,Walsh,40:50,05:44,0:37:22.9
32,210,Fiona,Dangerfield,40:50,05:44,0:37:22.9
33,251,Beth,Lavery,41:40,05:37,0:36:37.2
34,16,Jennifer,Lee,41:40,05:36,0:36:30.7
35,111,Troy,Davis,41:50,05:35,0:36:24.2
36,364,David,Howes,42:00,05:33,0:36:11.2
37,1087,Deanna,Marshall,42:00,05:33,0:36:11.2
38,1025,Liz,Foster,42:20,05:31,0:35:58.1
39,6,Shayne,Rushan,42:20,05:30,0:35:51.6
40,1067,Scott,McLeod,42:20,05:30,0:35:51.6
41,91,Melissa,Wilkie,42:30,05:29,0:35:45.1
42,52,Leah,Cripps,42:40,05:28,0:35:38.6
43,3777,Alistair,Stewart,42:40,05:28,0:35:38.6
44,67,Leeza,Meharry,42:50,05:26,0:35:25.5
45,3740,Vicki,Lane,43:00,05:25,0:35:19.0
46,299,Jay,Sanderson,43:00,05:24,0:35:12.5
47,1078,Leigh,Draper,43:00,05:24,0:35:12.5
48,74,Maree,Platt,43:10,05:22,0:34:59.4
49,1058,Tyler,Swann,43:30,05:19,0:34:39.9
50,333,Jon,McIntosh,43:40,05:18,0:34:33.4
51,1041,Lachlan,Cherry,43:50,05:17,0:34:26.8
52,1040,Erin,Williams,43:50,05:16,0:34:20.3
53,77,Brad,Russell,44:00,05:15,0:34:13.8
54,59,Tina,McBain,44:10,05:13,0:34:00.8
55,183,Janet,Hodnett,44:30,05:11,0:33:47.7
56,307,Philip,Shambrook,44:30,05:11,0:33:47.7
57,3747,Jeremy,Draper,44:30,05:11,0:33:47.7
58,13,Gavin,Fiedler,44:40,05:09,0:33:34.7
59,253,Charlotte,Murphy,44:50,05:08,0:33:28.2
60,9,Trinity,Sanderson,45:20,05:03,0:32:55.6
61,22,Ross,Douglas,45:30,05:01,0:32:42.5
62,1024,Todd,Foster,45:30,05:01,0:32:42.5
63,400,Darren,Rowe,45:40,05:00,0:32:36.0
64,29,Alison,Cartner,45:40,04:59,0:32:29.5
65,1099,Kelvin,Niblett,46:00,04:56,0:32:09.9
66,1020,Mumtaz,Hussain,46:10,04:55,0:32:03.4
67,1074,David,Burrow,46:20,04:54,0:31:56.9
68,3714,Tanner,Fear,46:20,04:53,0:31:50.4
69,34,Mathew,Creer,46:40,04:51,0:31:37.3
70,5,Jenny,Buchanan,46:40,04:50,0:31:30.8
71,1029,James,Trew,46:40,04:50,0:31:30.8
72,60,Greg,McBain,47:00,04:48,0:31:17.8
73,3726,Clare,Montgomery,47:00,04:48,0:31:17.8
74,3735,Travis,Edwards,47:00,04:48,0:31:17.8
75,14,Lisa,Wilkinson,47:20,04:45,0:30:58.2
76,278,James,Russell,47:20,04:45,0:30:58.2
77,384,Andrew,Wilkie,47:50,04:40,0:30:25.6
78,1003,Damien,Roberts,47:50,04:40,0:30:25.6
79,1036,Harry,Wright,48:00,04:38,0:30:12.6
80,3,Alan,Buchanan,48:10,04:37,0:30:06.0
81,31,Charles,Chambers,48:10,04:37,0:30:06.0
82,394,Rhianna,Wik-Gamble,48:10,04:37,0:30:06.0
83,55,Justin,Lee,48:50,04:31,0:29:26.9
84,1057,Wes,Jenkyn,49:10,04:27,0:29:00.8
85,84,Craig,Green,49:50,04:22,0:28:28.2
86,350,David,Cripps,49:50,04:22,0:28:28.2
87,386,Danny,Burgess,50:00,04:20,0:28:15.2
88,1031,Jack,Milligan,50:30,04:16,0:27:49.1
89,1009,Nicholas,Cherry,50:30,04:15,0:27:42.6
90,49,David,Heislers,50:40,04:14,0:27:36.1
91,3730,Greg,Carter,50:40,04:13,0:27:29.6
92,88,Brian,Watson,50:50,04:12,0:27:23.0
93,65,Ben,McDermid,51:00,04:11,0:27:16.5
94,1027,Andrew,Van Agtmaal,51:00,04:11,0:27:16.5
95,63,John,Robinson,51:10,04:09,0:27:03.5
96,169,Floyd,Cartner,51:10,04:09,0:27:03.5
97,308,Chris,Giffin,51:10,04:09,0:27:03.5
98,94,David,Lonsdale,51:20,04:08,0:26:57.0
99,15,Rebecca,Wilkinson,51:20,04:07,0:26:50.4
100,125,Sarah,Jalim,51:40,04:05,0:26:37.4
101,118,Tim,Lauder,51:50,04:03,0:26:24.4
102,1043,Michael,Gibbons,52:00,04:02,0:26:17.8
103,62,Lee,McCullagh,52:20,03:58,0:25:51.8
104,8,Rik,McCaig,52:30,03:57,0:25:45.2
105,33,Andrew,Creer,52:40,03:56,0:25:38.7
106,48,Matthew,Heislers,53:00,03:53,0:25:19.2
107,1023,Matthew,Schepisi,53:00,03:52,0:25:12.6
108,42,Craig,Feuerherdt,53:20,03:49,0:24:53.1
109,219,Wil,McCaig,53:30,03:48,0:24:46.6
110,1061,Tarli,Bird,53:30,03:48,0:24:46.6
111,1022,Ben,Stolz,53:40,03:46,0:24:33.5
112,1034,Garry,Marwood,54:10,03:42,0:24:07.4
113,3739,Stephen,van Rees,54:10,03:41,0:24:00.9
114,1056,Kye,Jenkyn,54:50,03:35,0:23:21.8
115,3701,Nigel,Preston,55:40,03:27,0:22:29.6
116,27,Andrew,Buchanan,57:40,03:10,0:20:38.8
