place,member,first,last,start,Pace,est Time
1,34,Matthew,Creer,0:00,7:59,7:59
2,154,Sean,Hughan,0:10,7:51,7:51
3,244,Jaron,Ekanayake,0:10,7:50,7:50
4,128,George,Pitson,0:40,7:18,7:18
5,204,Kane,Charnas,0:40,7:20,7:20
6,205,Amelia,Charnas,1:00,6:59,6:59
7,44,Geoffrey,Robinson,1:10,6:55,6:55
8,178,Annabel,Hancock,1:20,6:45,6:45
9,28,Mitchell,Bray,1:30,6:35,6:35
10,220,Ella,Meharry,1:30,6:31,6:31
11,234,Finn,Cunningham,1:30,6:29,6:29
12,246,Poppy,Wainwright,1:40,6:25,6:25
13,250,Tully,Cripps,1:40,6:25,6:25
14,264,Katelyn,Kelly,1:40,6:18,6:18
15,207,Lewis,Kallour,1:50,6:15,6:15
16,216,Ava,Terry,1:50,6:15,6:15
17,258,Ivy,Bray,1:50,6:12,6:12
18,271,Will,Smith,1:50,6:15,6:15
19,293,Spencer,Lavery,1:50,6:12,6:12
20,25,Maddi,Bray,2:00,5:56,5:56
21,209,Olivia,Douglas,2:00,5:59,5:59
22,211,Jesse,Brook,2:00,6:04,6:04
23,260,Thomas,Henderson,2:00,6:03,6:03
24,282,Anna,deVries,2:00,6:01,6:01
25,298,Elliot,Lavery,2:00,6:03,6:03
26,50,Harry,Cripps,2:10,5:50,5:50
27,284,Imogen,Stewart,2:10,5:47,5:47
28,290,Sabine,Stewart,2:10,5:51,5:51
29,292,Jye,Ekanayake,2:10,5:55,5:55
30,58,Archie,Ross,2:20,5:40,5:40
31,239,Paula,a'Beckett,2:20,5:39,5:39
32,245,Lacey,Wilkie,2:20,5:39,5:39
33,255,Dylan,Sim,2:20,5:43,5:43
34,281,Will,deVries,2:20,5:45,5:45
35,36,Henry,Turnbull,2:30,5:34,5:34
36,153,Tadhg,Hughan,2:30,5:32,5:32
37,172,Eloise,Wilby,2:30,5:32,5:32
38,175,Matilda,Wilby,2:30,5:30,5:30
39,223,Jack,Meharry,2:30,5:31,5:31
40,232,Jack,Gleisner,2:30,5:31,5:31
41,235,Aoife,Cunningham,2:30,5:35,5:35
42,276,Joshua,Feuerherdt,2:30,5:27,5:27
43,280,Paige,a'Beckett,2:30,5:31,5:31
44,252,Jasmine,Murphy,2:40,5:23,5:23
45,261,Charlotte,Crane,2:40,5:20,5:20
46,265,Joshua,Kelly,2:40,5:19,5:19
47,274,Avery,McDermid,2:40,5:17,5:17
48,99,Oscar,Terry,2:50,5:15,5:15
49,249,Will,Gleisner,2:50,5:11,5:11
50,279,Lucy,McCaig,2:50,5:08,5:08
51,195,Luke,Creer,3:00,4:59,4:59
52,229,Harrison,Pitson,3:00,5:01,5:01
53,300,Lucinda,Terry,3:00,4:59,4:59
54,191,Phoebe,Lonsdale,3:10,4:50,4:50
55,269,Cooper,Charnas,3:10,4:50,4:50
56,295,Jeremy,Carlson,3:10,4:53,4:53
57,189,Tim,Creer,3:20,4:43,4:43
58,215,Emerson,Sim,3:20,4:43,4:43
59,238,Alex,Parry,3:20,4:36,4:36
60,277,Luke,Feuerherdt,3:20,4:36,4:36
61,283,Lily,Sanderson,3:20,4:42,4:42
62,291,Sarah,Wilkes,3:20,4:45,4:45
63,83,Sam,Stewart,3:30,4:27,4:27
64,139,Leila,Padgham,3:30,4:35,4:35
65,254,William,Robinson,3:30,4:34,4:34
66,266,Lewis,Lonsdale,3:30,4:28,4:28
67,267,Kayla,McManus,3:30,4:34,4:34
68,272,Abbey,Cartner,3:30,4:32,4:32
69,273,Harrison,Kelly,3:30,4:33,4:33
70,147,Lachlan,Feuerherdt,3:40,4:18,4:18
71,221,Billy,Meade,3:40,4:17,4:17
72,289,Josh,Smith,3:40,4:18,4:18
73,105,Toby,McCaig,3:50,4:10,4:10
74,112,Jett,Grundy,3:50,4:12,4:12
75,171,Oliver,Sanderson,3:50,4:12,4:12
76,19,Troy,Cartner,4:00,4:00,4:00
77,169,Floyd,Cartner,4:00,4:05,4:05
78,176,Kaidyn,Tucker,4:00,4:05,4:05
79,256,Jesse,Delves,4:00,4:02,4:02