place,member,first,last,start,Pace,est Time
1,64,Lisa,McDermid,0:00,7:00,43:24:00
2,173,Melanie,Cuzzillo,0:40,6:54,42:47:00
3,2,Alan,East,1:40,6:44,41:45:00
4,37,John,Doering,2:40,6:35,40:49:00
5,100,Justine,Rowe,3:10,6:30,40:18:00
6,233,Sue,Condon,3:20,6:28,40:06:00
7,69,Jarrah,O'Shea,3:50,6:23,39:35:00
8,21,Michelle,Bieleny,4:00,6:21,39:22:00
9,66,Megan,McDonald,5:30,6:06,37:49:00
10,111,Troy,Davis,6:10,6:00,37:12:00
11,123,Harry,Terry,6:10,6:00,37:12:00
12,197,Sue,Taylor,6:40,5:55,36:41:00
13,40,Aida,Escall,7:00,5:52,36:22:00
14,56,Stacey,Lonsdale,7:30,5:48,35:58:00
15,199,Shann,Anderson,7:50,5:45,35:39:00
16,11,Jane,McCaig,8:00,5:43,35:27:00
17,196,Kathryne,Charnas,8:00,5:43,35:27:00
18,186,Jason,Anderton,8:10,5:41,35:14:00
19,52,Leah,Cripps,8:20,5:40,35:08:00
20,72,Catherine,Pethybridge,8:20,5:40,35:08:00
21,57,Adam,Henderson,8:50,5:35,34:37:00
22,89,Natalie,Watson,8:50,5:35,34:37:00
23,98,Tanya,Fleming,8:50,5:35,34:37:00
24,74,Maree,Platt,9:10,5:31,34:12:00
25,16,Jennifer,Lee,9:20,5:30,34:06:00
26,77,Brad,Russell,9:20,5:30,34:06:00
27,103,Jaqueline,Kelly,9:50,5:25,33:35:00
28,81,Laura,Terry,10:10,5:21,33:10:00
29,54,Kevin,deVries,10:20,5:20,33:04:00
30,130,David,Pitson,10:20,5:20,33:04:00
31,183,Janet,Hodnet,10:20,5:20,33:04:00
32,251,Beth,Lavery,10:20,5:20,33:04:00
33,6,Shayne,Rushan,10:40,5:17,32:45:00
34,68,Justin,O'Brien,10:40,5:17,32:45:00
35,181,Rob,Redmond,10:40,5:17,32:45:00
36,76,Cara,Smith,10:50,5:15,32:33:00
37,91,Melissa,Wilkie,10:50,5:15,32:33:00
38,132,Tracie,Gleisner,11:00,5:13,32:21:00
39,296,Ashlee,Diston,11:00,5:14,32:27:00
40,87,Frances,Walsh,11:10,5:12,32:14:00
41,31,Charles,Chambers,11:20,5:10,32:02:00
42,35,Conor,Cunningham,11:30,5:08,31:50:00
43,180,Lauren,Hancock,11:30,5:08,31:50:00
44,59,Tina,McBain,11:50,5:05,31:31:00
45,104,Jodie,Scoble,11:50,5:05,31:31:00
46,107,Hayden,Brook,11:50,5:06,31:37:00
47,217,Freya,Berenyl,12:10,5:02,31:12:00
48,47,Genevieve,Green,12:20,5:01,31:06:00
49,67,Leeza,Meharry,12:20,5:00,31:00:00
50,113,Sam,Walker,12:20,5:00,31:00:00
51,5,Jenny,Buchanan,12:30,4:59,30:54:00
52,127,Alison,McCullagh,12:30,4:59,30:54:00
53,9,Trinity,Sanderson,12:40,4:58,30:48:00
54,12,Josie,Aitken,12:50,4:55,30:29:00
55,41,Maddy,Evely,12:50,4:55,30:29:00
56,29,Alison,Cartner,13:00,4:54,30:23:00
57,39,Melissa,Douglas,13:40,4:47,29:39:00
58,124,Darren,Burgess,13:50,4:46,29:33:00
59,4,Gary,Crouch,14:00,4:44,29:21:00
60,45,Helen,Kavanagh,14:00,4:45,29:27:00
61,90,Rory,Weightman,14:00,4:45,29:27:00
62,299,Jay,Sanderson,14:00,4:45,29:27:00
63,108,Eric,Hocking,14:10,4:43,29:15:00
64,78,Mark,Saxon,14:20,4:41,29:02:00
65,13,Gavin,Fiedler,14:30,4:39,28:50:00
66,22,Ross,Douglas,14:30,4:39,28:50:00
67,116,Roy,Preece,14:30,4:40,28:56:00
68,55,Justin,Lee,14:40,4:38,28:44:00
69,34,Matthew,Creer,14:50,4:36,28:31:00
70,38,Cameron,Turnbull,14:50,4:36,28:31:00
71,126,Tom,Russell,15:00,4:35,28:25:00
72,231,Paul,Seaward,15:00,4:35,28:25:00
73,26,Ryan,Brook,15:10,4:33,28:13:00
74,93,Erica,Wilkinson,15:10,4:33,28:13:00
75,3,Alan,Buchanan,15:20,4:32,28:06:00
76,14,Lisa,Wilkinson,15:20,4:31,28:00:00
77,94,David,Lonsdale,15:20,4:32,28:06:00
78,18,Georgie,Lanyon,15:30,4:30,27:54:00
79,60,Greg,McBain,15:40,4:28,27:42:00
80,129,Ben,McBain,15:40,4:29,27:48:00
81,10,Lee,Bray,15:50,4:26,27:29:00
82,49,David,Heislers,15:50,4:26,27:29:00
83,15,Rebecca,Wilkinson,16:10,4:24,27:17:00
84,109,Tim,Lovell,16:10,4:24,27:17:00
85,117,Ingrid,Douglass,16:10,4:24,27:17:00
86,287,Michael,Gillies Smith,16:10,4:24,27:17:00
87,80,Bridie,Blake-Burrows,16:30,4:21,26:58:00
88,96,Steve,Brereton,16:30,4:21,26:58:00
89,70,Els,Viester,16:40,4:19,26:46:00
90,75,David,Sebastian,16:40,4:18,26:40:00
91,125,Sarah,Jalim,17:30,4:10,25:50:00
92,65,Ben,McDermid,17:40,4:09,25:44:00
93,71,Max,Pearse,18:10,4:05,25:19:00
94,92,Tracey,Wilson,18:10,4:05,25:19:00
95,118,Tim,Lauder,18:10,4:05,25:19:00
96,61,Chris,McCormack,18:20,4:03,25:07:00
97,122,Stewart,Scoble,18:20,4:02,25:00:00
98,73,Jeff,Pethybridge,18:40,3:59,24:42:00
99,95,Jason,Sim,18:40,3:59,24:42:00
100,102,Simon,Austin,18:40,4:00,24:48:00
101,42,Craig,Feuerherdt,19:10,3:55,24:17:00
102,51,Andrew,Hosking,19:10,3:55,24:17:00
103,121,Russell,Jenkins,19:10,3:54,24:11:00
104,63,John,Robinson,19:20,3:53,24:05:00
105,33,Andrew,Creer,19:40,3:50,23:46
106,88,Brian,Watson,19:50,3:48,23:34
107,120,Tom,Barkmeyer,20:10,3:45,23:15
108,23,Michael,Bieleny,20:20,3:43,23:03
109,97,Adam,Fleming,20:20,3:44,23:09
110,8,Rik,McCaig,20:30,3:42,22:56
111,286,Chris,Xu,20:30,3:41,22:50
112,115,Alexander,Evans,20:40,3:40,22:44
113,7,Luke,Hutchins,20:50,3:39,22:38
114,62,Lee,McCullagh,20:50,3:38,22:32
115,285,Luke,Crameri,20:50,3:38,22:32
116,46,Richard,Gleisner,21:20,3:33,22:01
117,48,Matthew,Heislers,21:20,3:33,22:01
118,166,David,Meade,21:20,3:33,22:01
119,86,Fraser,Walsh,21:40,3:30,21:42
120,27,Andrew,Buchanan,23:30,3:12,19:50