place,first,last,net Time,diff
1,Harry,Terry,36:19:00,-3:17
2,Ashlee,Diston,31:21:00,-3:11
3,Justine,Rowe,39:50:00,-3:04
4,Charles,Chambers,31:20:00,-2:46
5,Natalie,Jacobson,33:01:00,-1:58
6,Beth,Lavery,33:13:00,-1:59
7,Troy,Davis,37:48:00,-1:48
8,Hayden,Brook,31:58:00,-1:41
9,Adam,Henderson,35:20:00,-1:31
10,Janet,Hodnet,33:47:00,-1:25
11,Jason,Anderton,36:08:00,-1:22
12,Justin,Lee,29:10:00,-1:25
13,John,Doering,42:02:00,-1:25
14,Trinity,Sanderson,31:26:00,-1:21
15,Laura,Terry,34:08:00,-1:11
16,David,Lonsdale,28:46:00,-1:09
17,Maree,Platt,35:18:00,-1:07
18,Lee,Bray,28:15:00,-1:01
19,Tom,Barkmeyer,23:46,-0:59
20,Conor,Cunningham,32:58:00,-0:55
21,Ryan,Brook,29:18:00,-0:44
22,Andrew,Buchanan,20:30,-0:37
23,Lee,McCullagh,23:22,-0:36
24,Lauren,Hancock,33:16:00,-0:37
25,David,Heislers,28:38:00,-0:38
26,Jenny,Buchanan,32:22:00,-0:31
27,Alexander,Evans,23:43,-0:29
28,Alison,Cartner,31:55:00,-0:26
29,Alan,Buchanan,29:31:00,-0:24
30,Leah,Cripps,37:05:00,-0:17
31,David,Meade,23:12,-0:14
32,Natalie,Watson,36:44:00,-0:07
33,Gavin,Fiedler,30:45:00,0:03
34,Craig,Feuerherdt,26:02:00,0:11
35,Matthew,Creer,30:33:00,0:12
36,Greg,McBain,29:50:00,0:21
37,Kevin,deVries,35:31:00,0:19
38,Ross,Douglas,31:04:00,0:23
39,Sue,Condon,43:14:00,0:33
40,Shayne,Rushan,35:30:00,0:38
41,Gary,Crouch,31:50:00,0:36
42,Rik,McCaig,25:04:00,0:39
43,Melissa,Wilkie,35:25:00,0:46
44,Ingrid,Douglass,29:54:00,0:52
45,Jane,McCaig,38:50:00,1:06
46,Megan,McDonald,41:54:00,1:38
47,Ben,McDermid,29:04:00,1:40
48,Frances,Walsh,36:44:00,2:24
49,Tanya,Fleming,39:50:00,2:59
50,Kathryne,Charnas,40:57:00,3:14
New,Amelia,Evans,32:32,
New,Joshua,Condon,40:39,
New,Jolie,Middleton,40:40,
New,Jake,Power,31:09,
New,Mel,Woods,35:39,
New,Zeb,Broadbent,27:30,
New,Spencer,Evans,32:12,
New,Shai,O'Brien,28:15,