PLACE, FIRST, LAST, TIME, PACE, CLUB
1,Stephen,van Rees,0:27:33.0,03:37.5,UNI
2,Adam,Parker,0:30:11.3,03:58.3,UNI
3,Steven,Field,0:31:04.0,04:05.3,UNI
4,Ben,Fitzpatrick,0:32:04.6,04:13.2,EAGLEHAWK
5,Aaron,Norton,0:32:48.3,04:19.0,SOUTH BENDIGO
6,James,Harper,0:35:29.4,04:40.2,UNI
7,Russell,Easton,0:40:50.2,05:22.4,UNI
8,Darren,Rowe,0:41:28.7,05:27.5,UNI
