first,last,start,pace,est Time
Lilly,Cahill,00:10,6:59,1:00:03
Julie,Hogan,02:30,6:43,57:46
Jessey,Wilson,04:40,6:27,55:28
Alan,East,06:30,6:15,53:45
Verity,Perez,08:20,6:2,51:53
Melissa,Douglas,08:30,6:1,51:45
Loretta,Hanns,09:10,5:56,51:02
Sam,MacLeod,09:10,5:56,51:02
Drew,Cahill,09:20,5:55,50:53
John,Doering,09:20,5:55,50:53
Ella,Wright,09:20,5:55,50:53
John,Taylor,09:40,5:52,50:27
Carl,Bailey,11:40,5:39,48:35
Shann,Anderson,11:50,5:38,48:27
Mikhaela,Wilson,12:40,5:32,47:35
Andrew,Boshcetti,12:50,5:30,47:18
Angus,McCormack,12:50,5:31,47:27
Greg,Christy,12:50,5:30,47:18
Wayne,Forbes,13:50,5:24,46:26
Danny,Padgham,13:50,5:24,46:26
Jodie,Scoble,14:10,5:21,46:01
Ian,Beckerleg,14:20,5:20,45:52
Angela,Slattery,14:20,5:20,45:52
Lilly,Walsh,14:30,5:19,45:43
Sheridan,Hail,14:30,5:19,45:43
Harry,Terry,15:00,5:15,45:09
Brad,Russell,15:00,5:15,45:09
Gabby,Walsh,15:00,5:15,45:09
Helen,WeeHee,15:00,5:15,45:09
Jackie,Tremayne,15:40,5:11,44:35
Rachel,Howe,15:50,5:10,44:26
Janet,Hodnett,16:00,5:8,44:09
Phil,Lloyd,16:00,5:8,44:09
Brian,Brasher,16:00,5:8,44:09
Shayne,Rushan,16:20,5:6,43:52
Laura,Terry,16:20,5:6,43:52
Peter,Noble,16:20,5:6,43:52
Len,Nally,16:40,5:4,43:34
Jodie,Giles,16:50,5:2,43:17
Lucy,Ruck,16:50,5:2,43:17
Tony,Gellatly,17:00,5:1,43:09
Chris,Hamond,17:10,5:0,43:00
Jennifer,Jones,17:10,5:0,43:00
Alison,McCullagh,17:10,5:0,43:00
Kevin,Perez,17:10,5:0,43:00
Tina,McBain,17:10,5:0,43:00
Harriet,Slater,17:10,5:0,43:00
Damien,Bilsborrow,17:20,4:59,42:51
David,Perris,17:20,4:59,42:51
Chris,Tremayne,17:40,4:57,42:34
Frances,Walsh,17:40,4:57,42:34
Roy,Preece,17:50,4:56,42:26
Sam,Brewin,18:00,4:54,42:08
Navec,Lorkin,18:00,4:54,42:08
Genevieve,Green,18:00,4:54,42:08
Trevor,Hanns,18:10,4:53,42:00
Alison,Cartner,18:40,4:50,41:34
Liz,Foster,18:40,4:50,41:34
Matt,Constable,18:40,4:50,41:34
Craig,Hunter,18:50,4:49,41:25
Scott,Padgham,18:50,4:49,41:25
Hayden,Brooke,19:00,4:48,41:17
John,Brewin,19:10,4:46,41:00
Emma,Moylan,19:10,4:46,41:00
Patrick,Hartney,19:40,4:43,40:34
David,Heislers,19:40,4:43,40:34
Scott,Roberts,19:50,4:42,40:25
Ingrid,Douglass,20:00,4:40,40:08
Leeza,Meharry,20:10,4:39,39:59
Ned,Slater,20:10,4:39,39:59
Peter,Sykes,20:10,4:39,39:59
Maria,Slater,20:20,4:38,39:51
Lisa,Wilkinson,20:20,4:38,39:51
Russell,Jenkins,20:30,4:37,39:42
Gervase,Birt,20:40,4:36,39:34
Joe,Hartney,20:40,4:36,39:34
Ian,Frost,20:50,4:35,39:25
Mark,Saxon,20:50,4:35,39:25
Nick,Walsh,20:50,4:35,39:25
Gary,Crouch,21:00,4:34,39:16
Jaclyn,Munge,21:00,4:33,39:08
Greg,McBain,21:10,4:32,38:59
Steve,Durkin,21:20,4:31,38:51
Paul,McMahon,21:20,4:31,38:51
Thomas,Mosley,21:20,4:31,38:51
Andrew,Creer,21:30,4:30,38:42
Brett,Houlden,21:30,4:30,38:42
Justin,Lee,21:30,4:30,38:42
Owen,Davies,21:30,4:30,38:42
Jenny,Buchanan,21:50,4:28,38:25
Steve,Corrie,21:50,4:28,38:25
Todd,Foster,21:50,4:28,38:25
Ryan,Brooke,21:50,4:28,38:25
Tom,Houlden,22:10,4:25,37:59
Aaron,Anderson,22:20,4:24,37:50
Tony,DiPace,22:20,4:24,37:50
Xavier,Walsh,22:30,4:23,37:42
Cameron,Turnbull,22:30,4:23,37:42
Josh,Evely,22:50,4:21,37:25
Leon,Hamond,23:00,4:19,37:07
Michael,Hogan,23:00,4:20,37:16
Erica,Wilkinson,23:00,4:20,37:16
Aaron,Semmens,23:00,4:20,37:16
Gavin,Fiedler,23:10,4:18,36:59
Steve,McDougal,23:10,4:18,36:59
David,Ottrey,23:30,4:16,36:42
Tracy,Wilson,23:30,4:16,36:42
Steve,Brereton,23:40,4:15,36:33
Alan,Buchanan,23:40,4:15,36:33
Madeleine,Evely,23:40,4:15,36:33
John,Rose,23:50,4:14,36:24
Andrew,Mason,23:50,4:14,36:24
Jo-Anne,Keely,24:00,4:12,36:07
Daniel,Vains,24:10,4:11,35:59
Craig,Fruerherdt,24:20,4:10,35:50
Chris,McCormack,24:30,4:9,35:41
John,McCullagh,24:40,4:8,35:33
Rebecca,Tweed,24:40,4:8,35:33
Josh,Hunter,24:40,4:8,35:33
Brendan,Munge,25:10,4:4,34:58
Mike,Neilson,25:10,4:4,34:58
Ben,McDermid,25:30,4:2,34:41
David,Tarrant,25:50,4:0,34:24
Russell,Tremayne,25:50,4:0,34:24
Brian,Watson,25:50,4:0,34:24
New,Runner,25:50,4:0,34:24
New,Runner,25:50,4:0,34:24
New,Runner,25:50,4:0,34:24
Jarrod,Epps,26:00,3:59,34:15
Rick,Jackal,26:00,3:59,34:15
Luke,Gregory,26:10,3:58,34:07
Mac,Biner,26:10,3:58,34:07
Jamie,Cook,26:30,3:55,33:41
Fraser,Walsh,26:50,3:53,33:24
Jim,Russell,27:00,3:52,33:15
Simon,Austin,27:10,3:50,32:58
Jason,Fletcher,27:10,3:50,32:58
Patrick,Kenny,27:50,3:46,32:24
Chris,Naunton,28:00,3:45,32:15
Jason,Sim,28:20,3:42,31:49
Michael,Bieleny,28:40,3:40,31:32
Lee,McCullagh,28:40,3:40,31:32
Bryan,Keely,30:50,3:25,29:23
Andrew,Buchanan,32:10,3:16,28:06
Richard,Gleisner,32:10,3:16,28:06