PLACE,FIRST,LAST,TIME,PACE,CLUB
1,Emma,Colt,0:13:11.5,04:23.8,UNI
2,Ebony,Beesley,0:13:11.7,04:23.9,UNI
3,Callen,Bayliss,0:13:39.9,04:33.3,UNI
4,Mikayla,Kirkby,0:14:40.1,04:53.4,UNI
5,Emily,Harris,0:14:43.8,04:54.6,UNI
6,Vicki,Bayliss,0:15:48.8,05:16.3,UNI
7,Bec,Beesley,0:18:40.2,06:13.4,UNI
8,Chloe,Beesley,0:20:08.4,06:42.8,UNI
