place,member,first,last,start,Pace,est Time
1,34,Matthew,Creer,0:00,7:59,7:59
2,154,Sean,Hughan,0:10,7:51,7:51
3,244,Jaron,Ekanayake,0:10,7:50,7:50
4,128,George,Pitson,0:20,7:43,7:43
5,204,Kane,Charnas,0:40,7:20,7:20
6,205,Amelia,Charnas,1:00,6:59,6:59
7,44,Geoffrey,Robinson,1:10,6:51,6:51
8,178,Annabel,Hancock,1:20,6:45,6:45
9,28,Mitchell,Bray,1:30,6:32,6:32
10,220,Ella,Meharry,1:30,6:31,6:31
11,234,Finn,Cunningham,1:30,6:30,6:30
12,246,Poppy,Wainwright,1:40,6:19,6:19
13,250,Tully,Cripps,1:40,6:20,6:20
14,264,Katelyn,Kelly,1:40,6:18,6:18
15,207,Lewis,Kallour,1:50,6:15,6:15
16,216,Ava,Terry,1:50,6:12,6:12
17,258,Ivy,Bray,1:50,6:12,6:12
18,271,Will,Smith,1:50,6:15,6:15
19,293,Spencer,Lavery,1:50,6:12,6:12
20,209,Olivia,Douglas,2:00,5:59,5:59
21,211,Jesse,Brook,2:00,5:58,5:58
22,260,Thomas,Henderson,2:00,6:05,6:05
23,282,Anna,deVries,2:00,6:01,6:01
24,298,Elliot,Lavery,2:00,6:03,6:03
25,25,Maddi,Bray,2:10,5:53,5:53
26,292,Jye,Ekanayake,2:10,5:55,5:55
27,50,Harry,Cripps,2:20,5:45,5:45
28,239,Paula,a'Beckett,2:20,5:39,5:39
29,255,Dylan,Sim,2:20,5:43,5:43
30,281,Will,deVries,2:20,5:45,5:45
31,36,Henry,Turnbull,2:30,5:34,5:34
32,58,Archie,Ross,2:30,5:35,5:35
33,153,Tadhg,Hughan,2:30,5:32,5:32
34,172,Eloise,Wilby,2:30,5:32,5:32
35,175,Matilda,Wilby,2:30,5:30,5:30
36,223,Jack,Meharry,2:30,5:31,5:31
37,232,Jack,Gleisner,2:30,5:31,5:31
38,235,Aoife,Cunningham,2:30,5:30,5:30
39,245,Lacey,Wilkie,2:30,5:34,5:34
40,280,Paige,a'Beckett,2:30,5:31,5:31
41,261,Charlotte,Crane,2:40,5:20,5:20
42,265,Joshua,Kelly,2:40,5:19,5:19
43,274,Avery,McDermid,2:40,5:17,5:17
44,276,Joshua,Feuerherdt,2:40,5:23,5:23
45,99,Oscar,Terry,2:50,5:15,5:15
46,249,Will,Gleisner,2:50,5:11,5:11
47,279,Lucy,McCaig,2:50,5:08,5:08
48,195,Luke,Creer,3:00,4:59,4:59
49,229,Harrison,Pitson,3:00,5:01,5:01
50,300,Lucinda,Terry,3:00,4:59,4:59
51,191,Phoebe,Lonsdale,3:10,4:50,4:50
52,269,Cooper,Charnas,3:10,4:50,4:50
53,295,Jeremy,Carlson,3:10,4:55,4:55
54,189,Tim,Creer,3:20,4:43,4:43
55,215,Emerson,Sim,3:20,4:43,4:43
56,238,Alex,Parry,3:20,4:36,4:36
57,283,Lily,Sanderson,3:20,4:42,4:42
58,291,Sarah,Wilkes,3:20,4:45,4:45
59,83,Sam,Stewart,3:30,4:30,4:30
60,139,Leila,Padgham,3:30,4:35,4:35
61,254,William,Robinson,3:30,4:32,4:32
62,267,Kayla,McManus,3:30,4:34,4:34
63,273,Harrison,Kelly,3:30,4:33,4:33
64,277,Luke,Feuerherdt,3:30,4:34,4:34
65,266,Lewis,Lonsdale,3:40,4:22,4:22
66,272,Abbey,Cartner,3:40,4:25,4:25
67,289,Josh,Smith,3:40,4:18,4:18
68,105,Toby,McCaig,3:50,4:10,4:10
69,112,Jett,Grundy,3:50,4:12,4:12
70,147,Lachlan,Feuerherdt,3:50,4:15,4:15
71,171,Oliver,Sanderson,3:50,4:12,4:12
72,221,Billy,Meade,3:50,4:14,4:14
73,19,Troy,Cartner,4:00,4:00,4:00
74,169,Floyd,Cartner,4:00,4:05,4:05
75,176,Kaidyn,Tucker,4:00,4:05,4:05
76,256,Jesse,Delves,4:00,4:02,4:02