place,member,first,last,start,Pace,est Time
1,257,Fin,Bray,0:00,7:59,23:57
2,179,Paula,Rielley,0:50,7:42,23:06
3,155,Jasmine,Rielley,1:00,7:41,23:03
4,222,Virginia,Grills-Marsily,1:20,7:35,22:45
5,212,Michelle,Parry,2:20,7:13,21:39
6,79,Liz,Stewart,3:10,6:56,20:48
7,206,Elisa,Christie,3:10,6:55,20:45
8,148,Matisse,Grills-Marsily,3:40,6:45,20:15
9,146,David,Ashman,3:50,6:42,20:06
10,43,Josephine,Robinson,4:00,6:40,20:00
11,226,Drew,Parry,4:00,6:39,19:57
12,106,Suellen,Bambrick,4:20,6:35,19:45
13,30,Amanda,Turnbull,4:40,6:28,19:24
14,52,Leah,Cripps,4:40,6:27,19:21
15,159,Renelle,McManus,4:50,6:23,19:09
16,21,Michelle,Bieleny,5:00,6:20,19:00
17,208,Houston,Pearse,5:20,6:13,18:39
18,136,Livinia,Douglass,5:30,6:11,18:33
19,225,Lesley,Fabian,5:40,6:06,18:18
20,229,Harrison,Pitson,5:50,6:02,18:06
21,24,Karina,Bray,6:00,6:01,18:03
22,239,Paula,a'Beckett,6:00,5:59,17:57
23,282,Anna,deVries,6:00,6:01,18:03
24,292,Jye,Ekanayake,6:00,5:59,17:57
25,101,Paula,Saxon,6:20,5:55,17:45
26,297,Declan,Lavery,6:20,5:53,17:39
27,173,Melanie,Cuzzillo,6:30,5:50,17:30
28,147,Lachlan,Feuerherdt,6:50,5:43,17:09
29,66,Megan,McDonald,7:00,5:40,17:00
30,89,Natalie,Watson,7:00,5:39,16:57
31,187,Nicole,Kelly,7:00,5:40,17:00
32,210,Fiona,Dangerfield,7:00,5:41,17:03
33,228,Sam,Pitson,7:00,5:40,17:00
34,241,Andrea,Smith,7:00,5:41,17:03
35,11,Jane,McCaig,7:10,5:35,16:45
36,150,Rebecca,Ashman,7:10,5:36,16:48
37,174,Sam,Hancock,7:10,5:35,16:45
38,214,Amy,Sim,7:10,5:37,16:51
39,243,Max,Bray,7:10,5:35,16:45
40,98,Tanya,Fleming,7:20,5:32,16:36
41,240,Jenelle,Seaward,7:20,5:34,16:42
42,170,Abbey,Saxon,7:30,5:31,16:33
43,190,Micheala,Meharry,7:30,5:29,16:27
44,200,Jack,Cripps,7:30,5:29,16:27
45,230,McKinley,Grills-Marsily,7:30,5:30,16:30
46,237,Lou,Bray,7:30,5:30,16:30
47,249,Will,Gleisner,7:40,5:28,16:24
48,277,Luke,Feuerherdt,7:40,5:26,16:18
49,1,Ashlee,Bull,7:50,5:22,16:06
50,99,Oscar,Terry,7:50,5:25,16:15
51,188,Darcy,Tucker,7:50,5:23,16:09
52,195,Luke,Creer,7:50,5:25,16:15
53,215,Emerson,Sim,7:50,5:25,16:15
54,269,Cooper,Charnas,7:50,5:25,16:15
55,274,Avery,McDermid,7:50,5:25,16:15
56,300,Lucinda,Terry,7:50,5:22,16:06
57,152,Alannah,Rielley,8:00,5:21,16:03
58,182,Hanna,Crane,8:00,5:21,16:03
59,132,Tracie,Gleisner,8:20,5:15,15:45
60,164,Imogen,Thompson,8:20,5:12,15:36
61,176,Kaidyn,Tucker,8:20,5:12,15:36
62,32,Oliver,Turnbull,8:30,5:10,15:30
63,189,Tim,Creer,8:40,5:07,15:21
64,270,Tyler,Wilkie,8:40,5:05,15:15
65,191,Phoebe,Lonsdale,8:50,5:02,15:06
66,275,Max,Rowe,8:50,5:04,15:12
67,193,Emily,Heislers,9:00,4:59,14:57
68,112,Jett,Grundy,9:10,4:57,14:51
69,171,Oliver,Sanderson,9:20,4:53,14:39
70,77,Brad,Russell,9:30,4:50,14:30
71,169,Floyd,Cartner,9:30,4:49,14:27
72,213,Phoebe,a'Beckett,9:30,4:51,14:33
73,94,David,Lonsdale,9:40,4:46,14:18
74,29,Alison,Cartner,9:50,4:42,14:06
75,82,Sophie,Adamson,9:50,4:45,14:15
76,107,Hayden,Brook,9:50,4:44,14:12
77,184,Will,Crane,9:50,4:45,14:15
78,201,Beatrice,Lonsdale,9:50,4:43,14:09
79,227,Joseph,Glanville,10:00,4:40,14:00
80,35,Conor,Cunningham,10:10,4:38,13:54
81,198,Matthew,Saxon,10:10,4:38,13:54
82,39,Melissa,Douglas,10:20,4:32,13:36
83,131,Carrisa,Brook,10:20,4:32,13:36
84,105,Toby,McCaig,10:50,4:25,13:15
85,192,Nicholas,Ashman,11:00,4:20,13:00
86,236,Harry,Seaward,11:20,4:12,12:36
87,177,Ben,Wilby,11:30,4:11,12:33
88,203,Tullie,Rowe,11:30,4:10,12:30
89,218,Noah,Walsh,11:30,4:09,12:27
90,202,Callum,Tucker,11:40,4:07,12:21
91,224,Cooper,Hale,11:40,4:06,12:18
92,80,Bridie,Blake-Burrows,11:50,4:04,12:12
93,114,Spencer,Evans,11:50,4:05,12:15
94,19,Troy,Cartner,12:10,3:56,11:48
95,137,Anton,Paholek,12:10,3:57,11:51
96,219,Wil,McCaig,12:10,3:56,11:48
97,167,Jack,Meade,12:20,3:53,11:39
98,42,Craig,Feuerherdt,12:30,3:50,11:30
99,143,Maxine,Paholek,12:30,3:50,11:30
100,33,Andrew,Creer,13:00,3:40,11:00
101,97,Adam,Fleming,13:50,3:25,10:15
102,46,Richard,Gleisner,14:00,3:20,10:00
103,27,Andrew,Buchanan,14:50,3:04,9:12