Place,Member,First,Last,Start,Pace,Est Time
1,1098,Hannah,Niblett,00:00,07:59,0:25:28.0
2,3782,Owen,Draper,00:00,07:59,0:25:28.0
3,1093,Kale,Beesley,00:20,07:53,0:25:08.9
4,3748,Amelia,Mitchell,03:40,06:52,0:21:54.3
5,3757,Tanae,Bull,04:00,06:46,0:21:35.1
6,79,Liz,Stewart,04:00,06:45,0:21:32.0
7,1039,Melinda,Marwood,04:10,06:42,0:21:22.4
8,237,Lou,Bray,04:20,06:37,0:21:06.4
9,3776,Kathleen,Pleasants,04:50,06:28,0:20:37.7
10,3750,Genevieve,Draper,05:00,06:26,0:20:31.3
11,3759,Lyn,Sebire,05:10,06:23,0:20:21.8
12,1075,Louise,Firli,05:40,06:15,0:19:56.2
13,356,Lynley,McDonald,05:40,06:14,0:19:53.1
14,322,Thom,Hosking,05:40,06:12,0:19:46.7
15,159,Renelle,McManus,05:50,06:11,0:19:43.5
16,40,Aida,Escall,05:50,06:10,0:19:40.3
17,1049,Georgie,Gibbons,05:50,06:09,0:19:37.1
18,100,Justine,Rowe,06:00,06:07,0:19:30.7
19,3781,Hamish,Draper,06:00,06:07,0:19:30.7
20,246,Poppy,Wainwright,06:00,06:06,0:19:27.5
21,3720,Bec,Woodward,06:00,06:06,0:19:27.5
22,1019,Christopher,Epworth,06:20,06:02,0:19:14.8
23,3729,Fiona,Preston,06:20,06:01,0:19:11.6
24,3741,Kim,Carter,06:20,06:00,0:19:08.4
25,225,Lesley,Fabian,06:40,05:55,0:18:52.5
26,98,Tanya,Fleming,06:40,05:54,0:18:49.3
27,250,Tully,Cripps,06:50,05:50,0:18:36.5
28,149,Janelle,Giffin,07:00,05:47,0:18:26.9
29,3749,Isabella,Draper,07:10,05:46,0:18:23.7
30,157,Bec,Lacy,07:10,05:45,0:18:20.5
31,66,Megan,McDonald,07:20,05:43,0:18:14.2
32,282,Anna,de Vries,07:20,05:42,0:18:11.0
33,1002,Tammy,Fear,07:20,05:42,0:18:11.0
34,209,Olivia,Douglas,07:30,05:40,0:18:04.6
35,1026,Eiliyah,Daneen,07:40,05:37,0:17:55.0
36,1063,Will,Trewick,07:40,05:37,0:17:55.0
37,257,Fin,Bray,07:40,05:36,0:17:51.8
38,3783,Zacch,Martin,07:50,05:34,0:17:45.5
39,1033,Sal,Ekanayake,07:50,05:32,0:17:39.1
40,1085,Michelle,Scott,08:00,05:31,0:17:35.9
41,44,Geoffrey,Robinson,08:00,05:30,0:17:32.7
42,50,Harry,Cripps,08:00,05:30,0:17:32.7
43,3753,Logan,Beesley,08:00,05:30,0:17:32.7
44,52,Leah,Cripps,08:00,05:28,0:17:26.3
45,145,Joshua,Condon,08:10,05:26,0:17:19.9
46,43,Josephine,Robinson,08:10,05:25,0:17:16.8
47,220,Ella,Meharry,08:10,05:25,0:17:16.8
48,381,April,Wainwright,08:10,05:25,0:17:16.8
49,1017,Scott,Broad,08:10,05:25,0:17:16.8
50,391,Sebastian,Boromeo,08:20,05:24,0:17:13.6
51,1015,Miller,Armstrong,08:20,05:24,0:17:13.6
52,1077,Dean,Trew,08:20,05:22,0:17:07.2
53,16,Jennifer,Lee,08:30,05:21,0:17:04.0
54,54,Kevin,de Vries,08:30,05:20,0:17:00.8
55,1066,Jodie,McLeod,08:40,05:17,0:16:51.2
56,1076,Sarah,Trew,08:40,05:16,0:16:48.0
57,1047,Harry,Scott,08:50,05:15,0:16:44.9
58,1078,Leigh,Draper,08:50,05:14,0:16:41.7
59,252,Jasmine,Murphy,09:00,05:11,0:16:32.1
60,1016,Noah,Armstrong,09:00,05:11,0:16:32.1
61,1030,Ella,Smith,09:00,05:10,0:16:28.9
62,1067,Scott,McLeod,09:00,05:10,0:16:28.9
63,1058,Tyler,Swann,09:10,05:09,0:16:25.7
64,276,Joshua,Feuerherdt,09:10,05:08,0:16:22.5
65,360,Phoebe,Martin,09:10,05:07,0:16:19.3
66,3715,Chloe,Green,09:10,05:07,0:16:19.3
67,1012,Danny,Breen,09:20,05:06,0:16:16.1
68,3795,Janelle,Willits,09:20,05:05,0:16:12.9
69,1095,Zac,Firli,09:20,05:04,0:16:09.8
70,1038,Xavier,Marwood,09:30,05:02,0:16:03.4
71,22,Ross,Douglas,09:30,05:01,0:16:00.2
72,3754,Elijah,Willits,09:30,05:01,0:16:00.2
73,13,Gavin,Fiedler,09:40,04:59,0:15:53.8
74,284,Imogen,Stewart,09:40,04:59,0:15:53.8
75,270,Tyler,Wilkie,09:40,04:58,0:15:50.6
76,195,Luke,Creer,09:50,04:56,0:15:44.2
77,400,Darren,Rowe,09:50,04:54,0:15:37.9
78,333,Jon,McIntosh,10:00,04:53,0:15:34.7
79,358,Lewis,McIntosh,10:00,04:52,0:15:31.5
80,29,Alison,Cartner,10:10,04:49,0:15:21.9
81,281,Will,de Vries,10:10,04:49,0:15:21.9
82,3735,Travis,Edwards,10:10,04:48,0:15:18.7
83,3765,Michelle,Vanzuyden,10:10,04:48,0:15:18.7
84,39,Melissa,Douglas,10:20,04:47,0:15:15.5
85,3737,Ebony,Woodward,10:20,04:46,0:15:12.3
86,292,Jye,Ekanayake,10:20,04:45,0:15:09.1
87,1071,Freya,Nicoletti,10:20,04:45,0:15:09.1
88,3769,Charley,Collins,10:30,04:44,0:15:06.0
89,305,Jonty,McDermid,10:30,04:42,0:14:59.6
90,1065,Sonya,Walker,10:30,04:42,0:14:59.6
91,1100,Cooper,Firli,10:30,04:42,0:14:59.6
92,3766,Anthony,Byrne,10:30,04:42,0:14:59.6
93,1037,Ethan,Marwood,10:40,04:40,0:14:53.2
94,3713,Jazlin,Fear,10:40,04:40,0:14:53.2
95,14,Lisa,Wilkinson,10:40,04:38,0:14:46.8
96,3755,Noah,Willits,10:50,04:37,0:14:43.6
97,266,Lewis,Lonsdale,10:50,04:36,0:14:40.4
98,1013,Jonte,Breen,10:50,04:36,0:14:40.4
99,241,Andrea,Smith,11:00,04:33,0:14:30.9
100,274,Avery,McDermid,11:00,04:33,0:14:30.9
101,1020,Mumtaz,Hussain,11:00,04:32,0:14:27.7
102,55,Justin,Lee,11:10,04:31,0:14:24.5
103,244,Jaron,Ekanayake,11:10,04:30,0:14:21.3
104,1086,Jimi,Read,11:10,04:30,0:14:21.3
105,201,Beatrice,Lonsdale,11:10,04:29,0:14:18.1
106,277,Luke,Feuerherdt,11:10,04:29,0:14:18.1
107,272,Abbey,Cartner,11:20,04:27,0:14:11.7
108,3717,Lachlan,Edwards,11:20,04:27,0:14:11.7
109,254,William,Robinson,11:40,04:22,0:13:55.8
110,1083,Rebecca,Kirkby,11:40,04:21,0:13:52.6
111,253,Charlotte,Murphy,11:40,04:20,0:13:49.4
112,1051,Kane,Safstrom,11:50,04:18,0:13:43.0
113,105,Toby,McCaig,11:50,04:17,0:13:39.8
114,147,Lachlan,Feuerherdt,11:50,04:17,0:13:39.8
115,1099,Kelvin,Niblett,11:50,04:16,0:13:36.6
116,3714,Tanner,Fear,12:00,04:15,0:13:33.4
117,350,David,Cripps,12:00,04:14,0:13:30.3
118,3730,Greg,Carter,12:00,04:13,0:13:27.1
119,1060,William,Trew,12:10,04:11,0:13:20.7
120,1029,James,Trew,12:10,04:10,0:13:17.5
121,63,John,Robinson,12:20,04:09,0:13:14.3
122,191,Phoebe,Lonsdale,12:20,04:09,0:13:14.3
123,65,Ben,McDermid,12:30,04:05,0:13:01.5
124,3738,Mason,Woodward,12:40,04:03,0:12:55.2
125,275,Max,Rowe,12:50,04:00,0:12:45.6
126,203,Tullie,Rowe,12:50,03:59,0:12:42.4
127,308,Chris,Giffin,12:50,03:59,0:12:42.4
128,33,Andrew,Creer,13:00,03:56,0:12:32.8
129,1036,Harry,Wright,13:00,03:55,0:12:29.6
130,189,Tim,Creer,13:00,03:54,0:12:26.5
131,1023,Matthew,Schepisi,13:10,03:52,0:12:20.1
132,171,Oliver,Sanderson,13:10,03:51,0:12:16.9
133,1031,Jack,Milligan,13:20,03:50,0:12:13.7
134,1061,Tarli,Bird,13:20,03:48,0:12:07.3
135,169,Floyd,Cartner,13:40,03:43,0:11:51.4
