Place,First,Last,NET Time,Pace,Diff
1,William,Robinson,0:32:24.5,04:37,-03:13.5
2,Anne,McIntosh,0:34:33.7,04:56,+00:12.8
3,Janet,Hodnett,0:36:24.4,05:12,+00:25.3
4,Garry,Marwood,0:26:22.6,03:46,+00:26.4
5,Trinity,Sanderson,0:36:02.1,05:08,+00:38.1
6,John,Robinson,0:29:44.8,04:15,+00:39.3
7,Deanna,Marshall,0:39:21.6,05:37,+00:55.3
8,Rhianna,Wik-Gamble,0:33:23.9,04:46,+01:02.1
9,David,Cripps,0:30:43.7,04:23,+01:03.2
10,Greg,Carter,0:31:06.5,04:26,+01:11.9
11,Andrew,Creer,0:28:54.2,04:07,+01:19.8
12,Greg,McBain,0:35:00.3,05:00,+01:21.4
13,David,Lonsdale,0:31:15.4,04:28,+01:27.9
14,Brad,Russell,0:38:16.8,05:28,+01:28.6
15,Michael,Farr,0:35:02.5,05:00,+01:30.6
16,Mumtaz,Hussain,0:33:42.4,04:49,+01:34.6
17,Brian,Watson,0:28:38.4,04:05,+01:39.1
18,Adrian,McMahon,0:35:34.9,05:05,+01:42.0
19,Lisa,Wilkinson,0:34:12.4,04:53,+01:43.6
20,Janelle,Giffin,0:42:18.5,06:02,+01:46.0
21,Brett,Dobbin,0:33:43.8,04:49,+01:57.1
22,Kelvin,Niblett,0:34:31.2,04:55,+02:02.4
23,Erin,Williams,0:34:47.9,04:58,+02:05.1
24,Nicholas,Cherry,0:31:57.0,04:33,+02:09.5
25,Liz,Foster,0:39:07.9,05:35,+02:12.7
26,Rebecca,Wilkinson,0:31:05.1,04:26,+02:13.6
27,Ross,Douglas,0:38:29.9,05:30,+02:16.8
28,Nick,O'Meara,0:47:47.6,06:49,+02:20.7
29,Chris,Giffin,0:30:26.5,04:21,+02:24.1
30,Leah,Cripps,0:40:56.9,05:50,+02:37.6
31,Scott,McLeod,0:38:49.9,05:32,+02:36.8
32,Damien,Roberts,0:35:21.9,05:03,+02:39.1
33,Sue,Anderton,0:42:08.3,06:01,+02:45.9
34,Darren,Rowe,0:37:26.4,05:20,+03:05.5
35,Alison,Cartner,0:37:51.7,05:24,+03:23.8
36,Ben,McDermid,0:33:12.5,04:44,+03:25.0
37,Sue,Taylor,0:44:23.8,06:20,+03:30.3
38,Shayne,Rushan,0:44:29.1,06:21,+03:35.6
39,Mel,Debnam-Smith,0:47:46.0,06:49,+03:36.2
40,Jodie,McLeod,0:40:57.1,05:51,+03:54.9
41,Kathleen,Pleasants,0:51:14.3,07:19,+03:55.3
42,Jay,Sanderson,0:41:52.3,05:58,+04:01.1
43,Justine,Rowe,0:48:35.8,06:56,+04:12.0
44,Craig,Green,0:32:40.0,04:40,+04:30.6
45,Jennifer,Lee,0:43:51.5,06:15,+04:36.1
46,Todd,Foster,0:39:46.6,05:40,+04:36.6
47,Jeremy,Draper,0:42:06.8,06:00,+04:43.6
48,Maree,Platt,0:42:55.6,06:07,+05:18.4
49,Alan,East,0:54:15.3,07:44,+06:35.2
50,James,Trew,0:43:03.0,06:08,+10:41.2
NEW,Richard,Martin,0:31:28.9,04:29
NEW,Stephen,McConnell,0:37:54.6,05:24
NEW,Amy,McCormick,0:28:43.0,04:06
NEW,Matthew,Schubert,0:33:21.1,04:45
