PLACE,FIRST,LAST,RACES,POINTS
1,Mumtaz,Hussain,6,216
2,Chris,Giffin,6,191
3,David,Cripps,5,182
4,Liz,Foster,5,182
5,Kelvin,Niblett,6,178
6,Craig,Green,5,171
7,Janelle,Giffin,5,162
8,William,Robinson,4,158
9,Darren,Rowe,5,155
10,Alison,Cartner,6,147
11,Michael,Farr,5,145
12,Jodie,McLeod,5,142
13,Nick,O'Meara,6,142
14,Sue,Taylor,6,141
15,Kevin,de Vries,4,140
16,Sarah,Jalim,4,140
17,Jack,Milligan,4,135
18,Jason,Anderton,5,132
19,Sue,Anderton,5,132
20,Lisa,Wilkinson,4,131
21,Mel,Debnam-Smith,4,130
22,David,Lonsdale,6,128
23,Brian,Watson,4,127
24,Scott,McLeod,5,127
25,Erin,Williams,4,126
26,Jon,McIntosh,4,125
27,Garry,Marwood,3,125
28,Damien,Roberts,6,121
29,Brad,Russell,5,118
30,Trinity,Sanderson,3,117
31,Leah,Cripps,5,117
32,Greg,Carter,5,114
33,Anne,McIntosh,3,105
34,Andrew,Hosking,4,98
35,Janet,Hodnett,2,87
36,Rik,McCaig,2,84
37,Deanna,Marshall,3,83
38,Ross,Douglas,5,82
39,David,Heislers,3,81
40,Todd,Foster,5,81
41,Andrew,Creer,3,79
42,Renelle,McManus,3,78
43,James,Trew,4,76
44,Justine,Rowe,5,74
45,Melissa,Wilkie,2,73
46,Janis,Bull,3,72
47,Maree,Platt,4,70
48,John,Robinson,4,66
49,Alan,East,4,65
50,David,Burrow,2,65
51,Adrian,McMahon,3,64
52,Shayne,Rushan,5,62
53,Ben,McDermid,4,62
54,Melissa,Douglas,1,60
55,Alan,Buchanan,4,55
56,Rebecca,Wilkinson,2,55
57,Molly,Butler,2,55
58,Tanner,Fear,1,55
59,Kathleen,Pleasants,4,48
60,Jay,Sanderson,2,45
61,Tammy,Fear,2,45
62,Leigh,Draper,2,43
63,Jennifer,Lee,3,42
64,Rhianna,Wik-Gamble,1,42
65,Jayson,Carter,2,42
66,Greg,McBain,1,38
67,Karl,Stoltz,2,37
68,Michael,Bieleny,2,35
69,Gavin,Fiedler,1,34
70,Jeremy,Draper,4,34
71,Stephen,van Rees,1,33
72,Joanne,Russell,2,32
73,Andrea,Smith,2,31
74,Brett,Dobbin,2,29
75,Justin,Lee,3,28
76,Charles,Chambers,1,27
77,Danny,Burgess,2,27
78,Nicholas,Cherry,1,26
79,Travis,Edwards,1,25
80,Tim,Lauder,1,23
81,Nigel,Preston,1,14
82,Alistair,Stewart,1,12
83,Aida,Escall,1,0
84,Floyd,Cartner,1,0
85,Josh,Kent,1,0
86,Stephen,McConnell,1,0
87,Amy,McCormick,1,0
88,Matthew,Schubert,1,0
89,Nathan,Dunn,1,0
90,Laura,Reynolds,1,0
