PLACE,FIRST,LAST,RACES,POINTS
1,Miriam,Niblett,5,124
2,Braxton,Safstrom,5,111
3,Mason,Woodward,6,107
4,Genevieve,Robinson,5,96
5,Ebony,Woodward,6,95
6,Jonty,McDermid,5,90
7,Bonnie,Scott,5,82
8,Naghmana,Tehseen,5,81
9,Mikayla,Kirkby,4,80
10,Leo,Stoltz,3,80
11,Geoffrey,Robinson,4,75
12,Liam,Carter,3,74
13,Eiliyah,Daneen,5,67
14,William,Trew,5,67
15,Alice,McIntosh,4,66
16,Avery,McDermid,5,63
17,Lewis,Lonsdale,5,61
18,Savannah,Marwood,4,61
19,Joshua,Feuerherdt,3,57
20,Xavier,Marwood,3,55
21,Harry,Scott,5,54
22,Kayla,McManus,4,52
23,Owen,Draper,4,48
24,April,Wainwright,5,47
25,Luke,Feuerherdt,2,45
26,Skylar,Woodward,5,43
27,Jimi,Read,3,39
28,Eryn,McManus,4,39
29,Chloe,Beesley,3,39
30,Jemma,Carter,3,38
31,Tom,Roberts,4,37
32,Ronny,Epps,3,37
33,Floyd,Cartner,2,35
34,Giana,Ekanayake,1,35
35,Tanner,Fear,3,35
36,Ellie,Beesley,3,33
37,Ivy,Bray,1,30
38,Max,Rowe,3,30
39,Jaxton,Ekanayake,1,30
40,Sebastian,Stewart,2,27
41,Poppy,Wainwright,1,26
42,William,Robinson,3,26
43,Oliver,Clarke,2,26
44,Jaron,Ekanayake,1,24
45,Ruby,Douglas,4,24
46,Callum,Fyffe,2,24
47,Polly,Byrne,3,24
48,Gabe,Nicoletti,2,23
49,Logan,Beesley,3,21
50,Charley,Collins,2,21
51,Abbey,Cartner,2,20
52,Zac,Firli,2,20
53,Lily,Sanderson,1,16
54,James,Trew,1,9
55,Evie,Niblett,2,8
56,Tully,Cripps,1,7
57,Isabella,Draper,1,5
58,Luke,Collins,3,4
59,Phoebe,Lonsdale,1,0
60,Tullie,Rowe,1,0
61,Charlotte,Murphy,1,0
62,Sebastian,Boromeo,1,0
63,Eden,McMahon,1,0
64,Spencer,McMahon,1,0
65,Louise,Firli,1,0
66,Brooke,Carter,1,0
67,Ruby,Carter,1,0
68,Chase,Carter,1,0
69,Sihanna,Carter,1,0
70,Hannah,Niblett,2,0
71,Krystal,Bellbin,2,0
72,Louise,Fyffe,1,0
73,Charli,Hosking,1,0
74,Jacob,Draper,1,0
75,Hannah,Draper,1,0
