PLACE,FIRST,LAST,RACES,POINTS
1,Chris,Giffin,6,94
2,Brian,Watson,4,77
3,Sarah,Jalim,4,68
4,Jack,Milligan,4,68
5,Craig,Green,5,65
6,David,Lonsdale,6,61
7,David,Cripps,5,61
8,Garry,Marwood,3,59
9,Greg,Carter,5,52
10,Andrew,Hosking,4,51
11,Andrew,Creer,3,45
12,Rik,McCaig,2,37
13,Michael,Bieleny,2,37
14,Ben,McDermid,4,37
15,Mumtaz,Hussain,6,35
16,David,Heislers,3,34
17,Jayson,Carter,2,33
18,Rebecca,Wilkinson,2,28
19,Lisa,Wilkinson,4,21
20,Kelvin,Niblett,6,21
21,Nigel,Preston,1,20
22,Stephen,van Rees,1,20
23,James,Trew,4,19
24,Damien,Roberts,6,18
25,Amy,McCormick,1,18
26,John,Robinson,4,16
27,Floyd,Cartner,1,16
28,Joanne,Russell,2,15
29,Brett,Dobbin,2,14
30,Tim,Lauder,1,13
31,Danny,Burgess,2,12
32,Tanner,Fear,1,12
33,Nicholas,Cherry,1,10
34,Charles,Chambers,1,9
35,William,Robinson,4,9
36,Darren,Rowe,5,9
37,Travis,Edwards,1,7
38,Matthew,Schubert,1,6
39,Trinity,Sanderson,3,5
40,Rhianna,Wik-Gamble,1,5
41,David,Burrow,2,5
42,Jon,McIntosh,4,4
43,Karl,Stoltz,2,4
44,Laura,Reynolds,1,4
45,Molly,Butler,2,2
46,Adrian,McMahon,3,2
47,Scott,McLeod,5,1
48,Michael,Farr,5,1
49,Alan,East,4,0
50,Alan,Buchanan,4,0
51,Shayne,Rushan,5,0
52,Gavin,Fiedler,1,0
53,Jennifer,Lee,3,0
54,Ross,Douglas,5,0
55,Alison,Cartner,6,0
56,Melissa,Douglas,1,0
57,Aida,Escall,1,0
58,Leah,Cripps,5,0
59,Kevin,de Vries,4,0
60,Justin,Lee,3,0
61,Greg,McBain,1,0
62,Maree,Platt,4,0
63,Brad,Russell,5,0
64,Melissa,Wilkie,2,0
65,Justine,Rowe,5,0
66,Janelle,Giffin,5,0
67,Renelle,McManus,3,0
68,Janet,Hodnett,2,0
69,Jason,Anderton,5,0
70,Sue,Taylor,6,0
71,Sue,Anderton,5,0
72,Andrea,Smith,2,0
73,Jay,Sanderson,2,0
74,Anne,McIntosh,3,0
75,Tammy,Fear,2,0
76,Todd,Foster,5,0
77,Liz,Foster,5,0
78,Mel,Debnam-Smith,4,0
79,Erin,Williams,4,0
80,Jodie,McLeod,5,0
81,Nick,O'Meara,6,0
82,Leigh,Draper,2,0
83,Josh,Kent,1,0
84,Deanna,Marshall,3,0
85,Jeremy,Draper,4,0
86,Janis,Bull,3,0
87,Kathleen,Pleasants,4,0
88,Alistair,Stewart,1,0
89,Stephen,McConnell,1,0
90,Nathan,Dunn,1,0
