1;AAAA-1097;0000-00-00;00:00:37.344;;112;-46;791a59
2;AAAA-1091;0000-00-00;00:00:38.365;;94;-45;4ffaef
3;AAAA-1004;0000-00-00;00:00:38.435;;116;-41;64a473
4;AAAA-1006;0000-00-00;00:00:48.257;;166;-39;553f66
5;AAAA-1084;0000-00-00;00:01:26.450;;48;-48;1899a2
6;AABM-3768;0000-00-00;00:01:57.303;;62;-42;aedeb8
7;AAAA-1082;0000-00-00;00:02:06.586;;56;-48;9bf242
8;AAAA-1083;0000-00-00;00:02:07.171;;54;-37;b6667c
9;AABM-3767;0000-00-00;00:02:07.294;;39;-47;96dd7d
10;AABM-3762;0000-00-00;00:02:07.350;;22;-42;b8fe60
11;524;0000-00-00;00:02:07.881;11573;254;-42;be038f
12;AAAA-1096;0000-00-00;00:02:16.151;;98;-45;460659
13;AAAA-1046;0000-00-00;00:02:26.229;;90;-42;be07d0
14;AABM-3751;0000-00-00;00:02:26.451;;62;-42;1f95c3
15;501;0000-00-00;00:02:31.082;11573;254;-59;b3c06e
16;AAAA-1062;0000-00-00;00:02:35.801;;42;-44;51285b
17;AABM-3782;0000-00-00;00:02:35.925;;68;-48;984821
18;AACT-382;0000-00-00;00:02:46.471;;84;-51;badd74
19;AAAA-1042;0000-00-00;00:03:06.145;;78;-44;8228de
20;250;0000-00-00;00:03:15.950;11573;56;-47;363979
21;AACT-354;0000-00-00;00:03:16.051;;50;-43;88c157
22;AABM-3752;0000-00-00;00:03:16.549;;62;-48;c3b169
23;44;0000-00-00;00:03:24.995;11573;135;-38;08eb10
24;AAAA-1026;0000-00-00;00:03:36.147;;90;-43;722aa5
25;AABM-3736;0000-00-00;00:03:45.705;;88;-45;96f4db
26;AACT-381;0000-00-00;00:04:06.098;;58;-46;557043
27;AABM-3753;0000-00-00;00:04:06.175;;68;-51;f0f386
28;AAAA-1047;0000-00-00;00:04:06.313;;24;-45;3d1fef
29;AAAA-1038;0000-00-00;00:04:06.314;;48;-47;1d0628
30;AACT-305;0000-00-00;00:04:10.330;;10;-67;dd0cba
31;AABM-3737;0000-00-00;00:04:10.332;;23;-67;9cf3cc
32;525;0000-00-00;00:04:11.486;11573;1;-68;6839c2
33;AACT-305;0000-00-00;00:04:16.057;;52;-46;7e74f7
34;AABM-3737;0000-00-00;00:04:16.354;;36;-45;cd2ee1
35;525;0000-00-00;00:04:16.557;11573;4;-62;d186c8
36;266;0000-00-00;00:04:35.180;11573;50;-39;01d7ce
37;274;0000-00-00;00:04:35.257;11573;61;-40;e3e76c
38;AABM-3714;0000-00-00;00:04:46.073;;65;-44;42e37a
39;AAAA-1060;0000-00-00;00:04:55.959;;70;-52;5f647f
40;AABM-3738;0000-00-00;00:05:05.928;;101;-47;27700a
41;AABM-3762;0000-00-00;00:08:19.533;;62;-44;9594d7
42;AAAA-1004;0000-00-00;00:08:31.197;;130;-44;98725c
43;AACT-382;0000-00-00;00:08:33.204;;98;-40;827480
44;44;0000-00-00;00:08:37.732;11573;101;-30;10a408
45;AACT-305;0000-00-00;00:08:38.273;;70;-43;1e4a97
46;AAAA-1096;0000-00-00;00:08:38.415;;72;-40;eefee1
47;525;0000-00-00;00:08:40.989;11573;48;-56;7076bc
48;AABM-3767;0000-00-00;00:08:41.433;;94;-37;64ca2c
49;266;0000-00-00;00:08:41.716;11573;50;-36;b47a36
50;AAAA-1042;0000-00-00;00:08:42.595;;96;-42;55a2da
51;AAAA-1046;0000-00-00;00:08:42.788;;46;-41;05f3a5
52;AAAA-1038;0000-00-00;00:08:43.396;;56;-40;fb6b81
53;AACT-354;0000-00-00;00:08:43.574;;128;-40;dcd6c3
54;AABM-3714;0000-00-00;00:08:46.390;;80;-39;eb1aa4
55;AABM-3752;0000-00-00;00:08:47.966;;70;-41;538ccf
56;274;0000-00-00;00:08:48.568;11573;69;-34;8fce24
57;AABM-3768;0000-00-00;00:08:50.726;;93;-43;ae663a
58;AABM-3738;0000-00-00;00:08:54.113;;55;-40;b1dcb2
59;AAAA-1026;0000-00-00;00:08:55.902;;90;-50;0b514a
60;AAAA-1084;0000-00-00;00:08:58.048;;78;-41;51a175
61;AAAA-1047;0000-00-00;00:09:00.395;;32;-47;f24dd1
62;AABM-3737;0000-00-00;00:09:00.452;;62;-44;a60e15
63;501;0000-00-00;00:09:02.894;11573;170;-53;89df46
64;AAAA-1097;0000-00-00;00:09:03.495;;86;-39;dc8b73
65;250;0000-00-00;00:09:04.344;11573;86;-39;d1de59
66;AAAA-1062;0000-00-00;00:09:07.355;;103;-42;359550
67;AAAA-1060;0000-00-00;00:09:09.161;;112;-38;c91119
68;AABM-3753;0000-00-00;00:09:15.870;;96;-46;d0432b
69;AABM-3782;0000-00-00;00:09:19.329;;98;-40;4e7d38
70;524;0000-00-00;00:09:24.257;11573;184;-45;e381b3
71;AAAA-1082;0000-00-00;00:09:26.256;;46;-41;13e89d
72;AACT-381;0000-00-00;00:09:26.336;;76;-49;ec95f5
73;AABM-3736;0000-00-00;00:09:26.731;;70;-46;942522
74;AABM-3751;0000-00-00;00:09:28.146;;100;-46;64e716
75;AAAA-1006;0000-00-00;00:11:28.996;;198;-42;289372
76;AAAA-1091;0000-00-00;00:11:27.594;;80;-50;cc5ebd
