Place,Member,First,Last,Start,Pace,Est Time
1,159,Renelle,McManus,-0:00,08:00,1:02:28.8
2,806,Kerry,Amor,05:50,07:15,0:56:37.3
3,3776,Kathleen,Pleasants,05:50,07:15,0:56:37.3
4,356,Lynley,McDonald,06:50,07:08,0:55:42.7
5,814,Sam,Esmore,12:50,06:22,0:49:43.4
6,74,Maree,Platt,13:00,06:20,0:49:27.8
7,427,Cath,O'Leary,13:00,06:20,0:49:27.8
8,54,Kevin,de Vries,13:40,06:15,0:48:48.8
9,210,Fiona,Dangerfield,13:40,06:15,0:48:48.8
10,1025,Liz,Foster,14:20,06:10,0:48:09.7
11,39,Melissa,Douglas,14:30,06:08,0:47:54.1
12,6,Shayne,Rushan,15:40,06:00,0:46:51.6
13,22,Ross,Douglas,15:40,06:00,0:46:51.6
14,458,Caitlin,Clarke,16:20,05:55,0:46:12.5
15,3740,Vicki,Lane,16:20,05:55,0:46:12.5
16,76,Cara,Smith,17:00,05:50,0:45:33.5
17,449,Belinda,Whelan,17:00,05:50,0:45:33.5
18,1028,Mel,Debnam-Smith,17:00,05:50,0:45:33.5
19,3758,Janis,Bull,17:00,05:50,0:45:33.5
20,3777,Alistair,Stewart,17:00,05:50,0:45:33.5
21,182,Hannah,Crane,17:10,05:48,0:45:17.9
22,386,Danny,Burgess,17:30,05:45,0:44:54.4
23,1066,Jodie,McLeod,17:50,05:43,0:44:38.8
24,424,Lauren,Crowley,18:00,05:42,0:44:31.0
25,91,Melissa,Wilkie,18:10,05:40,0:44:15.4
26,1087,Deanna,Marshall,18:30,05:38,0:43:59.8
27,31,Charles,Chambers,18:40,05:36,0:43:44.2
28,197,Sue,Taylor,18:40,05:36,0:43:44.2
29,398,Angus,McPherson,19:10,05:33,0:43:20.7
30,87,Frances,Walsh,19:50,05:27,0:42:33.9
31,807,Kristian,Dowler,20:00,05:26,0:42:26.1
32,13,Gavin,Fiedler,20:30,05:22,0:41:54.8
33,270,Tyler,Wilkie,20:30,05:22,0:41:54.8
34,52,Leah,Cripps,20:50,05:20,0:41:39.2
35,1024,Todd,Foster,20:50,05:20,0:41:39.2
36,3,Alan,Buchanan,21:20,05:16,0:41:08.0
37,183,Janet,Hodnett,21:40,05:14,0:40:52.3
38,400,Darren,Rowe,22:50,05:05,0:39:42.0
39,1074,David,Burrow,22:50,05:05,0:39:42.0
40,333,Jon,McIntosh,23:20,05:01,0:39:10.8
41,476,Sheena,Carney,23:20,05:01,0:39:10.8
42,241,Andrea,Smith,23:30,05:00,0:39:03.0
43,55,Justin,Lee,23:40,04:58,0:38:47.4
44,3763,Brett,Dobbin,23:50,04:57,0:38:39.6
45,278,James,Russell,24:00,04:56,0:38:31.8
46,9,Trinity,Sanderson,24:00,04:55,0:38:23.9
47,3739,Stephen,van Rees,24:00,04:55,0:38:23.9
48,1040,Erin,Williams,24:30,04:52,0:38:00.5
49,455,Suzie,Pedrotti,24:40,04:50,0:37:44.9
50,3702,Vicki,Bayliss,24:40,04:50,0:37:44.9
51,3760,Karl,Stoltz,24:40,04:50,0:37:44.9
52,18,Georgie,Lanyon,25:10,04:47,0:37:21.5
53,29,Alison,Cartner,25:10,04:47,0:37:21.5
54,274,Avery,McDermid,25:10,04:47,0:37:21.5
55,1020,Mumtaz,Hussain,25:10,04:47,0:37:21.5
56,1080,Jayson,Carter,25:20,04:45,0:37:05.8
57,3766,Anthony,Byrne,25:20,04:45,0:37:05.8
58,14,Lisa,Wilkinson,25:40,04:43,0:36:50.2
59,408,Trevor,Watchman,25:40,04:43,0:36:50.2
60,1003,Damien,Roberts,25:40,04:43,0:36:50.2
61,3788,Matthew,Schubert,25:40,04:43,0:36:50.2
62,384,Andrew,Wilkie,25:50,04:42,0:36:42.4
63,109,Tim,Lovell,26:00,04:40,0:36:26.8
64,171,Oliver,Sanderson,26:30,04:37,0:36:03.4
65,65,Ben,McDermid,26:30,04:36,0:35:55.6
66,802,James,Harper,26:40,04:35,0:35:47.8
67,1051,Kane,Safstrom,26:40,04:35,0:35:47.8
68,359,Anne,McIntosh,27:00,04:32,0:35:24.3
69,203,Tullie,Rowe,27:40,04:28,0:34:53.1
70,469,Paul,Boxshall,27:50,04:26,0:34:37.5
71,3730,Greg,Carter,27:50,04:26,0:34:37.5
72,490,Aaron,Anderson,28:00,04:25,0:34:29.7
73,1099,Kelvin,Niblett,28:10,04:23,0:34:14.0
74,394,Rhianna,Wik-Gamble,28:40,04:20,0:33:50.6
75,418,Vanessa,Bull,28:40,04:20,0:33:50.6
76,1031,Jack,Milligan,28:40,04:20,0:33:50.6
77,191,Phoebe,Lonsdale,28:50,04:19,0:33:42.8
78,84,Craig,Green,29:00,04:17,0:33:27.2
79,472,John,Flood,29:10,04:16,0:33:19.4
80,438,Damian,Hughes,29:20,04:15,0:33:11.5
81,15,Rebecca,Wilkinson,29:30,04:14,0:33:03.7
82,350,David,Cripps,29:30,04:14,0:33:03.7
83,430,Brianna,Maddern,29:30,04:14,0:33:03.7
84,49,David,Heislers,29:30,04:13,0:32:55.9
85,94,David,Lonsdale,29:30,04:13,0:32:55.9
86,1083,Rebecca,Kirkby,29:30,04:13,0:32:55.9
87,432,Jarrod,Epps,29:40,04:12,0:32:48.1
88,1027,Andrew,Van Agtmaal,29:40,04:12,0:32:48.1
89,801,Rebecca ,Beagley,30:00,04:10,0:32:32.5
90,425,Nathan,Crowley,30:10,04:08,0:32:16.9
91,429,Gavin,Hicks,30:10,04:08,0:32:16.9
92,448,Rory,Flanagan,30:10,04:08,0:32:16.9
93,125,Sarah,Jalim,30:20,04:07,0:32:09.1
94,428,Matthew,Bell,30:40,04:04,0:31:45.6
95,1022,Ben,Stolz,30:50,04:03,0:31:37.8
96,88,Brian,Watson,31:10,04:01,0:31:22.2
97,499,Richard,Martin,31:10,04:01,0:31:22.2
98,8,Rik,McCaig,31:10,04:00,0:31:14.4
99,1023,Matthew,Schepisi,31:10,04:00,0:31:14.4
100,462,Eliot,Walton,32:20,03:52,0:30:11.9
101,23,Michael,Bieleny,32:20,03:51,0:30:04.1
102,169,Floyd,Cartner,32:30,03:50,0:29:56.3
103,275,Max,Rowe,32:40,03:49,0:29:48.5
104,447,Jake,Delaney,32:40,03:49,0:29:48.5
105,492,Zeb,Broadbent,32:40,03:49,0:29:48.5
106,399,Darren,Hartland,32:50,03:48,0:29:40.7
107,51,Andrew,Hosking,33:00,03:47,0:29:32.9
108,33,Andrew,Creer,34:10,03:38,0:28:22.6
109,404,Leon,Griffin,34:10,03:38,0:28:22.6
110,467,Glenn,McMillian,34:50,03:32,0:27:35.7
111,3701,Nigel,Preston,35:00,03:31,0:27:27.9
112,487,Ned,Buckell,35:20,03:28,0:27:04.5
