Place,First,Last,NET Time,Pace,Diff
1,Karl,Stoltz,0:19:36.2,05:15,-06:11.8
2,Kevin,de Vries,0:22:17.8,05:59,-01:15.9
3,Sonya,Walker,0:21:05.7,05:39,+00:27.3
4,Abbey,Cartner,0:16:36.8,04:27,+00:45.7
5,Dean,Trew,0:19:46.2,05:18,+00:52.3
6,James,Trew,0:15:07.3,04:03,+00:56.9
7,Jayson,Carter,0:17:04.3,04:35,+01:02.0
8,Sarah,Trew,0:22:19.6,05:59,+01:18.9
9,Justin,Lee,0:19:03.2,05:06,+01:20.2
10,Thom,Hosking,0:22:04.5,05:55,+01:52.3
11,Eiliyah,Daneen,0:25:52.9,06:56,+01:56.9
12,Naghmana,Tehseen,0:31:48.1,08:32,+01:57.7
13,Lewis,McIntosh,0:16:20.1,04:23,+01:58.5
14,Lewis,Lonsdale,0:20:57.8,05:37,+03:14.8
NEW,Mark,Logan,0:21:14.7,05:42
NEW,Merridee,Griffin,0:21:28.1,05:45
