PLACE,FIRST,LAST,RACES,POINTS
1,James,Bradshaw,7,151
2,Emma,Colt,7,136
3,Abbey,Cartner,6,135
4,Michelle,Scott,5,123
5,James,Trew,7,117
6,Dean,Trew,6,107
7,Emily,Harris,6,105
8,Kelvin,Niblett,4,102
9,Sonya,Walker,4,100
10,Callen,Bayliss,5,96
11,Julia,Starr,4,95
12,Ebony,Beesley,5,95
13,Mason,Beesley,5,95
14,Abby,Colt,4,91
15,John,Starr,3,88
16,Ben,McDermid,6,84
17,Justin,Lee,5,80
18,Jonty,McDermid,4,80
19,Archie,Clarke,2,80
20,Millie,McIntosh,3,79
21,Harry,Cripps,3,78
22,Naghmana,Tehseen,6,76
23,Lewis,McIntosh,3,67
24,Bec,Beesley,4,67
25,Karl,Stoltz,2,64
26,Erin,Bradshaw,4,58
27,Bonnie,Scott,4,58
28,Sophie,Pedrotti,3,56
29,Chase,Carter,4,56
30,Alicia,Crowley,3,55
31,Harry,Scott,3,55
32,Suzie,Pedrotti,3,49
33,Vicki,Bayliss,2,49
34,Ruby,Carter,2,46
35,Tully,Cripps,5,45
36,April,Wainwright,5,45
37,Leo,Stoltz,1,40
38,Danny,Burgess,3,39
39,Eiliyah,Daneen,5,39
40,Jayson,Carter,3,39
41,Lewis,Lonsdale,3,38
42,Sarah,Trew,3,36
43,Kevin,de Vries,1,35
44,Poppy,Wainwright,6,35
45,Jon,McIntosh,1,35
46,Owen,Best,3,35
47,Lynley,McDonald,2,27
48,Jimmy,Byrne,2,26
49,Avery,McDermid,2,25
50,Sarah,Crowley,1,25
51,Thom,Hosking,3,23
52,Liam,Carter,2,23
53,Leah,Cripps,1,22
54,Leonie,Chivers,2,21
55,Grace,Chivers,2,20
56,Marcene,Haythrope,1,19
57,Anthony,Byrne,2,19
58,Charli,Hosking,2,19
59,Rhianna,Wik-Gamble,1,17
60,Nick,Best,2,17
61,Braxton,Safstrom,2,17
62,Nathan,Crowley,1,16
63,Tanner,Fear,2,14
64,Craig,Green,1,13
65,Logan,Beesley,2,12
66,Janet,Hodnett,1,10
67,Ryan,Haythorpe,1,9
68,Max,Rowe,1,8
69,Aida,Escall,1,4
70,Ashton ,Chivers,2,3
71,Kathleen,Pleasants,1,3
72,Chloe,Beesley,2,1
73,Ross,Douglas,1,0
74,Will,de Vries,1,0
75,Mark,Logan,1,0
76,Merridee,Griffin,1,0
77,Lily,Chivers,2,0
78,Caitlin,Clarke,1,0
79,Oscar,Lethbridge,1,0
80,Bradie,Sheldon,1,0
81,Lottie,Macmunn,1,0
82,Miriam,Niblett,1,0
83,Nigel,Preston,1,0
84,Greg,Carter,1,0
85,Jemma,Carter,1,0
86,Brett,Dobbin,1,0
87,Belinda,Dobbin,1,0
