Place,First,Last,NET Time,Pace,Diff
1,Luke,Feuerherdt,0:13:42.1,04:34,-03:44.9
2,Eiliyah,Daneen,0:18:32.0,06:11,-00:55.0
3,Harry,Cripps,0:16:46.3,05:35,-00:34.7
4,Harry,Scott,0:16:36.4,05:32,-00:29.6
5,Lachlan,Feuerherdt,0:13:18.5,04:26,-00:20.5
6,Kane,Safstrom,0:13:14.3,04:25,-00:15.7
7,William,Trew,0:13:42.5,04:34,-00:11.5
8,Dean,Trew,0:17:01.2,05:40,-00:10.8
9,Renelle,McManus,0:19:26.1,06:29,-00:03.9
10,Floyd,Cartner,0:11:30.0,03:50,-00:03.0
11,Jonty,McDermid,0:14:41.4,04:54,+00:02.4
12,Avery,McDermid,0:14:02.7,04:41,+00:08.7
13,Chris,Giffin,0:12:07.1,04:02,+00:10.1
14,Lewis,Lonsdale,0:13:59.7,04:40,+00:11.7
15,Michelle,Scott,0:18:44.0,06:15,+00:17.0
16,Mason,Woodward,0:13:11.9,04:24,+00:20.9
17,Lachlan,Edwards,0:13:43.3,04:34,+00:22.3
18,Thom,Hosking,0:19:48.1,06:36,+00:24.1
19,Lesley,Fabian,0:18:24.3,06:08,+00:24.3
20,Travis,Edwards,0:14:49.4,04:56,+00:25.4
21,Tanner,Fear,0:13:15.8,04:25,+00:30.8
22,Kevin,de Vries,0:16:33.4,05:31,+00:33.4
23,Phoebe,Lonsdale,0:13:19.6,04:27,+00:37.6
24,Mumtaz,Hussain,0:14:48.4,04:56,+00:39.4
25,Sarah,Trew,0:17:12.3,05:44,+00:48.3
26,Rebecca,Kirkby,0:13:52.2,04:37,+00:49.2
27,Charlotte,Murphy,0:13:52.8,04:38,+00:52.8
28,Tully,Cripps,0:20:13.9,06:45,+00:52.9
29,Geoffrey,Robinson,0:17:54.4,05:58,+01:00.4
30,Ebony,Woodward,0:15:36.3,05:12,+01:03.3
31,Lynley,McDonald,0:20:19.5,06:46,+01:04.5
32,Bec,Woodward,0:20:44.1,06:55,+01:17.1
33,William,Robinson,0:14:24.5,04:48,+01:18.5
34,Josephine,Robinson,0:17:51.9,05:57,+01:18.9
35,James,Trew,0:14:01.2,04:40,+01:31.2
36,Will,de Vries,0:16:15.6,05:25,+01:36.6
37,Tullie,Rowe,0:13:39.9,04:33,+01:39.9
38,Max,Rowe,0:13:42.7,04:34,+01:42.7
39,Tammy,Fear,0:18:40.0,06:13,+01:49.0
40,Ben,McDermid,0:13:41.8,04:34,+02:08.8
41,Harry,Wright,0:13:35.8,04:32,+02:17.8
42,Poppy,Wainwright,0:23:23.2,07:48,+05:05.2
NEW,Lou,Bray,0:19:51.2,06:37
NEW,Fin,Bray,0:16:48.0,05:36
NEW,April,Wainwright,0:16:15.0,05:25
NEW,Nathan,Dunn,0:22:38.2,07:33
NEW,Elijah,Willits,0:16:04.0,05:21
NEW,Noah,Willits,0:14:07.3,04:42
NEW,Sonya,Walker,0:15:08.9,05:03
NEW,Kelvin,Niblett,0:14:25.7,04:49
NEW,Tanae,Bull,0:20:18.6,06:46
NEW,Anthony,Byrne,0:14:13.2,04:44
NEW,Charlie,Collins,0:14:12.0,04:44
