PLACE,FIRST,LAST,RACES,POINTS
1,Liz,Foster,3,123
2,Mumtaz,Hussain,3,119
3,Mel,Debnam-Smith,3,119
4,Chris,Giffin,3,116
5,Kevin,de Vries,3,98
6,Janelle,Giffin,3,93
7,Craig,Green,2,89
8,Scott,McLeod,3,88
9,Jack,Milligan,2,86
10,Jodie,McLeod,3,86
11,Rik,McCaig,2,84
12,Jon,McIntosh,3,84
13,Garry,Marwood,2,79
14,Alison,Cartner,3,78
15,Jason,Anderton,3,77
16,Darren,Rowe,2,74
17,Melissa,Wilkie,2,73
18,Trinity,Sanderson,2,72
19,David,Cripps,2,71
20,Sue,Anderton,3,70
21,Sarah,Jalim,2,68
22,Sue,Taylor,3,68
23,Damien,Roberts,3,68
24,Kelvin,Niblett,3,63
25,Lisa,Wilkinson,2,61
26,William,Robinson,2,60
27,Michael,Farr,2,60
28,Nick,O'Meara,3,59
29,Todd,Foster,3,58
30,David,Heislers,2,55
31,David,Burrow,1,55
32,Molly,Butler,2,55
33,David,Lonsdale,3,53
34,Leah,Cripps,2,51
35,Greg,Carter,2,51
36,Brian,Watson,1,50
37,Maree,Platt,2,47
38,Alan,Buchanan,3,45
39,Tammy,Fear,2,45
40,Shayne,Rushan,3,42
41,Ben,McDermid,2,42
42,Deanna,Marshall,2,40
43,Erin,Williams,2,39
44,Jennifer,Lee,2,37
45,Janet,Hodnett,1,37
46,Jay,Sanderson,1,37
47,Ross,Douglas,2,35
48,Gavin,Fiedler,1,34
49,Stephen,van Rees,1,33
50,Kathleen,Pleasants,2,32
51,Rebecca,Wilkinson,1,31
52,Brad,Russell,2,31
53,Justine,Rowe,2,30
54,James,Trew,2,30
55,Andrew,Hosking,2,29
56,Charles,Chambers,1,27
57,Travis,Edwards,1,25
58,Tim,Lauder,1,23
59,Andrew,Creer,1,18
60,John,Robinson,2,17
61,Alan,East,1,14
62,Danny,Burgess,1,14
63,Jeremy,Draper,1,11
64,Justin,Lee,1,10
65,Michael,Bieleny,1,0
66,Aida,Escall,1,0
67,Joanne,Russell,1,0
68,Renelle,McManus,1,0
69,Floyd,Cartner,1,0
70,Anne,McIntosh,1,0
71,Leigh,Draper,1,0
72,Jayson,Carter,1,0
73,Adrian,McMahon,1,0
74,Janis,Bull,1,0
