Place,First,Last,NET Time,Pace,Diff
1,Julia,Starr,0:18:34.3,05:49,-00:27.7
2,Phoebe,Lonsdale,0:13:31.8,04:14,-00:24.0
3,Luke,Feuerherdt,0:12:27.5,03:54,-00:18.1
4,Hugh,Casey,0:12:52.1,04:02,-00:09.4
5,Noah,Pedrotti,0:13:58.6,04:23,+00:02.8
6,Tanner,Fear,0:14:04.6,04:25,+00:34.3
7,Danny,Burgess,0:16:10.1,05:04,+00:41.8
8,Harry,Scott,0:16:29.1,05:10,+00:44.9
9,Eiliyah,Daneen,0:21:24.8,06:43,+00:56.6
10,Thom,Hosking,0:19:17.9,06:03,+00:57.4
11,Mason,Beesley,0:13:17.4,04:10,+01:00.5
12,Lachlan,Feuerherdt,0:15:44.0,04:56,+01:16.3
13,Braxton,Safstrom,0:17:45.9,05:34,+01:20.2
14,Michelle,Scott,0:21:30.6,06:45,+01:24.8
15,Ruby,Carter,0:19:41.5,06:10,+01:27.3
16,Joshua,Feuerherdt,0:16:24.3,05:09,+01:27.9
17,Rebecca,Kirkby,0:15:02.6,04:43,+01:32.3
18,Ryan,Haythorpe,0:17:42.8,05:33,+01:58.6
19,Naghmana,Tehseen,0:27:30.5,08:37,+01:59.3
20,Bec,Beesley,0:21:34.9,06:46,+02:26.5
21,Jayson,Carter,0:18:18.9,05:44,+03:19.3
22,Ebony,Beesley,0:17:58.4,05:38,+03:21.2
23,Kane,Safstrom,0:17:55.5,05:37,+03:50.1
NEW,Jarrod,Epps,0:12:58.1,04:04
NEW,Emily,Harris,0:18:10.9,05:42
