Place,First,Last,NET Time,Pace,Diff
1,Tullie,Rowe,0:32:38.4,04:39,-00:25.4
2,Shayne,Rushan,0:42:52.6,06:07,-00:21.1
3,Max,Rowe,0:30:30.3,04:21,-00:13.3
4,Caitlin,Clarke,0:40:24.2,05:46,+00:33.8
5,Matthew,Schubert,0:34:03.9,04:52,+01:00.1
6,Leon,Griffin,0:25:21.0,03:37,+01:09.9
7,Lisa,Wilkinson,0:35:31.2,05:04,+01:10.3
8,Brianna,Maddern,0:30:51.4,04:24,+01:10.9
9,Rebecca,Wilkinson,0:31:32.1,04:30,+01:23.5
10,David,Cripps,0:31:28.8,04:29,+01:27.2
11,Cara,Smith,0:42:29.9,06:04,+01:36.4
12,Andrew,Creer,0:29:23.2,04:12,+01:41.8
13,Jayson,Carter,0:35:11.0,05:01,+01:46.1
14,Mumtaz,Hussain,0:36:23.1,05:11,+01:48.1
15,Andrew,Hosking,0:29:39.6,04:14,+01:51.2
16,David,Lonsdale,0:32:03.4,04:34,+01:54.8
17,Sue,Taylor,0:44:00.6,06:17,+02:04.0
18,Justin,Lee,0:36:19.7,05:11,+02:26.8
19,Trinity,Sanderson,0:36:35.1,05:13,+02:28.2
20,Belinda,Whelan,0:42:05.0,06:00,+02:35.6
21,Kane,Safstrom,0:33:19.9,04:45,+02:50.3
22,Vanessa,Bull,0:36:30.5,05:12,+03:05.6
23,Leah,Cripps,0:40:08.9,05:44,+03:13.7
24,Andrea,Smith,0:37:59.9,05:25,+03:24.9
25,Maree,Platt,0:44:31.2,06:21,+04:05.7
26,Ross,Douglas,0:43:39.2,06:14,+05:05.9
27,Craig,Green,0:39:55.8,05:42,+09:33.2
NEW,Darren,Rowe,0:37:56.5,05:25
NEW,Suzie,Pedrotti,0:37:18.2,05:19
NEW,Glenn,McMillian,0:25:15.0,03:36
NEW,Lachlan,Hatcher,0:33:47.2,04:49
NEW,Andrew,Van Agtmaal,0:29:27.6,04:12
