Place,Member,First,Last,Start,Pace,Est Time
1,1005,Ann-Marie,Wangdi,00:10,07:59,1:15:02.6
2,1028,Mel,Debham,00:10,07:59,1:15:02.6
3,3748,Amelia,Mitchell,00:10,07:59,1:15:02.6
4,3750,Genevieve,Draper,00:10,07:59,1:15:02.6
5,3781,Hamish,Draper,00:10,07:59,1:15:02.6
6,2,Alan,East,11:40,06:46,1:03:36.4
7,100,Justine,Rowe,12:30,06:40,1:02:40.0
8,3741,Kim,Carter,12:40,06:39,1:02:30.6
9,201,Beatrice,Lonsdale,12:50,06:38,1:02:21.2
10,3776,Kathleen,Pleasants,13:00,06:37,1:02:11.8
11,3715,Chloe,Green,13:20,06:35,1:01:53.0
12,270,Tyler,Wilkie,15:30,06:21,0:59:41.4
13,190,Michaela,Meharry,15:40,06:20,0:59:32.0
14,159,Renelle,McManus,16:30,06:15,0:58:45.0
15,191,Phoebe,Lonsdale,17:00,06:11,0:58:07.4
16,66,Megan,McDonald,17:10,06:10,0:57:58.0
17,397,Taylor,Lovell,17:30,06:08,0:57:39.2
18,35,Conor,Cunningham,19:30,05:56,0:55:46.4
19,210,Fiona,Dangerfield,19:40,05:54,0:55:27.6
20,197,Sue,Taylor,20:00,05:52,0:55:08.8
21,43,Josephine,Robinson,20:10,05:51,0:54:59.4
22,149,Janelle,Giffin,20:10,05:51,0:54:59.4
23,157,Bec,Lacy,20:10,05:51,0:54:59.4
24,334,Alex,Trantor,20:40,05:48,0:54:31.2
25,3732,Emma,Gibbons,20:50,05:47,0:54:21.8
26,68,Justin,O'Brien,21:00,05:46,0:54:12.4
27,392,Mark,Logan,21:40,05:42,0:53:34.8
28,54,Kevin,de Vries,22:00,05:40,0:53:16.0
29,251,Beth,Lavery,22:20,05:37,0:52:47.8
30,16,Jennifer,Lee,22:30,05:36,0:52:38.4
31,87,Frances,Walsh,22:40,05:35,0:52:29.0
32,111,Troy,Davis,22:40,05:35,0:52:29.0
33,91,Melissa,Wilkie,23:30,05:30,0:51:42.0
34,398,Angus,McPherson,23:30,05:30,0:51:42.0
35,52,Leah,Cripps,23:50,05:28,0:51:23.2
36,359,Anne,McIntosh,23:50,05:28,0:51:23.2
37,364,David,Howes,23:50,05:28,0:51:23.2
38,1025,Liz,Foster,23:50,05:28,0:51:23.2
39,67,Leeza,Meharry,24:10,05:26,0:51:04.4
40,3777,Alistair,Stewart,24:20,05:25,0:50:55.0
41,299,Jay,Sanderson,24:30,05:24,0:50:45.6
42,74,Maree,Platt,24:50,05:22,0:50:26.8
43,3740,Vicki,Lane,25:00,05:20,0:50:08.0
44,13,Gavin,Fiedler,25:10,05:19,0:49:58.6
45,339,James,Toomey,25:10,05:19,0:49:58.6
46,1058,Tyler,Swann,25:10,05:19,0:49:58.6
47,6,Shayne,Rushan,25:20,05:18,0:49:49.2
48,1041,Lachlan,Cherry,25:30,05:17,0:49:39.8
49,1024,Todd,Foster,25:40,05:16,0:49:30.4
50,77,Brad,Russell,25:50,05:15,0:49:21.0
51,59,Tina,McBain,26:10,05:13,0:49:02.2
52,180,Lauren,Hancock,26:20,05:12,0:48:52.8
53,3747,Jeremy,Draper,26:30,05:11,0:48:43.4
54,29,Alison,Cartner,26:40,05:10,0:48:34.0
55,307,Philip,Shambrook,26:40,05:10,0:48:34.0
56,253,Charlotte,Murphy,27:00,05:08,0:48:15.2
57,183,Janet,Hodnett,27:20,05:06,0:47:56.4
58,400,Darren,Rowe,27:20,05:05,0:47:47.0
59,22,Ross,Douglas,27:30,05:04,0:47:37.6
60,9,Trinity,Sanderson,27:40,05:03,0:47:28.2
61,333,Jon,McIntosh,28:00,05:01,0:47:09.4
62,315,Paul,Lomax,28:20,04:59,0:46:50.6
63,3702,Vicki,Bayliss,28:20,04:59,0:46:50.6
64,241,Andrea,Smith,28:30,04:58,0:46:41.2
65,369,Stephen,Wainwright,29:10,04:54,0:46:03.6
66,296,Ashlee,Diston,29:20,04:53,0:45:54.2
67,3714,Tanner,Fear,29:20,04:53,0:45:54.2
68,18,Georgie,Lanyon,29:40,04:51,0:45:35.4
69,34,Mathew,Creer,29:40,04:51,0:45:35.4
70,3726,Clare,Montgomery,30:00,04:48,0:45:07.2
71,3735,Travis,Edwards,30:00,04:48,0:45:07.2
72,5,Jenny,Buchanan,30:10,04:47,0:44:57.8
73,278,James,Russell,30:20,04:46,0:44:48.4
74,1020,Mumtaz,Hussain,30:20,04:46,0:44:48.4
75,14,Lisa,Wilkinson,30:30,04:45,0:44:39.0
76,60,Greg,McBain,30:50,04:43,0:44:20.2
77,394,Rhianna,Wik-Gamble,31:00,04:42,0:44:10.8
78,1036,Harry,Wright,31:40,04:38,0:43:33.2
79,3,Alan,Buchanan,31:50,04:37,0:43:23.8
80,31,Charles,Chambers,32:20,04:34,0:42:55.6
81,109,Tim,Lovell,32:30,04:33,0:42:46.2
82,384,Andrew,Wilkie,32:30,04:33,0:42:46.2
83,55,Justin,Lee,32:40,04:31,0:42:27.4
84,1003,Damien,Roberts,32:40,04:31,0:42:27.4
85,3744,Finn,MacGregor,32:40,04:31,0:42:27.4
86,396,Simon,Hunt,32:50,04:30,0:42:18.0
87,1057,Wes,Jenkyn,33:20,04:27,0:41:49.8
88,350,David,Cripps,34:10,04:22,0:41:02.8
89,17,Karl,Lanyon,34:20,04:21,0:40:53.4
90,386,Danny,Burgess,34:30,04:20,0:40:44.0
91,3734,Lukas,Jara,34:50,04:18,0:40:25.2
92,1031,Jack,Milligan,35:10,04:16,0:40:06.4
93,1009,Nicholas,Cherry,35:20,04:15,0:39:57.0
94,3730,Greg,Carter,35:20,04:15,0:39:57.0
95,49,David,Heislers,35:20,04:14,0:39:47.6
96,94,David,Lonsdale,35:20,04:14,0:39:47.6
97,1043,Michael,Gibbons,35:40,04:12,0:39:28.8
98,308,Chris,Giffin,35:50,04:11,0:39:19.4
99,1027,Andrew,Van Agtmaal,35:50,04:11,0:39:19.4
100,65,Ben,McDermid,36:00,04:10,0:39:10.0
101,15,Rebecca,Wilkinson,36:30,04:07,0:38:41.8
102,399,Darren,Hartland,36:30,04:07,0:38:41.8
103,63,John,Robinson,37:00,04:04,0:38:13.6
104,118,Tim,Lauder,37:10,04:03,0:38:04.2
105,301,Jarrod,Eps,37:40,04:00,0:37:36.0
106,3746,Peter,King,37:40,04:00,0:37:36.0
107,84,Craig,Green,37:50,03:59,0:37:26.6
108,125,Sarah,Jalim,37:50,03:59,0:37:26.6
109,1034,Garry,Marwood,38:00,03:57,0:37:07.8
110,8,Rik,McCaig,38:10,03:56,0:36:58.4
111,33,Andrew,Creer,38:10,03:56,0:36:58.4
112,1061,Tarli,Bird,38:20,03:55,0:36:49.0
113,88,Brian,Watson,38:30,03:54,0:36:39.6
114,48,Matthew,Heislers,38:40,03:53,0:36:30.2
115,62,Lee,McCullagh,38:40,03:53,0:36:30.2
116,1023,Matthew,Schepisi,38:50,03:52,0:36:20.8
117,42,Craig,Feuerherdt,39:20,03:49,0:35:52.6
118,219,Wil,McCaig,39:30,03:48,0:35:43.2
119,23,Michael,Bieleny,39:50,03:46,0:35:24.4
120,1022,Ben,Stolz,39:50,03:46,0:35:24.4
121,3739,Stephen,van Rees,41:20,03:36,0:33:50.4
122,1056,Kye,Jenkyn,41:30,03:35,0:33:41.0
123,3701,Nigel,Preston,42:10,03:31,0:33:03.4
124,86,Fraser,Walsh,44:00,03:19,0:31:10.6
125,27,Andrew,Buchanan,45:30,03:10,0:29:46.0
