1;2;0000-00-00;00:00:30.624;11573;178;-38;fc4993
2;100;0000-00-00;00:01:31.713;11573;122;-34;783a85
3;149;0000-00-00;00:09:11.546;11573;110;-37;3c1119
4;54;0000-00-00;00:10:52.059;11573;94;-40;958b96
5;AAAA-1025;0000-00-00;00:12:42.046;;112;-47;ef25d8
6;74;0000-00-00;00:13:41.003;11573;122;-37;9d2073
7;AAAA-1024;0000-00-00;00:14:42.533;;132;-44;b55263
8;578;0000-00-00;00:15:21.442;11573;254;-50;436186
9;AABM-3747;0000-00-00;00:15:21.443;;68;-43;ba493c
10;29;0000-00-00;00:15:33.389;11573;90;-46;1153d4
11;AACT-400;0000-00-00;00:16:21.695;;112;-44;d4c0cc
12;22;0000-00-00;00:16:31.974;11573;136;-40;a1ab97
13;55;0000-00-00;00:21:42.239;11573;107;-42;6f6745
14;AAAA-1003;0000-00-00;00:21:42.554;;58;-43;93b6b1
15;AABM-3730;0000-00-00;00:24:12.102;;52;-47;8bd8cf
16;94;0000-00-00;00:24:25.484;11573;103;-47;e6ee20
17;AAAA-1043;0000-00-00;00:24:41.978;;128;-48;09269c
18;AACT-308;0000-00-00;00:24:50.725;;80;-47;e8d85e
19;65;0000-00-00;00:25:00.824;11573;124;-38;6f7854
20;15;0000-00-00;00:25:21.591;11573;78;-37;194600
21;100;0000-00-00;01:00:25.892;11573;126;-34;f500cf
22;29;0000-00-00;01:02:53.732;11573;134;-45;9b099c
23;AAAA-1024;0000-00-00;01:03:17.032;;184;-43;76adff
24;AAAA-1043;0000-00-00;01:03:55.805;;74;-42;2f89b4
25;AACT-400;0000-00-00;01:03:58.694;;70;-44;0d47db
26;22;0000-00-00;01:04:11.443;11573;72;-44;e785c1
27;AABM-3730;0000-00-00;01:04:14.258;;50;-50;5a6540
28;AACT-308;0000-00-00;01:04:26.120;;84;-50;a92ecf
29;94;0000-00-00;01:04:30.223;11573;116;-44;03ea58
30;149;0000-00-00;01:04:50.351;11573;106;-32;2f83a9
31;AABM-3747;0000-00-00;01:05:07.348;;98;-48;8308d4
32;AAAA-1025;0000-00-00;01:05:19.660;;106;-46;63e5b3
33;2;0000-00-00;01:05:39.424;11573;100;-37;40da8c
34;54;0000-00-00;01:06:03.370;11573;90;-36;11db5f
35;15;0000-00-00;01:06:43.217;11573;80;-33;482812
36;74;0000-00-00;01:07:24.718;11573;100;-37;d64d85
37;65;0000-00-00;01:07:57.307;11573;108;-38;d77e10
38;578;0000-00-00;01:08:31.054;11573;254;-52;01fa5a
39;AAAA-1003;0000-00-00;01:08:45.602;;76;-43;70b27e
40;55;0000-00-00;01:09:44.665;11573;142;-37;f85fa8
