PLACE,FIRST,LAST,RACES,POINTS
1,Bradie,Sheldon,4,79
2,April,Wainwright,4,77
3,Milanke,Haasbroek,3,53
4,Sienna,Bayliss,4,48
5,Chase,Carter,3,45
6,Maison,Hooke,2,36
7,Kaden,Hooke,3,33
8,Ronny,Epps,2,32
9,Alice,McIntosh,2,29
10,Leo,Stoltz,3,26
11,Mitchell,Nurse,2,25
12,Bonnie,Scott,3,25
13,Sarah,Crowley,1,17
14,Alec,Bradshaw,2,17
15,Abby,Colt,1,17
16,Braxton,Safstrom,1,17
17,Ruby,Carter,1,15
18,Evie,Niblett,1,15
19,Anna,Scott,3,14
20,Will,Jackson Sloane,1,14
21,Eiliyah,Daneen,1,14
22,Sihanna,Carter,2,14
23,Ivie,Safstrom,1,12
24,Jimmy,Byrne,1,12
25,Sharon,Sheldon,3,12
26,Will,Kirkby,2,10
27,Patrick,Harris,1,10
28,Layla,Burn,2,10
29,Miriam,Niblett,1,10
30,Owen,Carney,1,9
31,Polly,Byrne,3,9
32,Alice,Griffin,1,8
33,Ellie,Beesley,1,8
34,Harry,Griffin,1,7
35,Angus,Carney,1,7
36,Zahli,Bayliss,4,7
37,Poppy,Wainwright,2,6
38,Kye,McCarthy,1,6
39,Grace,Chivers,2,5
40,Matilda,Compston,1,5
41,Tully,Cripps,1,4
42,Leo,Epps,2,4
43,Thomas,Lee,3,4
44,Samuel,Nurse,2,3
45,Rani,Sheldon,2,3
46,Zarwa,Daneen,3,2
47,Lily,Chivers,1,2
48,Tom,Roberts,4,2
49,Mohid,Zaman,3,1
50,Luella,Griffin,1,0
51,Eleanor,Stoltz,3,0
52,Julianna,Hicks,1,0
53,Lenny,Byrne,3,0
54,Grace,Carney,1,0
55,Hugo,Beesley,4,0
56,Kaitlyn,Smith,1,0
57,Otto,Gamble,1,0
58,Lachlan,Kirkby,1,0
59,Elke,Gamble,1,0
60,Penny,Gamble,2,0
61,Audrey,Bradshaw,2,0
62,Clementine,Field,1,0
