Pos,Name,time,Category (Pos),Gender (Pos),""
1,Jayson CARTER,00:21:58,All Ages(1),Male (1),""
2,Kane SAFSTROM,00:22:13,All Ages(2),Male (2),""
3,Kelvin NIBLETT,00:22:18,All Ages(3),Male (3),""
4,Ben MCDERMID,00:22:33,All Ages(4),Male (4),""
5,Ross DOUGLAS,00:25:08,All Ages(5),Male (5),""
6,Kevin DE VRIES,00:25:55,All Ages(6),Male (6),""
7,Vicki BAYLISS,00:26:04,All Ages(1),Female (1),""
8,Lyn SEBIRE,00:32:22,All Ages(2),Female (2),""
