place,first,last,net Time,diff
1,Ebony,Butcher,5:51,- 2:09
2,Connor,O'Farrell,4:49,- 1:17
3,Janine,Butcher,6:53,- 1:07
4,Liam,Carroll,5:47,+ 0:17
5,Tara,Carroll,4:59,- 0:31
6,Brayden,Roberts,4:30,- 0:30
7,Olivia,Houlden,4:46,- 0:04
8,Maddy,Sexton,4:47,- 0:13
9,Ava,Perez,4:48,- 0:02
10,Nellie,Rose,6:19,+ 0:01
11,James,Kealy,5:31,- 0:01
12,Imogen,Thompson,5:24,+ 0:07
13,Eloise,Arthur,7:39,+ 0:04
14,Floyd,Cartner,5:11,+ 0:08
15,Matthew,Gilligan,4:22,- 0:08
16,Tara,Anderson,7:13,+ 0:12
17,Bailey,Evans,3:34,+ 0:18
18,Blaze,Houlden,4:36,+ 0:14
19,Connor,Sexton,4:44,- 0:16
20,Ruby,Fletcher,6:56,+ 1:26
21,Stephanie,Roberts,4:27,+ 0:36
22,Kyle,Butcher,4:28,+ 0:28
23,Dylan,Evans,4:49,+ 0:34
24,Imogen,Douglass,6:25,+ 1:04
25,Sophie,Sheobridge,6:43,+ 1:43
26,Emma,Gilligan,6:23,+ 1:53