Place,First,Last,NET Time,Pace,Diff
1,Angus,Carney,0:05:25.6,05:26,-00:18.4
2,Emily,Harris,0:04:29.4,04:29,-00:01.6
3,Milanke,Haasbroek,0:04:21.6,04:22,-00:01.4
4,Lenny,Byrne,0:06:52.4,06:52,+00:09.4
5,Grace,Carney,0:06:10.5,06:10,+00:10.5
6,Sienna,Bayliss,0:04:56.6,04:57,+00:15.6
7,Harry,Griffin,0:05:19.0,05:19,+00:16.0
8,Evie,Niblett,0:05:00.4,05:00,+00:19.4
9,Owen,Carney,0:05:43.2,05:43,+00:22.2
10,Leo,Epps,0:06:22.3,06:22,+00:26.3
11,Leo,Stoltz,0:05:22.1,05:22,+00:27.1
12,Chase,Carter,0:04:53.7,04:54,+00:28.7
13,Jimmy,Byrne,0:05:04.1,05:04,+00:30.1
14,Ruby,Carter,0:05:07.9,05:08,+00:31.9
15,Luella,Griffin,0:08:02.2,08:02,+00:32.2
16,Alice,Griffin,0:05:50.4,05:50,+00:32.4
17,Bradie,Sheldon,0:04:13.0,04:13,+00:34.0
18,Polly,Byrne,0:05:46.0,05:46,+00:36.0
19,Sharon,Sheldon,0:06:38.7,06:39,+00:42.7
20,Hugo,Beesley,0:08:43.0,08:43,+00:55.0
21,Anna,Scott,0:06:35.2,06:35,+00:59.2
22,Karl,Stoltz,0:06:56.9,06:57,+01:01.9
23,Tully,Cripps,0:06:03.3,06:03,+01:03.3
24,Sihanna,Carter,0:06:18.5,06:18,+01:06.5
25,Eleanor,Stoltz,0:06:57.6,06:58,+01:15.6
NEW,Florence,Lapthorne,0:04:37.6,04:38
NEW,Louie,Lapthorne,0:04:45.2,04:45
NEW,Addison,Bickerdike,0:05:44.9,05:45
NEW,Matlida,Dolphin,0:06:52.2,06:52
NEW,Belinda,Dobbin,0:06:52.2,06:52
