PLACE,FIRST,LAST,RACES,POINTS
1,Mikayla,Kirkby,6,133
2,Emma,Colt,6,117
3,Steve,Harris,4,105
4,Callen,Bayliss,6,102
5,Vicki,Bayliss,6,101
6,Ebony,Beesley,5,91
7,Logan,Beesley,3,85
8,Lisa,Wilkinson,6,82
9,Milanke,Haasbroek,4,72
10,Emily,Harris,4,71
11,Abby,Colt,4,68
12,Chantal,Taylor,3,58
13,Mitch,Whitham,3,56
14,Amelia,Mitchell,4,56
15,James,Trew,5,55
16,Hamish,Draper,3,54
17,Lewis,Lonsdale,4,51
18,Abbey,Cartner,4,47
19,Aden,Thomsen,3,47
20,Jennifer,Lee,4,45
21,Millie,McIntosh,2,45
22,Michelle,Scott,5,45
23,Ruby,Carter,2,43
24,Sonya,Walker,4,41
25,Eryn,McManus,2,40
26,Karl,Stoltz,3,40
27,Belinda,Dobbin,1,40
28,Poppy,Wainwright,2,39
29,Mitch,Fitzgerald,3,39
30,Matthew,Bell,3,38
31,Harry,Scott,2,38
32,Eiliyah,Daneen,2,37
33,Dean,Trew,3,36
34,Genevieve,Draper,2,35
35,Naghmana,Tehseen,4,33
36,Bec,Beesley,5,32
37,Chloe,Beesley,2,32
38,Harry,Cripps,2,31
39,Erin,Bradshaw,2,31
40,Steven,Field,2,30
41,Amdeon,Haasbroek,4,28
42,Alison,Cartner,2,26
43,Leah,Cripps,2,26
44,Ashton ,Chivers,2,24
45,Matthew,Sheldon,2,24
46,Andrea,Smith,2,23
47,Mumtaz,Hussain,2,23
48,April,Wainwright,1,22
49,Braxton,Safstrom,1,22
50,Anne,McIntosh,2,20
51,Sarah,Crowley,1,20
52,Tanner,Fear,1,20
53,Jimmy,Byrne,1,19
54,Aida,Escall,1,18
55,Leonie,Chivers,2,18
56,Rebecca,Wilkinson,2,15
57,Phoebe,Lonsdale,1,15
58,Tully,Cripps,2,13
59,Kelvin,Niblett,4,13
60,Chase,Carter,1,12
61,Owen,Draper,3,9
62,Justin,Lee,1,8
63,Jon,McIntosh,1,8
64,Merridee,Griffin,2,8
65,Ronny,Epps,2,7
66,Bonnie,Scott,1,5
67,Lewis,McIntosh,1,3
68,Matilda,Compston,3,3
69,Anthony,Byrne,1,3
70,James,Bradshaw,1,2
71,Gavin,Fiedler,1,0
72,Andrew,Creer,1,0
73,Melissa,Douglas,1,0
74,Ben,McDermid,1,0
75,Renelle,McManus,1,0
76,Janet,Hodnett,1,0
77,Jarrod,Epps,1,0
78,Maison,Hooke,1,0
79,Anna,Scott,1,0
80,Patrick,Harris,1,0
81,Russell,Easton,1,0
82,Adam,Parker,1,0
83,Grace,Mulqueen,1,0
84,Elke,Gamble,1,0
85,Will,Jackson Sloane,1,0
86,Tom,Gamble,1,0
87,Clemence,Lavie,1,0
88,Oskar,Hall,1,0
89,Fleur,Jackson,1,0
90,Kai,Thomsen,1,0
91,Mel,Debnam-Smith,1,0
92,Jack,Milligan,1,0
93,Trent,Bayliss,1,0
94,Elijah,Willits,1,0
