PLACE,FIRST,LAST,RACES,POINTS
1,James,Trew,5,77
2,Callen,Bayliss,6,77
3,Ebony,Beesley,5,70
4,Emma,Colt,6,66
5,Matthew,Bell,3,60
6,Abbey,Cartner,4,58
7,Mitch,Whitham,3,58
8,Milanke,Haasbroek,4,58
9,Mitch,Fitzgerald,3,54
10,Aden,Thomsen,3,53
11,Vicki,Bayliss,6,53
12,Kelvin,Niblett,4,49
13,Steven,Field,2,36
14,Lisa,Wilkinson,6,32
15,Emily,Harris,4,31
16,Millie,McIntosh,2,23
17,Ronny,Epps,2,22
18,Erin,Bradshaw,2,22
19,Abby,Colt,4,22
20,Tanner,Fear,1,20
21,Andrew,Creer,1,19
22,Lewis,Lonsdale,4,19
23,Jack,Milligan,1,18
24,Karl,Stoltz,3,18
25,Phoebe,Lonsdale,1,17
26,April,Wainwright,1,17
27,Adam,Parker,1,17
28,Logan,Beesley,3,17
29,Lewis,McIntosh,1,16
30,Grace,Mulqueen,1,16
31,Andrea,Smith,2,15
32,Anne,McIntosh,2,14
33,Jarrod,Epps,1,14
34,Rebecca,Wilkinson,2,13
35,Elijah,Willits,1,13
36,Kai,Thomsen,1,12
37,Harry,Scott,2,10
38,Mikayla,Kirkby,6,10
39,Dean,Trew,3,7
40,Ruby,Carter,2,7
41,Matthew,Sheldon,2,5
42,Anthony,Byrne,1,5
43,Oskar,Hall,1,4
44,Braxton,Safstrom,1,4
45,Genevieve,Draper,2,3
46,Janet,Hodnett,1,2
47,Russell,Easton,1,2
48,Clemence,Lavie,1,2
49,Sarah,Crowley,1,1
50,Sonya,Walker,4,1
51,Chase,Carter,1,1
52,Gavin,Fiedler,1,0
53,Jennifer,Lee,4,0
54,Alison,Cartner,2,0
55,Melissa,Douglas,1,0
56,Aida,Escall,1,0
57,Harry,Cripps,2,0
58,Leah,Cripps,2,0
59,Justin,Lee,1,0
60,Ben,McDermid,1,0
61,Renelle,McManus,1,0
62,Poppy,Wainwright,2,0
63,Tully,Cripps,2,0
64,Jon,McIntosh,1,0
65,Merridee,Griffin,2,0
66,Leonie,Chivers,2,0
67,Ashton ,Chivers,2,0
68,Jimmy,Byrne,1,0
69,Maison,Hooke,1,0
70,Anna,Scott,1,0
71,Patrick,Harris,1,0
72,James,Bradshaw,1,0
73,Matilda,Compston,3,0
74,Amdeon,Haasbroek,4,0
75,Chantal,Taylor,3,0
76,Elke,Gamble,1,0
77,Will,Jackson Sloane,1,0
78,Tom,Gamble,1,0
79,Steve,Harris,4,0
80,Fleur,Jackson,1,0
81,Mumtaz,Hussain,2,0
82,Eiliyah,Daneen,2,0
83,Mel,Debnam-Smith,1,0
84,Bonnie,Scott,1,0
85,Naghmana,Tehseen,4,0
86,Michelle,Scott,5,0
87,Trent,Bayliss,1,0
88,Eryn,McManus,2,0
89,Bec,Beesley,5,0
90,Amelia,Mitchell,4,0
91,Chloe,Beesley,2,0
92,Belinda,Dobbin,1,0
93,Hamish,Draper,3,0
94,Owen,Draper,3,0
