PLACE,FIRST,LAST,RACES,POINTS
1,Bradie,Sheldon,6,119
2,April,Wainwright,5,96
3,Sienna,Bayliss,6,80
4,Milanke,Haasbroek,4,72
5,Chase,Carter,4,62
6,Leo,Stoltz,4,37
7,Maison,Hooke,2,36
8,Emily,Harris,2,36
9,Kaden,Hooke,3,33
10,Ronny,Epps,2,32
11,Alec,Bradshaw,3,31
12,Evie,Niblett,2,30
13,Alice,McIntosh,2,29
14,Ruby,Carter,2,28
15,Jimmy,Byrne,2,26
16,Polly,Byrne,5,26
17,Mitchell,Nurse,2,25
18,Patrick,Harris,2,25
19,Bonnie,Scott,3,25
20,Ellie,Beesley,2,21
21,Harry,Griffin,2,19
22,Owen,Carney,2,18
23,Kye,McCarthy,2,18
24,Sarah,Crowley,1,17
25,Erin,Bradshaw,1,17
26,Abby,Colt,1,17
27,Angus,Carney,2,17
28,Sharon,Sheldon,5,17
29,Braxton,Safstrom,1,17
30,Sihanna,Carter,3,17
31,Tully,Cripps,3,15
32,Anna,Scott,4,15
33,Alice,Griffin,2,14
34,Will,Jackson Sloane,1,14
35,Eiliyah,Daneen,1,14
36,Poppy,Wainwright,3,13
37,Tom,Roberts,5,13
38,Ivie,Safstrom,1,12
39,Will,Kirkby,2,10
40,Layla,Burn,2,10
41,Miriam,Niblett,1,10
42,Karl,Stoltz,2,9
43,Zahli,Bayliss,5,9
44,Eleanor,Stoltz,5,8
45,Matilda,Compston,2,8
46,Addison,Bickerdike,1,8
47,Leo,Epps,3,6
48,Grace,Chivers,2,5
49,Lenny,Byrne,5,4
50,Grace,Carney,2,4
51,Thomas,Lee,3,4
52,Samuel,Nurse,2,3
53,Rani,Sheldon,2,3
54,Zarwa,Daneen,4,2
55,Lily,Chivers,1,2
56,Mohid,Zaman,4,1
57,Clementine,Field,2,1
58,Luella,Griffin,2,0
59,Julianna,Hicks,1,0
60,Hugo,Beesley,6,0
61,Kaitlyn,Smith,1,0
62,Otto,Gamble,1,0
63,Lachlan,Kirkby,1,0
64,Elke,Gamble,1,0
65,Penny,Gamble,2,0
66,Audrey,Bradshaw,3,0
67,Matlida,Dolphin,1,0
68,Belinda,Dobbin,1,0
