PLACE, FIRST, LAST, TIME, PACE, CLUB
1,Merlin,Tzaros,0:10:33.5,03:27.7,HARRIERS
2,Tyler,Fynch,0:10:49.1,03:32.8,SOUTH BENDIGO
3,Abbey,Reid,0:11:24.0,03:44.3,UNI
4,Luke,Matthews,0:12:08.9,03:59.0,HARRIERS
5,Michael,Cinatl,0:12:58.8,04:15.3,HARRIERS
6,April,Wainwright,0:12:59.8,04:15.7,UNI
7,Abbey,Cartner,0:13:22.5,04:23.1,UNI
8,Ebony,Beesley,0:13:32.1,04:26.3,UNI
9,Clara,Fischer,0:14:02.7,04:36.3,OTHER
10,Lewis,Lonsdale,0:14:04.6,04:36.9,UNI
11,Callen,Bayliss,0:14:08.3,04:38.1,UNI
12,Milanke,Haasbroek,0:14:15.9,04:40.6,UNI
13,Emily,Harris,0:14:26.5,04:44.1,UNI
14,Emma,Colt,0:14:42.3,04:49.3,UNI
15,Isaiah,Oataway,0:14:47.2,04:50.9,UNI
16,Erin,Bradshaw,0:14:59.9,04:55.0,UNI
17,Corinne,Cinatl,0:15:07.2,04:57.4,HARRIERS
18,Vicki,Bayliss,0:15:18.8,05:01.2,UNI
19,Ashlie,Matthews,0:15:40.3,05:08.3,HARRIERS
20,Caitlin,Campbell,0:15:40.9,05:08.5,UNI
21,Chase,Carter,0:15:53.7,05:12.7,UNI
22,Mumtaz,Hussain,0:16:04.3,05:16.2,UNI
23,Oscar,Hall,0:16:04.4,05:16.2,OTHER
24,Alice,McIntosh,0:16:04.7,05:16.3,UNI
25,Geoff,Jordan,0:16:07.1,05:17.1,HARRIERS
26,Mikayla,Kirkby,0:16:31.8,05:25.2,UNI
27,Dylan,Marron,0:16:53.7,05:32.4,HARRIERS
28,Ruby,Carter,0:16:57.7,05:33.7,UNI
29,James,Bradshaw,0:17:00.1,05:34.5,UNI
30,Christie,Metherell,0:17:18.7,05:40.6,HARRIERS
31,Julie,Tzaros,0:17:36.6,05:46.4,HARRIERS
32,Fleur,Jackson,0:17:57.2,05:53.2,UNI
33,Bec,Beesley,0:18:21.2,06:01.0,UNI
34,Courtney,Campbell,0:18:38.8,06:06.8,SOUTH BENDIGO
35,Liezel,Haasbroek,0:18:39.6,06:07.1,UNI
36,Harry,Griffin,0:18:52.1,06:11.2,UNI
37,Merridee,Griffin,0:18:57.9,06:13.1,UNI
38,Stacey,MacDonald,0:19:19.0,06:20.0,HARRIERS
39,Eiliyah,Daneen,0:19:23.9,06:21.6,UNI
40,Bec,Gallagher,0:19:42.9,06:27.8,UNI
41,Leni,Gallagher,0:19:51.9,06:30.8,UNI
42,Hamish,Draper,0:20:37.3,06:45.7,UNI
43,Chantal,Taylor,0:23:22.6,07:39.9,UNI
44,Amelia,Mitchell,0:24:14.3,07:56.8,UNI
45,Amdeon,Haasbroek,0:26:35.6,08:43.1,UNI
46,John,Watson,0:27:43.7,09:05.5,HARRIERS
47,Xavier,Kerrigan,0:27:57.2,09:09.9,HARRIERS
48,Jessica,Kerrigan,0:27:57.2,09:09.9,HARRIERS
