PLACE, FIRST, LAST, TIME, PACE, CLUB
1,Abbey,Reid,0:11:24.0,03:44.3,UNI
2,April,Wainwright,0:12:59.8,04:15.7,UNI
3,Abbey,Cartner,0:13:22.5,04:23.1,UNI
4,Ebony,Beesley,0:13:32.1,04:26.3,UNI
5,Clara,Fischer,0:14:02.7,04:36.3,OTHER
6,Milanke,Haasbroek,0:14:15.9,04:40.6,UNI
7,Emily,Harris,0:14:26.5,04:44.1,UNI
8,Erin,Bradshaw,0:14:59.9,04:55.0,UNI
9,Corinne,Cinatl,0:15:07.2,04:57.4,HARRIERS
10,Vicki,Bayliss,0:15:18.8,05:01.2,UNI
11,Ashlie,Matthews,0:15:40.3,05:08.3,HARRIERS
12,Caitlin,Campbell,0:15:40.9,05:08.5,UNI
13,Alice,McIntosh,0:16:04.7,05:16.3,UNI
14,Mikayla,Kirkby,0:16:31.8,05:25.2,UNI
15,Ruby,Carter,0:16:57.7,05:33.7,UNI
16,Christie,Metherell,0:17:18.7,05:40.6,HARRIERS
17,Julie,Tzaros,0:17:36.6,05:46.4,HARRIERS
18,Fleur,Jackson,0:17:57.2,05:53.2,UNI
19,Bec,Beesley,0:18:21.2,06:01.0,UNI
20,Courtney,Campbell,0:18:38.8,06:06.8,SOUTH BENDIGO
21,Liezel,Haasbroek,0:18:39.6,06:07.1,UNI
22,Merridee,Griffin,0:18:57.9,06:13.1,UNI
23,Eiliyah,Daneen,0:19:23.9,06:21.6,UNI
24,Bec,Gallagher,0:19:42.9,06:27.8,UNI
25,Leni,Gallagher,0:19:51.9,06:30.8,UNI
26,Chantal,Taylor,0:23:22.6,07:39.9,UNI
27,Amelia,Mitchell,0:24:14.3,07:56.8,UNI
28,Jessica,Kerrigan,0:27:57.2,09:09.9,HARRIERS
