first,last,Time,Category place ,Overall Women 
Rhianna ,Wik-gamble ,01:46:00,1,2
Vicki,Bayliss,01:57:00,2,3
Justine,Babitsch,02:03:00,3,4
Samantha ,Burton ,02:08:00,4,5
Melissa,Debnam-Smith,02:31:00,5,9
