Place,Member,First,Last,Start,Pace,Est Time
1,842,Penny,Gamble,-1:20,08:37,0:08:37.0
2,837,Otto,Gamble,-1:20,08:36,0:08:36.0
3,493,Hugo,Beesley,00:10,07:52,0:07:52.0
4,832,Rani,Sheldon,00:50,07:14,0:07:14.0
5,1070,Thomas,Lee,00:50,07:09,0:07:09.0
6,496,Melanie,Lethbridge,00:50,07:07,0:07:07.0
7,415,Leo,Epps,01:10,06:53,0:06:53.0
8,426,Zarwa,Daneen,01:20,06:36,0:06:36.0
9,844,Sharon,Sheldon,01:20,06:36,0:06:36.0
10,811,Matilda,Compston,01:50,06:12,0:06:12.0
11,495,Kaitlyn,Smith,01:50,06:09,0:06:09.0
12,403,Ivie,Safstrom,02:00,06:02,0:06:02.0
13,405,Mohid,Zaman,02:00,06:00,0:06:00.0
14,473,James,Bradshaw,02:00,06:00,0:06:00.0
15,479,Grace,Carney,02:00,06:00,0:06:00.0
16,419,Will,Kirkby,02:00,05:58,0:05:58.0
17,434,Grant,Chivers,02:00,05:58,0:05:58.0
18,411,Alice,Griffin,02:10,05:51,0:05:51.0
19,815,Jack,Macmunn,02:10,05:50,0:05:50.0
20,390,Ruby,Douglas,02:10,05:49,0:05:49.0
21,820,Layla,Burn,02:10,05:48,0:05:48.0
22,821,Angus,Carney,02:20,05:44,0:05:44.0
23,470,Samuel,Nurse,02:20,05:43,0:05:43.0
24,413,Eleanor,Stoltz,02:20,05:42,0:05:42.0
25,437,Grace,Chivers,02:20,05:41,0:05:41.0
26,1014,Tom,Roberts,02:20,05:40,0:05:40.0
27,494,Kye,McCarthy,02:20,05:39,0:05:39.0
28,454,Anna,Scott,02:20,05:36,0:05:36.0
29,1097,Evie,Niblett,02:20,05:35,0:05:35.0
30,460,Miles,Clarke,02:30,05:31,0:05:31.0
31,478,Owen,Carney,02:30,05:31,0:05:31.0
32,1042,Savannah,Marwood,02:40,05:24,0:05:24.0
33,3789,Jack,Haythorpe,02:40,05:23,0:05:23.0
34,3790,Zahli,Bayliss,02:40,05:20,0:05:20.0
35,498,Alec,Bradshaw,02:40,05:18,0:05:18.0
36,816,Percy,Jones,02:50,05:13,0:05:13.0
37,1092,Sihanna,Carter,02:50,05:12,0:05:12.0
38,3767,Polly,Byrne,02:50,05:10,0:05:10.0
39,3751,Ellie,Beesley,02:50,05:09,0:05:09.0
40,209,Olivia,Douglas,02:50,05:07,0:05:07.0
41,3773,Eden,Haythorpe,02:50,05:06,0:05:06.0
42,1096,Miriam,Niblett,03:00,05:04,0:05:04.0
43,3705,Sienna,Bayliss,03:00,05:04,0:05:04.0
44,412,Harry,Griffin,03:00,05:03,0:05:03.0
45,246,Poppy,Wainwright,03:00,05:01,0:05:01.0
46,1046,Bonnie,Scott,03:00,05:01,0:05:01.0
47,250,Tully,Cripps,03:00,05:00,0:05:00.0
48,1082,Mikayla,Kirkby,03:00,05:00,0:05:00.0
49,50,Harry,Cripps,03:00,04:58,0:04:58.0
50,3762,Leo,Stoltz,03:00,04:55,0:04:55.0
51,3772,Lyra,Haythorpe,03:10,04:54,0:04:54.0
52,812,Jazmin,Marshall,03:10,04:51,0:04:51.0
53,1026,Eiliyah,Daneen,03:10,04:50,0:04:50.0
54,456,Patrick,Harris,03:10,04:48,0:04:48.0
55,354,Alice,McIntosh,03:10,04:47,0:04:47.0
56,440,Sophie,Pedrotti,03:20,04:40,0:04:40.0
57,808,Lottie,Macmunn,03:20,04:39,0:04:39.0
58,818,Lucy,Jones,03:20,04:37,0:04:37.0
59,455,Suzie,Pedrotti,03:20,04:36,0:04:36.0
60,1089,Ruby,Carter,03:20,04:36,0:04:36.0
61,402,Mitchell,Nurse,03:30,04:34,0:04:34.0
62,441,Jimmy,Byrne,03:30,04:34,0:04:34.0
63,827,Elise,Stoltz,03:30,04:34,0:04:34.0
64,414,Ronny,Epps,03:30,04:33,0:04:33.0
65,355,Millie,McIntosh,03:30,04:32,0:04:32.0
66,457,Emily,Harris,03:30,04:31,0:04:31.0
67,420,Sarah,Crowley,03:30,04:28,0:04:28.0
68,803,Emma,Colt,03:30,04:27,0:04:27.0
69,1090,Chase,Carter,03:40,04:25,0:04:25.0
70,835,Milanke,Haasbroek,03:40,04:24,0:04:24.0
71,3742,Jemma,Carter,03:40,04:23,0:04:23.0
72,804,Abby,Colt,03:40,04:20,0:04:20.0
73,1035,Braxton,Safstrom,03:40,04:20,0:04:20.0
74,450,Maison,Hooke,03:40,04:19,0:04:19.0
75,451,Julia,Starr,03:40,04:16,0:04:16.0
76,421,Alicia,Crowley,03:50,04:14,0:04:14.0
77,1077,Dean,Trew,03:50,04:11,0:04:11.0
78,266,Lewis,Lonsdale,04:00,04:01,0:04:01.0
79,459,Archie,Clarke,04:00,04:01,0:04:01.0
80,474,Erin,Bradshaw,04:00,04:01,0:04:01.0
81,1047,Harry,Scott,04:00,03:59,0:03:59.0
82,1080,Jayson,Carter,04:00,03:56,0:03:56.0
83,381,April,Wainwright,04:10,03:48,0:03:48.0
84,452,Noah,Pedrotti,04:10,03:47,0:03:47.0
85,805,Bradie,Sheldon,04:20,03:39,0:03:39.0
86,305,Jonty,McDermid,04:30,03:33,0:03:33.0
87,1029,James,Trew,04:30,03:26,0:03:26.0
