PLACE,FIRST,LAST,RACES,POINTS
1,Thomas,Lee,2,55
2,Hugo,Beesley,2,53
3,April,Wainwright,2,43
4,Leo,Epps,1,40
5,Bradie,Sheldon,2,36
6,Bonnie,Scott,2,36
7,Ivie,Safstrom,1,35
8,Will,Kirkby,2,35
9,Evie,Niblett,1,35
10,Sienna,Bayliss,2,34
11,Anna,Scott,2,32
12,Rani,Sheldon,2,30
13,Sharon,Sheldon,2,26
14,Sarah,Crowley,1,24
15,Ronny,Epps,1,23
16,Braxton,Safstrom,1,23
17,Maison,Hooke,1,22
18,Matilda,Compston,1,22
19,Tom,Roberts,2,21
20,Alec,Bradshaw,1,20
21,Zahli,Bayliss,2,20
22,Alice,McIntosh,1,19
23,Chase,Carter,1,19
24,Zarwa,Daneen,1,18
25,Sihanna,Carter,1,17
26,Miriam,Niblett,1,17
27,Eiliyah,Daneen,1,16
28,Grace,Chivers,1,15
29,Ellie,Beesley,1,15
30,Leo,Stoltz,1,14
31,Mohid,Zaman,1,12
32,Eleanor,Stoltz,1,8
33,Kaitlyn,Smith,1,7
34,Polly,Byrne,1,5
35,Lily,Chivers,1,0
36,Lenny,Byrne,1,0
37,Milanke,Haasbroek,1,0
38,Otto,Gamble,1,0
39,Lachlan,Kirkby,1,0
40,Penny,Gamble,1,0
41,Will,Jackson Sloane,1,0
42,Kaden,Hooke,1,0
43,Audrey,Bradshaw,1,0
