place,first,last,start,pace,est Time
1,Olivia,Kealy,00:00,7:0,28:00
2,Tiffany,McCullough,00:00,7:0,28:00
3,Moira,Coleman,00:00,7:0,28:00
4,Milla,Finch,00:00,7:0,28:00
5,Kevin,Wheatley,00:00,7:0,28:00
6,Kathryne,Charnas,00:50,6:47,27:08
7,Ruby,Fletcher,01:00,6:44,26:56
8,Serge,Finch,01:20,6:40,26:40
9,Ella,Fisher,01:20,6:39,26:36
10,Katie,Dean,01:40,6:35,26:20
11,Collette,Fletcher,01:50,6:32,26:08
12,Kath,O'Shea,02:00,6:30,26:00
13,Lucy,Terry,02:10,6:28,25:52
14,Fiona,Dangerfield,02:40,6:20,25:20
15,Lachlan,Walsh,03:00,6:15,25:00
16,Nellie,Rose,03:00,6:15,25:00
17,Layla,Day,03:20,6:10,24:40
18,William,Gleisner,03:20,6:10,24:40
19,Aoife,Cunningham,03:20,6:10,24:40
20,Murphy,Watson,03:20,6:10,24:40
21,Imogen,Douglass,03:20,6:10,24:40
22,Luke,Creer,03:40,6:5,24:20
23,David,Ashman,03:40,6:5,24:20
24,Eliza,O'Sullivan,04:00,6:0,24:00
25,Hamish,Walker,04:00,6:0,24:00
26,Tom,Colman,04:00,6:0,24:00
27,Oscar,Terry,04:00,6:0,24:00
28,Charlie,Lourie,04:10,5:58,23:52
29,Sophie,Shoebridge,04:10,5:57,23:48
30,Lulu,Hamond,04:20,5:55,23:40
31,Imogen,Thompson,04:20,5:54,23:36
32,Gretel,Douglas,04:30,5:53,23:32
33,Tara,Anderson,04:30,5:53,23:32
34,Rebecca,Ashman,04:40,5:50,23:20
35,Phoebe,Lonsdale,04:40,5:49,23:16
36,Kaidyn,Tucker,04:50,5:48,23:12
37,Amber,Lyons,05:00,5:45,23:00
38,Harry,Terry,05:00,5:45,23:00
39,Catelynd,Wheatley,05:00,5:45,23:00
40,Zac,Walsh,05:20,5:41,22:44
41,Tim,Creer,05:20,5:40,22:40
42,Belinda,O'Sullivan,05:20,5:40,22:40
43,Jayden,Padgham,05:20,5:40,22:40
44,Abbey,Saxon,05:20,5:40,22:40
45,Nicole,Kelly,05:20,5:39,22:36
46,Leila,Padgham,05:30,5:38,22:32
47,Henry,Cordell,05:30,5:37,22:28
48,Lachlan,Feuerherdt,05:40,5:35,22:20
49,Hanna,Crane,05:40,5:35,22:20
50,Danni,Padgham,05:50,5:33,22:12
51,Livinia,Douglass,05:50,5:32,22:08
52,Tracie,Gleisner,06:00,5:30,22:00
53,Lisa,Bortolotto,06:00,5:30,22:00
54,Amy,Sim,06:20,5:26,21:44
55,Megan,McDonald,06:30,5:23,21:32
56,Millie,Lourie,06:30,5:23,21:32
57,Ella,Finch,06:30,5:23,21:32
58,Riley,Tawton,06:30,5:22,21:28
59,James,Kealy,06:40,5:20,21:20
60,Darcy,Tucker,06:40,5:20,21:20
61,Jesse,Delves,06:40,5:20,21:20
62,Andrew,Dean,06:40,5:20,21:20
63,Matthew,Saxon,06:40,5:19,21:16
64,Peter,Thorpe,06:50,5:18,21:12
65,Morgan,Dunn,07:00,5:15,21:00
66,Michelle,Perry,07:00,5:15,21:00
67,Lewis,Fisher,07:00,5:15,21:00
68,Amy,Dean,07:20,5:11,20:44
69,Micheala,Meharry,07:20,5:10,20:40
70,Tom,Meharry,07:30,5:8,20:32
71,Jack,Bombardian,07:40,5:6,20:24
72,Greg,Christie,07:40,5:5,20:20
73,Emily,Heislers,07:40,5:5,20:20
74,Beatrice,Lonsdale,07:40,5:5,20:20
75,Ash,Bull,08:00,5:0,20:00
76,Murray,Cordell,08:00,5:0,20:00
77,Will,Crane,08:00,5:0,20:00
78,Sayyu,Hamond,08:00,5:0,20:00
79,Nicholas,Ashman,08:00,5:0,20:00
80,Bailey,Dunn,08:10,4:58,19:52
81,Samara,Finch,08:10,4:58,19:52
82,Luke,Stevens,08:20,4:55,19:40
83,Carissa,Brook,08:20,4:54,19:36
84,Bella,Livingston,08:30,4:52,19:28
85,Tullie,Rowe,08:40,4:50,19:20
86,Fraser,Lourie,08:40,4:50,19:20
87,Floyd,Cartner,08:40,4:49,19:16
88,Blaze,Houlden,09:10,4:42,18:48
89,Sebastian,Rowe,09:20,4:40,18:40
90,Miles,Livingston,09:40,4:35,18:20
91,Ross,Douglas,09:50,4:33,18:12
92,Henry,Bombardieri,10:00,4:30,18:00
93,Noah,Walsh,10:00,4:29,17:56
94,Matthew,Creer,10:10,4:28,17:52
95,David,Lonsdale,10:20,4:25,17:40
96,Shaina,Brook,10:20,4:24,17:36
97,John,Rose,10:40,4:20,17:20
98,Jack,Cripps,10:40,4:19,17:16
99,Bweku,Hamond,10:50,4:18,17:12
100,Leon,Hamond,11:00,4:16,17:04
101,Callum,Tucker,11:00,4:14,16:56
102,Riley,Walsh,11:00,4:14,16:56
103,Luke,Padgham,11:20,4:10,16:40
104,Maxwell,Pearse,11:40,4:5,16:20
105,Jim,Russell,12:20,3:55,15:40
106,Andrew,Creer,13:00,3:46,15:04
107,Matthew,Heislers,13:00,3:45,15:00
108,Fraser,Walsh,14:00,3:29,13:56