place,first,last,net Time,diff
1,Bailey,Evans,12:45,+ 0:45
2,Matisse,Perez,17:29,+ 0:44
3,Greg,Christie,15:41,+ 0:56
4,Steffany,Roberts,16:05,+ 2:14
5,Bronte,Walsh,18:22,+ 2:19
6,Ava,Perez,20:08,+ 2:23
7,Scott,Roberts,18:19,+ 4:46