place,first,last,start,pace,est Time
1,Eric,Aardvark,00:00,7:0,44:48
2,Pam,Holland,00:00,7:0,44:48
3,Ali,Musk,01:10,6:49,43:38
4,Julie,Hogan,04:10,6:21,40:38
5,Verity,Perez,04:50,6:15,40:00
6,Natalie,Watson,05:10,6:12,39:41
7,Marianne,Richardson,05:20,6:10,39:28
8,Catherine,Pethybridge,06:10,6:2,38:37
9,Kylie,Cheal,06:20,6:0,38:24
10,Alan,East,06:30,5:59,38:18
11,Jodie,Scoble,06:30,5:59,38:18
12,Joanne,Wetherhead,06:40,5:58,38:11
13,John,Taylor,07:30,5:49,37:14
14,Julia,Perez,07:30,5:50,37:20
15,John,Doering,07:50,5:46,36:54
16,Maree,Reid,08:00,5:45,36:48
17,Maree,Platt,09:00,5:35,35:44
18,Wayne,Forbes,10:00,5:26,34:46
19,Sheridan,Hail,10:00,5:27,34:53
20,Harry,Terry,10:00,5:26,34:46
21,Andrew,Boshcetti,10:10,5:25,34:40
22,Angela,Slattery,10:10,5:25,34:40
23,Noah,Walsh,10:10,5:24,34:34
24,Gabby,Walsh,10:40,5:20,34:08
25,Frances,Walsh,10:40,5:20,34:08
26,Shann,Anderson,11:00,5:17,33:49
27,Helen,WeeHee,11:10,5:16,33:42
28,Emma,Burke,11:10,5:16,33:42
29,Jackie,Tremayne,11:10,5:15,33:36
30,Nicole,Richardson,11:20,5:14,33:30
31,Brian,Brasher,11:30,5:12,33:17
32,Peter,Noble,11:30,5:12,33:17
33,Alison,McCullagh,11:40,5:11,33:10
34,Kevin,Perez,12:20,5:5,32:32
35,Penny,Spencer,12:30,5:3,32:19
36,Genevieve,Green,12:50,5:0,32:00
37,Jennifer,Lee,12:50,4:59,31:54
38,Scott,Roberts,12:50,5:0,32:00
39,Laura,Terry,12:50,4:59,31:54
40,Andrew,Evely,12:50,4:59,31:54
41,Janet,Hodnett,13:00,4:58,31:47
42,David,Perris,13:10,4:57,31:41
43,Shayne,Rushan,13:20,4:55,31:28
44,Brad,Russell,13:20,4:55,31:28
45,Justin,O'Brien,13:20,4:55,31:28
46,John,Brewin,13:30,4:53,31:15
47,Tina,McBain,13:30,4:54,31:22
48,Kim,Townrow,13:30,4:53,31:15
49,Matt,Constable,13:40,4:52,31:09
50,Liz,Foster,13:40,4:52,31:09
51,Scott,Padgham,13:50,4:51,31:02
52,Hayden,Brook,14:00,4:48,30:43
53,Brett,Houlden,14:20,4:45,30:24
54,Nick,Walsh,14:20,4:45,30:24
55,Conor,Cunningham,14:20,4:46,30:30
56,Maddy,Evely,14:20,4:46,30:30
57,Alison,Cartner,15:00,4:40,29:52
58,Roy,Preece,15:10,4:38,29:39
59,Maria,Slater,15:10,4:38,29:39
60,Steve,Corrie,15:20,4:36,29:26
61,Max,Pearse,15:20,4:37,29:33
62,Mark,Saxon,15:30,4:35,29:20
63,Justin,Lee,15:50,4:31,28:54
64,Emma,Moylan,16:00,4:30,28:48
65,Holly,Randall,16:00,4:30,28:48
66,Jenny,Buchanan,16:10,4:29,28:42
67,Owen,Davies,16:10,4:29,28:42
68,Gavin,Fiedler,16:10,4:28,28:35
69,David,Heislers,16:10,4:29,28:42
70,Gary,Crouch,16:20,4:27,28:29
71,Greg,McBain,16:20,4:27,28:29
72,Todd,Foster,16:30,4:25,28:16
73,John,McCullagh,16:30,4:25,28:16
74,Ingrid,Douglass,16:40,4:24,28:10
75,Alan,Buchanan,16:50,4:22,27:57
76,Ryan,Brook,17:00,4:21,27:50
77,Aaron,Anderson,17:10,4:19,27:38
78,Leon,Hamond,17:20,4:17,27:25
79,Michael,Hogan,17:20,4:18,27:31
80,Erica,Wilkinson,17:20,4:18,27:31
81,Steve,Brereton,17:40,4:15,27:12
82,Josh,Hunter,17:40,4:14,27:06
83,Georgie,Lanyon,17:40,4:15,27:12
84,Daniel,Vains,18:00,4:12,26:53
85,Scott,Alterater,18:00,4:11,26:46
86,Matthew,Heislers,18:10,4:9,26:34
87,Andrew,Creer,18:30,4:7,26:21
88,Chris,McCormack,18:30,4:7,26:21
89,Jeff,Pethybridge,18:40,4:5,26:08
90,Russell,Tremayne,18:40,4:5,26:08
91,Tracy,Wilson,19:10,4:0,25:36
92,Brock,Prime,19:10,4:0,25:36
93,Brian,Watson,19:20,3:59,25:30
94,Craig,Fuerherdt,19:30,3:57,25:17
95,Jim,Russell,19:30,3:57,25:17
96,Russell,Jenkins,19:40,3:55,25:04
97,Luke,Gregory,19:40,3:56,25:10
98,David,Tarrant,19:40,3:56,25:10
99,Rebecca,Tweed,19:40,3:56,25:10
100,Fraser,Walsh,19:40,3:55,25:04
101,Ben,McDermid,20:10,3:51,24:38
102,Jason,Fletcher,20:20,3:50,24:32
103,Jason,Sim,20:20,3:50,24:32
104,Troy,Cartner,20:20,3:49,24:26
105,Lee,McCullagh,20:30,3:48,24:19
106,Simon,Austin,20:40,3:47,24:13
107,Patrick,Kenny,20:40,3:46,24:06
108,Michael,Bieleny,21:30,3:39,23:22
109,Richard,Gleisner,23:00,3:24,21:46
110,Bryan,Keely,23:00,3:24,21:46
111,Andrew,Buchanan,23:50,3:16,20:54