PLACE, FIRST, LAST, TIME, PACE, CLUB
1,Trevor,Kelly,0:34:05.5,04:29.1,EAGLEHAWK
2,Kevin,Shanahan,0:38:12.5,05:01.6,EAGLEHAWK
3,James,Russell,0:38:20.7,05:02.7,UNI
4,Ricky,Ermel,0:39:10.1,05:09.2,HARRIERS
5,Hunter,Gill,0:39:59.1,05:15.7,HARRIERS
6,Richard,Marchingo,0:42:43.9,05:37.4,HARRIERS
7,Garnet,Rodda,0:54:13.8,07:08.1,HARRIERS
