PLACE, FIRST, LAST, TIME, PACE, CLUB
1,Suzie,Pedrotti,0:38:03.3,05:00.4,UNI
2,Janet,Hodnett,0:39:11.4,05:09.4,UNI
3,Belinda,Whelan,0:50:09.9,06:36.0,UNI
4,Nadene,Macdonald,0:50:09.9,06:36.0,HARRIERS
