place,first,last,net Time,diff
1,Jennifer,Jones,39:37,- 3:03
2,Leon,Hamond,34:25,- 2:07
3,John,Rose,34:08,- 1:52
4,Alan,East,49:17,- 1:47
5,Scott,Roberts,37:02,- 1:38
6,Josh,Hunter,32:44,- 1:40
7,Tracy,Wilson,34:27,- 1:33
8,Liz,Foster,38:08,- 1:36
9,David,Tarrant,31:10,- 1:30
10,Steve,Brereton,33:55,- 1:25
11,Jenny,Buchanan,35:27,- 1:13
12,Laura,Terry,40:28,- 1:08
13,Rebecca,Tweed,32:15,- 1:05
14,Todd,Foster,35:15,- 1:01
15,Gabby,Walsh,41:37,- 1:03
16,Scott,Padgham,37:59,- 0:49
17,Brian,Brasher,41:00,- 0:36
18,Ryan,Brooke,35:21,- 0:39
19,Brian,Watson,31:22,- 0:38
20,Michael,Hogan,34:24,- 0:32
21,Erica,Wilkinson,34:27,- 0:29
22,Sam,MacLeod,47:29,- 0:31
23,Craig,Fruerherdt,33:13,- 0:31
24,Michael,Bieleny,29:09,- 0:19
25,Justin,Lee,35:45,- 0:15
26,Luke,Gregory,31:32,- 0:12
27,David,Heislers,37:35,- 0:09
28,Harriet,Slater,39:57,- 0:03
29,Patrick,Kenny,30:08,- 0:00
30,Simon,Austin,30:42,+ 0:02
31,Ben,McDermid,32:22,+ 0:22
32,John,Doering,47:52,+ 0:32
33,Gary,Crouch,36:35,+ 0:35
34,Janet,Hodnett,41:16,+ 0:36
35,Julie,Hogan,53:47,+ 0:51
36,Nick,Walsh,36:54,+ 0:54
37,Brett,Houlden,37:23,+ 1:23
38,Lisa,Wilkinson,37:04,+ 1:20
39,Maria,Slater,37:35,+ 1:27
40,Brad,Russell,42:52,+ 1:32
41,Jason,Fletcher,31:45,+ 1:45