place,first,last,start,pace,est Time
1,Eric,Aardvark,00:00,7:0,48:18
2,Pam,Holland,00:00,7:0,48:18
3,Ali,Musk,01:20,6:49,47:02
4,Julie,Hogan,05:10,6:15,43:07
5,Verity,Perez,05:10,6:15,43:07
6,Natalie,Watson,05:30,6:12,42:47
7,Marianne,Richardson,05:50,6:10,42:33
8,Alan,East,06:10,6:7,42:12
9,John,Doering,06:50,6:1,41:31
10,Tracie,Gleisner,06:50,6:0,41:24
11,Michael,Turner,06:50,6:0,41:24
12,Catherine,Pethybridge,07:10,5:57,41:03
13,Jodie,Scoble,08:00,5:50,40:15
14,Joanne,Weatherhead,08:00,5:50,40:15
15,Julia,Perez,08:00,5:50,40:15
16,John,Taylor,08:10,5:49,40:08
17,Maree,Reid,09:00,5:42,39:20
18,Lisa,McDermid,09:00,5:42,39:20
19,Sheridan,Hail,10:40,5:27,37:36
20,Wayne,Forbes,10:50,5:26,37:29
21,Harry,Terry,10:50,5:26,37:29
22,Andrew,Boshcetti,11:00,5:25,37:23
23,Gabby,Walsh,11:00,5:25,37:23
24,Maree,Platt,11:10,5:23,37:09
25,Noah,Walsh,11:20,5:22,37:02
26,Frances,Walsh,11:20,5:21,36:55
27,Melissa,Douglass,11:30,5:20,36:48
28,Angela,Slattery,11:50,5:17,36:27
29,Shann,Anderson,12:00,5:16,36:20
30,Helen,WeeHee,12:00,5:16,36:20
31,Emma,Burke,12:10,5:14,36:07
32,Brian,Brasher,12:30,5:12,35:53
33,Alison,McCullagh,12:30,5:12,35:53
34,Peter,Noble,12:30,5:12,35:53
35,Stacy,Hunter,12:30,5:11,35:46
36,Nicole,Richardson,12:30,5:12,35:53
37,Kylie,Cheal,12:50,5:9,35:32
38,John,Brewin,13:10,5:5,35:05
39,Kevin,Perez,13:10,5:5,35:05
40,Jackie,Tremayne,13:30,5:3,34:51
41,Scott,Roberts,13:50,5:0,34:30
42,Laura,Terry,13:50,5:0,34:30
43,Andrew,Evely,13:50,4:59,34:23
44,Penny,Spencer,13:50,5:0,34:30
45,Brad,Russell,14:00,4:58,34:16
46,Sam,Brewin,14:00,4:58,34:16
47,David,Perris,14:10,4:57,34:09
48,Genevieve,Green,14:20,4:55,33:56
49,Matt,Constable,14:40,4:52,33:35
50,Liz,Foster,14:40,4:52,33:35
51,Jennifer,Lee,14:40,4:53,33:42
52,Kim,Townrow,14:40,4:53,33:42
53,Scott,Padgham,14:50,4:51,33:28
54,Janet,Hodnett,15:00,4:50,33:21
55,Tina,McBain,15:00,4:49,33:14
56,Hayden,Brook,15:10,4:48,33:07
57,Shayne,Rushan,15:10,4:48,33:07
58,Conor,Cunningham,15:20,4:46,32:53
59,Laura,Reynolds,15:20,4:47,33:00
60,Nick,Walsh,15:30,4:45,32:46
61,Dan,Holland,15:30,4:45,32:46
62,Justin,O'Brien,15:30,4:45,32:46
63,Alison,Cartner,15:50,4:42,32:26
64,Justin,Lee,16:10,4:40,32:12
65,Roy,Preece,16:20,4:38,31:58
66,Maria,Slater,16:20,4:38,31:58
67,Jenny,Buchanan,16:30,4:36,31:44
68,Steve,Corrie,16:30,4:36,31:44
69,Mark,Saxon,16:40,4:35,31:37
70,Maddy,Evely,16:40,4:35,31:37
71,Holly,Randall,17:00,4:32,31:17
72,Gary,Crouch,17:10,4:31,31:10
73,Owen,Davies,17:20,4:30,31:03
74,Ingrid,Douglass,17:20,4:30,31:03
75,David,Heislers,17:20,4:30,31:03
76,Brett,Houlden,17:20,4:29,30:56
77,Emma,Moylan,17:20,4:30,31:03
78,Greg,McBain,17:30,4:28,30:49
79,Todd,Foster,17:50,4:25,30:29
80,John,McCullagh,18:20,4:20,29:54
81,Erica,Wilkinson,18:20,4:20,29:54
82,Ryan,Brook,18:30,4:19,29:47
83,Michael,Hogan,18:30,4:19,29:47
84,Alan,Buchanan,18:40,4:18,29:40
85,Gavin,Fiedler,18:40,4:18,29:40
86,Georgie,Lanyon,18:40,4:18,29:40
87,Aaron,Anderson,19:00,4:15,29:20
88,Steve,Brereton,19:00,4:15,29:20
89,Leon,Hamond,19:00,4:15,29:20
90,Max,Pearse,19:00,4:15,29:20
91,Josh,Hunter,19:10,4:14,29:13
92,Chris,McCormack,19:10,4:13,29:06
93,Michael,Gibbon,19:10,4:14,29:13
94,Daniel,Vains,19:20,4:12,28:59
95,Russell,Tremayne,19:30,4:10,28:45
96,Scott,Alterater,19:30,4:11,28:52
97,Matthew,Heislers,19:40,4:9,28:38
98,Jeff,Pethybridge,19:50,4:7,28:24
99,Tracy,Wilson,20:10,4:4,28:04
100,Brock,Prime,20:40,4:0,27:36
101,Charles,Chambers,20:40,4:0,27:36
102,Andrew,Creer,20:50,3:59,27:29
103,Brian,Watson,20:50,3:59,27:29
104,Craig,Feuerherdt,21:00,3:58,27:22
105,Jim,Russell,21:00,3:57,27:15
106,Luke,Gregory,21:10,3:56,27:08
107,David,Tarrant,21:10,3:56,27:08
108,Rebecca,Tweed,21:10,3:56,27:08
109,Russell,Jenkins,21:40,3:52,26:41
110,Ben,McDermid,21:40,3:51,26:34
111,Jason,Sim,21:50,3:50,26:27
112,Jason,Fletcher,22:00,3:48,26:13
113,Lee,McCullagh,22:00,3:48,26:13
114,Troy,Cartner,22:00,3:49,26:20
115,Patrick,Kenny,22:20,3:46,25:59
116,Simon,Austin,22:30,3:45,25:52
117,Michael,Bieleny,22:50,3:41,25:25
118,Fraser,Walsh,24:10,3:30,24:09
119,Richard,Gleisner,24:30,3:27,23:48
120,Bryan,Keely,24:40,3:25,23:34
121,Andrew,Buchanan,25:00,3:22,23:14