place,first,last,net Time,diff
1,Amelia,Charnas,06:57,- 0:23
2,Dylan,Sim,05:42,- 0:22
3,Avery,McDermid,05:23,- 0:15
4,Aoife,Cunningham,05:45,- 0:03
5,Billy,Meade,04:29,- 0:02
6,Luke,Feuerherdt,04:52,- 0:03
7,William,Robinson,05:11,- 0:04
8,Jesse,Delves,04:02,- 0:03
9,Toby,McCaig,04:13,- 0:00
10,Floyd,Cartner,04:04,+ 0:02
11,Josh,Smith,04:24,+ 0:06
12,Lachlan,Feuerherdt,04:45,+ 0:15
13,Abbey,Cartner,04:56,+ 0:20
14,Lucy,McCaig,05:07,+ 0:12
15,Finn,Cunningham,06:34,+ 0:08
16,Olivia,Douglas,06:35,+ 0:11
17,Will,Smith,06:13,+ 0:18
18,Lacey,Wilkie,06:24,+ 0:46
19,Joshua,Feuerherdt,08:59,+ 3:07