member,first,last,start,pace,est Time
244,Jaron,Ekanayake,0:00,8:0,8:00
204,Kane,Charnas,0:40,7:20,7:20
295,Lily,Rowan,0:40,7:17,7:17
290,Amber,Anderson,1:00,7:0,7:00
205,Amelia,Charnas,1:00,6:59,6:59
242,Amber,Kelly,1:10,6:53,6:53
220,Ella,Meharry,1:30,6:31,6:31
209,Olivia,Douglas,1:30,6:30,6:30
281,Will,deVries,1:30,6:30,6:30
234,Finn,Cunningham,1:40,6:25,6:25
211,Jesse,Brook,1:40,6:22,6:22
207,Lewis,Kallour,1:40,6:20,6:20
264,Katelyn,Kelly,1:40,6:18,6:18
271,Will,Smith,1:50,6:15,6:15
216,Ava,Terry,1:50,6:10,6:10
282,Anna,deVries,1:50,6:8,6:08
288,Jazz,Bieleny,2:00,6:1,6:01
292,Jye,Ekanayake,2:10,5:55,5:55
36,Emily,Christie,2:10,5:48,5:48
235,Aoife,Cunningham,2:10,5:48,5:48
278,Maggie,Morisson,2:20,5:43,5:43
276,Joshua,Feuerherdt,2:20,5:41,5:41
245,Lacey,Wilkie,2:20,5:40,5:40
239,Paula,A'Beckett,2:20,5:38,5:38
255,Dylan,Sim,2:20,5:38,5:38
223,Jack,Meharry,2:30,5:31,5:31
279,Lucy,McCaig,2:30,5:30,5:30
280,Paige,a'Beckett,2:30,5:29,5:29
232,Jack,Gleisner,2:30,5:28,5:28
99,Oscar,Terry,2:40,5:25,5:25
274,Avery,McDermid,2:40,5:22,5:22
265,Joshua,Kelly,2:40,5:19,5:19
229,Harrison,Pitson,2:40,5:17,5:17
261,Charlotte,Crane,2:40,5:16,5:16
195,Luke,Creer,2:50,5:15,5:15
249,Will,Gleisner,2:50,5:11,5:11
283,Lily,Sanderson,2:50,5:8,5:08
243,Jack,Kelly,3:00,5:5,5:05
254,William,Robinson,3:10,4:54,4:54
300,Lucinda,Terry,3:10,4:53,4:53
191,Phoebe,Lonsdale,3:10,4:50,4:50
269,Cooper,Charnas,3:10,4:50,4:50
272,Abbey,Cartner,3:10,4:49,4:49
171,Oliver,Sanderson,3:10,4:46,4:46
277,Luke,Feuerherdt,3:10,4:46,4:46
291,Sarah,Wilkes,3:20,4:45,4:45
189,Tim,Creer,3:20,4:44,4:44
215,Emerson,Sim,3:20,4:43,4:43
266,Lewis,Lonsdale,3:20,4:42,4:42
147,Lachlan,Feuerherdt,3:20,4:37,4:37
238,Alex,Parry,3:20,4:36,4:36
139,Leila,Padgham,3:30,4:35,4:35
267,Kayla,McManus,3:30,4:34,4:34
273,Harrison,Kelly,3:30,4:33,4:33
221,Billy,Meade,3:30,4:26,4:26
289,Josh,Smith,3:40,4:18,4:18
105,Toby,McCaig,3:50,4:10,4:10
169,Floyd,Cartner,4:00,4:5,4:05
176,Kaidyn,Tucker,4:00,4:5,4:05
256,Jesse,Delves,4:00,4:2,4:02
19,Troy,Cartner,4:00,4:0,4:00