Place,First,Last,NET Time,Pace,Diff
1,Lyra,Haythorpe,0:06:08.1,06:08,-00:22.9
2,Luke,Collins,0:06:14.7,06:15,-00:19.3
3,Tanae,Bull,0:06:05.0,06:05,-00:07.0
4,Jayson,Carter,0:03:35.9,03:36,-00:03.1
5,Leo,Stoltz,0:06:05.4,06:05,-00:01.6
6,Ruby,Carter,0:05:34.5,05:34,-00:00.5
7,Savannah,Marwood,0:05:23.3,05:23,+00:02.3
8,Sihanna,Carter,0:05:41.3,05:41,+00:02.3
9,Max,Rowe,0:03:36.2,03:36,+00:05.2
10,Xavier,Marwood,0:04:32.9,04:33,+00:05.9
11,Harry,Scott,0:04:42.6,04:43,+00:07.6
12,Jonty,McDermid,0:04:31.6,04:32,+00:10.6
13,Genevieve,Robinson,0:05:38.4,05:38,+00:12.4
14,Mason,Woodward,0:03:47.8,03:48,+00:13.8
15,Eryn,McManus,0:04:45.1,04:45,+00:14.1
16,Avery,McDermid,0:04:05.6,04:06,+00:16.6
17,Ronny,Epps,0:06:57.1,06:57,+00:17.1
18,Ruby,Douglas,0:06:17.2,06:17,+00:17.2
19,Eiliyah,Daneen,0:05:15.3,05:15,+00:17.3
20,Lewis,Lonsdale,0:04:07.4,04:07,+00:17.4
21,Isaac,Farr,0:05:31.2,05:31,+00:18.2
22,Braxton,Safstrom,0:05:07.2,05:07,+00:19.2
23,Tom,Roberts,0:06:04.3,06:04,+00:20.3
24,Nathan,Dunn,0:05:33.7,05:34,+00:22.7
25,Chase,Carter,0:06:44.9,06:45,+00:22.9
26,William,Trew,0:04:07.0,04:07,+00:24.0
27,Ebony,Woodward,0:04:42.9,04:43,+00:27.9
28,Polly,Byrne,0:06:56.9,06:57,+00:32.9
29,William,Robinson,0:04:50.0,04:50,+00:38.0
30,Geoffrey,Robinson,0:05:36.2,05:36,+00:38.2
31,Bonnie,Scott,0:06:40.8,06:41,+00:38.8
32,Mikayla,Kirkby,0:07:11.7,07:12,+00:43.7
33,Skylar,Woodward,0:06:03.3,06:03,+01:03.3
34,Eden,Haythorpe,0:08:11.4,08:11,+01:14.4
35,Jack,Haythorpe,0:11:08.0,11:08,+03:09.0
NEW,Noah,Willits,0:04:20.3,04:20
