first,last,start,pace,est Time
Eric,Aardvark,00:00,7:30,22:30
Imogen,Douglass,01:30,7:0,21:00
Imogen,Thompson,01:30,7:0,21:00
Bridget,Houlden,02:20,6:42,20:06
Joanne,Weatherhead,02:40,6:38,19:54
Bryn,McCormack,02:50,6:32,19:36
Ava,Perez,03:30,6:19,18:57
Morgan,Dunn,04:20,6:4,18:12
Isabella,Douglass,04:50,5:55,17:45
Bridie,Pearce,05:10,5:48,17:24
Sophie,Rohde,05:10,5:47,17:21
Marnie,Neilson,05:30,5:39,16:57
Houston,Pearse,05:40,5:37,16:51
Helen,Sexton,05:40,5:38,16:54
Lilly,Cahill,05:50,5:32,16:36
Julian,Perez,05:50,5:35,16:45
Jeremy,Pearson,06:00,5:30,16:30
Bronte,Walsh,06:20,5:22,16:06
Laura,Terry,06:40,5:18,15:54
Alister,Brasher,06:40,5:18,15:54
Shann,Anderson,06:50,5:15,15:45
Joseph,Baldwin,06:50,5:12,15:36
Greg,Christie,07:00,5:9,15:27
Scott,Roberts,07:00,5:10,15:30
Jessey,Wilson,07:00,5:9,15:27
Riley,Walsh,07:10,5:7,15:21
David,Lonsdale,07:20,5:4,15:12
Steffany,Roberts,07:30,4:59,14:57
Ellie,Wilson,07:40,4:57,14:51
Genevieve,Green,07:50,4:54,14:42
Liam,Clarke,07:50,4:52,14:36
Blaze,Houlden,08:00,4:49,14:27
Noah,Walsh,08:10,4:47,14:21
Tanya,Higgs,08:20,4:44,14:12
Matisse,Perez,08:30,4:41,14:03
Jack,Cripps,08:50,4:32,13:36
Nick,Neilson,09:10,4:27,13:21
Will,Hogan,09:40,4:16,12:48
Gervase,Birt,09:50,4:15,12:45
Max,Pearse,10:10,4:8,12:24
Bailey,Evans,10:20,4:2,12:06
John,Rose,10:20,4:5,12:15
Matthew,Heislers,10:30,4:1,12:03
Tom,Houlden,10:50,3:53,11:39
Madeleine,Evely,11:00,3:50,11:30
Ben,Connor,11:30,3:39,10:57
Nick,Moloney,11:30,3:41,11:03