PLACE,FIRST,LAST,RACES,POINTS
1,Matthew,Bell,1,20
2,Andrew,Creer,1,19
3,Jack,Milligan,1,18
4,Adam,Parker,1,17
5,Milanke,Haasbroek,1,16
6,Emma,Colt,1,15
7,Callen,Bayliss,1,14
8,Abbey,Cartner,1,13
9,Ebony,Beesley,1,12
10,Lewis,Lonsdale,1,11
11,Harry,Scott,1,10
12,Emily,Harris,1,9
13,Abby,Colt,1,8
14,Andrea,Smith,1,7
15,Vicki,Bayliss,1,6
16,Lisa,Wilkinson,1,5
17,Braxton,Safstrom,1,4
18,Ruby,Carter,1,3
19,Mikayla,Kirkby,1,2
20,Logan,Beesley,1,1
21,Jennifer,Lee,1,0
22,Harry,Cripps,1,0
23,Leah,Cripps,1,0
24,Justin,Lee,1,0
25,Poppy,Wainwright,1,0
26,Tully,Cripps,1,0
27,Patrick,Harris,1,0
28,Amdeon,Haasbroek,1,0
29,Elke,Gamble,1,0
30,Tom,Gamble,1,0
31,Steven,Harris,1,0
32,Mumtaz,Hussain,1,0
33,Naghmana,Tehseen,1,0
34,Michelle,Scott,1,0
35,Eryn,McManus,1,0
36,Bec,Beesley,1,0
37,Amelia,Mitchell,1,0
38,Chloe,Beesley,1,0
39,Hamish,Draper,1,0
40,Owen,Draper,1,0
