place,first,last,net Time,diff
1,Adam,Fleming,10:23,0:14
2,Max,Rowe,15:18,0:18
3,Liz,Stewart,21:08,0:20
4,Bridie,Blake-Burrows,12:29,0:17
5,Matthew,Saxon,14:17,0:32
6,Andrea,Smith,17:03,0:39
7,Sam,Hancock,17:26,0:47
8,Avery,McDermid,17:00,0:54
9,Jack,Meade,12:36,1:00
10,Megan,McDonald,17:47,1:02
11,Tracie,Gleisner,16:08,0:59
12,Toby,McCaig,14:17,1:12
13,Carrisa,Brook,14:45,1:15
14,Sam,Pitson,17:58,1:28
15,Tullie,Rowe,13:42,1:27
16,Harrison,Pitson,19:43,1:37
17,Wil,McCaig,13:15,1:42
18,Josephine,Robinson,21:35,1:56
19,Jane,McCaig,18:06,1:51
20,Luke,Creer,18:20,2:20
21,Lou,Bray,22:47,6:38
New,Max,Bray,16:45,
New,Luke,Padgham,10:52,
New,Kate,Macintosh,18:00,
New,Declan,Lavery,17:38,
New,Jayden,Padgham,14:35,
New,Josie,Aitken,14:17,
New,Alexander,Evans,11:46,
New,Fin,Bray,24:35:00,