Place,Member,First,Last,Start,Pace,Est Time
1,64,Lisa,McDermid,00:00,07:00,0:35:00.0
2,173,Melanie,Cuzzillo,00:30,06:54,0:34:30.0
3,2,Alan,East,00:50,06:50,0:34:10.0
4,145,Joshua,Condon,02:30,06:30,0:32:30.0
5,69,Jarrah,O'Shea,03:00,06:23,0:31:55.0
6,21,Michelle,Bieleny,03:20,06:21,0:31:45.0
7,233,Sue,Condon,03:40,06:15,0:31:15.0
8,66,Megan,McDonald,04:20,06:08,0:30:40.0
9,196,Kathryne,Charnas,04:30,06:06,0:30:30.0
10,100,Justine,Rowe,04:40,06:05,0:30:25.0
11,37,John,Doering,04:50,06:02,0:30:10.0
12,329,Jolie,Middleton,05:00,05:59,0:29:55.0
13,149,Janelle,Giffin,05:20,05:57,0:29:45.0
14,40,Aida,Escall,05:20,05:55,0:29:35.0
15,56,Stacey,Lonsdale,06:00,05:48,0:29:00.0
16,98,Tanya,Fleming,06:20,05:45,0:28:45.0
17,11,Jane,McCaig,06:40,05:41,0:28:25.0
18,72,Catherine,Pethybridge,06:40,05:40,0:28:20.0
19,197,Sue,Taylor,07:00,05:37,0:28:05.0
20,87,Frances,Walsh,07:10,05:34,0:27:50.0
21,237,Lou,Bray,07:10,05:34,0:27:50.0
22,16,Jennifer,Lee,07:20,05:33,0:27:45.0
23,111,Troy,Davis,07:20,05:33,0:27:45.0
24,194,Melanie,Woods,07:20,05:32,0:27:40.0
25,89,Natalie,Watson,07:20,05:31,0:27:35.0
26,199,Shann,Anderson,07:20,05:31,0:27:35.0
27,77,Brad,Russell,07:30,05:30,0:27:30.0
28,123,Harry,Terry,07:40,05:27,0:27:15.0
29,127,Alison,McCullagh,07:50,05:26,0:27:10.0
30,186,Jason,Anderton,07:50,05:26,0:27:10.0
31,57,Adam,Henderson,08:00,05:25,0:27:05.0
32,103,Jaqueline,Kelly,08:00,05:25,0:27:05.0
33,54,Kevin,deVries,08:20,05:20,0:26:40.0
34,130,David,Pitson,08:20,05:20,0:26:40.0
35,268,Kirrily,Hall,08:30,05:18,0:26:30.0
36,52,Leah,Cripps,08:40,05:17,0:26:25.0
37,68,Justin,O'Brien,08:40,05:17,0:26:25.0
38,181,Rob,Redmond,08:40,05:17,0:26:25.0
39,76,Cara,Smith,08:40,05:15,0:26:15.0
40,81,Laura,Terry,08:40,05:15,0:26:15.0
41,74,Maree,Platt,09:00,05:13,0:26:05.0
42,132,Tracie,Gleisner,09:00,05:13,0:26:05.0
43,20,John,McCullagh,09:00,05:12,0:26:00.0
44,91,Melissa,Wilkie,09:20,05:09,0:25:45.0
45,183,Janet,Hodnet,09:20,05:09,0:25:45.0
46,180,Lauren,Hancock,09:20,05:07,0:25:35.0
47,4,Gary,Crouch,09:40,05:05,0:25:25.0
48,59,Tina,McBain,09:40,05:05,0:25:25.0
49,104,Jodie,Scoble,09:40,05:05,0:25:25.0
50,217,Freya,Berenyl,09:50,05:02,0:25:10.0
51,6,Shayne,Rushan,10:00,05:01,0:25:05.0
52,47,Genevieve,Green,10:00,05:01,0:25:05.0
53,35,Conor,Cunningham,10:00,05:00,0:25:00.0
54,67,Leeza,Meharry,10:00,05:00,0:25:00.0
55,113,Sam,Walker,10:00,05:00,0:25:00.0
56,45,Helen,Kavanagh,10:00,04:59,0:24:55.0
57,251,Beth,Lavery,10:10,04:58,0:24:50.0
58,162,Natalie,Jacobson,10:20,04:56,0:24:40.0
59,5,Jenny,Buchanan,10:20,04:55,0:24:35.0
60,41,Maddy,Evely,10:20,04:55,0:24:35.0
61,161,Amelia,Evans,10:30,04:54,0:24:30.0
62,12,Josie,Aitken,10:40,04:52,0:24:20.0
63,296,Ashlee,Diston,10:50,04:50,0:24:10.0
64,22,Ross,Douglas,11:00,04:48,0:24:00.0
65,39,Melissa,Douglas,11:00,04:47,0:23:55.0
66,107,Hayden,Brook,11:00,04:47,0:23:55.0
67,124,Darren,Burgess,11:10,04:46,0:23:50.0
68,307,Philip,Shambrook,11:20,04:45,0:23:45.0
69,236,Harry,Seaward,11:20,04:44,0:23:40.0
70,29,Alison,Cartner,11:20,04:43,0:23:35.0
71,108,Eric,Hocking,11:20,04:43,0:23:35.0
72,165,Jake,Power,11:40,04:41,0:23:25.0
73,31,Charles,Chambers,11:40,04:40,0:23:20.0
74,116,Roy,Preece,11:40,04:40,0:23:20.0
75,9,Trinity,Sanderson,11:40,04:39,0:23:15.0
76,38,Cameron,Turnbull,12:00,04:36,0:23:00.0
77,65,Ben,McDermid,12:00,04:35,0:22:55.0
78,90,Rory,Weightman,12:00,04:35,0:22:55.0
79,126,Tom,Russell,12:00,04:35,0:22:55.0
80,93,Erica,Wilkinson,12:20,04:33,0:22:45.0
81,13,Gavin,Fiedler,12:20,04:32,0:22:40.0
82,78,Mark,Saxon,12:20,04:31,0:22:35.0
83,18,Georgie,Lanyon,12:30,04:30,0:22:30.0
84,14,Lisa,Wilkinson,12:40,04:29,0:22:25.0
85,117,Ingrid,Douglass,12:40,04:29,0:22:25.0
86,129,Ben,McBain,12:40,04:29,0:22:25.0
87,26,Ryan,Brook,12:40,04:28,0:22:20.0
88,34,Matthew,Creer,12:40,04:28,0:22:20.0
89,80,Bridie,Blake-Burrows,12:40,04:28,0:22:20.0
90,231,Paul,Seaward,12:40,04:28,0:22:20.0
91,299,Jay,Sanderson,12:40,04:28,0:22:20.0
92,3,Alan,Buchanan,13:00,04:25,0:22:05.0
93,70,Els,Viester,13:00,04:25,0:22:05.0
94,55,Justin,Lee,13:00,04:24,0:22:00.0
95,109,Tim,Lovell,13:00,04:24,0:22:00.0
96,287,Michael,Gillies Smith,13:00,04:24,0:22:00.0
97,49,David,Heislers,13:00,04:23,0:21:55.0
98,60,Greg,McBain,13:20,04:21,0:21:45.0
99,10,Lee,Bray,13:20,04:20,0:21:40.0
100,96,Steve,Brereton,13:20,04:19,0:21:35.0
101,75,David,Sebastian,13:40,04:17,0:21:25.0
102,15,Rebecca,Wilkinson,13:50,04:14,0:21:10.0
103,85,Joanne,Russell,14:00,04:12,0:21:00.0
104,125,Sarah,Jalim,14:00,04:12,0:21:00.0
105,163,Shai,O'Brien,14:00,04:12,0:21:00.0
106,94,David,Lonsdale,14:00,04:11,0:20:55.0
107,143,Maxine,Paholek,14:00,04:11,0:20:55.0
108,317,John,Flood,14:00,04:11,0:20:55.0
109,137,Anton,Paholek,14:20,04:08,0:20:40.0
110,71,Max,Pearse,14:40,04:05,0:20:25.0
111,92,Tracey,Wilson,14:40,04:05,0:20:25.0
112,61,Chris,McCormack,14:40,04:04,0:20:20.0
113,122,Stewart,Scoble,14:50,04:02,0:20:10.0
114,102,Simon,Austin,15:00,04:00,0:20:00.0
115,73,Jeff,Pethybridge,15:00,03:59,0:19:55.0
116,95,Jason,Sim,15:00,03:59,0:19:55.0
117,63,John,Robinson,15:20,03:57,0:19:45.0
118,118,Tim,Lauder,15:20,03:55,0:19:35.0
119,121,Russell,Jenkins,15:30,03:54,0:19:30.0
120,301,Jarrod,Eps,15:40,03:51,0:19:15.0
121,42,Craig,Feuerherdt,15:50,03:50,0:19:10.0
122,33,Andrew,Creer,16:00,03:47,0:18:55.0
123,8,Rik,McCaig,16:10,03:46,0:18:50.0
124,88,Brian,Watson,16:10,03:46,0:18:50.0
125,247,Ross,McPhee,16:20,03:45,0:18:45.0
126,23,Michael,Bieleny,16:20,03:43,0:18:35.0
127,51,Andrew,Hosking,16:20,03:43,0:18:35.0
128,286,Chris,Xu,16:40,03:41,0:18:25.0
129,7,Luke,Hutchins,16:40,03:39,0:18:15.0
130,97,Adam,Fleming,16:50,03:38,0:18:10.0
131,285,Luke,Crameri,16:50,03:38,0:18:10.0
132,62,Lee,McCullagh,17:10,03:34,0:17:50.0
133,115,Alexander,Evans,17:10,03:34,0:17:50.0
134,86,Fraser,Walsh,17:30,03:30,0:17:30.0
135,120,Tom,Barkmeyer,17:30,03:30,0:17:30.0
136,166,David,Meade,17:40,03:29,0:17:25.0
137,144,Nathan,Meade,17:50,03:26,0:17:10.0
138,46,Richard,Gleisner,18:00,03:25,0:17:05.0
139,48,Matthew,Heislers,18:00,03:24,0:17:00.0
140,27,Andrew,Buchanan,19:20,03:09,0:15:45.0
