Place,First,Last,NET Time,Pace,Diff
1,Kevin,deVries,0:25:09.4,05:01.9,-01:30.6
2,Joshua,Condon,0:31:07.1,06:13.4,-01:22.9
3,Bridie,Blake-Burrows,0:20:58.5,04:11.7,-01:21.5
4,Charles,Chambers,0:22:07.9,04:25.6,-01:12.1
5,Els,Viester,0:20:55.1,04:11.0,-01:09.9
6,John,Robinson,0:18:52.0,03:46.4,-00:53.0
7,Lauren,Hancock,0:25:11.9,05:02.4,-00:23.1
8,Lee,Bray,0:21:14.0,04:14.8,-00:26.0
9,Troy,Davis,0:27:16.9,05:27.4,-00:28.1
10,Ingrid,Douglass,0:21:59.2,04:23.8,-00:25.8
11,Rik,McCaig,0:18:30.0,03:42.0,-00:20.0
12,Melissa,Wilkie,0:25:22.1,05:04.4,-00:22.9
13,Jenny,Buchanan,0:24:22.3,04:52.5,-00:12.7
14,Chris,McCormack,0:20:02.8,04:00.6,-00:17.2
15,Beth,Lavery,0:24:38.3,04:55.7,-00:11.7
16,Jason,Sim,0:19:48.8,03:57.8,-00:06.2
17,Matthew,Heislers,0:16:49.3,03:21.9,-00:10.7
18,Sarah,Jalim,0:20:51.1,04:10.2,-00:08.9
19,Justin,Lee,0:21:56.4,04:23.3,-00:03.6
20,Alan,East,0:34:10.9,06:50.2,+00:00.9
21,Ross,Douglas,0:24:01.5,04:48.3,+00:01.5
22,Laura,Terry,0:26:24.3,05:16.9,+00:09.3
23,David,Lonsdale,0:21:07.3,04:13.5,+00:12.3
24,Tim,Lauder,0:19:49.3,03:57.9,+00:14.3
25,Sue,Condon,0:31:33.1,06:18.6,+00:18.1
26,Alison,Cartner,0:23:55.2,04:47.0,+00:20.2
27,Georgie,Lanyon,0:23:10.7,04:38.1,+00:40.7
28,Jay,Sanderson,0:23:02.8,04:36.6,+00:42.8
29,David,Heislers,0:22:49.6,04:33.9,+00:54.6
30,Lisa,Wilkinson,0:23:10.9,04:38.2,+00:45.9
31,Maree,Platt,0:27:11.6,05:26.3,+01:06.6
32,Sue,Taylor,0:29:28.5,05:53.7,+01:23.5
33,Cara,Smith,0:28:16.3,05:39.3,+02:01.3
34,Gavin,Fiedler,0:24:42.6,04:56.5,+02:02.6
35,Adam,Henderson,0:29:08.2,05:49.6,+02:03.2
36,Brad,Russell,0:29:38.6,05:55.7,+02:08.6
37,Trinity,Sanderson,0:25:38.6,05:07.7,+02:23.6
38,Jennifer,Lee,0:30:01.7,06:00.3,+02:16.7
39,Alan,Buchanan,0:24:29.5,04:53.9,+02:24.5
40,Aida,Escall,0:33:33.8,06:42.8,+03:58.8
NEW,Todd,Cody,0:19:24.0,03:52.8
NEW,Blaze,Houlden,0:24:32.3,04:54.5
NEW,Alex,Tranter,0:27:54.4,05:34.9
NEW,Chris,Giffin,0:23:31.2,04:42.2
NEW,Andrea,Smith,0:23:31.9,04:42.4
NEW,Kate,Hadkins,0:23:33.4,04:42.7
NEW,Brett,Houlden,0:26:04.2,05:12.8
NEW,Peter,Noble,0:24:59.1,04:59.8
NEW,Brock,Prime,0:20:11.9,04:02.4
NEW,Paul,Lomax,0:26:24.0,05:16.8
NEW,Amy,Sim,0:28:55.8,05:47.2
NEW,Karl,Lanyon,0:21:34.3,04:18.9
NEW,Jack,Meade,0:20:25.3,04:05.1
NEW,Paul,Vickery,0:21:41.8,04:20.4
NEW,Paula,Meade,0:31:18.8,06:15.8
NEW,Tim,Creer,0:28:47.0,05:45.4
NEW,Scott,Roberts,0:27:06.3,05:25.3
