PLACE,FIRST,LAST,TIME,PACE,CLUB
1,Mason,Woodward,0:03:57.2,03:57.2,UNI
2,Avery,McDermid,0:04:03.7,04:03.7,UNI
3,Bradie,Sheldon,0:04:08.4,04:08.4,SOUTH BENDIGO
4,Jonty,McDermid,0:04:25.9,04:25.9,UNI
5,Logan,Beesley,0:04:27.9,04:27.9,UNI
6,Doltan,Preece,0:05:07.8,05:07.8,OTHER
7,Braxton,Safstrom,0:05:08.2,05:08.2,UNI
8,Caleb,Marron,0:05:35.1,05:35.1,HARRIERS
9,Geoffrey,Robinson,0:05:38.7,05:38.7,UNI
10,Sebastian,Stewart,0:05:47.7,05:47.7,UNI
11,Gabe,Nicoletti,0:06:18.0,06:18.0,UNI
12,Zachary,Dyer,0:06:36.7,06:36.7,UNI
13,Dylan,Morran,0:07:07.1,07:07.1,HARRIERS
14,Ronny,Epps,0:07:22.0,07:22.0,UNI
