Place,Member,First,Last,Start,Pace,Est Time
1,2,Alan,East,00:40,06:53,0:34:25.0
2,66,Megan,McDonald,00:50,06:50,0:34:10.0
3,3715,Chloe,Green,02:00,06:35,0:32:55.0
4,3776,Kathleen,Pleasants,02:50,06:26,0:32:10.0
5,159,Renelle,McManus,03:40,06:15,0:31:15.0
6,397,Taylor,Lovell,04:20,06:08,0:30:40.0
7,87,Frances,Walsh,04:40,06:03,0:30:15.0
8,197,Sue,Taylor,05:10,05:58,0:29:50.0
9,35,Conor,Cunningham,05:20,05:56,0:29:40.0
10,149,Janelle,Giffin,05:30,05:54,0:29:30.0
11,334,Alex,Trantor,06:00,05:48,0:29:00.0
12,3732,Emma,Gibbons,06:00,05:47,0:28:55.0
13,68,Justin,O'Brien,06:10,05:46,0:28:50.0
14,392,Mark,Logan,06:30,05:42,0:28:30.0
15,3777,Alistair,Stewart,06:40,05:41,0:28:25.0
16,43,Josephine,Robinson,06:40,05:41,0:28:25.0
17,111,Troy,Davis,06:40,05:40,0:28:20.0
18,251,Beth,Lavery,07:20,05:31,0:27:35.0
19,398,Angus,McPherson,07:30,05:30,0:27:30.0
20,299,Jay,Sanderson,07:40,05:29,0:27:25.0
21,359,Anne,McIntosh,07:40,05:28,0:27:20.0
22,6,Shayne,Rushan,07:40,05:28,0:27:20.0
23,400,Darren,Rowe,07:40,05:28,0:27:20.0
24,91,Melissa,Wilkie,07:40,05:27,0:27:15.0
25,74,Maree,Platt,07:40,05:27,0:27:15.0
26,52,Leah,Cripps,08:00,05:24,0:27:00.0
27,339,James,Toomey,08:20,05:19,0:26:35.0
28,54,Kevin,deVries,08:40,05:16,0:26:20.0
29,364,David,Howes,08:40,05:15,0:26:15.0
30,3747,Jeremy,Draper,08:50,05:14,0:26:10.0
31,59,Tina,McBain,09:00,05:13,0:26:05.0
32,180,Lauren,Hancock,09:00,05:12,0:26:00.0
33,13,Gavin,Fiedler,09:20,05:09,0:25:45.0
34,22,Ross,Douglas,09:20,05:08,0:25:40.0
35,333,Jon,McIntosh,10:00,05:01,0:25:05.0
36,3702,Vicki,Bayliss,10:00,04:59,0:24:55.0
37,315,Paul,Lomax,10:00,04:59,0:24:55.0
38,241,Andrea,Smith,10:10,04:58,0:24:50.0
39,3726,Clare,Montgomery,10:10,04:58,0:24:50.0
40,34,Mathew,Creer,10:20,04:57,0:24:45.0
41,29,Alison,Cartner,10:20,04:56,0:24:40.0
42,9,Trinity,Sanderson,10:20,04:56,0:24:40.0
43,369,Stephen,Wainwright,10:30,04:54,0:24:30.0
44,5,Jenny,Buchanan,10:30,04:54,0:24:30.0
45,296,Ashlee,Diston,10:40,04:53,0:24:25.0
46,18,Georgie,Lanyon,10:40,04:51,0:24:15.0
47,307,Philip,Shambrook,10:50,04:50,0:24:10.0
48,384,Andrew,Wilkie,11:00,04:49,0:24:05.0
49,3735,Travis,Edwards,11:00,04:48,0:24:00.0
50,55,Justin,Lee,11:20,04:45,0:23:45.0
51,60,Greg,McBain,11:20,04:43,0:23:35.0
52,3,Alan,Buchanan,11:40,04:39,0:23:15.0
53,31,Charles,Chambers,12:00,04:35,0:22:55.0
54,49,David,Heislers,12:00,04:35,0:22:55.0
55,109,Tim,Lovell,12:20,04:33,0:22:45.0
56,3744,Finn,MacGregor,12:20,04:31,0:22:35.0
57,396,Simon,Hunt,12:30,04:30,0:22:30.0
58,386,Danny,Burgess,12:30,04:30,0:22:30.0
59,350,David,Cripps,12:50,04:26,0:22:10.0
60,15,Rebecca,Wilkinson,13:00,04:25,0:22:05.0
61,17,Karl,Lanyon,13:20,04:21,0:21:45.0
62,94,David,Lonsdale,13:20,04:20,0:21:40.0
63,308,Chris,Giffin,13:20,04:20,0:21:40.0
64,3734,Lukas,Jara,13:30,04:18,0:21:30.0
65,3730,Greg,Carter,13:40,04:16,0:21:20.0
66,399,Darren,Hartland,14:20,04:07,0:20:35.0
67,118,Tim,Lauder,14:40,04:03,0:20:15.0
68,301,Jarrod,Eps,15:00,04:00,0:20:00.0
69,3746,Peter,King,15:00,04:00,0:20:00.0
70,125,Sarah,Jalim,15:00,03:59,0:19:55.0
71,65,Ben,McDermid,15:20,03:56,0:19:40.0
72,3739,Stephen,Van Rees,15:20,03:56,0:19:40.0
73,8,Rik,McCaig,15:30,03:54,0:19:30.0
74,42,Craig,Feuerherdt,15:30,03:54,0:19:30.0
75,88,Brian,Watson,15:30,03:54,0:19:30.0
76,84,Craig,Green,15:40,03:53,0:19:25.0
77,33,Andrew,Creer,15:50,03:50,0:19:10.0
78,23,Michael,Bieleny,16:10,03:46,0:18:50.0
79,3701,Nigel,Preston,17:20,03:31,0:17:35.0
80,86,Fraser,Walsh,18:20,03:19,0:16:35.0
