PLACE,FIRST,LAST,RACES,POINTS
1,Samuel,Preston,1,40
2,Ellie,Beesley,1,35
3,Chloe,Beesley,1,30
4,Mason,Woodward,1,26
5,Logan,Beesley,1,25
6,April,Wainwright,1,24
7,Jonty,McDermid,1,23
8,Sebastian,Stewart,1,22
9,Ebony,Woodward,1,21
10,Avery,McDermid,1,20
11,William,Robinson,1,19
12,Poppy,Wainwright,1,18
13,Ruby,Douglas,1,17
14,Olivia,Douglas,1,16
15,Geoffrey,Robinson,1,15
16,Lacey,Wilkie,1,14
17,Genevieve,Robinson,1,13
18,Toby,Preston,1,12
19,Skylar,Woodward,1,11
20,Tully,Cripps,1,10
21,Elliott,Lavery,1,9
22,Ruby,Meharry,1,0
