PLACE,FIRST,LAST,TIME,PACE,CLUB
1,Nigel,Preston,0:26:07.7,03:26.3,UNI
2,Matt,Buckell,0:26:30.8,03:29.3,HARRIERS
3,Matthew,Schepisi,0:27:18.3,03:35.6,UNI
4,Matt,Hooke,0:28:02.9,03:41.4,HARRIERS
5,Ben,Stolz,0:28:29.3,03:44.9,UNI
6,Stephen,van Rees,0:29:47.9,03:55.3,UNI
7,Michael,Gibbons,0:31:06.7,04:05.6,UNI
8,Travis,Colley,0:31:38.2,04:09.8,UNI
9,Greg,Carter,0:31:54.9,04:12.0,UNI
10,Peter,Curtis,0:32:29.1,04:16.5,SOUTH BENDIGO
11,Luke,Matthews,0:32:40.7,04:18.0,HARRIERS
12,Nicholas,Cherry,0:32:45.0,04:18.6,UNI
13,Mumtaz,Hussain,0:35:09.6,04:37.6,UNI
14,Harvey,Gibbs,0:35:36.0,04:41.1,HARRIERS
15,Ben,Burmester,0:49:20.0,06:29.5,HARRIERS
