PLACE,FIRST,LAST,RACES,POINTS
1,Ben,McDermid,5,213
2,Chris,Giffin,5,196
3,Josephine,Robinson,5,167
4,Michael,Bieleny,4,165
5,Sarah,Jalim,5,157
6,Alison,Cartner,5,153
7,Tim,Lauder,4,153
8,David,Lonsdale,5,152
9,Kevin,deVries,3,142
10,Paul,Lomax,5,141
11,Alan,Buchanan,4,140
12,Frances,Walsh,4,139
13,Sue,Taylor,4,134
14,Darren,Rowe,4,130
15,Ross,Douglas,5,121
16,Maree,Platt,4,120
17,Shayne,Rushan,4,120
18,Craig,Green,3,117
19,Andrea,Smith,4,116
20,Simon,Hunt,4,114
21,Justin,Lee,4,108
22,David,Cripps,3,104
23,Stephen,Wainwright,4,104
24,Rik,McCaig,3,102
25,Tim,Lovell,3,100
26,Angus,McPherson,3,95
27,Philip,Shambrook,3,94
28,David,Heislers,3,94
29,Vicki,Bayliss,3,91
30,Clare,Montgomery,4,90
31,Greg,Carter,3,83
32,Karl,Lanyon,2,80
33,Travis,Edwards,3,77
34,Beth,Lavery,3,74
35,Jenny,Buchanan,3,74
36,Lauren,Hancock,2,71
37,Melissa,Wilkie,2,70
38,Andrew,Creer,2,69
39,Trinity,Sanderson,3,68
40,Danny,Burgess,2,61
41,David,Howes,2,60
42,Brian,Watson,1,60
43,Charles,Chambers,2,59
44,Rebecca,Wilkinson,2,58
45,Georgie,Lanyon,2,54
46,Troy,Davis,2,54
47,Jon,McIntosh,2,52
48,Janelle,Giffin,1,50
49,Leah,Cripps,2,47
50,Justin,O'Brien,2,46
51,Emma,Gibbons,2,43
52,Fraser,Walsh,2,43
53,Nigel,Preston,2,41
54,Darren,Hartland,2,39
55,James,Toomey,2,39
56,Andrew,Wilkie,1,36
57,Alan,East,1,22
58,Gavin,Fiedler,1,21
59,Taylor,Lovell,2,19
60,Craig,Feuerherdt,1,17
61,Mark,Logan,1,0
62,Lukas,Jara,1,0
63,Matthew,Creer,1,0
64,Stephen,Van Rees,1,0
65,Ashlee,Diston,1,0
66,Kathleen,Pleasants,1,0
67,Conor,Cunningham,1,0
68,Jeremy,Draper,1,0
69,Chloe,Green,1,0
70,Jay,Sanderson,1,0
71,Finn,MacGregor,1,0
72,Renelle,McManus,1,0
73,Megan,McDonald,1,0
74,Peter,King,1,0
