PLACE,FIRST,LAST,RACES,POINTS
1,William,Robinson,5,98
2,Lewis,Lonsdale,5,92
3,Avery,McDermid,5,73
4,Joshua,Feuerherdt,4,53
5,Luke,Feuerherdt,3,50
6,Jasmine,Murphy,3,43
7,Will,deVries,4,38
8,Jonty,McDermid,5,38
9,Mason,Woodward,2,34
10,Lucy,McCaig,2,32
11,Harry,Cripps,5,29
12,Phoebe,Martin,2,28
13,Ivy,Bray,3,22
14,Elliot,Lavery,2,20
15,Craig,Feuerherdt,1,20
16,Kayla,McManus,2,19
17,Lacey,Wilkie,2,17
18,Jake,Wight,1,16
19,Ebony,Butcher,1,16
20,Phoebe,Lonsdale,1,16
21,Lachlan,Edwards,1,14
22,Ebony,Woodward,2,14
23,Dylan,Sim,1,13
24,Sam,Hancock,1,13
25,Geoffrey,Robinson,4,13
26,Tully,Cripps,5,12
27,Poppy,Wainwright,3,12
28,Declan,Lavery,1,12
29,Sebastian,Boromeo,1,11
30,Annabel,Hancock,2,11
31,April,Wainwright,5,10
32,Olivia,Douglas,4,10
33,Anna,deVries,1,10
34,Sebastian,Stewart,2,9
35,Charli,Green,1,9
36,Lewis,McIntosh,1,9
37,Scott,Butcher,1,8
38,Skylar,Woodward,2,7
39,Zacch,Martin,1,7
40,Finn,Cunningham,1,6
41,Eryn,McManus,1,6
42,Callen,Bayliss,3,4
43,Gus,Edwards,1,4
44,Eden,Howes,2,4
45,Ruby,Douglas,4,2
46,Samuel,Preston,2,1
47,Lenny,Hancock,1,1
48,Isabelle,Draper,1,1
49,Kim,Carter,1,0
50,Madeline,Gibbons,1,0
51,Jemma,Carter,1,0
52,Genevieve,Robinson,5,0
53,Janine,Butcher,1,0
54,Liam,Carter,1,0
55,Belle,Howes,2,0
56,Alice,McIntosh,1,0
57,Owen,Draper,1,0
58,Sienna,Bayliss,2,0
