place,first,last,start,pace,est Time
1,Eric,Aardvark,00:00,257:0,53:12
2,Pam,Holland,00:00,7:0,53:12
3,Julie,Hogan,01:50,6:45,51:18
4,Marianne,Richardson,04:40,6:23,48:31
5,Alan,East,05:10,6:19,48:00
6,Verity,Perez,05:40,6:15,47:30
7,Natalie,Watson,06:00,6:12,47:07
8,Joanne,Wetherhead,07:00,6:5,46:14
9,Catherine,Pethybridge,07:00,6:5,46:14
10,Jodie,Scoble,07:40,6:0,45:36
11,John,Doering,07:50,5:58,45:21
12,Julia,Perez,08:10,5:56,45:06
13,John,Taylor,09:00,5:49,44:12
14,Maree,Reid,09:20,5:46,43:50
15,Maree,Platt,09:50,5:42,43:19
16,Shann,Anderson,10:40,5:36,42:34
17,Noah,Walsh,11:20,5:31,41:56
18,Gabby,Walsh,11:30,5:29,41:40
19,Andrew,Boshcetti,11:50,5:27,41:25
20,Wayne,Forbes,11:50,5:26,41:18
21,Sheridan,Hail,11:50,5:27,41:25
22,Harry,Terry,11:50,5:26,41:18
23,Frances,Walsh,11:50,5:27,41:25
24,Angela,Slattery,12:00,5:25,41:10
25,Brad,Russell,12:40,5:20,40:32
26,Emma,Burke,13:00,5:18,40:17
27,Helen,WeeHee,13:10,5:16,40:02
28,Jennifer,Jones,13:20,5:15,39:54
29,Brian,Brasher,13:30,5:14,39:46
30,Peter,Noble,13:40,5:12,39:31
31,Alison,McCullagh,13:50,5:11,39:24
32,Janet,Hodnett,14:00,5:10,39:16
33,Penny,Spencer,14:00,5:10,39:16
34,Kevin,Perez,14:30,5:5,38:38
35,Laura,Terry,15:00,5:2,38:15
36,Shayne,Rushan,15:10,5:0,38:00
37,Andrew,Evely,15:10,5:0,38:00
38,David,Perris,15:30,4:57,37:37
39,Justin,O'Brien,15:50,4:55,37:22
40,Genevieve,Green,16:00,4:54,37:14
41,Tina,McBain,16:00,4:54,37:14
42,Roy,Preece,16:00,4:54,37:14
43,John,Brewin,16:10,4:53,37:07
44,Matt,Constable,16:10,4:52,36:59
45,Liz,Foster,16:10,4:52,36:59
46,Scott,Roberts,16:10,4:52,36:59
47,Kim,Townrow,16:10,4:52,36:59
48,Scott,Padgham,16:20,4:51,36:52
49,Hayden,Brooke,16:40,4:48,36:29
50,Maddy,Evely,16:40,4:49,36:36
51,Conor,Cunningham,17:00,4:46,36:14
52,Brett,Houlden,17:10,4:45,36:06
53,Emma,Moylan,17:10,4:45,36:06
54,Alison,Cartner,17:20,4:43,35:51
55,Nick,Walsh,17:40,4:40,35:28
56,Gary,Crouch,18:00,4:38,35:13
57,Maria,Slater,18:00,4:38,35:13
58,Steve,Corrie,18:10,4:36,34:58
59,David,Heislers,18:10,4:36,34:58
60,Holly,Randall,18:10,4:36,34:58
61,Ingrid,Douglass,18:20,4:35,34:50
62,Mark,Saxon,18:20,4:35,34:50
63,Russell,Jenkins,18:40,4:32,34:27
64,Justin,Lee,18:40,4:32,34:27
65,Andrew,Creer,18:50,4:31,34:20
66,Greg,McBain,18:50,4:31,34:20
67,Owen,Davies,19:00,4:30,34:12
68,Jenny,Buchanan,19:10,4:29,34:04
69,Todd,Foster,19:20,4:28,33:57
70,John,McCullagh,19:40,4:25,33:34
71,Aaron,Anderson,19:50,4:23,33:19
72,Georgie,Lanyon,19:50,4:23,33:19
73,Alan,Buchanan,20:00,4:22,33:11
74,Matthew,Heislers,20:00,4:22,33:11
75,Gavin,Fiedler,20:10,4:21,33:04
76,Leon,Hamond,20:20,4:20,32:56
77,Michael,Hogan,20:20,4:20,32:56
78,Erica,Wilkinson,20:30,4:18,32:41
79,Steve,Brereton,20:50,4:15,32:18
80,Ryan,Brooke,20:50,4:16,32:26
81,Josh,Hunter,21:00,4:14,32:10
82,Jeff,Pethybridge,21:10,4:13,32:03
83,Daniel,Vains,21:20,4:12,31:55
84,Chris,McCormack,21:30,4:10,31:40
85,Ben,McDermid,22:20,4:4,30:54
86,Craig,Fruerherdt,22:30,4:2,30:39
87,Russell,Tremayne,22:30,4:2,30:39
88,David,Tarrant,22:40,4:1,30:32
89,Rebecca,Tweed,22:40,4:1,30:32
90,Brian,Watson,22:50,4:0,30:24
91,Tracy,Wilson,23:00,3:58,30:09
92,Jim,Russell,23:10,3:57,30:01
93,Luke,Gregory,23:20,3:56,29:54
94,Fraser,Walsh,23:30,3:55,29:46
95,Troy,Cartner,23:30,3:54,29:38
96,Simon,Austin,24:00,3:50,29:08
97,Jason,Fletcher,24:00,3:51,29:16
98,Lee,McCullagh,24:20,3:48,28:53
99,Patrick,Kenny,24:30,3:47,28:45
100,Jason,Sim,24:40,3:45,28:30
101,Michael,Bieleny,25:30,3:39,27:44
102,Bryan,Keely,27:20,3:24,25:50
103,Richard,Gleisner,27:40,3:21,25:28
104,Andrew,Buchanan,28:20,3:16,24:50