PLACE,FIRST,LAST,TIME,PACE,CLUB
1,Jamie,Cook,1:14:41.3,03:33.4,HARRIERS
2,Matthew,Schepisi,1:23:36.5,03:58.9,UNI
3,Ben,Stolz,1:23:57.8,03:59.9,UNI
4,Andrew,Van Agtmaal,1:30:44.6,04:19.3,UNI
5,Greg,Carter,1:33:04.9,04:25.9,UNI
6,Mumtaz,Hussain,1:44:03.3,04:57.3,UNI
7,Mathew,Schubert,1:44:06.4,04:57.4,UNI
8,Adrian,McMahon,1:52:44.8,05:22.1,OTHER
