PLACE,FIRST,LAST,TIME,PACE,CLUB
1,Jamie,Cook,1:14:41.3,03:33.4,HARRIERS
2,Matthew,Schepisi,1:23:36.5,03:58.9,UNI
3,Ben,Stolz,1:23:57.8,03:59.9,UNI
4,Craig,Feuerherdt,1:24:20.6,04:01.0,UNI
5,Andrew,Van Agtmaal,1:30:44.6,04:19.3,UNI
6,Greg,Carter,1:33:04.9,04:25.9,UNI
7,Danny,Wells,1:33:12.4,04:26.3,UNI
8,David,Heislers,1:33:24.0,04:26.9,UNI
9,David,Cripps,1:34:53.1,04:31.1,UNI
10,Ben,McDermid,1:36:18.0,04:35.1,UNI
11,Chris,Giffin,1:37:08.7,04:37.6,UNI
12,Danny,Burgess,1:40:05.4,04:46.0,UNI
13,Charles,Chambers,1:41:22.6,04:49.6,UNI
14,Justin,Lee,1:42:04.6,04:51.6,UNI
15,Mumtaz,Hussain,1:44:03.3,04:57.3,UNI
16,Mathew,Schubert,1:44:06.4,04:57.4,UNI
17,Adrian,McMahon,1:52:44.8,05:22.1,OTHER
18,Philip,Shambrook,1:56:00.3,05:31.4,UNI
19,Darren,Rowe,1:58:18.0,05:38.0,UNI
20,Jay,Sanderson,1:58:56.1,05:39.8,UNI
21,Nigel,Royce,2:00:41.6,05:44.8,OTHER
