place,first,last,net Time,diff
1,Alexander,Evans,14:02,-0:30
2,Melanie,Makris,23:51,0:07
3,Jack,Meade,15:29,0:29
4,Tullie,Rowe,17:03,0:31
5,Andrea,Smith,22:12,0:44
6,Matthew,Saxon,19:16,0:44
7,Wil,McCaig,16:47,0:51
8,Jenelle,Seaward,22:18,0:50
9,Emily,Heislers,21:35,0:51
10,Adam,Fleming,14:08,0:56
11,Tom,Flood,20:20,1:00
12,Aaron,Hamilton,22:01,1:09
13,Harry,Seaward,17:49,1:17
14,Max,Rowe,21:55,2:27
15,Leah,Cripps,24:53:00,2:29
New,Nathaniel,McMaster,20:53,
New,Will,Neilson,16:57,
New,Nic,Neilson,16:35,
New,Marnie,Neilson,25:13:00,