Place,Member,First,Last,Start,Pace,Est Time
1,3729,Fiona,Preston,01:40,07:28,0:22:24.0
2,3708,Janine,Butcher,02:00,07:20,0:22:00.0
3,3781,Hamish,Draper,02:30,07:11,0:21:33.0
4,3736,Skylar,Woodward,02:30,07:09,0:21:27.0
5,3737,Ebony,Woodward,02:40,07:08,0:21:24.0
6,250,Tully,Cripps,02:40,07:06,0:21:18.0
7,3748,Amelia,Mitchell,02:40,07:06,0:21:18.0
8,3750,Genevieve,Draper,02:50,07:04,0:21:12.0
9,79,Liz,Stewart,04:00,06:40,0:20:00.0
10,3749,Isabella,Draper,04:20,06:34,0:19:42.0
11,52,Leah,Cripps,04:20,06:34,0:19:42.0
12,9,Trinity,Sanderson,04:20,06:33,0:19:39.0
13,3776,Kathleen,Pleasants,04:20,06:33,0:19:39.0
14,210,Fiona,Dangerfield,04:30,06:29,0:19:27.0
15,374,Liam,Deacon,04:40,06:28,0:19:24.0
16,3741,Kim,Carter,04:40,06:26,0:19:18.0
17,3709,Scott,Butcher,04:50,06:23,0:19:09.0
18,3738,Mason,Woodward,05:10,06:18,0:18:54.0
19,344,Tim,Hughan,05:20,06:13,0:18:39.0
20,225,Lesley,Fabian,05:40,06:08,0:18:24.0
21,50,Harry,Cripps,05:40,06:07,0:18:21.0
22,356,Lynley,McDonald,05:40,06:05,0:18:15.0
23,398,Angus,McPherson,05:50,06:03,0:18:09.0
24,150,Rebecca,Ashman,05:50,06:02,0:18:06.0
25,159,Renelle,McManus,06:00,06:00,0:18:00.0
26,66,Megan,McDonald,06:00,06:00,0:18:00.0
27,316,Isabella,Makris,06:00,05:59,0:17:57.0
28,380,Matthew,Hadkins,06:20,05:55,0:17:45.0
29,142,Zach,Condon,06:20,05:55,0:17:45.0
30,376,Sarah,Hadkins,06:20,05:55,0:17:45.0
31,3779,Mathilda,Stewart,06:20,05:54,0:17:42.0
32,305,Jonty,McDermid,06:20,05:53,0:17:39.0
33,341,Greg,Toomey,06:20,05:52,0:17:36.0
34,145,Joshua,Condon,06:30,05:50,0:17:30.0
35,347,Louise,Toomey,06:30,05:50,0:17:30.0
36,109,Tim,Lovell,06:40,05:48,0:17:24.0
37,397,Taylor,Lovell,06:40,05:47,0:17:21.0
38,98,Tanya,Fleming,06:40,05:46,0:17:18.0
39,40,Aida,Escall,06:40,05:45,0:17:15.0
40,24,Karina,Bray,06:40,05:45,0:17:15.0
41,237,Lou,Bray,06:40,05:45,0:17:15.0
42,377,Juliet,Deacon,06:50,05:44,0:17:12.0
43,274,Avery,McDermid,07:10,05:37,0:16:51.0
44,310,Melanie,Makris,07:20,05:35,0:16:45.0
45,214,Amy,Sim,07:20,05:34,0:16:42.0
46,3716,Gus,Edwards,07:20,05:34,0:16:42.0
47,3722,Natasha,Dean,07:30,05:31,0:16:33.0
48,195,Luke,Creer,07:30,05:30,0:16:30.0
49,3777,Alistair,Stewart,07:30,05:29,0:16:27.0
50,3735,Travis,Edwards,07:30,05:29,0:16:27.0
51,3717,Lachlan,Edwards,07:40,05:28,0:16:24.0
52,43,Josephine,Robinson,07:40,05:26,0:16:18.0
53,3706,Ebony,Butcher,07:40,05:26,0:16:18.0
54,157,Bec,Lacy,07:40,05:25,0:16:15.0
55,252,Jasmine,Murphy,07:40,05:25,0:16:15.0
56,3720,Bec,Woodward,07:40,05:25,0:16:15.0
57,251,Beth,Lavery,07:50,05:23,0:16:09.0
58,281,Will,deVries,08:00,05:20,0:16:00.0
59,3703,Trent,Bayliss,08:00,05:19,0:15:57.0
60,84,Craig,Green,08:00,05:19,0:15:57.0
61,54,Kevin,deVries,08:10,05:17,0:15:51.0
62,3715,Chloe,Green,08:10,05:16,0:15:48.0
63,13,Gavin,Fiedler,08:20,05:15,0:15:45.0
64,359,Anne,McIntosh,08:20,05:14,0:15:42.0
65,3721,Gabrielle,Dean,08:20,05:12,0:15:36.0
66,332,Nathan,Jones,08:30,05:11,0:15:33.0
67,55,Justin,Lee,08:30,05:11,0:15:33.0
68,331,Scott,Roberts,08:30,05:10,0:15:30.0
69,95,Jason,Sim,08:40,05:08,0:15:24.0
70,360,Phoebe,Martin,08:40,05:08,0:15:24.0
71,215,Emerson,Sim,08:40,05:07,0:15:21.0
72,300,Lucinda,Terry,08:40,05:05,0:15:15.0
73,156,Will,Murphy,08:50,05:03,0:15:09.0
74,254,William,Robinson,09:10,04:57,0:14:51.0
75,201,Beatrice,Lonsdale,09:20,04:55,0:14:45.0
76,158,Annalise,Murphy,09:20,04:55,0:14:45.0
77,270,Tyler,Wilkie,09:20,04:55,0:14:45.0
78,364,David,Howes,09:20,04:55,0:14:45.0
79,3713,Jazlin,Fear,09:20,04:52,0:14:36.0
80,3793,Anna,Christen,09:30,04:51,0:14:33.0
81,266,Lewis,Lonsdale,09:30,04:51,0:14:33.0
82,34,Matthew,Creer,09:30,04:50,0:14:30.0
83,295,Jeremy,Carlson,09:30,04:50,0:14:30.0
84,241,Andrea,Smith,09:30,04:49,0:14:27.0
85,267,Kayla,McManus,09:30,04:49,0:14:27.0
86,350,David,Cripps,09:40,04:47,0:14:21.0
87,386,Danny,Burgess,09:40,04:47,0:14:21.0
88,307,Philip,Shambrook,09:40,04:47,0:14:21.0
89,400,Darren,Rowe,09:40,04:45,0:14:15.0
90,78,Mark,Saxon,09:40,04:45,0:14:15.0
91,337,Steff,Roberts,09:40,04:45,0:14:15.0
92,373,Shelley,Tuohey,09:50,04:44,0:14:12.0
93,198,Matthew,Saxon,10:00,04:40,0:14:00.0
94,131,Carrisa,Brook,10:20,04:33,0:13:39.0
95,272,Abbey,Cartner,10:20,04:33,0:13:39.0
96,191,Phoebe,Lonsdale,10:20,04:33,0:13:39.0
97,147,Lachlan,Feuerherdt,10:20,04:32,0:13:36.0
98,3745,Gus,MacGregor,10:30,04:30,0:13:30.0
99,3714,Tanner,Fear,10:30,04:29,0:13:27.0
100,3744,Finn,MacGregor,10:40,04:27,0:13:21.0
101,189,Tim,Creer,10:40,04:25,0:13:15.0
102,369,Stephen,Wainwright,10:50,04:23,0:13:09.0
103,275,Max,Rowe,10:50,04:22,0:13:06.0
104,387,Connor,Bedson,10:50,04:22,0:13:06.0
105,3707,Kyle,Butcher,11:00,04:20,0:13:00.0
106,236,Harry,Seaward,11:00,04:20,0:13:00.0
107,339,James,Toomey,11:10,04:18,0:12:54.0
108,253,Charlotte,Murphy,11:10,04:17,0:12:51.0
109,39,Melissa,Douglas,11:20,04:15,0:12:45.0
110,171,Oliver,Sanderson,11:20,04:13,0:12:39.0
111,169,Floyd,Cartner,11:20,04:12,0:12:36.0
112,80,Bridie,Blake-Burrows,11:40,04:05,0:12:15.0
113,65,Ben,McDermid,11:50,04:03,0:12:09.0
114,105,Toby,McCaig,12:00,04:00,0:12:00.0
115,94,David,Lonsdale,12:00,04:00,0:12:00.0
116,203,Tullie,Rowe,12:00,04:00,0:12:00.0
117,63,John,Robinson,12:10,03:58,0:11:54.0
118,167,Jack,Meade,12:20,03:55,0:11:45.0
119,42,Craig,Feuerherdt,12:20,03:54,0:11:42.0
120,219,Wil,McCaig,13:20,03:35,0:10:45.0
