place,first,last,start,pace,est Time
1,Sarah,Cunningham,0:20,7:37,7:37
2,Rex,Lourie,0:30,7:30,7:30
3,Olivia,Kealy,0:30,7:26,7:26
4,Ella,Meharry,0:50,7:15,7:15
5,Lacey,Wilkie,0:50,7:15,7:15
6,Joshua,Feuerherdt,0:50,7:12,7:12
7,Ethan,Fletcher,1:00,7:3,7:03
8,Max,Kavanagh,1:00,7:0,7:00
9,Xavier,Thomas,1:10,6:55,6:55
10,Allerah,Thomas,1:10,6:50,6:50
11,Kane,Charnas,1:10,6:50,6:50
12,Luke,Creer,1:10,6:49,6:49
13,Will,Smith,1:10,6:48,6:48
14,Kalan,Thomas,1:20,6:45,6:45
15,Lulu Too,Hamond,1:20,6:40,6:40
16,Neve,Coleman,1:20,6:40,6:40
17,Amber,Anderson,1:30,6:35,6:35
18,Finn,Cunningham,1:30,6:30,6:30
19,Kevin,Wheatley,1:30,6:30,6:30
20,Abbey,Reid,1:30,6:30,6:30
21,Jack,Gleisner,1:30,6:26,6:26
22,Joshua,Kelly,1:40,6:23,6:23
23,Lewis,Kailaur,1:40,6:22,6:22
24,Avery,McDermid,1:50,6:10,6:10
25,Miller,Finch,1:50,6:10,6:10
26,Charlotte,Crane,2:00,6:5,6:05
27,Katelyn,Kelly,2:00,6:5,6:05
28,Moira,Coleman,2:00,6:2,6:02
29,Ruby,Fletcher,2:00,6:0,6:00
30,Rhyse,Thorpe,2:00,6:0,6:00
31,Jade,Kelly,2:10,5:55,5:55
32,Hannah,Crane,2:10,5:51,5:51
33,Aoife,Cunningham,2:10,5:51,5:51
34,Eliza,Christie,2:10,5:50,5:50
35,Ella,Fisher,2:20,5:45,5:45
36,Saige,Finch,2:20,5:45,5:45
37,Rebecca,Ashman,2:20,5:44,5:44
38,Cooper,Rea,2:20,5:42,5:42
39,Manny,Rose,2:20,5:40,5:40
40,Jasmine,Padgham,2:20,5:40,5:40
41,Jordan,Wheatley,2:20,5:40,5:40
42,Nellie,Rose,2:20,5:39,5:39
43,James,Cheal,2:20,5:36,5:36
44,Albert,Cordell,2:30,5:33,5:33
45,Tara,Anderson,2:30,5:30,5:30
46,Murphy,Watson,2:30,5:30,5:30
47,Will,Gleisner,2:30,5:30,5:30
48,Lucinda,Terry,2:30,5:28,5:28
49,Melana,Cordell,2:40,5:25,5:25
50,Amity,Thorpe,2:40,5:22,5:22
51,Georgia,Pearce,2:40,5:20,5:20
52,Catelynd,Wheatley,2:40,5:20,5:20
53,Beatrice,Lonsdale,2:40,5:17,5:17
54,Vincent,Weatherhead,2:40,5:17,5:17
55,Jack,McCullough,2:40,5:16,5:16
56,Nick,Meharry,2:50,5:15,5:15
57,Kaidyn,Tucker,2:50,5:14,5:14
58,Luke,Feuerherdt,2:50,5:12,5:12
59,Phoebe,Lonsdale,2:50,5:10,5:10
60,Tyler,Wilkie,2:50,5:10,5:10
61,Rossi,Stevens,2:50,5:10,5:10
62,Lewis,Lonsdale,2:50,5:8,5:08
63,Henry,Cordell,3:00,5:5,5:05
64,Nina,Lenard,3:00,5:3,5:03
65,Abbey,Cartner,3:00,5:2,5:02
66,Tim,Creer,3:00,5:0,5:00
67,Matthew,Saxon,3:00,5:0,5:00
68,Tom,Coleman,3:00,4:58,4:58
69,Macey,O'Shea,3:00,4:58,4:58
70,Oscar,Terry,3:10,4:55,4:55
71,Jack,Meharry,3:10,4:52,4:52
72,Cooper,Charnas,3:10,4:52,4:52
73,Leila,Padgham,3:10,4:50,4:50
74,Morgan,Dunn,3:10,4:48,4:48
75,Emerson,Sim,3:10,4:46,4:46
76,Carissa,Brook,3:20,4:45,4:45
77,Michaela,Meharry,3:20,4:42,4:42
78,Max,Rowe,3:20,4:40,4:40
79,Harrison,Kelly,3:20,4:40,4:40
80,Emily,Heislers,3:20,4:40,4:40
81,Jayden,Padgham,3:20,4:40,4:40
82,Lachlan,Feuerherdt,3:20,4:39,4:39
83,Jesse,Delves,3:30,4:30,4:30
84,Jake,Lyons,3:40,4:20,4:20
85,Bailey,Dunn,3:40,4:20,4:20
86,Tullie,Rowe,3:50,4:10,4:10
87,Brayden,Roberts,3:50,4:7,4:07
88,Noah,Walsh,4:00,4:5,4:05
89,Floyd,Cartner,4:00,4:2,4:02
90,Melissa,Douglas,4:00,4:0,4:00