Place,First,Last,NET Time,Pace,Diff
1,Bec,Lacy,0:39:13.7,06:01,-02:30.0
2,Stephen,van Rees,0:24:02.0,03:41,-01:36.7
3,David,Heislers,0:28:16.1,04:20,-01:36.9
4,Damien,Roberts,0:29:56.3,04:36,-01:28.0
5,Darren,Rowe,0:34:16.4,05:15,-01:22.2
6,Alistair,Stewart,0:36:27.2,05:35,-00:36.1
7,Jay,Sanderson,0:35:09.4,05:24,-00:35.7
8,Craig,Feuerherdt,0:24:55.0,03:49,-00:30.7
9,Ross,Douglas,0:32:59.7,05:04,-00:28.5
10,David,Lonsdale,0:27:54.0,04:17,-00:21.2
11,Chris,Giffin,0:27:54.4,04:17,-00:20.8
12,Alan,Buchanan,0:30:06.6,04:37,-00:12.5
13,Justin,Lee,0:30:48.3,04:43,-00:09.9
14,Jenny,Buchanan,0:31:47.4,04:53,-00:09.5
15,David,Cripps,0:28:47.2,04:25,-00:07.1
16,Nicholas,Cherry,0:27:30.9,04:13,-00:05.2
17,Nigel,Preston,0:22:57.2,03:31,+00:01.5
18,Justine,Rowe,0:44:15.9,06:47,+00:02.3
19,Maree,Platt,0:35:43.2,05:29,+00:11.2
20,Trinity,Sanderson,0:32:58.7,05:03,+00:16.2
21,Melissa,Wilkie,0:35:56.3,05:31,+00:24.3
22,Sue,Taylor,0:39:20.9,06:02,+00:26.7
23,James,Russell,0:31:31.9,04:50,+00:33.7
24,Andrew,Creer,0:25:37.0,03:56,+00:37.4
25,Beth,Lavery,0:36:38.6,05:37,+00:40.5
26,Rebecca,Wilkinson,0:28:14.0,04:20,+00:44.4
27,Shayne,Rushan,0:36:24.2,05:35,+00:45.6
28,Andrew,Wilkie,0:30:25.5,04:40,+00:58.6
29,Kathleen,Pleasants,0:43:09.5,06:37,+01:12.8
30,Travis,Edwards,0:32:25.7,04:58,+01:27.5
31,Ben,McDermid,0:27:14.1,04:11,+01:35.4
32,David,Howes,0:36:49.5,05:39,+02:35.7
33,Josephine,Robinson,0:40:19.2,06:11,+03:15.9
34,Craig,Green,0:28:44.1,04:24,+03:24.9
35,Philip,Shambrook,0:36:35.6,05:37,+05:04.8
NEW,Lee,McCullagh,0:25:51.8,03:58
NEW,John,Robinson,0:29:29.7,04:31
NEW,Brad,Russell,0:35:08.7,05:23
NEW,Rossi,Evans,0:30:03.2,04:37
NEW,Garnet,Rodda,0:43:32.3,06:41
NEW,Hunter,Gill,0:31:54.0,04:54
NEW,Matthew,Schepisi,0:24:45.3,03:48
