PLACE,FIRST,LAST,RACES,POINTS
1,David,Heislers,2,94
2,Darren,Rowe,2,84
3,Andrew,Wilkie,2,82
4,Jenny,Buchanan,2,82
5,David,Lonsdale,2,81
6,Alan,Buchanan,2,81
7,Rebecca,Wilkinson,2,79
8,Chris,Giffin,2,79
9,Justin,Lee,2,79
10,Nigel,Preston,2,78
11,Ross,Douglas,2,74
12,Travis,Edwards,2,70
13,Melissa,Wilkie,2,65
14,Bec,Lacy,2,60
15,Ben,McDermid,2,56
16,Trinity,Sanderson,2,55
17,Stephen,van Rees,1,55
18,Shayne,Rushan,2,54
19,Beth,Lavery,2,53
20,Kathleen,Pleasants,2,50
21,Damien,Roberts,2,46
22,Philip,Shambrook,2,45
23,Alistair,Stewart,1,44
24,Josephine,Robinson,2,44
25,Jay,Sanderson,1,43
26,Craig,Feuerherdt,1,42
27,Craig,Green,2,42
28,Danny,Burgess,1,38
29,Alison,Cartner,1,35
30,David,Cripps,1,35
31,Gavin,Fiedler,1,34
32,Nicholas,Cherry,2,34
33,Leah,Cripps,1,32
34,Justine,Rowe,2,32
35,Maree,Platt,1,31
36,Sue,Taylor,1,28
37,James,Russell,2,27
38,Andrew,Creer,1,26
39,David,Howes,1,18
40,Brad,Russell,1,0
41,Tanner,Fear,1,0
42,Amelia,Mitchell,1,0
43,Hamish,Draper,1,0
44,Lisa,Wilkinson,1,0
45,Leeza,Meharry,1,0
46,Michaela,Meharry,1,0
47,Ann-Marie,Wangdi,1,0
48,Beatrice,Lonsdale,1,0
49,Tyler,Wilkie,1,0
50,Charlotte,Murphy,1,0
51,John,Robinson,1,0
52,Lee,McCullagh,1,0
53,Vicki,Lane,1,0
54,Phoebe,Lonsdale,1,0
55,Genevieve,Draper,1,0
