PLACE,FIRST,LAST,RACES,POINTS
1,Ben,McDermid,2,38
2,Max,Rowe,2,36
3,Tullie,Rowe,2,33
4,Mason,Woodward,2,29
5,Jazlin,Fear,2,28
6,Lachlan,Edwards,2,21
7,Oliver,Sanderson,1,20
8,Andrea,Smith,2,20
9,William,Robinson,2,19
10,Tanner,Fear,1,17
11,John,Robinson,1,16
12,Charlotte,Murphy,1,15
13,Phoebe,Lonsdale,1,13
14,Abbey,Cartner,1,12
15,Lachlan,Feuerherdt,1,11
16,Tyler,Wilkie,1,9
17,Avery,McDermid,1,8
18,Beatrice,Lonsdale,1,7
19,Jasmine,Murphy,2,7
20,Chloe,Green,1,6
21,Jonty,McDermid,2,5
22,Ella,Meharry,1,4
23,Noah,Armstrong,1,4
24,Darren,Rowe,1,3
25,Jennifer,Lee,2,3
26,Travis,Edwards,1,2
27,Tammy,Fear,2,2
28,Miller,Armstrong,1,1
29,Fiona,Preston,1,1
30,Geoffrey,Robinson,1,0
31,Chris,Epworth,1,0
32,Aida,Escall,1,0
33,Lynley,McDonald,2,0
34,Bec,Woodward,2,0
35,Scott,Broad,1,0
36,Tanya,Fleming,1,0
37,Luke,Feuerherdt,1,0
38,Owen,Draper,1,0
39,David,Cripps,1,0
40,Harry,Cripps,2,0
