Place,First,Last,NET Time,Pace,Diff
1,Casey,Smith,0:24:35.7,05:54,-04:14.8
2,Nathan,Crowley,0:21:02.5,05:03,-03:42.0
3,Emily,Harris,0:22:38.3,05:26,+00:03.1
4,Sophie,Pedrotti,0:25:02.1,06:00,+00:13.4
5,Ebony,Beesley,0:19:35.9,04:42,+00:16.6
6,James,Bradshaw,0:25:29.4,06:07,+00:19.9
7,Phoebe,Lonsdale,0:17:42.7,04:15,+00:20.2
8,Noah,Willits,0:17:45.1,04:15,+00:35.1
9,Mason,Beesley,0:16:42.5,04:00,+00:55.9
10,Harry,Scott,0:22:09.1,05:19,+00:57.3
11,Tanner,Fear,0:18:09.6,04:21,+01:03.8
12,James,Trew,0:16:55.7,04:04,+01:04.9
13,Elijah,Willits,0:19:53.8,04:46,+01:07.9
14,William,Trew,0:18:56.1,04:32,+01:08.6
15,Ryan,Haythorpe,0:21:59.1,05:16,+01:08.1
16,Noah,Pedrotti,0:18:47.0,04:30,+01:12.0
17,Lewis,McIntosh,0:18:10.5,04:22,+01:17.2
18,Abbey,Cartner,0:20:26.0,04:54,+01:19.2
19,Rebecca,Kirkby,0:19:05.3,04:35,+01:26.1
20,Erin,Bradshaw,0:21:44.1,05:13,+01:26.5
21,Naghmana,Tehseen,0:34:52.4,08:22,+01:30.8
22,Harry,Cripps,0:27:54.9,06:42,+01:42.8
23,Logan,Beesley,0:25:42.0,06:10,+01:43.4
24,Joshua,Feuerherdt,0:22:14.5,05:20,+01:44.3
25,Lachlan,Feuerherdt,0:20:21.6,04:53,+01:44.0
26,Dean,Trew,0:23:14.1,05:34,+01:45.6
27,Jonty,McDermid,0:20:01.8,04:48,+02:01.8
28,Ben,McDermid,0:20:10.1,04:50,+02:10.1
29,Kelvin,Niblett,0:22:08.5,05:19,+02:20.0
30,Bec,Beesley,0:26:51.0,06:26,+02:31.5
31,Sarah,Crowley,0:25:13.8,06:03,+02:38.6
32,Avery,McDermid,0:18:15.6,04:23,+02:41.5
33,Damian,Hughes,0:19:23.0,04:39,+02:46.4
34,Eiliyah,Daneen,0:29:33.7,07:05,+03:09.1
35,Thom,Hosking,0:25:31.7,06:07,+03:13.1
36,Cadi,Watchman,0:27:21.4,06:34,+03:22.8
37,Trevor,Watchman,0:27:23.1,06:34,+03:24.5
38,Michelle,Scott,0:30:04.5,07:13,+03:48.2
39,Bonnie,Scott,0:32:13.6,07:44,+03:52.2
40,Julia,Starr,0:30:29.7,07:19,+07:33.6
41,Millie,McIntosh,0:30:50.1,07:24,+07:41.5
42,Tully,Cripps,0:37:28.7,08:59,+10:43.2
43,Poppy,Wainwright,0:36:26.3,08:44,+10:43.4
NEW,Melissa,Douglas,0:25:32.5,06:08
NEW,Alice,McIntosh,0:27:11.9,06:31
NEW,Archie,Clarke,0:21:19.4,05:07
NEW,John,Starr,0:25:32.1,06:07
NEW,David,Fagg,0:28:37.9,06:52
