Place,Member,First,Last,Start,Pace,Est Time
1,3750,Genevieve,Draper,01:00,07:52,0:54:31.0
2,806,Kerry,Amor,02:20,07:40,0:53:07.8
3,433,Leonie,Chivers,02:50,07:36,0:52:40.1
4,3776,Kathleen,Pleasants,05:10,07:15,0:50:14.5
5,3747,Jeremy,Draper,06:00,07:08,0:49:26.0
6,39,Melissa,Douglas,06:20,07:05,0:49:05.2
7,1028,Mel,Debnam-Smith,07:00,06:59,0:48:23.7
8,356,Lynley,McDonald,09:10,06:40,0:46:12.0
9,74,Maree,Platt,10:20,06:30,0:45:02.7
10,3764,Belinda,Dobbin,11:30,06:21,0:44:00.3
11,54,Kevin,de Vries,12:10,06:15,0:43:18.8
12,210,Fiona,Dangerfield,12:10,06:15,0:43:18.8
13,1085,Michelle,Scott,13:40,06:02,0:41:48.7
14,449,Belinda,Whelan,13:50,06:00,0:41:34.8
15,814,Sam,Esmore,14:10,05:58,0:41:20.9
16,1076,Sarah,Trew,14:10,05:57,0:41:14.0
17,6,Shayne,Rushan,14:30,05:55,0:41:00.2
18,3740,Vicki,Lane,14:30,05:55,0:41:00.2
19,3,Alan,Buchanan,15:00,05:50,0:40:25.5
20,3758,Janis,Bull,15:00,05:50,0:40:25.5
21,3777,Alistair,Stewart,15:00,05:50,0:40:25.5
22,182,Hannah,Crane,15:10,05:48,0:40:11.6
23,52,Leah,Cripps,15:40,05:45,0:39:50.8
24,197,Sue,Taylor,15:40,05:45,0:39:50.8
25,458,Caitlin,Clarke,15:50,05:43,0:39:37.0
26,424,Lauren,Crowley,16:00,05:42,0:39:30.1
27,183,Janet,Hodnett,16:10,05:40,0:39:16.2
28,1087,Deanna,Marshall,16:20,05:38,0:39:02.3
29,31,Charles,Chambers,16:40,05:36,0:38:48.5
30,1074,David,Burrow,17:20,05:30,0:38:06.9
31,848,Clemence,Lavie,17:40,05:27,0:37:46.1
32,807,Kristian,Dowler,17:50,05:26,0:37:39.2
33,22,Ross,Douglas,17:50,05:25,0:37:32.2
34,13,Gavin,Fiedler,18:10,05:22,0:37:11.5
35,1077,Dean,Trew,18:10,05:22,0:37:11.5
36,1003,Damien,Roberts,18:30,05:20,0:36:57.6
37,241,Andrea,Smith,18:40,05:19,0:36:50.7
38,55,Justin,Lee,19:00,05:15,0:36:22.9
39,400,Darren,Rowe,19:40,05:10,0:35:48.3
40,850,Peter,Compston,19:40,05:10,0:35:48.3
41,841,Alex,Delbridge,19:50,05:08,0:35:34.4
42,65,Ben,McDermid,20:30,05:03,0:34:59.8
43,333,Jon,McIntosh,20:50,05:00,0:34:39.0
44,14,Lisa,Wilkinson,21:10,04:57,0:34:18.2
45,29,Alison,Cartner,21:20,04:56,0:34:11.3
46,9,Trinity,Sanderson,21:20,04:55,0:34:04.3
47,455,Suzie,Pedrotti,21:20,04:55,0:34:04.3
48,476,Sheena,Carney,21:20,04:55,0:34:04.3
49,828,Russell,Easton,21:30,04:54,0:33:57.4
50,3763,Brett,Dobbin,21:40,04:53,0:33:50.5
51,1040,Erin,Williams,21:40,04:52,0:33:43.6
52,359,Anne,McIntosh,22:00,04:50,0:33:29.7
53,3760,Karl,Stoltz,22:00,04:50,0:33:29.7
54,843,Vanessa,Garry,22:20,04:46,0:33:02.0
55,1099,Kelvin,Niblett,22:30,04:45,0:32:55.0
56,3702,Vicki,Bayliss,22:30,04:45,0:32:55.0
57,429,Gavin,Hicks,22:50,04:43,0:32:41.2
58,849,Aden,Thomsen,22:50,04:43,0:32:41.2
59,3766,Anthony,Byrne,23:00,04:41,0:32:27.3
60,852,Benjamin ,Ward,23:30,04:36,0:31:52.7
61,3730,Greg,Carter,23:40,04:35,0:31:45.8
62,1009,Nicholas,Cherry,24:20,04:30,0:31:11.1
63,203,Tullie,Rowe,24:20,04:29,0:31:04.2
64,823,Joe,Stoltz,24:20,04:29,0:31:04.2
65,15,Rebecca,Wilkinson,24:50,04:25,0:30:36.4
66,94,David,Lonsdale,24:50,04:25,0:30:36.4
67,1031,Jack,Milligan,25:10,04:22,0:30:15.7
68,418,Vanessa,Bull,25:20,04:20,0:30:01.8
69,847,Rossi,Evans,25:20,04:20,0:30:01.8
70,1080,Jayson,Carter,25:30,04:19,0:29:54.9
71,84,Craig,Green,25:50,04:17,0:29:41.0
72,394,Rhianna,Wik-Gamble,25:50,04:17,0:29:41.0
73,802,James,Harper,25:50,04:17,0:29:41.0
74,191,Phoebe,Lonsdale,25:50,04:16,0:29:34.1
75,33,Andrew,Creer,26:00,04:15,0:29:27.1
76,1083,Rebecca,Kirkby,26:00,04:15,0:29:27.1
77,49,David,Heislers,26:10,04:13,0:29:13.3
78,350,David,Cripps,26:30,04:11,0:28:59.4
79,829,Adam,Parker,26:30,04:11,0:28:59.4
80,499,Richard,Martin,26:30,04:10,0:28:52.5
81,801,Rebecca ,Beagley,26:30,04:10,0:28:52.5
82,831,Mitch,Fitzgerald,26:30,04:10,0:28:52.5
83,425,Nathan,Crowley,26:50,04:08,0:28:38.6
84,125,Sarah,Jalim,26:50,04:07,0:28:31.7
85,274,Avery,McDermid,27:00,04:06,0:28:24.8
86,846,Tom,Gamble,27:00,04:06,0:28:24.8
87,88,Brian,Watson,27:40,04:01,0:27:50.1
88,1029,James,Trew,27:40,04:00,0:27:43.2
89,822,Mitch,Whitham,28:10,03:56,0:27:15.5
90,275,Max,Rowe,28:20,03:55,0:27:08.5
91,1023,Matthew,Schepisi,28:20,03:55,0:27:08.5
92,830,Steven,Field,28:20,03:54,0:27:01.6
93,428,Matthew,Bell,28:40,03:52,0:26:47.8
94,23,Michael,Bieleny,28:50,03:50,0:26:33.9
95,169,Floyd,Cartner,28:50,03:50,0:26:33.9
96,51,Andrew,Hosking,29:00,03:49,0:26:27.0
97,447,Jake,Delaney,29:00,03:49,0:26:27.0
98,492,Zeb,Broadbent,29:00,03:49,0:26:27.0
99,399,Darren,Hartland,29:10,03:48,0:26:20.0
100,3701,Nigel,Preston,31:00,03:31,0:24:22.2
101,851,Bryan,Keely,31:40,03:26,0:23:47.6
