Place,First,Last,NET Time,Pace,Diff
1,Melissa,Douglas,0:21:23.0,04:16.6,-02:32.0
2,James,Toomey,0:22:11.0,04:26.2,-02:34.0
3,Sue,Taylor,0:27:15.0,05:27.0,-02:15.0
4,Aida,Escall,0:27:30.0,05:30.0,-02:05.0
5,Leah,Cripps,0:24:41.0,04:56.2,-02:09.0
6,Ross,Douglas,0:22:41.0,04:32.2,-01:54.0
7,Gavin,Fiedler,0:21:51.0,04:22.2,-01:39.0
8,Andrea,Smith,0:22:06.0,04:25.2,-01:39.0
9,David,Lonsdale,0:19:57.0,03:59.4,-01:33.0
10,Georgie,Lanyon,0:21:18.0,04:15.6,-01:32.0
11,Matt,Holmes,0:20:29.0,04:05.8,-01:31.0
12,Paul,Lomax,0:22:01.0,04:24.2,-01:19.0
13,Sarah,Jalim,0:18:43.0,03:44.6,-01:12.0
14,Fiona,Dangerfield,0:27:13.0,05:26.6,-01:17.0
15,Ben,McDermid,0:20:04.0,04:00.8,-01:11.0
16,John,Robinson,0:17:49.0,03:33.8,-01:11.0
17,Kate,Hadkins,0:23:10.0,04:38.0,-01:10.0
18,Rik,McCaig,0:17:55.0,03:35.0,-01:05.0
19,Chris,McCormack,0:19:36.0,03:55.2,-00:59.0
20,Karl,Lanyon,0:21:19.0,04:15.8,-01:06.0
21,Chris,Giffin,0:20:59.0,04:11.8,-00:56.0
22,Jason,Anderton,0:27:21.0,05:28.2,-01:04.0
23,Rebecca,Wilkinson,0:19:53.0,03:58.6,-00:57.0
24,Greg,McBain,0:21:43.0,04:20.6,-00:52.0
25,Alison,Cartner,0:22:46.0,04:33.2,-00:54.0
26,David,Heislers,0:21:01.0,04:12.2,-00:34.0
27,Janelle,Giffin,0:29:26.0,05:53.2,-00:14.0
28,Matthew,Heislers,0:18:31.0,03:42.2,+01:26.0
NEW,Jim,Russell,0:20:15.0,04:03.0
NEW,Greg,Toomey,0:29:55.0,05:59.0
