Place,Member,First,Last,Start,Pace,Est Time
1,257,Fin,Bray,00:00,07:59,0:19:57.5
2,383,Sharon,Carlson,00:40,07:45,0:19:22.5
3,212,Michelle,Parry,01:30,07:25,0:18:32.5
4,250,Tully,Cripps,02:20,07:06,0:17:45.0
5,338,Kathryn,Toomey,02:20,07:04,0:17:40.0
6,378,Aidan,Deacon,02:30,07:00,0:17:30.0
7,52,Leah,Cripps,03:00,06:50,0:17:05.0
8,155,Jasmine,Rielley,03:10,06:45,0:16:52.5
9,179,Paula,Rielley,03:10,06:45,0:16:52.5
10,146,David,Ashman,03:20,06:42,0:16:45.0
11,388,Abbey,Seaward,03:20,06:41,0:16:42.5
12,79,Liz,Stewart,03:20,06:40,0:16:40.0
13,304,Stephanie,Carlson,03:20,06:38,0:16:35.0
14,30,Amanda,Turnbull,03:50,06:28,0:16:10.0
15,374,Liam,Deacon,03:50,06:28,0:16:10.0
16,277,Luke,Feuerherdt,04:20,06:16,0:15:40.0
17,344,Tim,Hughan,04:30,06:13,0:15:32.5
18,290,Sabine,Stewart,04:30,06:12,0:15:30.0
19,136,Livinia,Douglass,04:30,06:11,0:15:27.5
20,239,Paula,a'Beckett,04:40,06:09,0:15:22.5
21,225,Lesley,Fabian,04:40,06:06,0:15:15.0
22,229,Harrison,Pitson,05:00,06:02,0:15:05.0
23,282,Anna,deVries,05:00,06:01,0:15:02.5
24,40,Aida,Escall,05:00,06:00,0:15:00.0
25,101,Paula,Saxon,05:00,06:00,0:15:00.0
26,173,Melanie,Cuzzillo,05:00,06:00,0:15:00.0
27,292,Jye,Ekanayake,05:00,05:59,0:14:57.5
28,316,Isabella,Makris,05:00,05:59,0:14:57.5
29,151,Jo,Williams,05:00,05:58,0:14:55.0
30,195,Luke,Creer,05:00,05:58,0:14:55.0
31,142,Zach,Condon,05:10,05:55,0:14:47.5
32,347,Louise,Toomey,05:10,05:55,0:14:47.5
33,376,Sarah,Hadkins,05:10,05:55,0:14:47.5
34,380,Matthew,Hadkins,05:10,05:55,0:14:47.5
35,356,Lynley,McDonald,05:20,05:54,0:14:45.0
36,145,Joshua,Condon,05:20,05:50,0:14:35.0
37,174,Sam,Hancock,05:20,05:50,0:14:35.0
38,274,Avery,McDermid,05:30,05:48,0:14:30.0
39,284,Imogen,Stewart,05:30,05:47,0:14:27.5
40,310,Melanie,Makris,05:40,05:46,0:14:25.0
41,366,Kirsten,Hale,05:40,05:46,0:14:25.0
42,24,Karina,Bray,05:40,05:45,0:14:22.5
43,66,Megan,McDonald,05:40,05:45,0:14:22.5
44,98,Tanya,Fleming,05:40,05:45,0:14:22.5
45,237,Lou,Bray,05:40,05:45,0:14:22.5
46,242,Halle,Blake-Burrows,05:40,05:45,0:14:22.5
47,377,Juliet,Deacon,05:40,05:44,0:14:20.0
48,28,Mitchell,Bray,05:50,05:41,0:14:12.5
49,243,Max,Bray,05:50,05:40,0:14:10.0
50,150,Rebecca,Ashman,06:00,05:38,0:14:05.0
51,341,Greg,Toomey,06:00,05:38,0:14:05.0
52,214,Amy,Sim,06:00,05:37,0:14:02.5
53,210,Fiona,Dangerfield,06:00,05:36,0:14:00.0
54,43,Josephine,Robinson,06:00,05:35,0:13:57.5
55,99,Oscar,Terry,06:00,05:35,0:13:57.5
56,157,Bec,Murphy,06:00,05:35,0:13:57.5
57,263,Narelle,McPhee,06:00,05:34,0:13:55.0
58,133,Gemma,McPhee,06:20,05:30,0:13:45.0
59,233,Sue,Condon,06:20,05:30,0:13:45.0
60,249,Will,Gleisner,06:20,05:28,0:13:40.0
61,11,Jane,McCaig,06:20,05:27,0:13:37.5
62,252,Jasmine,Murphy,06:30,05:25,0:13:32.5
63,269,Cooper,Charnas,06:30,05:25,0:13:32.5
64,297,Declan,Lavery,06:30,05:25,0:13:32.5
65,360,Phoebe,Martin,06:40,05:22,0:13:25.0
66,182,Hanna,Crane,06:40,05:21,0:13:22.5
67,149,Janelle,Giffin,06:40,05:20,0:13:20.0
68,164,Imogen,Thompson,06:40,05:19,0:13:17.5
69,134,Millicent,Woods,06:40,05:18,0:13:15.0
70,288,Kate,McIntosh,06:40,05:18,0:13:15.0
71,132,Tracie,Gleisner,06:50,05:15,0:13:07.5
72,152,Alannah,Rielley,06:50,05:15,0:13:07.5
73,193,Emily,Heislers,06:50,05:15,0:13:07.5
74,332,Nathan,Jones,06:50,05:15,0:13:07.5
75,228,Sam,Pitson,07:00,05:14,0:13:05.0
76,270,Tyler,Wilkie,07:00,05:12,0:13:00.0
77,32,Oliver,Turnbull,07:00,05:10,0:12:55.0
78,331,Scott,Roberts,07:00,05:10,0:12:55.0
79,26,Ryan,Brook,07:10,05:08,0:12:50.0
80,83,Sam,Stewart,07:20,05:05,0:12:42.5
81,300,Lucinda,Terry,07:20,05:05,0:12:42.5
82,361,Loch,Hale,07:20,05:04,0:12:40.0
83,156,Will,Murphy,07:20,05:03,0:12:37.5
84,240,Jenelle,Seaward,07:30,05:00,0:12:30.0
85,110,Holly,McPhee,07:30,04:59,0:12:27.5
86,325,Tom,Flood,07:30,04:59,0:12:27.5
87,253,Charlotte,Murphy,07:40,04:58,0:12:25.0
88,241,Andrea,Smith,07:40,04:57,0:12:22.5
89,158,Annalise,Murphy,07:40,04:55,0:12:17.5
90,349,Nathaniel,McMaster,07:40,04:54,0:12:15.0
91,357,Xavier,Holmes,07:40,04:54,0:12:15.0
92,213,Phoebe,a'Beckett,07:50,04:51,0:12:07.5
93,272,Abbey,Cartner,08:00,04:50,0:12:05.0
94,295,Jeremy,Carlson,08:00,04:50,0:12:05.0
95,400,Darren,Rowe,08:00,04:48,0:12:00.0
96,82,Sophie,Adamson,08:10,04:45,0:11:52.5
97,201,Beatrice,Lonsdale,08:10,04:45,0:11:52.5
98,337,Steff,Roberts,08:10,04:45,0:11:52.5
99,342,Sarah,Cody,08:10,04:44,0:11:50.0
100,364,David,Howes,08:10,04:44,0:11:50.0
101,373,Shelley,Tuohey,08:10,04:44,0:11:50.0
102,29,Alison,Cartner,08:20,04:42,0:11:45.0
103,180,Lauren,Hancock,08:20,04:42,0:11:45.0
104,369,Stephen,Wainwright,08:20,04:41,0:11:42.5
105,184,Will,Crane,08:20,04:40,0:11:40.0
106,393,Koichi,Masuda,08:20,04:40,0:11:40.0
107,191,Phoebe,Lonsdale,08:20,04:38,0:11:35.0
108,259,Jasmine,Santley,08:30,04:37,0:11:32.5
109,314,Aaron,Hamilton,08:30,04:36,0:11:30.0
110,112,Jett,Grundy,08:30,04:35,0:11:27.5
111,198,Matthew,Saxon,08:40,04:33,0:11:22.5
112,147,Lachlan,Feuerherdt,08:40,04:32,0:11:20.0
113,131,Carrisa,Brook,08:40,04:31,0:11:17.5
114,387,Connor,Bedson,08:50,04:29,0:11:12.5
115,162,Natalie,Jacobson,08:50,04:28,0:11:10.0
116,171,Oliver,Sanderson,08:50,04:28,0:11:10.0
117,215,Emerson,Sim,09:00,04:25,0:11:02.5
118,221,Billy,Meade,09:00,04:24,0:11:00.0
119,189,Tim,Creer,09:00,04:23,0:10:57.5
120,339,James,Toomey,09:00,04:23,0:10:57.5
121,39,Melissa,Douglas,09:00,04:22,0:10:55.0
122,12,Josie,Aitken,09:10,04:21,0:10:52.5
123,177,Ben,Wilby,09:10,04:20,0:10:50.0
124,275,Max,Rowe,09:20,04:17,0:10:42.5
125,236,Harry,Seaward,09:20,04:15,0:10:37.5
126,105,Toby,McCaig,09:30,04:13,0:10:32.5
127,161,Amelia,Evans,09:30,04:11,0:10:27.5
128,63,John,Robinson,09:40,04:10,0:10:25.0
129,78,Mark,Saxon,09:40,04:10,0:10:25.0
130,224,Cooper,Hale,09:40,04:08,0:10:20.0
131,202,Callum,Tucker,09:40,04:07,0:10:17.5
132,114,Spencer,Evans,09:50,04:03,0:10:07.5
133,94,David,Lonsdale,10:00,04:00,0:10:00.0
134,80,Bridie,Blake-Burrows,10:10,03:55,0:09:47.5
135,167,Jack,Meade,10:10,03:55,0:09:47.5
136,203,Tullie,Rowe,10:10,03:55,0:09:47.5
137,219,Wil,McCaig,10:20,03:51,0:09:37.5
138,42,Craig,Feuerherdt,11:00,03:37,0:09:02.5
139,33,Andrew,Creer,11:00,03:35,0:08:57.5
140,312,Jack,Hickman,11:20,03:26,0:08:35.0
141,46,Richard,Gleisner,11:30,03:23,0:08:27.5
142,115,Alexander,Evans,11:50,03:16,0:08:10.0
143,97,Adam,Fleming,11:50,03:15,0:08:07.5
144,48,Matthew,Heislers,12:10,03:07,0:07:47.5
