place,first,last,club,net Time,pace
1,Gavin,Fiedler,BUAC,1:37:04.5,4:37.4
2,Bryan,McCarthy,STH,1:39:14.4,4:43.5
3,Gary,Crouch,BUAC,1:41:23.4,4:49.7
4,Max,Carson,OTHER,1:49:34.6,5:13.1
5,Paul,Buncle,BUAC,1:52:22.8,5:21.1