place,first,last,club,net Time,pace
1,Brian,Watson,BUAC,1:26:13.8,4:06.4
2,Andrew,Creer,BUAC,1:29:37.1,4:16.1
3,David,Heislers,BUAC,1:36:43.0,4:36.3
4,Ben,McDermid,BUAC,1:39:38.4,4:44.7
5,Trev,Watchman,HAR,1:41:05.8,4:48.8
6,Craig,Green,HAR,1:43:42.6,4:56.3
7,Michael,Gillies Smith,BUAC,1:46:30.5,5:04.3
8,Craig,Graham,EGWK,2:03:29.6,5:52.8