PLACE, FIRST, LAST, TIME, PACE, CLUB
1,Nigel,Preston,0:28:08.8,03:42.2,UNI
2,Daniel,Plowright,0:29:25.1,03:52.2,SOUTH BENDIGO
3,Andrew,Hosking,0:29:31.2,03:53.1,UNI
4,Michael,Bieleny,0:29:41.7,03:54.4,UNI
5,Floyd,Cartner,0:30:35.6,04:01.5,UNI
6,Luke,Matthews,0:31:08.2,04:05.8,HARRIERS
7,Rossi,Evans,0:31:41.9,04:10.3,HARRIERS
8,Aaron,Norton,0:32:16.0,04:14.7,SOUTH BENDIGO
9,Richard,Martin,0:32:30.7,04:16.7,UNI
10,Max,Rowe,0:32:43.9,04:18.4,UNI
11,Jack,Milligan,0:33:25.6,04:23.9,UNI
12,Kelvin,Niblett,0:33:49.8,04:27.1,UNI
13,Josef,Stoltz,0:33:57.9,04:28.1,UNI
14,Trevor,Kelly,0:34:05.5,04:29.1,EAGLEHAWK
15,Mitch,Fitzgerald,0:34:15.8,04:30.5,OTHER
16,Greg,Hilson,0:34:22.4,04:31.4,SOUTH BENDIGO
17,Greg,Carter,0:36:16.9,04:46.4,UNI
18,Oscar,Stoltz,0:36:28.6,04:48.0,UNI
19,James,Harper,0:36:32.5,04:48.5,UNI
20,Kevin,Shanahan,0:38:12.5,05:01.6,EAGLEHAWK
21,James,Russell,0:38:20.7,05:02.7,UNI
22,Ricky,Ermel,0:39:10.1,05:09.2,HARRIERS
23,Hunter,Gill,0:39:59.1,05:15.7,HARRIERS
24,Darren,Rowe,0:40:23.9,05:18.9,UNI
25,Damien,Roberts,0:40:38.6,05:20.9,UNI
26,Richard,Marchingo,0:42:43.9,05:37.4,HARRIERS
27,Karl,Stoltz,0:44:40.5,05:52.7,UNI
28,Sam,Esmore,0:49:37.9,06:31.8,UNI
29,Garnet,Rodda,0:54:13.8,07:08.1,HARRIERS
