PLACE,FIRST,LAST,TIME,PACE,CLUB
1,Rebecca,Kirkby,0:29:53.3,04:16.2,UNI
2,Sheena,Carney,0:31:48.7,04:32.7,UNI
3,Kai,Thomsen,0:32:37.3,04:39.6,UNI
4,Mick,Hobson,0:33:05.7,04:43.7,HARRIERS
5,Abbey,Cartner,0:34:27.6,04:55.4,UNI
6,Craig,Green,0:35:53.6,05:07.7,UNI
7,Anthony,Byrne,0:39:21.8,05:37.4,UNI
8,Jon,McIntosh,0:39:34.7,05:39.2,UNI
9,Nadene,Macdonald,0:39:41.7,05:40.2,HARRIERS
10,Damien,Roberts,0:40:24.1,05:46.3,UNI
11,Sarah,Trew,0:40:39.1,05:48.4,UNI
12,Belinda,Dobbin,0:43:30.8,06:13.0,UNI
13,Brett,Dobbin,0:43:31.0,06:13.0,UNI
14,Kathryn,Heagney,0:44:10.9,06:18.7,EAGLEHAWK
15,Garnet,Rodda,0:45:23.1,06:29.0,HARRIERS
