Place,Member,First,Last,Start,Pace,Est Time
1,372,Belle,Howe,00:10,08:03,0:08:03.0
2,34,Matthew,Creer,00:10,07:59,0:07:59.0
3,244,Jaron,Ekanayake,00:20,07:50,0:07:50.0
4,375,Dylan,Deacon,00:40,07:30,0:07:30.0
5,368,Eden,Howes,00:50,07:23,0:07:23.0
6,379,Quinn,Holmes,00:50,07:22,0:07:22.0
7,205,Amelia,Charnas,01:00,07:10,0:07:10.0
8,322,Thom,Hosking,01:00,07:10,0:07:10.0
9,371,Sharon,Newton,01:10,07:01,0:07:01.0
10,128,George,Pitson,01:10,06:56,0:06:56.0
11,154,Sean,Hughan,01:50,06:23,0:06:23.0
12,135,Alexia,Woods,01:50,06:18,0:06:18.0
13,207,Lewis,Kallour,02:00,06:15,0:06:15.0
14,345,Jordan,Baker,02:00,06:15,0:06:15.0
15,335,Lenny,Hancock,02:00,06:13,0:06:13.0
16,258,Ivy,Bray,02:00,06:12,0:06:12.0
17,323,Jana,Steen,02:00,06:11,0:06:11.0
18,355,Millie,McIntosh,02:00,06:08,0:06:08.0
19,305,Jonty,McDermid,02:00,06:07,0:06:07.0
20,250,Tully,Cripps,02:10,06:04,0:06:04.0
21,348,Tazma,Ferrie,02:10,06:02,0:06:02.0
22,328,Daniel,Noble,02:10,06:01,0:06:01.0
23,378,Aidan,Deacon,02:10,05:57,0:05:57.0
24,25,Maddi,Bray,02:10,05:56,0:05:56.0
25,28,Mitchell,Bray,02:20,05:55,0:05:55.0
26,44,Geoffrey,Robinson,02:20,05:55,0:05:55.0
27,313,Layla,Boulger,02:20,05:53,0:05:53.0
28,324,Quinlan,Cody,02:20,05:52,0:05:52.0
29,246,Poppy,Wainwright,02:20,05:50,0:05:50.0
30,326,Sachin,Cody,02:20,05:50,0:05:50.0
31,281,Will,deVries,02:20,05:45,0:05:45.0
32,234,Finn,Cunningham,02:30,05:44,0:05:44.0
33,178,Annabel,Hancock,02:30,05:43,0:05:43.0
34,211,Jesse,Brook,02:30,05:43,0:05:43.0
35,255,Dylan,Sim,02:30,05:43,0:05:43.0
36,58,Archie,Ross,02:30,05:40,0:05:40.0
37,123,Harry,Terry,02:30,05:39,0:05:39.0
38,316,Isabella,Makris,02:30,05:38,0:05:38.0
39,216,Ava,Terry,02:30,05:37,0:05:37.0
40,174,Sam,Hancock,02:30,05:36,0:05:36.0
41,235,Aoife,Cunningham,02:40,05:35,0:05:35.0
42,293,Spencer,Lavery,02:40,05:35,0:05:35.0
43,358,Lewis,McIntosh,02:40,05:35,0:05:35.0
44,36,Henry,Turnbull,02:40,05:34,0:05:34.0
45,50,Harry,Cripps,02:40,05:34,0:05:34.0
46,175,Matilda,Wilby,02:40,05:32,0:05:32.0
47,298,Elliot,Lavery,02:40,05:32,0:05:32.0
48,282,Anna,deVries,02:40,05:30,0:05:30.0
49,271,Will,Smith,02:40,05:29,0:05:29.0
50,280,Paige,a'Beckett,02:40,05:25,0:05:25.0
51,261,Charlotte,Crane,02:50,05:20,0:05:20.0
52,284,Imogen,Stewart,02:50,05:20,0:05:20.0
53,245,Lacey,Wilkie,02:50,05:18,0:05:18.0
54,252,Jasmine,Murphy,02:50,05:18,0:05:18.0
55,260,Thomas,Henderson,02:50,05:18,0:05:18.0
56,172,Eloise,Wilby,02:50,05:17,0:05:17.0
57,209,Olivia,Douglas,02:50,05:17,0:05:17.0
58,232,Jack,Gleisner,02:50,05:17,0:05:17.0
59,290,Sabine,Stewart,03:00,05:14,0:05:14.0
60,353,Cooper,Holmes,03:00,05:11,0:05:11.0
61,262,Annabelle,McPhee,03:00,05:07,0:05:07.0
62,131,Carrisa,Brook,03:10,05:00,0:05:00.0
63,189,Tim,Creer,03:10,05:00,0:05:00.0
64,279,Lucy,McCaig,03:10,05:00,0:05:00.0
65,304,Stephanie,Carlson,03:10,05:00,0:05:00.0
66,381,April,Wainwright,03:10,05:00,0:05:00.0
67,195,Luke,Creer,03:10,04:59,0:04:59.0
68,249,Will,Gleisner,03:10,04:58,0:04:58.0
69,242,Halle,Blake-Burrows,03:10,04:57,0:04:57.0
70,229,Harrison,Pitson,03:10,04:56,0:04:56.0
71,295,Jeremy,Carlson,03:20,04:53,0:04:53.0
72,99,Oscar,Terry,03:20,04:52,0:04:52.0
73,105,Toby,McCaig,03:20,04:52,0:04:52.0
74,297,Declan,Lavery,03:20,04:51,0:04:51.0
75,191,Phoebe,Lonsdale,03:20,04:50,0:04:50.0
76,153,Tadhg,Hughan,03:20,04:48,0:04:48.0
77,362,Brody,Hale,03:20,04:47,0:04:47.0
78,283,Lily,Sanderson,03:20,04:46,0:04:46.0
79,228,Sam,Pitson,03:20,04:45,0:04:45.0
80,311,Jack,Kelly,03:30,04:44,0:04:44.0
81,276,Joshua,Feuerherdt,03:30,04:42,0:04:42.0
82,269,Cooper,Charnas,03:30,04:40,0:04:40.0
83,158,Annalise,Murphy,03:30,04:38,0:04:38.0
84,274,Avery,McDermid,03:30,04:38,0:04:38.0
85,238,Alex,Parry,03:30,04:36,0:04:36.0
86,300,Lucinda,Terry,03:40,04:29,0:04:29.0
87,277,Luke,Feuerherdt,03:40,04:25,0:04:25.0
88,83,Sam,Stewart,03:50,04:23,0:04:23.0
89,272,Abbey,Cartner,03:50,04:20,0:04:20.0
90,319,Nikolas,Makris,03:50,04:18,0:04:18.0
91,254,William,Robinson,03:50,04:16,0:04:16.0
92,327,Martin,Steen,03:50,04:16,0:04:16.0
93,112,Jett,Grundy,04:00,04:12,0:04:12.0
94,198,Matthew,Saxon,04:00,04:11,0:04:11.0
95,337,Steff,Roberts,04:00,04:09,0:04:09.0
96,266,Lewis,Lonsdale,04:00,04:05,0:04:05.0
97,147,Lachlan,Feuerherdt,04:10,04:01,0:04:01.0
98,320,Callum,Noble,04:10,04:01,0:04:01.0
99,171,Oliver,Sanderson,04:10,03:58,0:03:58.0
100,221,Billy,Meade,04:20,03:53,0:03:53.0
