Place,First,Last,NET Time,Pace,Diff
1,Bec,Murphy,0:17:17.4,05:45.8,+00:02.4
2,Beatrice,Lonsdale,0:14:23.4,04:47.8,+00:08.4
3,David,Howes,0:16:29.6,05:29.9,+00:05.6
4,Lucinda,Terry,0:15:33.1,05:11.0,+00:18.1
5,Lachlan,Feuerherdt,0:13:47.7,04:35.9,+00:17.7
6,Charlotte,Murphy,0:15:07.8,05:02.6,+00:13.8
7,Toby,McCaig,0:12:59.0,04:19.7,+00:14.0
8,Jeremy,Carlson,0:16:02.3,05:20.8,+00:17.3
9,Phoebe,Lonsdale,0:14:43.5,04:54.5,+00:28.5
10,Bridie,Blake-Burrows,0:12:19.4,04:06.5,+00:34.4
11,Stephen,Wainwright,0:15:23.2,05:07.7,+00:44.2
12,Sarah,Hadkins,0:18:18.3,06:06.1,+00:45.3
13,Max,Rowe,0:14:29.7,04:49.9,+00:44.7
14,Darren,Rowe,0:15:31.6,05:10.5,+00:55.6
15,Josephine,Robinson,0:18:23.8,06:07.9,+00:50.8
16,Phoebe,Martin,0:17:09.6,05:43.2,+01:03.6
17,Jack,Meade,0:12:00.3,04:00.1,+00:57.3
18,Tim,Hughan,0:19:47.8,06:35.9,+01:08.8
19,Will,Murphy,0:16:19.1,05:26.4,+01:10.1
20,Lynley,McDonald,0:19:28.6,06:29.5,+01:34.6
21,Nathan,Jones,0:17:47.7,05:55.9,+02:38.7
22,Annalise,Murphy,0:18:04.0,06:01.3,+03:19.0
23,Jasmine,Murphy,0:19:38.5,06:32.8,+03:47.5
24,Zach,Condon,0:22:00.2,07:20.1,+04:24.2
25,Leah,Cripps,0:27:00.1,09:00.0,+09:30.1
NEW,Aida,Escall,0:19:41.3,06:33.8
NEW,Tully,Cripps,0:26:53.4,08:57.8
