PLACE,FIRST,LAST,RACES,POINTS
1,Ben,McDermid,7,92
2,Rebecca,Wilkinson,6,90
3,Chris,Giffin,7,87
4,Andrew,Creer,5,76
5,Nicholas,Cherry,4,61
6,David,Lonsdale,5,59
7,Nigel,Preston,3,59
8,Matthew,Schepisi,3,57
9,Craig,Feuerherdt,3,56
10,Wil,McCaig,3,55
11,David,Heislers,5,48
12,David,Cripps,5,48
13,Damien,Roberts,7,45
14,Danny,Burgess,6,44
15,John,Robinson,4,39
16,Justin,Lee,7,34
17,Lee,McCullagh,2,34
18,Tim,Lauder,2,33
19,Rik,McCaig,2,32
20,Garry,Marwood,2,32
21,Greg,Carter,3,29
22,Craig,Green,4,25
23,Lisa,Wilkinson,5,21
24,Andrew,Buchanan,1,20
25,Stephen,van Rees,1,19
26,Jack,Milligan,2,19
27,Ben,Stolz,1,18
28,Alan,Buchanan,4,17
29,Andrew,Van Agtmaal,1,17
30,Brian,Watson,1,16
31,James,Russell,3,15
32,Andrew,Wilkie,2,13
33,Mumtaz,Hussain,4,11
34,Clare,Montgomery,3,10
35,Travis,Edwards,3,9
36,Ross,Douglas,5,7
37,Jenny,Buchanan,3,7
38,Todd,Foster,2,5
39,Shayne,Rushan,6,4
40,Tanner,Fear,1,4
41,Mathew,Creer,1,4
42,Alison,Cartner,2,3
43,Charles,Chambers,1,2
44,Leah,Cripps,5,2
45,Frances,Walsh,1,1
46,Darren,Rowe,6,1
47,Sue,Taylor,5,0
48,Kim,Carter,1,0
49,Trinity,Sanderson,2,0
50,Maree,Platt,4,0
51,Jay,Sanderson,1,0
52,Fiona,Dangerfield,2,0
53,Alan,East,3,0
54,Troy,Davis,3,0
55,Brad,Russell,2,0
56,Phoebe,Lonsdale,1,0
57,Josephine,Robinson,3,0
58,Jeremy,Draper,1,0
59,Jennifer,Lee,1,0
60,Beatrice,Lonsdale,1,0
61,Kathleen,Pleasants,3,0
62,Emma,Gibbons,2,0
63,Kevin,de Vries,2,0
64,Alistair,Stewart,1,0
65,Ann-Marie,Wangdi,1,0
66,Bec,Lacy,2,0
67,Leeza,Meharry,1,0
68,Justine,Rowe,4,0
69,Liz,Foster,2,0
70,Michaela,Meharry,1,0
71,Hamish,Draper,1,0
72,Megan,McDonald,1,0
73,Tyler,Wilkie,1,0
74,Mel,Debham,1,0
75,Genevieve,Draper,1,0
76,Gavin,Fiedler,3,0
77,David,Howes,3,0
78,Melissa,Wilkie,4,0
79,Charlotte,Murphy,1,0
80,Philip,Shambrook,3,0
81,Vicki,Lane,3,0
82,Beth,Lavery,4,0
83,Amelia,Mitchell,1,0
