Place,First,Last,NET Time,Pace,Diff
1,Andrea,Smith,0:49:02.4,04:54,-01:47.6
2,Stephen,van Rees,0:35:33.4,03:33,-01:16.6
3,Leah,Cripps,0:54:44.7,05:28,-01:05.3
4,Stephen,McConnell,0:50:06.3,05:01,-01:03.7
5,Renelle,McManus,1:02:25.6,06:15,-00:54.4
6,Justin,Lee,0:48:51.0,04:53,-00:49.0
7,Andrew,Creer,0:40:00.6,04:00,-00:39.4
8,Gavin,Fiedler,0:54:48.8,05:29,-00:11.2
9,Alison,Cartner,0:50:29.9,05:03,-00:10.1
10,Karl,Stoltz,0:48:12.5,04:49,-00:07.5
11,Sue,Taylor,0:59:17.7,05:56,-00:02.3
12,Craig,Green,0:40:16.4,04:02,+00:06.4
13,Shayne,Rushan,1:00:16.8,06:02,+00:26.8
14,Liz,Foster,0:52:50.9,05:17,+00:30.9
15,Darren,Rowe,0:49:35.9,04:58,+00:35.9
16,Greg,Carter,0:43:53.0,04:23,+00:43.0
17,Brad,Russell,0:52:09.1,05:13,+00:49.1
18,Brett,Dobbin,0:46:19.2,04:38,+00:59.2
19,Chris,Giffin,0:40:42.3,04:04,+01:02.3
20,David,Lonsdale,0:44:32.7,04:27,+01:02.7
21,Jack,Milligan,0:40:33.3,04:03,+01:03.3
22,Jayson,Carter,0:41:06.8,04:07,+01:16.8
23,Garry,Marwood,0:38:45.5,03:53,+01:45.5
24,Mumtaz,Hussain,0:47:38.9,04:46,+01:48.9
25,Jon,McIntosh,0:51:05.5,05:07,+01:55.5
26,Jennifer,Lee,1:01:26.0,06:09,+01:56.0
27,Maree,Platt,0:55:57.6,05:36,+01:57.6
28,Jeremy,Draper,0:58:49.5,05:53,+02:09.5
29,Sue,Anderton,1:00:29.6,06:03,+02:09.6
30,Damien,Roberts,0:52:20.0,05:14,+04:50.0
31,William,Robinson,0:53:28.3,05:21,+06:18.3
32,Ross,Douglas,1:01:11.1,06:07,+07:51.1
