place,member,first,last,start,Pace,est Time
1,257,Fin,Bray,0:00,7:59,23:57
2,222,Virginia,Grills-Marsily,1:20,7:35,22:45
3,212,Michelle,Parry,1:40,7:25,22:15
4,142,Zach,Condon,2:40,7:07,21:21
5,206,Elisa,Christie,3:10,6:55,20:45
6,148,Matisse,Grills-Marsily,3:40,6:45,20:15
7,155,Jasmine,Rielley,3:40,6:45,20:15
8,179,Paula,Rielley,3:40,6:45,20:15
9,146,David,Ashman,3:50,6:42,20:06
10,226,Drew,Parry,4:00,6:39,19:57
11,79,Liz,Stewart,4:20,6:35,19:45
12,106,Suellen,Bambrick,4:20,6:35,19:45
13,30,Amanda,Turnbull,4:40,6:28,19:24
14,43,Josephine,Robinson,4:40,6:28,19:24
15,159,Renelle,McManus,4:50,6:23,19:09
16,21,Michelle,Bieleny,5:00,6:20,19:00
17,208,Houston,Pearse,5:20,6:13,18:39
18,136,Livinia,Douglass,5:30,6:11,18:33
19,239,Paula,a'Beckett,5:30,6:09,18:27
20,225,Lesley,Fabian,5:40,6:06,18:18
21,229,Harrison,Pitson,5:50,6:02,18:06
22,101,Paula,Saxon,6:00,6:00,18:00
23,173,Melanie,Cuzzillo,6:00,6:00,18:00
24,282,Anna,deVries,6:00,6:01,18:03
25,292,Jye,Ekanayake,6:00,5:59,17:57
26,151,Jo,Williams,6:10,5:58,17:54
27,24,Karina,Bray,6:20,5:52,17:36
28,52,Leah,Cripps,6:30,5:50,17:30
29,195,Luke,Creer,6:30,5:50,17:30
30,66,Megan,McDonald,6:40,5:45,17:15
31,149,Janelle,Giffin,6:40,5:46,17:18
32,147,Lachlan,Feuerherdt,6:50,5:43,17:09
33,150,Rebecca,Ashman,6:50,5:43,17:09
34,310,Melanie,Makris,6:50,5:42,17:06
35,89,Natalie,Watson,7:00,5:39,16:57
36,187,Nicole,Kelly,7:00,5:40,17:00
37,243,Max,Bray,7:00,5:40,17:00
38,99,Oscar,Terry,7:10,5:35,16:45
39,157,Bec,Murphy,7:10,5:35,16:45
40,210,Fiona,Dangerfield,7:10,5:35,16:45
41,214,Amy,Sim,7:10,5:37,16:51
42,98,Tanya,Fleming,7:20,5:34,16:42
43,263,Narelle,McPhee,7:20,5:34,16:42
44,133,Gemma,McPhee,7:30,5:30,16:30
45,170,Abbey,Saxon,7:30,5:31,16:33
46,190,Micheala,Meharry,7:30,5:29,16:27
47,200,Jack,Cripps,7:30,5:29,16:27
48,230,McKinley,Grills-Marsily,7:30,5:30,16:30
49,233,Sue,Condon,7:30,5:30,16:30
50,237,Lou,Bray,7:30,5:30,16:30
51,270,Tyler,Wilkie,7:30,5:30,16:30
52,152,Alannah,Rielley,7:40,5:26,16:18
53,249,Will,Gleisner,7:40,5:28,16:24
54,277,Luke,Feuerherdt,7:40,5:26,16:18
55,1,Ashlee,Bull,7:50,5:22,16:06
56,11,Jane,McCaig,7:50,5:23,16:09
57,188,Darcy,Tucker,7:50,5:23,16:09
58,189,Tim,Creer,7:50,5:25,16:15
59,215,Emerson,Sim,7:50,5:25,16:15
60,253,Charlotte,Murphy,7:50,5:22,16:06
61,269,Cooper,Charnas,7:50,5:25,16:15
62,274,Avery,McDermid,7:50,5:24,16:12
63,297,Declan,Lavery,7:50,5:25,16:15
64,164,Imogen,Thompson,8:00,5:19,15:57
65,174,Sam,Hancock,8:00,5:20,16:00
66,182,Hanna,Crane,8:00,5:21,16:03
67,242,Halle,Blake-Burrows,8:00,5:20,16:00
68,134,Millicent,Woods,8:10,5:18,15:54
69,240,Jenelle,Seaward,8:10,5:17,15:51
70,288,Kate,McIntosh,8:10,5:18,15:54
71,132,Tracie,Gleisner,8:20,5:15,15:45
72,176,Kaidyn,Tucker,8:20,5:12,15:36
73,193,Emily,Heislers,8:20,5:15,15:45
74,228,Sam,Pitson,8:20,5:14,15:42
75,295,Jeremy,Carlson,8:20,5:12,15:36
76,300,Lucinda,Terry,8:20,5:15,15:45
77,32,Oliver,Turnbull,8:30,5:10,15:30
78,156,Will,Murphy,8:40,5:07,15:21
79,110,Holly,McPhee,8:50,5:04,15:12
80,275,Max,Rowe,9:00,5:00,15:00
81,112,Jett,Grundy,9:10,4:57,14:51
82,158,Annalise,Murphy,9:10,4:58,14:54
83,171,Oliver,Sanderson,9:10,4:58,14:54
84,241,Andrea,Smith,9:10,4:57,14:51
85,325,Tom,Flood,9:10,4:55,14:45
86,349,Nathaniel,McMaster,9:20,4:54,14:42
87,77,Brad,Russell,9:30,4:50,14:30
88,169,Floyd,Cartner,9:30,4:49,14:27
89,213,Phoebe,a'Beckett,9:30,4:51,14:33
90,94,David,Lonsdale,9:40,4:46,14:18
91,29,Alison,Cartner,9:50,4:42,14:06
92,82,Sophie,Adamson,9:50,4:45,14:15
93,107,Hayden,Brook,9:50,4:44,14:12
94,191,Phoebe,Lonsdale,9:50,4:45,14:15
95,184,Will,Crane,10:00,4:40,14:00
96,227,Joseph,Glanville,10:00,4:40,14:00
97,35,Conor,Cunningham,10:10,4:38,13:54
98,131,Carrisa,Brook,10:10,4:38,13:54
99,259,Jasmine,Santley,10:10,4:37,13:51
100,314,Aaron,Hamilton,10:10,4:35,13:45
101,39,Melissa,Douglas,10:20,4:32,13:36
102,201,Beatrice,Lonsdale,10:20,4:34,13:42
103,198,Matthew,Saxon,10:30,4:31,13:33
104,12,Josie,Aitken,11:00,4:21,13:03
105,177,Ben,Wilby,11:00,4:20,13:00
106,192,Nicholas,Ashman,11:00,4:20,13:00
107,63,John,Robinson,11:30,4:10,12:30
108,105,Toby,McCaig,11:30,4:10,12:30
109,161,Amelia,Evans,11:30,4:11,12:33
110,218,Noah,Walsh,11:30,4:09,12:27
111,236,Harry,Seaward,11:30,4:11,12:33
112,202,Callum,Tucker,11:40,4:07,12:21
113,203,Tullie,Rowe,11:40,4:08,12:24
114,219,Wil,McCaig,11:40,4:08,12:24
115,224,Cooper,Hale,11:40,4:06,12:18
116,114,Spencer,Evans,11:50,4:03,12:09
117,80,Bridie,Blake-Burrows,12:00,4:00,12:00
118,19,Troy,Cartner,12:10,3:56,11:48
119,137,Anton,Paholek,12:10,3:57,11:51
120,42,Craig,Feuerherdt,12:30,3:50,11:30
121,143,Maxine,Paholek,12:30,3:50,11:30
122,167,Jack,Meade,12:50,3:43,11:09
123,33,Andrew,Creer,13:10,3:35,10:45
124,115,Alexander,Evans,13:30,3:31,10:33
125,46,Richard,Gleisner,13:50,3:23,10:09
126,97,Adam,Fleming,14:10,3:18,9:54
127,27,Andrew,Buchanan,14:50,3:04,9:12