place,first,last,net Time,diff
1,Spencer,Lavery,5:35,-0:40
2,Tadhg,Hughan,5:21,-0:11
3,Lily,Sanderson,4:46,-0:00
4,Oscar,Terry,4:47,-0:05
5,Thom,Hosking,7:10,-0:02
6,Sachin,Cody,7:11,-0:01
7,Declan,Lavery,4:55,0:04
8,Billy,Meade,4:08,0:09
9,Mitchell,Bray,5:59,0:07
10,Isabella,Makris,5:51,0:13
11,Ava,Terry,5:51,0:14
12,Sean,Hughan,8:11,0:12
13,Quinlan,Cody,7:13,0:14
14,Lewis,Lonsdale,4:34,0:14
15,Lachlan,Feuerherdt,4:24,0:14
16,Joshua,Feuerherdt,5:16,0:15
17,Luke,Feuerherdt,4:48,0:21
18,Nikolas,Makris,4:36,0:22
19,Elliot,Lavery,5:59,0:27
20,Lucy,McCaig,5:19,0:30
21,Tim,Creer,5:13,0:30
22,Olivia,Douglas,7:08,1:11