PLACE,FIRST,LAST,TIME,PACE,CLUB
1,Tullie,Rowe,0:12:37.3,04:08.3,UNI
2,Gabrielle,Rusbridge,0:12:57.3,04:14.9,EAGLEHAWK
3,Charlotte,Murphy,0:13:08.9,04:18.7,UNI
4,Phoebe,Lonsdale,0:13:11.1,04:19.4,UNI
5,Beatrice,Lonsdale,0:13:43.5,04:30.0,UNI
6,Jazlin,Fear,0:14:01.4,04:35.9,UNI
7,Abbey,Cartner,0:14:56.4,04:53.9,UNI
8,Claire,McCay,0:15:14.3,04:59.8,HARRIERS
9,Chloe,Green,0:15:23.9,05:02.9,UNI
10,Amanda,Worthington,0:15:47.2,05:10.6,SOUTH BENDIGO
11,Ella,Smith,0:16:14.2,05:19.4,UNI
12,Ruth,Eadon,0:16:25.4,05:23.1,HARRIERS
13,Jasmine,Murphy,0:16:40.6,05:28.1,UNI
14,John,Justice,0:17:27.4,05:43.4,SOUTH BENDIGO
15,Ashleigh,Hallinan,0:17:34.2,05:45.6,HARRIERS
16,Jocelyn,Hall,0:17:39.1,05:47.2,HARRIERS
17,Taylor,Stibbe,0:17:59.5,05:53.9,HARRIERS
18,Ashlie,Thomas,0:18:01.1,05:54.5,HARRIERS
19,Kathy,Heahney,0:18:01.4,05:54.6,EAGLEHAWK
20,Clare,Burmester,0:18:09.5,05:57.2,HARRIERS
21,Aida,Escall,0:18:24.4,06:02.1,UNI
22,Leah,Langtree,0:18:49.6,06:10.4,EAGLEHAWK
23,Fiona,Preston,0:19:23.9,06:21.6,UNI
24,Olivia,Graham,0:19:53.5,06:31.3,EAGLEHAWK
25,Genevieve,Draper,0:22:40.4,07:26.0,UNI
26,Isabella,Draper,0:22:40.9,07:26.2,UNI
27,Wendy,Ennor,0:26:06.3,08:33.5,EAGLEHAWK
