Place,Member,First,Last,Start,Pace,Est Time
1,382,Genevieve,Robinson,00:20,07:40,0:07:40.0
2,379,Quinn,Holmes,00:40,07:22,0:07:22.0
3,3708,Janine,Butcher,01:10,06:51,0:06:51.0
4,390,Ruby,Douglas,01:40,06:25,0:06:25.0
5,335,Lenny,Hancock,01:40,06:15,0:06:15.0
6,154,Sean,Hughan,01:40,06:15,0:06:15.0
7,211,Jesse,Brook,02:00,06:03,0:06:03.0
8,348,Tazma,Ferrie,02:00,06:02,0:06:02.0
9,326,Sachin,Cody,02:10,05:50,0:05:50.0
10,355,Millie,McIntosh,02:10,05:47,0:05:47.0
11,372,Belle,Howes,02:10,05:47,0:05:47.0
12,381,April,Wainwright,02:20,05:44,0:05:44.0
13,178,Annabel,Hancock,02:20,05:43,0:05:43.0
14,3704,Callen,Bayliss,02:20,05:42,0:05:42.0
15,216,Ava,Terry,02:20,05:41,0:05:41.0
16,123,Michael,Terry,02:20,05:39,0:05:39.0
17,174,Sam,Hancock,02:20,05:36,0:05:36.0
18,250,Tully,Cripps,02:20,05:35,0:05:35.0
19,28,Mitchell,Bray,02:20,05:35,0:05:35.0
20,345,Jordan,Baker,02:30,05:33,0:05:33.0
21,324,Quinlan,Cody,02:30,05:32,0:05:32.0
22,298,Elliot,Lavery,02:30,05:32,0:05:32.0
23,271,Will,Smith,02:30,05:29,0:05:29.0
24,209,Olivia,Douglas,02:30,05:26,0:05:26.0
25,246,Poppy,Wainwright,02:40,05:25,0:05:25.0
26,284,Imogen,Stewart,02:40,05:20,0:05:20.0
27,260,Thomas,Henderson,02:40,05:18,0:05:18.0
28,50,Harry,Cripps,02:40,05:18,0:05:18.0
29,305,Jonty,McDermid,02:40,05:15,0:05:15.0
30,368,Eden,Howes,02:40,05:15,0:05:15.0
31,44,Geoffrey,Robinson,02:40,05:15,0:05:15.0
32,245,Lacey,Wilkie,02:50,05:12,0:05:12.0
33,258,Ivy,Bray,02:50,05:10,0:05:10.0
34,360,Phoebe,Martin,02:50,05:09,0:05:09.0
35,3711,Eryn,McManus,03:00,05:05,0:05:05.0
36,358,Lewis,McIntosh,03:00,05:04,0:05:04.0
37,3709,Scott,Butcher,03:00,05:00,0:05:00.0
38,293,Spencer,Lavery,03:10,04:51,0:04:51.0
39,391,Sebastian,Boromeo,03:10,04:49,0:04:49.0
40,3710,Kayla,McManus,03:10,04:48,0:04:48.0
41,283,Lily,Sanderson,03:10,04:46,0:04:46.0
42,297,Declan,Lavery,03:20,04:44,0:04:44.0
43,276,Joshua,Feuerherdt,03:20,04:37,0:04:37.0
44,281,Will,deVries,03:20,04:35,0:04:35.0
45,279,Lucy,McCaig,03:30,04:33,0:04:33.0
46,153,Tadhg,Hughan,03:30,04:33,0:04:33.0
47,3706,Ebony,Butcher,03:30,04:32,0:04:32.0
48,99,Oscar,Terry,03:30,04:32,0:04:32.0
49,274,Avery,McDermid,03:30,04:27,0:04:27.0
50,319,Nikolas,Makris,03:40,04:20,0:04:20.0
51,266,Lewis,Lonsdale,03:40,04:18,0:04:18.0
52,277,Luke,Feuerherdt,03:40,04:16,0:04:16.0
53,272,Abbey,Cartner,03:50,04:13,0:04:13.0
54,254,William,Robinson,03:50,04:11,0:04:11.0
55,337,Steff,Roberts,03:50,04:09,0:04:09.0
56,189,Tim,Creer,04:00,04:03,0:04:03.0
57,191,Phoebe,Lonsdale,04:00,04:00,0:04:00.0
58,147,Lachlan,Feuerherdt,04:00,03:59,0:03:59.0
59,131,Carrisa,Brook,04:00,03:55,0:03:55.0
