Place,First,Last,NET Time,Pace,Diff
1,Ebony,Butcher,0:16:12.5,05:38,-05:35.0
2,Janine,Butcher,0:22:41.0,07:53,-00:21.4
3,Charlotte,Murphy,0:14:00.9,04:52,-00:17.3
4,Tyler,Wilkie,0:14:46.6,05:08,-00:12.0
5,Tanner,Fear,0:13:37.9,04:44,-00:11.5
6,Trent,Bayliss,0:15:58.6,05:33,+00:08.2
7,Luke,Creer,0:17:37.1,06:07,+00:26.1
8,Connor,Bedson,0:13:20.7,04:38,+00:28.9
9,Jazlin,Fear,0:14:43.6,05:07,+00:42.6
10,Abbey,Cartner,0:14:30.0,05:02,+00:52.1
11,Emerson,Sim,0:15:37.5,05:26,+00:53.3
12,Melissa,Douglas,0:12:53.6,04:29,+00:53.6
13,Max,Rowe,0:14:04.1,04:53,+01:06.5
14,Renelle,McManus,0:18:38.2,06:28,+01:07.0
15,Tim,Creer,0:13:31.0,04:42,+01:13.7
16,Lachlan,Feuerherdt,0:14:23.8,05:00,+01:20.4
17,Rebecca,Ashman,0:18:43.9,06:30,+01:21.3
18,Bridie,Blake-Burrows,0:12:38.4,04:23,+01:21.6
19,Matthew,Saxon,0:14:31.4,05:03,+01:25.2
20,Greg,Toomey,0:18:13.4,06:20,+01:31.2
21,Megan,McDonald,0:18:26.6,06:24,+01:38.6
22,Bec,Lacy,0:17:46.8,06:10,+01:42.0
23,Louise,Toomey,0:18:32.4,06:26,+01:44.4
24,Tullie,Rowe,0:14:01.6,04:52,+02:44.8
25,Beatrice,Lonsdale,0:15:43.9,05:28,+02:52.1
26,Mark,Saxon,0:14:54.3,05:11,+02:54.3
27,Phoebe,Martin,0:18:27.5,06:25,+03:00.1
28,John,Robinson,0:15:53.7,05:31,+03:47.9
29,Lynley,McDonald,0:20:12.4,07:01,+04:13.4
NEW,Matthew,Creer,0:14:58.1,05:12
NEW,Tanya,Fleming,0:18:35.7,06:27
NEW,Floyd,Cartner,0:12:52.3,04:28
NEW,William,Robinson,0:15:54.0,05:31
NEW,David,Cripps,0:14:19.9,04:59
NEW,Kyle,Butcher,0:13:00.9,04:31
NEW,Scott,Butcher,0:23:13.3,08:04
NEW,Chloe,Green,0:16:30.4,05:44
