PLACE,FIRST,LAST,TIME,PACE,CLUB
1,Tarli,Bird,0:28:55.4,03:48.3,OTHER
2,Rebecca,Wilkinson,0:31:47.9,04:11.0,UNI
3,Jill,Wilkie,0:33:05.9,04:21.3,HARRIERS
4,Anne ,Buckley,0:34:54.3,04:35.6,HARRIERS
5,Melissa,Douglas,0:35:14.0,04:38.2,UNI
6,Lisa,Wilkinson,0:35:22.6,04:39.3,UNI
7,Alice,Wilkisnon,0:37:00.9,04:52.2,HARRIERS
8,Clare,Montgomery,0:37:08.7,04:53.2,UNI
9,Janet,Hodnett,0:38:17.7,05:02.3,UNI
10,Alison,Cartner,0:38:36.8,05:04.8,UNI
11,Sarah,Ketterer,0:38:36.9,05:04.9,SOUTH BENDIGO
12,Jan,Densley,0:38:43.4,05:05.7,UNI
13,Tina,McBain,0:39:52.2,05:14.8,UNI
14,Maree,Platt,0:40:31.8,05:20.0,UNI
15,Leah,Cripps,0:41:37.2,05:28.6,UNI
16,Wendy,Stibbe,0:42:10.3,05:32.9,HARRIERS
17,Nadene,Macdonald,0:42:46.8,05:37.7,HARRIERS
18,Matilda,Gibbs,0:44:14.5,05:49.3,HARRIERS
19,Vicki,Lane,0:45:16.2,05:57.4,UNI
20,Melinda,Gilligan,0:51:00.2,06:42.7,HARRIERS
