PLACE,FIRST,LAST,TIME,PACE,CLUB
1,Chelsea,Tickell,0:04:08.8,04:08.8,SOUTH BENDIGO
2,Lily,Sanderson,0:04:48.2,04:48.2,UNI
3,April,Wainwright,0:04:49.5,04:49.5,UNI
4,Ebony,Woodward,0:04:49.7,04:49.7,UNI
5,Skylar,Woodward,0:05:16.7,05:16.7,UNI
6,Poppy,Wainwright,0:05:23.9,05:23.9,UNI
7,Eiliyah,Daneen,0:05:25.1,05:25.1,UNI
8,Jemma,Carter,0:05:26.4,05:26.4,UNI
9,Tully,Cripps,0:05:54.5,05:54.5,UNI
10,Chloe,Beesley,0:05:56.4,05:56.4,UNI
11,Olivia,Douglas,0:06:12.6,06:12.6,UNI
12,Delaney,Boyd,0:07:20.4,07:20.4,HARRIERS
13,Ellie,Beesley,0:07:31.6,07:31.6,UNI
14,Ruby,Douglas,0:07:42.7,07:42.7,UNI
15,Edie,Gibbons,0:07:53.2,07:53.2,UNI
16,Genevieve,Robinson,0:09:34.4,09:34.4,UNI
