PLACE,FIRST,LAST,TIME,PACE,CLUB
1,Chelsea,Tickell,0:04:08.8,04:08.8,SOUTH BENDIGO
2,Poppy,Wainwright,0:05:23.9,05:23.9,UNI
3,Eiliyah,Daneen,0:05:25.1,05:25.1,UNI
4,Jemma,Carter,0:05:26.4,05:26.4,UNI
5,Tully,Cripps,0:05:54.5,05:54.5,UNI
6,Olivia,Douglas,0:06:12.6,06:12.6,UNI
