PLACE, FIRST, LAST, TIME, PACE, CLUB
1,Tullie,Rowe,0:12:18.0,04:02.0,UNI
2,Phoebe,Lonsdale,0:12:53.2,04:13.5,UNI
3,Izzy,James-McCloy,0:13:21.3,04:22.7,UNI
4,Genevieve,Nihill,0:13:33.6,04:26.8,SOUTH BENDIGO
5,Megan,Wilson,0:13:41.9,04:29.5,SOUTH BENDIGO
6,Charlotte,Murphy,0:13:57.7,04:34.7,UNI
