place,first,last,net Time,diff
1,Brett,Houlden,39:43,- 4:47
2,Joe,Hartney,33:24,- 1:59
3,Simon,Austin,28:23,- 1:52
4,Scott,Roberts,37:06,- 1:31
5,Angela,Slattery,39:04,- 1:18
6,Brendan,Munge,30:01,- 1:14
7,Ben,McDermid,28:11,- 1:04
8,David,Ottrey,30:51,- 1:01
9,Shayne,Rushan,39:07,- 0:53
10,Erica,Wilkinson,32:28,- 0:32
11,Mikhaela,Wilson,41:07,- 0:30
12,Aaron,Anderson,33:30,- 0:30
13,Michael,Hogan,32:18,- 0:27
14,Gaby,Walsh,39:03,- 0:20
15,Justin,Lee,33:20,- 0:17
16,Gavin,Fiedler,31:32,- 0:13
17,Shann,Anderson,41:57,+ 0:05
18,Fraser,Walsh,28:37,+ 0:07
19,Tracy,Wilson,31:55,+ 0:10
20,David,Heislers,35:07,+ 0:15
21,Jennifer,Jones,37:20,+ 0:20
22,Ingrid,Douglass,34:36,+ 0:36
23,Leon,Hamond,32:46,+ 0:38
24,Jaclyn,Munge,35:40,+ 0:40
25,David,Tarrant,30:25,+ 0:40
26,Steve,Brereton,31:36,+ 0:51
27,Craig,Hunter,36:37,+ 1:07
28,Jenny,Buchanan,38:15,+ 1:07
29,Maria,Slater,35:31,+ 1:08
30,Alison,Cartner,36:12,+ 1:20
31,Gary,Crouch,32:50,+ 1:20
32,Janet,Hodnett,37:36,+ 1:21
33,Lucy,Ruck,38:00,+ 1:37
34,John,Brewin,38:11,+ 1:41
35,Steve,Corrie,31:21,+ 2:14
36,Emma,Moylan,38:01,+ 2:16
37,Thomas,Mosley,33:50,+ 3:50
38,Ned,Slater,37:13,+ 7:13
39,Chris,McCormack,40:10,+ 9:18
40,Drew,Cahill,52:20,+ 12:05
41,Ella,Wright,44:22,+ 18:07
42,Lilly,Cahill,52:20,+ 26:05