place,first,last,net Time,diff
1,Matthew,Saxon,16:03.7,- 0:03.7
2,Will,McCaig,15:04.9,- 0:04.9
3,Mark,Saxon,14:47.0,+ 0:23.0
4,Carrisa,Brook,15:29.2,- 0:24.2
5,Lucinda,Terry,21:26.8,- 0:26.8
6,Suellen,Bambrick,20:55.0,+ 0:35.0
7,Emma,Neilson,23:10.0,- 1:10.0
8,Will,Neilson,14:00.9,- 1:30.9
9,Tullie,Rowe,15:42.3,- 1:32.3
10,Nick,Neilson,13:37.2,- 1:37.2
11,Ross,Douglas,19:27.6,- 2:02.6
12,Megan,Neilson,18:23.8,+ 2:36.2
13,Max,Rowe,18:59.9,- 3:54.9
14,Oscar,Terry,20:02.4,- 5:02.4
15,Marnie,Neilson,19:18.4,+ 6:41.6