Place,Member,First,Last,Start,Pace,Est Time
1,3748,Amelia,Mitchell,00:00,07:59,0:24:40.1
2,3781,Hamish,Draper,00:00,07:59,0:24:40.1
3,3782,Owen,Draper,00:00,07:59,0:24:40.1
4,1038,Xavier,Marwood,01:50,07:24,0:22:52.0
5,3708,Janine,Butcher,02:00,07:22,0:22:45.8
6,44,Geoffrey,Robinson,02:10,07:17,0:22:30.3
7,3750,Genevieve,Draper,02:50,07:04,0:21:50.2
8,1039,Melinda,Marwood,03:20,06:56,0:21:25.4
9,2,Alan,East,03:30,06:53,0:21:16.2
10,3749,Isabella,Draper,04:10,06:38,0:20:29.8
11,3709,Scott,Butcher,04:30,06:33,0:20:14.4
12,3720,Bec,Woodward,04:50,06:27,0:19:55.8
13,347,Louise,Toomey,04:50,06:26,0:19:52.7
14,3776,Kathleen,Pleasants,04:50,06:26,0:19:52.7
15,100,Justine,Rowe,04:50,06:25,0:19:49.6
16,150,Rebecca,Ashman,05:20,06:15,0:19:18.8
17,356,Lynley,McDonald,05:30,06:14,0:19:15.7
18,341,Greg,Toomey,05:30,06:12,0:19:09.5
19,50,Harry,Cripps,05:50,06:07,0:18:54.0
20,159,Renelle,McManus,06:00,06:05,0:18:47.8
21,3779,Mathilda,Stewart,06:00,06:05,0:18:47.8
22,210,Fiona,Dangerfield,06:10,06:01,0:18:35.5
23,1019,Christopher,Epworth,06:10,06:01,0:18:35.5
24,3729,Fiona,Preston,06:10,06:01,0:18:35.5
25,237,Lou,Bray,06:30,05:55,0:18:17.0
26,3741,Kim,Carter,06:30,05:55,0:18:17.0
27,98,Tanya,Fleming,06:30,05:54,0:18:13.9
28,225,Lesley,Fabian,06:40,05:50,0:18:01.5
29,277,Luke,Feuerherdt,06:40,05:49,0:17:58.4
30,397,Taylor,Lovell,06:50,05:47,0:17:52.2
31,40,Aida,Escall,07:00,05:45,0:17:46.0
32,156,Will,Murphy,07:00,05:44,0:17:43.0
33,3716,Gus,Edwards,07:00,05:43,0:17:39.9
34,157,Bec,Lacy,07:10,05:42,0:17:36.8
35,54,Kevin,de Vries,07:10,05:40,0:17:30.6
36,66,Megan,McDonald,07:20,05:39,0:17:27.5
37,1002,Tammy,Fear,07:30,05:35,0:17:15.1
38,3777,Alistair,Stewart,07:30,05:35,0:17:15.1
39,214,Amy,Sim,07:30,05:34,0:17:12.1
40,1033,Sal,Ekanayake,07:40,05:32,0:17:05.9
41,3722,Natasha,Dean,07:40,05:31,0:17:02.8
42,360,Phoebe,Martin,07:40,05:30,0:16:59.7
43,398,Angus,McPherson,07:40,05:30,0:16:59.7
44,3706,Ebony,Butcher,07:40,05:30,0:16:59.7
45,52,Leah,Cripps,07:50,05:27,0:16:50.4
46,3703,Trent,Bayliss,08:00,05:26,0:16:47.3
47,220,Ella,Meharry,08:00,05:25,0:16:44.2
48,1015,Miller,Armstrong,08:00,05:24,0:16:41.2
49,251,Beth,Lavery,08:10,05:23,0:16:38.1
50,1017,Scott,Broad,08:10,05:21,0:16:31.9
51,281,Will,de Vries,08:10,05:20,0:16:28.8
52,16,Jennifer,Lee,08:20,05:18,0:16:22.6
53,236,Harry,Seaward,08:20,05:18,0:16:22.6
54,359,Anne,McIntosh,08:20,05:18,0:16:22.6
55,3721,Gabrielle,Dean,08:40,05:12,0:16:04.1
56,78,Mark,Saxon,08:40,05:11,0:16:01.0
57,1016,Noah,Armstrong,08:40,05:11,0:16:01.0
58,195,Luke,Creer,08:50,05:10,0:15:57.9
59,252,Jasmine,Murphy,08:50,05:10,0:15:57.9
60,305,Jonty,McDermid,08:50,05:10,0:15:57.9
61,1030,Ella,Smith,08:50,05:10,0:15:57.9
62,13,Gavin,Fiedler,08:50,05:09,0:15:54.8
63,95,Jason,Sim,08:50,05:08,0:15:51.7
64,215,Emerson,Sim,08:50,05:07,0:15:48.6
65,400,Darren,Rowe,09:00,05:06,0:15:45.5
66,1012,Danny,Breen,09:00,05:06,0:15:45.5
67,29,Alison,Cartner,09:00,05:05,0:15:42.4
68,198,Matthew,Saxon,09:10,05:03,0:15:36.3
69,3715,Chloe,Green,09:10,05:02,0:15:33.2
70,3785,Jake,Wight,09:20,04:59,0:15:23.9
71,22,Ross,Douglas,09:20,04:58,0:15:20.8
72,270,Tyler,Wilkie,09:20,04:58,0:15:20.8
73,1037,Ethen,Marwood,09:20,04:58,0:15:20.8
74,292,Jye,Ekanayake,09:30,04:56,0:15:14.6
75,274,Avery,McDermid,09:30,04:55,0:15:11.5
76,3793,Anna,Christen,09:30,04:54,0:15:08.5
77,34,Mathew,Creer,09:40,04:51,0:14:59.2
78,266,Lewis,Lonsdale,09:40,04:51,0:14:59.2
79,267,Kayla,McManus,09:50,04:49,0:14:53.0
80,9,Trinity,Sanderson,10:00,04:46,0:14:43.7
81,296,Ashlee,Diston,10:00,04:46,0:14:43.7
82,3735,Travis,Edwards,10:00,04:45,0:14:40.6
83,201,Beatrice,Lonsdale,10:10,04:41,0:14:28.3
84,241,Andrea,Smith,10:10,04:41,0:14:28.3
85,272,Abbey,Cartner,10:10,04:41,0:14:28.3
86,1013,Jonte,Breen,10:10,04:41,0:14:28.3
87,244,Jaron,Ekanayake,10:20,04:38,0:14:19.0
88,254,William,Robinson,10:30,04:37,0:14:15.9
89,109,Tim,Lovell,10:40,04:33,0:14:03.6
90,55,Justin,Lee,10:50,04:31,0:13:57.4
91,3707,Kyle,Butcher,10:50,04:31,0:13:57.4
92,3713,Jazlin,Fear,10:50,04:31,0:13:57.4
93,3738,Mason,Woodward,10:50,04:30,0:13:54.3
94,3745,Gus,MacGregor,10:50,04:30,0:13:54.3
95,387,Connor,Bedson,10:50,04:29,0:13:51.2
96,147,Lachlan,Feuerherdt,11:00,04:28,0:13:48.1
97,3717,Lachlan,Edwards,11:00,04:27,0:13:45.0
98,3744,Finn,MacGregor,11:00,04:27,0:13:45.0
99,191,Phoebe,Lonsdale,11:00,04:26,0:13:41.9
100,253,Charlotte,Murphy,11:00,04:25,0:13:38.8
101,39,Melissa,Douglas,11:10,04:24,0:13:35.8
102,350,David,Cripps,11:10,04:23,0:13:32.7
103,369,Stephen,Wainwright,11:10,04:23,0:13:32.7
104,339,James,Toomey,11:10,04:22,0:13:29.6
105,189,Tim,Creer,11:20,04:20,0:13:23.4
106,386,Danny,Burgess,11:20,04:20,0:13:23.4
107,1029,James,Trew,11:20,04:19,0:13:20.3
108,3714,Tanner,Fear,11:30,04:16,0:13:11.0
109,169,Floyd,Cartner,11:40,04:12,0:12:58.7
110,80,Bridie,Blake-Burrows,11:50,04:11,0:12:55.6
111,105,Toby,McCaig,11:50,04:10,0:12:52.5
112,63,John,Robinson,12:10,04:04,0:12:34.0
113,1036,Harry,Wright,12:10,04:04,0:12:34.0
114,308,Chris,Giffin,12:10,04:03,0:12:30.9
115,275,Max,Rowe,12:20,04:00,0:12:21.6
116,203,Tullie,Rowe,12:20,03:59,0:12:18.5
117,1031,Jack,Milligan,12:20,03:59,0:12:18.5
118,84,Craig,Green,12:40,03:53,0:11:60.0
119,65,Ben,McDermid,12:50,03:51,0:11:53.8
120,171,Oliver,Sanderson,12:50,03:51,0:11:53.8
121,42,Craig,Feuerherdt,13:00,03:49,0:11:47.6
122,219,Wil,McCaig,13:40,03:35,0:11:04.4
