Place,Member,First,Last,Start,Pace,Est Time
1,159,Renelle,McManus,00:00,08:00,1:20:00.0
2,806,Kerry,Amor,07:30,07:15,1:12:30.0
3,3776,Kathleen,Pleasants,07:30,07:15,1:12:30.0
4,356,Lynley,McDonald,08:40,07:08,1:11:20.0
5,74,Maree,Platt,15:00,06:30,1:05:00.0
6,427,Cath,O'Leary,16:40,06:20,1:03:20.0
7,814,Sam,Esmore,17:00,06:18,1:03:00.0
8,54,Kevin,de Vries,17:30,06:15,1:02:30.0
9,210,Fiona,Dangerfield,17:30,06:15,1:02:30.0
10,1025,Liz,Foster,18:20,06:10,1:01:40.0
11,39,Melissa,Douglas,18:40,06:08,1:01:20.0
12,6,Shayne,Rushan,20:00,06:00,1:00:00.0
13,22,Ross,Douglas,20:00,06:00,1:00:00.0
14,449,Belinda,Whelan,20:00,06:00,1:00:00.0
15,458,Caitlin,Clarke,20:50,05:55,0:59:10.0
16,3740,Vicki,Lane,20:50,05:55,0:59:10.0
17,76,Cara,Smith,21:40,05:50,0:58:20.0
18,1028,Mel,Debnam-Smith,21:40,05:50,0:58:20.0
19,3758,Janis,Bull,21:40,05:50,0:58:20.0
20,3777,Alistair,Stewart,21:40,05:50,0:58:20.0
21,182,Hannah,Crane,22:00,05:48,0:58:00.0
22,386,Danny,Burgess,22:30,05:45,0:57:30.0
23,1066,Jodie,McLeod,22:50,05:43,0:57:10.0
24,424,Lauren,Crowley,23:00,05:42,0:57:00.0
25,91,Melissa,Wilkie,23:20,05:40,0:56:40.0
26,1087,Deanna,Marshall,23:40,05:38,0:56:20.0
27,31,Charles,Chambers,24:00,05:36,0:56:00.0
28,197,Sue,Taylor,24:00,05:36,0:56:00.0
29,398,Angus,McPherson,24:30,05:33,0:55:30.0
30,52,Leah,Cripps,25:00,05:30,0:55:00.0
31,87,Frances,Walsh,25:30,05:27,0:54:30.0
32,807,Kristian,Dowler,25:40,05:26,0:54:20.0
33,13,Gavin,Fiedler,26:20,05:22,0:53:40.0
34,270,Tyler,Wilkie,26:20,05:22,0:53:40.0
35,1024,Todd,Foster,26:40,05:20,0:53:20.0
36,3,Alan,Buchanan,27:20,05:16,0:52:40.0
37,1074,David,Burrow,27:30,05:15,0:52:30.0
38,183,Janet,Hodnett,27:40,05:14,0:52:20.0
39,400,Darren,Rowe,29:10,05:05,0:50:50.0
40,333,Jon,McIntosh,29:50,05:01,0:50:10.0
41,476,Sheena,Carney,29:50,05:01,0:50:10.0
42,241,Andrea,Smith,30:00,05:00,0:50:00.0
43,55,Justin,Lee,30:20,04:58,0:49:40.0
44,3763,Brett,Dobbin,30:30,04:57,0:49:30.0
45,278,James,Russell,30:40,04:56,0:49:20.0
46,9,Trinity,Sanderson,30:50,04:55,0:49:10.0
47,29,Alison,Cartner,30:50,04:55,0:49:10.0
48,455,Suzie,Pedrotti,30:50,04:55,0:49:10.0
49,1003,Damien,Roberts,30:50,04:55,0:49:10.0
50,3739,Stephen,van Rees,30:50,04:55,0:49:10.0
51,1040,Erin,Williams,31:20,04:52,0:48:40.0
52,3760,Karl,Stoltz,31:40,04:50,0:48:20.0
53,18,Georgie,Lanyon,32:10,04:47,0:47:50.0
54,274,Avery,McDermid,32:10,04:47,0:47:50.0
55,1020,Mumtaz,Hussain,32:10,04:47,0:47:50.0
56,1080,Jayson,Carter,32:30,04:45,0:47:30.0
57,3702,Vicki,Bayliss,32:30,04:45,0:47:30.0
58,3766,Anthony,Byrne,32:30,04:45,0:47:30.0
59,14,Lisa,Wilkinson,32:50,04:43,0:47:10.0
60,408,Trevor,Watchman,32:50,04:43,0:47:10.0
61,3788,Matthew,Schubert,32:50,04:43,0:47:10.0
62,384,Andrew,Wilkie,33:00,04:42,0:47:00.0
63,109,Tim,Lovell,33:20,04:40,0:46:40.0
64,359,Anne,McIntosh,33:20,04:40,0:46:40.0
65,171,Oliver,Sanderson,33:50,04:37,0:46:10.0
66,65,Ben,McDermid,34:00,04:36,0:46:00.0
67,802,James,Harper,34:10,04:35,0:45:50.0
68,1051,Kane,Safstrom,34:10,04:35,0:45:50.0
69,3730,Greg,Carter,34:10,04:35,0:45:50.0
70,203,Tullie,Rowe,35:20,04:28,0:44:40.0
71,469,Paul,Boxshall,35:40,04:26,0:44:20.0
72,490,Aaron,Anderson,35:50,04:25,0:44:10.0
73,1099,Kelvin,Niblett,36:10,04:23,0:43:50.0
74,350,David,Cripps,36:40,04:20,0:43:20.0
75,394,Rhianna,Wik-Gamble,36:40,04:20,0:43:20.0
76,418,Vanessa,Bull,36:40,04:20,0:43:20.0
77,1031,Jack,Milligan,36:40,04:20,0:43:20.0
78,191,Phoebe,Lonsdale,36:50,04:19,0:43:10.0
79,94,David,Lonsdale,37:00,04:18,0:43:00.0
80,84,Craig,Green,37:10,04:17,0:42:50.0
81,472,John,Flood,37:20,04:16,0:42:40.0
82,438,Damian,Hughes,37:30,04:15,0:42:30.0
83,15,Rebecca,Wilkinson,37:40,04:14,0:42:20.0
84,430,Brianna,Maddern,37:40,04:14,0:42:20.0
85,49,David,Heislers,37:50,04:13,0:42:10.0
86,1083,Rebecca,Kirkby,37:50,04:13,0:42:10.0
87,432,Jarrod,Epps,38:00,04:12,0:42:00.0
88,1027,Andrew,Van Agtmaal,38:00,04:12,0:42:00.0
89,801,Rebecca ,Beagley,38:20,04:10,0:41:40.0
90,425,Nathan,Crowley,38:40,04:08,0:41:20.0
91,429,Gavin,Hicks,38:40,04:08,0:41:20.0
92,448,Rory,Flanagan,38:40,04:08,0:41:20.0
93,125,Sarah,Jalim,38:50,04:07,0:41:10.0
94,428,Matthew,Bell,39:20,04:04,0:40:40.0
95,1022,Ben,Stolz,39:30,04:03,0:40:30.0
96,88,Brian,Watson,39:50,04:01,0:40:10.0
97,499,Richard,Martin,39:50,04:01,0:40:10.0
98,8,Rik,McCaig,40:00,04:00,0:40:00.0
99,1023,Matthew,Schepisi,40:00,04:00,0:40:00.0
100,462,Eliot,Walton,41:20,03:52,0:38:40.0
101,23,Michael,Bieleny,41:30,03:51,0:38:30.0
102,169,Floyd,Cartner,41:40,03:50,0:38:20.0
103,51,Andrew,Hosking,41:50,03:49,0:38:10.0
104,275,Max,Rowe,41:50,03:49,0:38:10.0
105,447,Jake,Delaney,41:50,03:49,0:38:10.0
106,492,Zeb,Broadbent,41:50,03:49,0:38:10.0
107,399,Darren,Hartland,42:00,03:48,0:38:00.0
108,33,Andrew,Creer,43:40,03:38,0:36:20.0
109,404,Leon,Griffin,43:40,03:38,0:36:20.0
110,467,Glenn,McMillian,44:40,03:32,0:35:20.0
111,3701,Nigel,Preston,44:50,03:31,0:35:10.0
112,487,Ned,Buckell,45:20,03:28,0:34:40.0
