Place,Member,First,Last,Start,Pace,Est Time
1,410,Luella,Griffin,00:00,08:00,0:08:00.0
2,493,Hugo,Beesley,00:00,08:00,0:08:00.0
3,1070,Thomas,Lee,00:00,07:59,0:07:59.0
4,485,Alannah,Ralph,00:10,07:48,0:07:48.0
5,417,Charlotte,Schubert,00:20,07:44,0:07:44.0
6,403,Ivie,Safstrom,00:20,07:40,0:07:40.0
7,811,Matilda,Compston,00:30,07:29,0:07:29.0
8,426,Zarwa,Daneen,00:40,07:15,0:07:15.0
9,496,Melanie,Lethbridge,00:50,07:07,0:07:07.0
10,484,Mel,Ralph,01:00,07:02,0:07:02.0
11,443,Julianna,Hicks,01:00,07:00,0:07:00.0
12,415,Leo,Epps,01:10,06:53,0:06:53.0
13,471,Joel,Van Rees,01:10,06:49,0:06:49.0
14,473,James,Bradshaw,01:10,06:47,0:06:47.0
15,436,Lily,Chivers,01:10,06:46,0:06:46.0
16,435,Ashton ,Chivers,01:20,06:40,0:06:40.0
17,1085,Michelle,Scott,01:20,06:37,0:06:37.0
18,486,Jacob,Ralph,01:30,06:30,0:06:30.0
19,475,Sese,Van Rees,01:30,06:29,0:06:29.0
20,437,Grace,Chivers,01:40,06:20,0:06:20.0
21,478,Owen,Carney,01:50,06:12,0:06:12.0
22,495,Kaitlyn,Smith,01:50,06:09,0:06:09.0
23,416,Sophie,Schubert,02:00,06:03,0:06:03.0
24,445,Vinny,Holmes,02:00,06:02,0:06:02.0
25,479,Grace,Carney,02:00,06:02,0:06:02.0
26,3705,Sienna,Bayliss,02:00,06:00,0:06:00.0
27,3736,Skylar,Beesley,02:00,06:00,0:06:00.0
28,419,Will,Kirkby,02:00,05:58,0:05:58.0
29,405,Mohid,Zaman,02:00,05:55,0:05:55.0
30,411,Alice,Griffin,02:10,05:51,0:05:51.0
31,470,Samuel,Nurse,02:10,05:50,0:05:50.0
32,815,Jack,Macmunn,02:10,05:50,0:05:50.0
33,390,Ruby,Douglas,02:10,05:49,0:05:49.0
34,3789,Jack,Haythorpe,02:10,05:46,0:05:46.0
35,431,Lilah,Maddern,02:20,05:45,0:05:45.0
36,498,Alec,Bradshaw,02:20,05:45,0:05:45.0
37,413,Eleanor,Stoltz,02:20,05:42,0:05:42.0
38,468,Mila,Hughes,02:20,05:40,0:05:40.0
39,282,Anna,de Vries,02:20,05:39,0:05:39.0
40,494,Kye,McCarthy,02:20,05:39,0:05:39.0
41,454,Anna,Scott,02:20,05:36,0:05:36.0
42,460,Miles,Clarke,02:20,05:35,0:05:35.0
43,461,Jemma,Smith,02:20,05:35,0:05:35.0
44,1097,Evie,Niblett,02:20,05:35,0:05:35.0
45,1014,Tom,Roberts,02:30,05:30,0:05:30.0
46,482,Cohen,Smith,02:30,05:27,0:05:27.0
47,1046,Bonnie,Scott,02:40,05:25,0:05:25.0
48,1042,Savannah,Marwood,02:40,05:24,0:05:24.0
49,3743,Liam,Carter,02:40,05:21,0:05:21.0
50,480,Casey,Smith,02:40,05:20,0:05:20.0
51,481,Daniel,Smith,02:40,05:20,0:05:20.0
52,3752,Chloe,Beesley,02:40,05:20,0:05:20.0
53,3773,Eden,Haythorpe,02:40,05:20,0:05:20.0
54,3790,Zahli,Bayliss,02:40,05:20,0:05:20.0
55,3742,Jemma,Carter,02:40,05:19,0:05:19.0
56,412,Harry,Griffin,02:40,05:15,0:05:15.0
57,1092,Sihanna,Carter,02:50,05:12,0:05:12.0
58,483,Cooper,Smith,02:50,05:11,0:05:11.0
59,3751,Ellie,Beesley,02:50,05:11,0:05:11.0
60,3762,Leo,Stoltz,02:50,05:10,0:05:10.0
61,3767,Polly,Byrne,02:50,05:10,0:05:10.0
62,209,Olivia,Douglas,02:50,05:07,0:05:07.0
63,3772,Lyra,Haythorpe,03:00,05:05,0:05:05.0
64,1096,Miriam,Niblett,03:00,05:04,0:05:04.0
65,246,Poppy,Wainwright,03:00,05:01,0:05:01.0
66,250,Tully,Cripps,03:00,05:00,0:05:00.0
67,1082,Mikayla,Kirkby,03:00,05:00,0:05:00.0
68,446,Louis,Holmes,03:00,04:59,0:04:59.0
69,50,Harry,Cripps,03:00,04:58,0:04:58.0
70,808,Lottie,Macmunn,03:00,04:58,0:04:58.0
71,439,Leni,Hughes,03:00,04:57,0:04:57.0
72,406,Mietta,Watchman,03:00,04:55,0:04:55.0
73,1026,Eiliyah,Daneen,03:10,04:50,0:04:50.0
74,456,Patrick,Harris,03:10,04:48,0:04:48.0
75,354,Alice,McIntosh,03:10,04:47,0:04:47.0
76,402,Mitchell,Nurse,03:10,04:47,0:04:47.0
77,441,Jimmy,Byrne,03:10,04:47,0:04:47.0
78,3711,Eryn,McManus,03:20,04:42,0:04:42.0
79,804,Abby,Colt,03:20,04:41,0:04:41.0
80,440,Sophie,Pedrotti,03:20,04:40,0:04:40.0
81,272,Abbey,Cartner,03:20,04:39,0:04:39.0
82,191,Phoebe,Lonsdale,03:20,04:38,0:04:38.0
83,203,Tullie,Rowe,03:20,04:38,0:04:38.0
84,455,Suzie,Pedrotti,03:20,04:36,0:04:36.0
85,1089,Ruby,Carter,03:20,04:36,0:04:36.0
86,414,Ronny,Epps,03:30,04:33,0:04:33.0
87,355,Millie,McIntosh,03:30,04:32,0:04:32.0
88,457,Emily,Harris,03:30,04:31,0:04:31.0
89,3727,Samuel,Preston,03:30,04:29,0:04:29.0
90,3753,Logan,Beesley,03:30,04:29,0:04:29.0
91,420,Sarah,Crowley,03:30,04:28,0:04:28.0
92,276,Joshua,Feuerherdt,03:30,04:27,0:04:27.0
93,803,Emma,Colt,03:30,04:27,0:04:27.0
94,281,Will,de Vries,03:40,04:25,0:04:25.0
95,1090,Chase,Carter,03:40,04:25,0:04:25.0
96,3704,Callen,Bayliss,03:40,04:25,0:04:25.0
97,1035,Braxton,Safstrom,03:40,04:20,0:04:20.0
98,450,Maison,Hooke,03:40,04:19,0:04:19.0
99,474,Erin,Bradshaw,03:40,04:19,0:04:19.0
100,451,Julia,Starr,03:40,04:16,0:04:16.0
101,3754,Elijah,Willits,03:40,04:16,0:04:16.0
102,421,Alicia,Crowley,03:50,04:14,0:04:14.0
103,1047,Harry,Scott,03:50,04:08,0:04:08.0
104,3737,Ebony,Beesley,04:00,04:05,0:04:05.0
105,266,Lewis,Lonsdale,04:00,04:01,0:04:01.0
106,459,Archie,Clarke,04:00,04:01,0:04:01.0
107,3714,Tanner,Fear,04:00,03:57,0:03:57.0
108,1080,Jayson,Carter,04:00,03:56,0:03:56.0
109,381,April,Wainwright,04:10,03:48,0:03:48.0
110,452,Noah,Pedrotti,04:10,03:47,0:03:47.0
111,423,Hugh,Casey,04:10,03:46,0:03:46.0
112,805,Bradie,Sheldon,04:20,03:45,0:03:45.0
113,305,Jonty,McDermid,04:20,03:40,0:03:40.0
114,189,Tim,Creer,04:20,03:38,0:03:38.0
115,277,Luke,Feuerherdt,04:20,03:38,0:03:38.0
116,358,Lewis,McIntosh,04:20,03:38,0:03:38.0
117,1060,William,Trew,04:20,03:35,0:03:35.0
118,3738,Mason,Beesley,04:30,03:29,0:03:29.0
119,1029,James,Trew,04:30,03:27,0:03:27.0
120,275,Max,Rowe,04:40,03:24,0:03:24.0
121,274,Avery,McDermid,04:40,03:20,0:03:20.0
122,169,Floyd,Cartner,04:40,03:16,0:03:16.0
