Place,First,Last,NET Time,Pace,Diff
1,Mikayla,Kirkby,0:06:32.8,06:33,-01:18.2
2,Naghmana,Tehseen,0:07:17.8,07:18,-00:40.2
3,Bonnie,Scott,0:06:18.1,06:18,-00:29.9
4,Poppy,Wainwright,0:04:58.6,04:59,-00:25.4
5,Jemma,Carter,0:05:14.4,05:14,-00:20.6
6,Kayla,McManus,0:04:17.1,04:17,-00:11.9
7,Eryn,McManus,0:04:41.0,04:41,-00:10.0
8,Owen,Draper,0:05:59.3,05:59,-00:09.7
9,Oliver,Clarke,0:05:57.3,05:57,-00:08.7
10,Abbey,Cartner,0:04:07.4,04:07,-00:07.6
11,Mason,Woodward,0:03:33.6,03:34,-00:05.4
12,Liam,Carter,0:05:07.9,05:08,-00:03.1
13,Eiliyah,Daneen,0:05:03.7,05:04,-00:01.3
14,Braxton,Safstrom,0:04:58.9,04:59,+00:00.9
15,Ebony,Woodward,0:04:20.6,04:21,+00:02.6
16,Tanner,Fear,0:03:59.3,03:59,+00:11.3
17,Ruby,Douglas,0:05:56.7,05:57,+00:11.7
18,Lewis,Lonsdale,0:04:07.2,04:07,+00:13.2
19,Harry,Scott,0:04:47.5,04:47,+00:13.5
20,Max,Rowe,0:03:42.6,03:43,+00:13.6
21,Sebastian,Stewart,0:05:35.8,05:36,+00:18.8
22,Skylar,Woodward,0:05:09.2,05:09,+00:19.2
23,April,Wainwright,0:05:03.8,05:04,+00:33.8
NEW,Milla,Dalton,0:06:46.5,06:47
NEW,Charli,Hosking,0:07:01.0,07:01
NEW,Brady,Brown,0:05:56.8,05:57
NEW,Zach,Dyer,0:06:42.2,06:42
NEW,Sophie,Grainger,0:05:11.1,05:11
NEW,Callum,Fyffe,0:05:05.4,05:05
NEW,Krystal,Bellbin,0:05:17.8,05:18
NEW,Leo,Stoltz,0:06:49.6,06:50
NEW,Ronny,Epps,0:06:44.3,06:44
