PLACE,FIRST,LAST,RACES,POINTS
1,Braxton,Safstrom,4,89
2,Mikayla,Kirkby,3,80
3,Mason,Woodward,4,80
4,Ebony,Woodward,4,71
5,Miriam,Niblett,3,66
6,Naghmana,Tehseen,3,60
7,Liam,Carter,2,58
8,Jonty,McDermid,3,56
9,William,Trew,3,53
10,Bonnie,Scott,3,51
11,Geoffrey,Robinson,2,49
12,Kayla,McManus,3,49
13,April,Wainwright,4,46
14,Avery,McDermid,3,45
15,Owen,Draper,2,45
16,Lewis,Lonsdale,3,44
17,Eiliyah,Daneen,3,43
18,Skylar,Woodward,4,43
19,Joshua,Feuerherdt,2,40
20,Harry,Scott,3,40
21,Jemma,Carter,2,38
22,Tom,Roberts,3,37
23,Floyd,Cartner,2,35
24,Giana,Ekanayake,1,35
25,Ellie,Beesley,2,33
26,Genevieve,Robinson,3,31
27,Ivy,Bray,1,30
28,Jaxton,Ekanayake,1,30
29,Eryn,McManus,3,28
30,Sebastian,Stewart,2,27
31,Poppy,Wainwright,1,26
32,William,Robinson,3,26
33,Chloe,Beesley,2,26
34,Savannah,Marwood,2,25
35,Jaron,Ekanayake,1,24
36,Luke,Feuerherdt,1,24
37,Ruby,Douglas,3,24
38,Max,Rowe,2,23
39,Alice,McIntosh,2,22
40,Oliver,Clarke,1,21
41,Abbey,Cartner,2,20
42,Tanner,Fear,2,20
43,Logan,Beesley,2,19
44,Lily,Sanderson,1,16
45,Jimi,Read,2,14
46,Xavier,Marwood,1,10
47,James,Trew,1,9
48,Phoebe,Lonsdale,1,0
49,Tullie,Rowe,1,0
50,Sebastian,Boromeo,1,0
51,Gabe,Nicoletti,1,0
52,Louise,Firli,1,0
53,Brooke,Carter,1,0
54,Ruby,Carter,1,0
55,Chase,Carter,1,0
56,Sihanna,Carter,1,0
57,Zac,Firli,1,0
58,Hannah,Niblett,1,0
59,Callum,Fyffe,1,0
60,Krystal,Bellbin,1,0
61,Leo,Stoltz,1,0
62,Polly,Byrne,1,0
63,Ronny,Epps,1,0
64,Luke,Collins,1,0
