place,first,last,start,pace,est Time
1,Eric,Aardvark,00:00,8:0,27:12
2,Sarah,Cunningham,01:40,7:30,25:30
3,Imogen,Douglass,03:20,7:2,23:55
4,Jayden,Walsh,04:30,6:40,22:40
5,Megan,McDonald,05:40,6:20,21:32
6,Sayku,Hamond,05:40,6:20,21:32
7,Tracie,Gleisner,06:00,6:15,21:15
8,Bella,Livingston,06:10,6:10,20:58
9,Lucy,Terry,06:20,6:8,20:51
10,Isabella,Douglass,06:50,6:0,20:24
11,Lachlan,Walsh,06:50,6:0,20:24
12,Houston,Pearse,06:50,6:0,20:24
13,Sol,Musk,06:50,6:0,20:24
14,Imogen,Thompson,07:00,5:57,20:14
15,Harry,Terry,07:00,5:57,20:14
16,Julie,Evely,07:10,5:53,20:00
17,Amber,Lyons,07:50,5:43,19:26
18,Ross,Douglas,08:00,5:39,19:13
19,Morgan,Dunn,08:30,5:30,18:42
20,Emily,Heislers,08:30,5:30,18:42
21,Callum,Tucker,08:30,5:30,18:42
22,Murray,Cordell,08:40,5:28,18:35
23,Amy,Sim,08:50,5:23,18:18
24,Bronte,Walsh,08:50,5:25,18:25
25,Joanne,Weatherhead,08:50,5:25,18:25
26,Sebastian,Rowe,09:00,5:20,18:08
27,Beatrice,Lonsdale,09:00,5:20,18:08
28,Tullie,Rowe,09:20,5:15,17:51
29,James,Kealy,09:20,5:16,17:54
30,Zac,Walsh,09:30,5:12,17:41
31,Sayyu,Hamond,09:40,5:10,17:34
32,Bailey,Dunn,10:00,5:5,17:17
33,Carissa,Brooke,10:00,5:3,17:10
34,Alister,Brasher,10:10,5:0,17:00
35,Greg,Christie,10:30,4:55,16:43
36,Floyd,Cartner,10:30,4:55,16:43
37,Scott,Roberts,10:40,4:52,16:33
38,Matisse,Perez,10:50,4:49,16:23
39,Noah,Walsh,10:50,4:48,16:19
40,Luke,Padgham,11:00,4:45,16:09
41,Liz,Foster,11:00,4:45,16:09
42,David,Lonsdale,11:20,4:40,15:52
43,Steffany,Roberts,11:20,4:40,15:52
44,Will,Kenny,11:20,4:40,15:52
45,Shaina,Brooke,11:20,4:40,15:52
46,Bweku,Hamond,11:40,4:35,15:35
47,Blaze,Houlden,11:50,4:32,15:25
48,Jordan,Doherty,11:50,4:30,15:18
49,Roy,Preece,12:10,4:25,15:01
50,Jack,Cripps,12:50,4:13,14:20
51,Leon,Hamond,12:50,4:15,14:27
52,Riley,Walsh,13:00,4:12,14:17
53,Madeleine,Evely,13:40,4:0,13:36
54,Matthew,Heislers,13:50,3:56,13:22
55,John,Rose,14:00,3:52,13:09
56,Pat,Kenny,14:40,3:40,12:28
57,Fraser,Walsh,15:10,3:32,12:01