member,first,last,start,pace,est Time
2,Alan,East,00:00,7:0,44:48
110,Rebecca,Davis,00:00,7:0,44:48
82,Natalie,Thomas,00:10,6:58,44:35
64,Lisa,McDermid,01:20,6:48,43:31
95,Jason,Sim,03:10,6:30,41:36
37,John,Doering,03:40,6:25,41:04
69,Jarrah,O'Shea,04:00,6:23,40:51
21,Michelle,Bieleny,04:10,6:21,40:38
50,Janet,Hodnett,05:20,6:10,39:28
100,Justine,Rowe,05:40,6:7,39:09
196,Kathryn,Charnas,05:50,6:5,38:56
40,Aida,Escall,06:20,6:0,38:24
66,Megan,McDonald,06:20,6:0,38:24
111,Troy,Davis,07:00,5:55,37:52
84,Michael,Turner,07:10,5:53,37:39
103,Jaqueline,Kelly,07:10,5:53,37:39
79,Carol,Sing,07:20,5:51,37:26
89,Natalie,Watson,07:30,5:49,37:14
56,Stacey,Lonsdale,07:40,5:48,37:07
98,Tanya,Fleming,07:50,5:47,37:01
132,Tracie,Gleisner,08:00,5:45,36:48
24,Lisa,Bortolotto,08:10,5:44,36:42
54,Kevin,de Vries,08:30,5:40,36:16
72,Catherine,Pethybridge,08:30,5:40,36:16
28,Paul,Buncle,09:40,5:29,35:06
16,Jenny,Lee,10:10,5:25,34:40
74,Maree,Platt,10:10,5:24,34:34
6,Shayne,Rushan,10:20,5:23,34:27
68,Justin,O'Brien,10:20,5:23,34:27
80,Angela,Slattery,10:30,5:22,34:21
32,Kylie,Cheal,10:30,5:21,34:14
76,Cara,Smith,10:40,5:20,34:08
45,Jodie,Giles,11:00,5:17,33:49
17,Karl,Lanyon,11:10,5:15,33:36
75,Nicole,Richardson,11:10,5:15,33:36
77,Brad,Russell,11:10,5:15,33:36
106,Suellen,Bambrick,11:10,5:15,33:36
104,Jodie,Scoble,11:20,5:14,33:30
91,Melissa,Wilkie,11:30,5:12,33:17
81,Laura,Terry,11:40,5:11,33:10
105,Toby,McCaig,11:40,5:11,33:10
87,Frances,Walsh,11:50,5:9,32:58
57,Fraser,Lourie,12:00,5:7,32:45
39,Melissa,Douglas,12:30,5:3,32:19
47,Genevieve,Green,12:40,5:2,32:13
108,Eric,Hocking,12:40,5:2,32:13
217,Freya,Berenyl,12:40,5:2,32:13
113,Sam,Walker,12:50,5:0,32:00
107,Hayden,Brook,12:50,4:59,31:54
35,Conor,Cunningham,13:00,4:58,31:47
59,Tina,McBain,13:00,4:58,31:47
67,Leeza,Meharry,13:40,4:52,31:09
94,David,Lonsdale,13:40,4:52,31:09
43,Jason,Finch,13:50,4:51,31:02
90,Rory,Weightman,13:50,4:51,31:02
5,Jenny,Buchanan,14:20,4:45,30:24
85,Rebecca,Tweed,14:20,4:45,30:24
22,Ross,Douglas,14:40,4:43,30:11
41,Maddy,Evely,14:40,4:43,30:11
4,Gary,Crouch,15:10,4:38,29:39
29,Alison,Cartner,15:10,4:38,29:39
97,Adam,Fleming,15:20,4:37,29:33
34,Matthew,Creer,15:20,4:36,29:26
55,Justin,Lee,15:30,4:35,29:20
38,Ingrid,Douglass,15:30,4:34,29:14
13,Gavin,Fiedler,15:40,4:33,29:07
93,Erica,Wilkinson,15:40,4:33,29:07
49,David,Heislers,15:50,4:31,28:54
60,Greg,McBain,16:00,4:30,28:48
78,Mark,Saxon,16:10,4:28,28:35
109,Tim,Lovell,16:10,4:28,28:35
18,Georgie,Lanyon,16:20,4:27,28:29
52,Rick,Jackel,16:20,4:27,28:29
20,John,McCullagh,16:30,4:25,28:16
25,Lee,Bray,16:40,4:23,28:03
58,Andrew,Mason,16:40,4:23,28:03
26,Ryan,Brook,17:00,4:20,27:44
53,Travis,Kelly,17:00,4:20,27:44
71,Max,Pearse,17:20,4:18,27:31
3,Alan,Buchanan,17:40,4:15,27:12
19,Troy,Cartner,17:40,4:15,27:12
123,Harry,Terry,17:40,4:15,27:12
62,Lee,McCullagh,18:00,4:11,26:46
83,Russell,Tremayne,18:10,4:9,26:34
112,Iian,Livingston,18:30,4:7,26:21
122,Stewart,Scoble,18:30,4:6,26:14
63,John,Robinson,18:50,4:4,26:02
61,Chris,McCormack,19:00,4:2,25:49
70,Harrison,Pearse,19:20,3:59,25:30
92,Tracy,Wilson,19:20,3:59,25:30
73,Jeff,Pethybridge,19:30,3:57,25:17
31,Charles,Chambers,19:40,3:56,25:10
102,Simon,Austin,19:40,3:55,25:04
30,Keith,Cassilles-Southgate,19:50,3:54,24:58
44,Jason,Fletcher,20:00,3:53,24:51
51,Andrew,Hosking,20:10,3:51,24:38
42,Craig,Feuerherdt,20:20,3:50,24:32
65,Ben,McDermid,20:20,3:50,24:32
88,Brian,Watson,20:20,3:50,24:32
33,Andrew,Creer,20:50,3:45,24:00
86,Fraser,Walsh,21:30,3:39,23:22
23,Michael,Bieleny,22:00,3:33,22:43
48,Matthew,Heislers,22:10,3:32,22:37
46,Richard,Gleisner,23:00,3:25,21:52
27,Andrew,Buchanan,25:30,3:1,19:18