Place,First,Last,NET Time,Pace,Diff
1,Greg,Toomey,0:17:23.9,05:48.0,-00:21.1
2,Lynley,McDonald,0:17:59.4,05:59.8,-00:09.6
3,Beatrice,Lonsdale,0:14:26.3,04:48.8,+00:11.3
4,Connor,Bedson,0:13:36.3,04:32.1,+00:09.3
5,Melanie,Makris,0:17:28.3,05:49.4,+00:10.3
6,Stephen,Wainwright,0:14:22.7,04:47.6,+00:19.7
7,James,Toomey,0:13:32.9,04:31.0,+00:23.9
8,Josephine,Robinson,0:17:09.9,05:43.3,+00:24.9
9,Toby,McCaig,0:13:10.7,04:23.6,+00:31.7
10,Joshua,Condon,0:18:26.3,06:08.8,+00:56.3
11,Max,Rowe,0:13:48.4,04:36.1,+00:57.4
12,Zach,Condon,0:18:52.0,06:17.3,+01:07.0
13,Wil,McCaig,0:12:43.4,04:14.5,+01:10.4
14,Phoebe,Lonsdale,0:15:09.5,05:03.2,+01:15.5
15,Tullie,Rowe,0:13:05.6,04:21.9,+01:20.6
16,Isabella,Makris,0:21:43.2,07:14.4,+03:46.2
NEW,Abbey,Cartner,0:14:30.6,04:50.2
