Place,First,Last,NET Time,Pace,Diff
1,Geoffrey,Robinson,0:05:47.6,05:47.6,-00:32.4
2,Poppy,Wainwright,0:05:08.9,05:08.9,-00:09.1
3,Tully,Cripps,0:05:31.2,05:31.2,-00:08.8
4,Lewis,Lonsdale,0:04:14.1,04:14.1,-00:05.9
5,Luke,Feuerherdt,0:04:16.0,04:16.0,-00:04.0
6,William,Robinson,0:04:18.9,04:18.9,+00:03.9
7,Lachlan,Feuerherdt,0:03:59.3,03:59.3,+00:00.3
8,Nikolas,Makris,0:04:22.5,04:22.5,+00:04.5
9,Jordan,Baker,0:05:37.0,05:37.0,+00:04.0
10,Jonty,McDermid,0:05:45.8,05:45.8,+00:11.8
11,Avery,McDermid,0:04:50.2,04:50.2,+00:19.2
12,Lucy,McCaig,0:05:11.3,05:11.3,+00:37.3
13,Harry,Cripps,0:06:08.9,06:08.9,+01:00.9
NEW,Sebastian,Boromeo,0:05:09.1,05:09.1
