place,first,last,club,net Time,pace
1,Peter,Cowell,HAR,25:53,3:42
2,Trevor,Kelly,EGWK,26:05,3:44
3,Alan,Buchanan,UNI,29:10,4:10
4,Gary,Crouch,UNI,32:14,4:36
5,Shayne,Rushan,UNI,36:02,5:09
6,Tony,Fahy,HAR,41:46,5:58
7,Alan,East,UNI,45:03,6:26
8,John,Watson,HAR,51:31,7:22