Place,Member,First,Last,Start,Pace,Est Time
1,3781,Hamish,Draper,00:10,07:59,1:02:44.9
2,3750,Genevieve,Draper,00:10,07:59,1:02:44.9
3,1005,Ann-Marie,Wangdi,00:10,07:59,1:02:44.9
4,3748,Amelia,Mitchell,00:10,07:59,1:02:44.9
5,1028,Mel,Debham,00:10,07:59,1:02:44.9
6,2,Alan,East,08:40,06:54,0:54:14.0
7,100,Justine,Rowe,10:30,06:40,0:52:24.0
8,3741,Kim,Carter,10:40,06:39,0:52:16.1
9,201,Beatrice,Lonsdale,10:40,06:38,0:52:08.3
10,3776,Kathleen,Pleasants,10:50,06:37,0:52:00.4
11,3715,Chloe,Green,11:10,06:35,0:51:44.7
12,270,Tyler,Wilkie,13:00,06:21,0:49:54.7
13,190,Michaela,Meharry,13:10,06:20,0:49:46.8
14,159,Renelle,McManus,13:50,06:15,0:49:07.5
15,191,Phoebe,Lonsdale,14:20,06:11,0:48:36.1
16,66,Megan,McDonald,14:20,06:10,0:48:28.2
17,397,Taylor,Lovell,14:40,06:08,0:48:12.5
18,35,Conor,Cunningham,16:10,05:56,0:46:38.2
19,210,Fiona,Dangerfield,16:30,05:54,0:46:22.4
20,197,Sue,Taylor,16:50,05:52,0:46:06.7
21,43,Josephine,Robinson,16:50,05:51,0:45:58.9
22,149,Janelle,Giffin,16:50,05:51,0:45:58.9
23,157,Bec,Lacy,16:50,05:51,0:45:58.9
24,334,Alex,Trantor,17:20,05:48,0:45:35.3
25,3732,Emma,Gibbons,17:30,05:47,0:45:27.4
26,68,Justin,O'Brien,17:30,05:46,0:45:19.6
27,392,Mark,Logan,18:00,05:42,0:44:48.1
28,54,Kevin,de Vries,18:20,05:40,0:44:32.4
29,251,Beth,Lavery,18:40,05:37,0:44:08.8
30,16,Jennifer,Lee,18:50,05:36,0:44:01.0
31,87,Frances,Walsh,19:00,05:35,0:43:53.1
32,111,Troy,Davis,19:00,05:35,0:43:53.1
33,91,Melissa,Wilkie,19:40,05:30,0:43:13.8
34,398,Angus,McPherson,19:40,05:30,0:43:13.8
35,1025,Liz,Foster,19:50,05:28,0:42:58.1
36,364,David,Howes,19:50,05:28,0:42:58.1
37,359,Anne,McIntosh,19:50,05:28,0:42:58.1
38,52,Leah,Cripps,19:50,05:28,0:42:58.1
39,67,Leeza,Meharry,20:10,05:26,0:42:42.4
40,3777,Alistair,Stewart,20:20,05:25,0:42:34.5
41,299,Jay,Sanderson,20:30,05:24,0:42:26.6
42,183,Janet,Hodnett,20:40,05:22,0:42:10.9
43,74,Maree,Platt,20:40,05:22,0:42:10.9
44,3740,Vicki,Lane,21:00,05:20,0:41:55.2
45,1058,Tyler,Swann,21:10,05:19,0:41:47.3
46,13,Gavin,Fiedler,21:10,05:19,0:41:47.3
47,339,James,Toomey,21:10,05:19,0:41:47.3
48,6,Shayne,Rushan,21:10,05:18,0:41:39.5
49,1041,Lachlan,Cherry,21:20,05:17,0:41:31.6
50,1024,Todd,Foster,21:30,05:16,0:41:23.8
51,77,Brad,Russell,21:40,05:15,0:41:15.9
52,59,Tina,McBain,21:50,05:13,0:41:00.2
53,180,Lauren,Hancock,22:00,05:12,0:40:52.3
54,3747,Jeremy,Draper,22:10,05:11,0:40:44.5
55,307,Philip,Shambrook,22:20,05:10,0:40:36.6
56,29,Alison,Cartner,22:20,05:10,0:40:36.6
57,253,Charlotte,Murphy,22:30,05:08,0:40:20.9
58,400,Darren,Rowe,23:00,05:05,0:39:57.3
59,22,Ross,Douglas,23:00,05:04,0:39:49.4
60,9,Trinity,Sanderson,23:10,05:03,0:39:41.6
61,333,Jon,McIntosh,23:30,05:01,0:39:25.9
62,3702,Vicki,Bayliss,23:40,04:59,0:39:10.1
63,315,Paul,Lomax,23:40,04:59,0:39:10.1
64,241,Andrea,Smith,23:50,04:58,0:39:02.3
65,369,Stephen,Wainwright,24:20,04:54,0:38:30.8
66,3714,Tanner,Fear,24:30,04:53,0:38:23.0
67,296,Ashlee,Diston,24:30,04:53,0:38:23.0
68,34,Mathew,Creer,24:50,04:51,0:38:07.3
69,18,Georgie,Lanyon,24:50,04:51,0:38:07.3
70,3726,Clare,Montgomery,25:10,04:48,0:37:43.7
71,3735,Travis,Edwards,25:10,04:48,0:37:43.7
72,5,Jenny,Buchanan,25:20,04:47,0:37:35.8
73,278,James,Russell,25:20,04:46,0:37:28.0
74,1020,Mumtaz,Hussain,25:20,04:46,0:37:28.0
75,14,Lisa,Wilkinson,25:30,04:45,0:37:20.1
76,60,Greg,McBain,25:50,04:43,0:37:04.4
77,394,Rhianna,Wik-Gamble,26:00,04:42,0:36:56.5
78,31,Charles,Chambers,26:10,04:40,0:36:40.8
79,1036,Harry,Wright,26:30,04:38,0:36:25.1
80,3,Alan,Buchanan,26:40,04:37,0:36:17.2
81,384,Andrew,Wilkie,27:10,04:33,0:35:45.8
82,109,Tim,Lovell,27:10,04:33,0:35:45.8
83,1003,Damien,Roberts,27:20,04:31,0:35:30.1
84,3744,Finn,MacGregor,27:20,04:31,0:35:30.1
85,55,Justin,Lee,27:20,04:31,0:35:30.1
86,396,Simon,Hunt,27:30,04:30,0:35:22.2
87,1057,Wes,Jenkyn,27:50,04:27,0:34:58.6
88,350,David,Cripps,28:30,04:22,0:34:19.3
89,17,Karl,Lanyon,28:40,04:21,0:34:11.5
90,386,Danny,Burgess,28:50,04:20,0:34:03.6
91,3734,Lukas,Jara,29:00,04:18,0:33:47.9
92,1031,Jack,Milligan,29:20,04:16,0:33:32.2
93,3730,Greg,Carter,29:30,04:15,0:33:24.3
94,1009,Nicholas,Cherry,29:30,04:15,0:33:24.3
95,94,David,Lonsdale,29:40,04:14,0:33:16.4
96,49,David,Heislers,29:40,04:14,0:33:16.4
97,1043,Michael,Gibbons,29:50,04:12,0:33:00.7
98,308,Chris,Giffin,30:00,04:11,0:32:52.9
99,1027,Andrew,Van Agtmaal,30:00,04:11,0:32:52.9
100,65,Ben,McDermid,30:10,04:10,0:32:45.0
101,399,Darren,Hartland,30:30,04:07,0:32:21.4
102,15,Rebecca,Wilkinson,30:30,04:07,0:32:21.4
103,63,John,Robinson,31:00,04:04,0:31:57.8
104,118,Tim,Lauder,31:00,04:03,0:31:50.0
105,3746,Peter,King,31:30,04:00,0:31:26.4
106,301,Jarrod,Eps,31:30,04:00,0:31:26.4
107,84,Craig,Green,31:30,03:59,0:31:18.5
108,125,Sarah,Jalim,31:30,03:59,0:31:18.5
109,1034,Garry,Marwood,31:50,03:57,0:31:02.8
110,33,Andrew,Creer,32:00,03:56,0:30:55.0
111,8,Rik,McCaig,32:00,03:56,0:30:55.0
112,88,Brian,Watson,32:10,03:54,0:30:39.2
113,62,Lee,McCullagh,32:20,03:53,0:30:31.4
114,48,Matthew,Heislers,32:20,03:53,0:30:31.4
115,1023,Matthew,Schepisi,32:30,03:52,0:30:23.5
116,42,Craig,Feuerherdt,32:50,03:49,0:29:59.9
117,219,Wil,McCaig,33:00,03:48,0:29:52.1
118,23,Michael,Bieleny,33:20,03:46,0:29:36.4
119,1022,Ben,Stolz,33:20,03:46,0:29:36.4
120,3739,Stephen,van Rees,34:40,03:36,0:28:17.8
121,1056,Kye,Jenkyn,34:40,03:35,0:28:09.9
122,3701,Nigel,Preston,35:10,03:31,0:27:38.5
123,86,Fraser,Walsh,36:50,03:19,0:26:04.1
124,27,Andrew,Buchanan,38:00,03:10,0:24:53.4
