Place,First,Last,NET Time,Pace,Diff
1,Anna,de Vries,0:04:41.7,04:42,-00:23.3
2,Xavier,Marwood,0:04:53.6,04:54,-00:18.4
3,Max,Rowe,0:03:28.7,03:29,-00:18.3
4,Olivia,Douglas,0:05:08.3,05:08,-00:17.7
5,Ruby,Douglas,0:06:06.1,06:06,-00:16.9
6,Will,de Vries,0:04:25.3,04:25,-00:16.7
7,Joshua,Feuerherdt,0:04:08.9,04:09,-00:14.1
8,Jonty,McDermid,0:04:27.3,04:27,-00:10.7
9,James,Trew,0:03:36.7,03:37,-00:09.3
10,Tanner,Fear,0:03:47.8,03:48,-00:09.2
11,Eiliyah,Daneen,0:05:07.8,05:08,-00:05.2
12,William,Trew,0:03:47.1,03:47,-00:00.9
13,Braxton,Safstrom,0:05:26.5,05:27,+00:00.5
14,Mason,Woodward,0:03:50.9,03:51,+00:00.9
15,Ebony,Woodward,0:04:30.0,04:30,+00:07.0
16,Edie,Gibbons,0:06:58.0,06:58,+00:09.0
17,Savannah,Marwood,0:05:52.9,05:53,+00:29.9
18,Skylar,Woodward,0:05:48.1,05:48,+00:50.1
NEW,Wil,Trewick,0:04:28.2,04:28
NEW,Bradley,Ladson,0:08:52.7,08:53
NEW,Oliver,Clarke,0:06:05.9,06:06
NEW,Indi,Colley,0:06:22.0,06:22
