1;2;0000-00-00;00:00:29.403;11573;120;-53;d94e3d
2;149;0000-00-00;00:01:05.651;11573;28;-64;f888fc
3;197;0000-00-00;00:08:41.818;11573;96;-42;842c01
4;149;0000-00-00;00:08:53.194;11573;100;-41;079891
5;74;0000-00-00;00:12:32.668;11573;96;-34;1e3de0
6;183;0000-00-00;00:12:33.197;11573;88;-39;711164
7;22;0000-00-00;00:14:52.804;11573;103;-39;f47547
8;60;0000-00-00;00:16:32.711;11573;2;-64;782638
9;14;0000-00-00;00:17:22.775;11573;89;-42;ba8906
10;AAAA-1020;0000-00-00;00:17:23.437;;96;-41;791a1b
11;60;0000-00-00;00:17:41.267;11573;102;-32;8a78a2
12;AACT-394;0000-00-00;00:17:47.329;;18;-68;f9525f
13;31;0000-00-00;00:18:01.914;11573;78;-41;25e950
14;AAAA-1003;0000-00-00;00:19:12.222;;90;-44;fcd446
15;55;0000-00-00;00:19:13.101;11573;78;-40;a04f61
16;AACT-350;0000-00-00;00:20:21.719;;90;-49;1d33c1
17;AAAA-1009;0000-00-00;00:21:21.750;;92;-44;364066
18;AABM-3730;0000-00-00;00:21:22.069;;68;-52;5ad035
19;AACT-308;0000-00-00;00:21:51.264;;75;-46;bd8e06
20;65;0000-00-00;00:22:01.055;11573;62;-39;4784a8
21;15;0000-00-00;00:22:21.133;11573;80;-37;ef483a
22;118;0000-00-00;00:22:50.597;11573;70;-36;22b045
23;33;0000-00-00;00:23:52.211;11573;96;-37;6fca88
24;AAAA-1061;0000-00-00;00:24:40.971;;64;-45;4d91c5
25;42;0000-00-00;00:24:41.491;11573;60;-44;cf2518
26;183;0000-00-00;00:53:42.009;11573;88;-34;d87751
27;31;0000-00-00;00:54:19.458;11573;18;-42;9012d8
28;2;0000-00-00;00:54:19.750;11573;49;-40;991664
29;AAAA-1020;0000-00-00;00:55:03.295;;98;-45;678522
30;22;0000-00-00;00:55:05.074;11573;86;-32;51d4a6
31;149;0000-00-00;00:55:15.681;11573;102;-35;b35433
32;118;0000-00-00;00:55:17.737;11573;76;-35;4d8ad3
33;60;0000-00-00;00:55:21.486;11573;50;-37;f3812a
34;42;0000-00-00;00:55:22.468;11573;80;-30;afefe7
35;AACT-308;0000-00-00;00:55:23.826;;88;-45;2f06b0
36;AABM-3730;0000-00-00;00:55:30.514;;82;-45;b58975
37;AAAA-1061;0000-00-00;00:55:31.924;;82;-48;b3a725
38;AACT-350;0000-00-00;00:55:54.139;;90;-48;1273e3
39;15;0000-00-00;00:55:59.868;11573;82;-36;a9403b
40;AACT-394;0000-00-00;00:56:03.157;;60;-48;49bf26
41;AAAA-1009;0000-00-00;00:56:30.981;;110;-45;312997
42;14;0000-00-00;00:56:34.548;11573;59;-43;1068c6
43;33;0000-00-00;00:56:50.988;11573;88;-42;18c2de
44;74;0000-00-00;00:57:03.101;11573;81;-27;2e2398
45;197;0000-00-00;00:57:40.697;11573;116;-33;340195
46;65;0000-00-00;00:57:53.807;11573;116;-43;6c9c0b
47;AAAA-1003;0000-00-00;00:57:58.664;;92;-45;37bc11
48;571;0000-00-00;00:58:56.849;11573;252;-60;91982d
49;AAAA-1064;0000-00-00;00:58:57.689;;7;-65;493f78
50;571;0000-00-00;00:59:10.456;11573;25;-66;c18079
51;571;0000-00-00;01:00:04.920;11573;82;-65;6fdcf4
52;571;0000-00-00;01:00:10.002;11573;42;-64;2e6d3f
53;571;0000-00-00;01:00:16.626;11573;34;-67;b0f1aa
54;55;0000-00-00;01:00:17.424;11573;69;-28;6d4166
55;571;0000-00-00;01:00:23.235;11573;70;-65;c8c671
56;571;0000-00-00;01:00:30.512;11573;2;-68;b217de
