PLACE,FIRST,LAST,RACES,POINTS
1,April,Wainwright,12,242
2,Genevieve,Robinson,13,228
3,William,Robinson,13,213
4,Lewis,Lonsdale,12,212
5,Ebony,Woodward,8,200
6,Mason,Woodward,9,198
7,Jonty,McDermid,12,198
8,Avery,McDermid,12,194
9,Harry,Cripps,12,191
10,Joshua,Feuerherdt,8,183
11,Geoffrey,Robinson,12,175
12,Tully,Cripps,12,161
13,Will,deVries,9,152
14,Liam,Carter,7,129
15,Skylar,Woodward,7,119
16,Luke,Feuerherdt,6,119
17,Poppy,Wainwright,6,116
18,Jemma,Carter,6,114
19,Sebastian,Stewart,5,111
20,Kayla,McManus,5,109
21,Olivia,Douglas,8,107
22,Jake,Wight,5,105
23,Ivy,Bray,5,102
24,Jasmine,Murphy,6,96
25,Ruby,Douglas,7,94
26,Eden,Howes,5,91
27,Lewis,McIntosh,5,84
28,Alice,McIntosh,4,82
29,Owen,Draper,6,76
30,Isabelle,Draper,3,70
31,Phoebe,Martin,4,69
32,Belle,Howes,4,66
33,Anna,deVries,6,61
34,Sebastian,Boromeo,3,57
35,Elliot,Lavery,2,55
36,Millie,McIntosh,2,54
37,Lucy,McCaig,2,50
38,Hamish,Draper,3,49
39,Lacey,Wilkie,2,43
40,Abbey,Cartner,2,40
41,Phoebe,Lonsdale,2,40
42,Chole,Beesley,2,40
43,Sam,Hancock,1,40
44,Samuel,Preston,4,39
45,Annabel,Hancock,2,33
46,Ellie,Beesley,2,30
47,Callen,Bayliss,3,30
48,Kim,Carter,2,26
49,Lily,Sanderson,1,25
50,Zacch,Martin,3,20
51,Eryn,McManus,2,16
52,Declan,Lavery,1,14
53,Lenny,Hancock,1,13
54,Sienna,Bayliss,2,8
55,Logan,Beesley,2,7
56,Toby,Preston,2,6
57,Lachlan,Edwards,1,0
58,Gabrielle,Dean,1,0
59,Jaron,Ekanayake,1,0
60,Gus,Edwards,1,0
61,Ebony,Butcher,1,0
62,Charli,Green,1,0
63,Finn,Cunningham,1,0
64,Craig,Feuerherdt,1,0
65,Amelia ,Christen,1,0
66,Scott,Butcher,1,0
67,Olivia,Christen,1,0
68,Dylan,Sim,1,0
69,Madeline,Gibbons,1,0
70,Charlotte,Murphy,1,0
71,Janine,Butcher,1,0
