PLACE,FIRST,LAST,RACES,POINTS
1,William,Robinson,13,140
2,Lewis,Lonsdale,12,135
3,Mason,Woodward,9,129
4,Avery,McDermid,12,119
5,Joshua,Feuerherdt,8,103
6,Luke,Feuerherdt,6,98
7,Ebony,Woodward,8,86
8,Jake,Wight,5,83
9,Jasmine,Murphy,6,83
10,Will,deVries,9,76
11,Harry,Cripps,12,75
12,Jonty,McDermid,12,73
13,Kayla,McManus,5,69
14,Skylar,Woodward,7,51
15,Ivy,Bray,5,48
16,Phoebe,Martin,4,48
17,Anna,deVries,6,45
18,Lewis,McIntosh,5,42
19,Poppy,Wainwright,6,41
20,Sebastian,Boromeo,3,41
21,Geoffrey,Robinson,12,40
22,April,Wainwright,12,39
23,Sebastian,Stewart,5,36
24,Tully,Cripps,12,35
25,Abbey,Cartner,2,33
26,Eden,Howes,5,33
27,Phoebe,Lonsdale,2,32
28,Lucy,McCaig,2,32
29,Olivia,Douglas,8,21
30,Craig,Feuerherdt,1,20
31,Elliot,Lavery,2,20
32,Isabelle,Draper,3,19
33,Charlotte,Murphy,1,19
34,Lacey,Wilkie,2,17
35,Gabrielle,Dean,1,16
36,Ebony,Butcher,1,16
37,Jemma,Carter,6,15
38,Lachlan,Edwards,1,14
39,Lily,Sanderson,1,14
40,Logan,Beesley,2,14
41,Dylan,Sim,1,13
42,Sam,Hancock,1,13
43,Declan,Lavery,1,12
44,Annabel,Hancock,2,11
45,Jaron,Ekanayake,1,10
46,Eryn,McManus,2,10
47,Zacch,Martin,3,10
48,Charli,Green,1,9
49,Scott,Butcher,1,8
50,Belle,Howes,4,7
51,Genevieve,Robinson,13,7
52,Millie,McIntosh,2,6
53,Finn,Cunningham,1,6
54,Ruby,Douglas,7,5
55,Gus,Edwards,1,4
56,Callen,Bayliss,3,4
57,Kim,Carter,2,4
58,Liam,Carter,7,3
59,Owen,Draper,6,2
60,Samuel,Preston,4,1
61,Hamish,Draper,3,1
62,Lenny,Hancock,1,1
63,Toby,Preston,2,0
64,Alice,McIntosh,4,0
65,Ellie,Beesley,2,0
66,Sienna,Bayliss,2,0
67,Amelia ,Christen,1,0
68,Olivia,Christen,1,0
69,Madeline,Gibbons,1,0
70,Chole,Beesley,2,0
71,Janine,Butcher,1,0
