PLACE,FIRST,LAST,TIME,PACE,CLUB
1,Tullie,Rowe,0:31:51.8,04:33.1,UNI
2,Charlotte,Murphy,0:33:07.0,04:43.9,UNI
3,Jazlin,Fear,0:35:58.5,05:08.4,UNI
4,Beatrice,Lonsdale,0:37:26.2,05:20.9,UNI
5,Liz,Foster,0:37:28.8,05:21.3,UNI
6,Tammy,Fear,0:43:04.2,06:09.2,UNI
7,Megan,McDonald,0:47:36.3,06:48.0,UNI
8,Kathryn,Ferguson,0:49:20.8,07:03.0,OTHER
9,Mel,Debham,0:49:21.3,07:03.0,UNI
