place,first,last,net Time,diff
1,Jack,Cripps,17:01,+ 1:07
2,Steffany,Roberts,19:23,+ 1:23
3,Joanne,Weatherhead,22:18,+ 1:40
4,Scott,Roberts,19:23,+ 1:59
5,Amber,Lyons,22:10,+ 2:15
6,Morgan,Dunn,24:19,+ 3:15
7,Imogen,Thompson,34:34,+ 8:46
8,Imogen,Douglass,34:34,+ 13:27