PLACE,FIRST,LAST,TIME,PACE,CLUB
1,Chelsea,Tickell,0:04:03.6,04:03.6,SOUTH BENDIGO
2,Ebony,Woodward,0:04:28.6,04:28.6,UNI
3,Tully,Cripps,0:05:10.9,05:10.9,UNI
4,Elanore,Scoullar,0:05:16.4,05:16.4,OTHER
5,Jemma,Carter,0:05:32.2,05:32.2,UNI
