PLACE,FIRST,LAST,TIME,PACE,CLUB
1,Jackson ,Eadon,0:03:35.6,03:35.6,HARRIERS
2,Matt,Johnston,0:03:44.7,03:44.7,HARRIERS
3,Mason,Woodward,0:03:51.6,03:51.6,UNI
4,James,Trew,0:03:52.7,03:52.7,UNI
5,Will,Trew,0:03:52.9,03:52.9,UNI
6,Leigh,Browell,0:03:59.5,03:59.5,SOUTH BENDIGO
7,Lewis,Lonsdale,0:04:01.1,04:01.1,UNI
8,Jordan,Matthews,0:04:07.8,04:07.8,HARRIERS
9,Avery,McDermid,0:04:14.9,04:14.9,UNI
10,Joshua,Feuerherdt,0:04:23.5,04:23.5,UNI
11,Jonty,McDermid,0:04:28.3,04:28.3,UNI
12,Logan,Beesley,0:04:33.5,04:33.5,UNI
13,Harry,Cripps,0:04:53.2,04:53.2,UNI
14,Taj,Ferguson,0:05:04.0,05:04.0,EAGLEHAWK
15,Caleb,Marron,0:05:07.8,05:07.8,SOUTH BENDIGO
16,Brae,Matthews,0:05:10.9,05:10.9,HARRIERS
17,Will,de Vries,0:05:15.2,05:15.2,UNI
18,Liam,Carter,0:05:23.6,05:23.6,UNI
19,Jordan,Macdonald,0:05:25.3,05:25.3,HARRIERS
20,Gafy,Mahon,0:05:39.3,05:39.3,SOUTH BENDIGO
21,Roman,Griffiths,0:05:40.8,05:40.8,HARRIERS
22,Samuel,Preston,0:06:09.4,06:09.4,UNI
23,Nate,Oxlade,0:06:23.2,06:23.2,EAGLEHAWK
24,Hunter,Pearce,0:06:29.4,06:29.4,OTHER
25,Gabe,Nicoletti,0:06:45.2,06:45.2,UNI
26,Oliver,Clarke,0:06:47.0,06:47.0,UNI
27,Elijah,Griffiths,0:07:04.9,07:04.9,HARRIERS
28,Tobias,Preston,0:07:34.9,07:34.9,UNI
