member,first,last,start,pace,est Time
238,Rex,Lourie,00:00,8:0,08:00
248,Mitchell,Bray,00:00,8:0,08:00
237,Ethan,Fletcher,00:00,7:57,07:57
239,Xavier,Thomas,00:30,7:34,07:34
252,Allerah,Thomas,00:30,7:32,07:32
211,Jesse,Brook,00:30,7:30,07:30
294,George,Pitson,00:30,7:30,07:30
204,Kane,Charnas,00:40,7:20,07:20
205,Amelia,Charnas,00:40,7:20,07:20
281,Will,deVries,00:50,7:15,07:15
246,Rhyse,Thorpe,00:50,7:9,07:09
282,Anna,deVries,01:00,6:56,06:56
209,Olivia,Douglas,01:10,6:50,06:50
240,Kevin,Wheatley,01:10,6:48,06:48
259,Amber,Anderson,01:20,6:43,06:43
220,Ella,Meharry,01:30,6:31,06:31
207,Lewis,Kalloun,01:30,6:26,06:26
216,Ava,Terry,01:30,6:26,06:26
234,Finn,Cunningham,01:40,6:25,06:25
276,Joshua,Feuerherdt,01:40,6:20,06:20
179,Imogen,Douglass,01:40,6:16,06:16
264,Katelyn,Kelly,01:50,6:15,06:15
268,Moira,Coleman,01:50,6:11,06:11
253,Rebecca,Ashman,01:50,6:9,06:09
244,Saige,Finch,02:00,6:4,06:04
255,Dylan,Sim,02:00,6:4,06:04
243,Neve,Coleman,02:00,6:2,06:02
245,Lacey,Wilkie,02:00,5:56,05:56
271,Will,Smith,02:10,5:55,05:55
274,Avery,McDermid,02:10,5:55,05:55
232,Jack,Gleisner,02:10,5:50,05:50
250,Jasmine,Padgham,02:10,5:49,05:49
251,Jack,Meharry,02:10,5:49,05:49
235,Aoife,Cunningham,02:10,5:48,05:48
278,Maggie,Morisson,02:10,5:48,05:48
177,Ella,Fisher,02:20,5:45,05:45
279,Lucy,McCaig,02:20,5:45,05:45
262,Manny,Rose,02:20,5:42,05:42
280,Paige,a'Beckett,02:20,5:41,05:41
300,Lucinda,Terry,02:20,5:38,05:38
263,Nick,Meharry,02:20,5:37,05:37
265,Joshua,Kelly,02:20,5:37,05:37
198,Matthew,Saxon,02:30,5:34,05:34
258,Cooper,Rea,02:30,5:34,05:34
260,Albert,Cordell,02:30,5:34,05:34
254,William,Robinson,02:30,5:33,05:33
223,Jack,Meharry,02:30,5:31,05:31
148,Matisse,Grills-Marsily,02:30,5:30,05:30
241,Amity,Thorpe,02:30,5:30,05:30
257,Rossi,Stevens,02:30,5:30,05:30
233,Melana,Cordell,02:30,5:27,05:27
249,Will,Gleisner,02:30,5:27,05:27
267,Kayla,McManus,02:40,5:20,05:20
270,Tyler,Wilkie,02:40,5:20,05:20
247,Jack,McCullough,02:40,5:16,05:16
261,Charlotte,Crane,02:40,5:16,05:16
99,Oscar,Terry,02:50,5:11,05:11
185,Morgan,Dunn,02:50,5:8,05:08
277,Luke,Feuerherdt,03:00,5:5,05:05
191,Phoebe,Lonsdale,03:00,5:4,05:04
161,Henry,Cordell,03:00,5:2,05:02
242,Jordan,Wheatley,03:00,5:0,05:00
269,Cooper,Charnas,03:10,4:50,04:50
272,Abbey,Cartner,03:10,4:50,04:50
189,Tim,Creer,03:10,4:49,04:49
266,Lewis,Lonsdale,03:10,4:49,04:49
275,Max,Rowe,03:10,4:49,04:49
105,Toby,McCaig,03:10,4:48,04:48
221,Billy,Meade,03:10,4:48,04:48
131,Carissa,Brook,03:20,4:45,04:45
181,Tom,Coleman,03:20,4:44,04:44
215,Emerson,Sim,03:20,4:43,04:43
147,Lachlan,Feuerherdt,03:20,4:42,04:42
273,Harrison,Kelly,03:30,4:33,04:33
236,Jake,Lyons,03:30,4:32,04:32
190,Micheala,Meharry,03:30,4:31,04:31
256,Jesse,Delves,03:40,4:18,04:18
203,Tullie,Rowe,03:40,4:16,04:16
139,Leila,Padgham,03:50,4:12,04:12
169,Floyd,Cartner,03:50,4:10,04:10
176,Kaidyn,Tucker,04:00,4:5,04:05
19,Troy,Cartner,04:00,4:0,04:00