Place,First,Last,NET Time,Pace,Diff
1,Harry,Cripps,0:05:02.5,05:03,-00:54.5
2,Patrick,Harris,0:04:55.4,04:55,-00:44.6
3,Lottie,Macmunn,0:05:01.3,05:01,-00:32.7
4,Poppy,Wainwright,0:05:01.0,05:01,-00:24.0
5,Eden,Haythorpe,0:05:20.2,05:20,-00:18.8
6,Jack,Haythorpe,0:05:48.9,05:49,-00:14.1
7,Alice,McIntosh,0:04:47.5,04:47,-00:07.5
8,Jimmy,Byrne,0:04:46.7,04:47,-00:01.3
9,Evie,Niblett,0:05:34.8,05:35,-00:00.2
10,Emily,Harris,0:04:32.8,04:33,+00:00.8
11,Lewis,Lonsdale,0:04:04.2,04:04,+00:03.2
12,Eleanor,Stoltz,0:06:11.6,06:12,+00:03.6
13,Bradie,Sheldon,0:03:57.8,03:58,+00:03.8
14,Mikayla,Kirkby,0:05:04.6,05:05,+00:05.6
15,Braxton,Safstrom,0:04:34.0,04:34,+00:14.0
16,April,Wainwright,0:03:59.2,03:59,+00:15.2
17,Ruby,Carter,0:04:54.0,04:54,+00:18.0
18,Abby,Colt,0:04:50.2,04:50,+00:19.2
19,Emma,Colt,0:04:47.7,04:48,+00:20.7
20,Sophie,Pedrotti,0:05:00.8,05:01,+00:20.8
21,Sihanna,Carter,0:05:41.3,05:41,+00:29.3
22,Alec,Bradshaw,0:06:10.5,06:11,+00:31.5
23,Will,Kirkby,0:06:30.7,06:31,+00:32.7
24,Tully,Cripps,0:06:04.9,06:05,+01:04.9
25,Hugo,Beesley,0:11:23.1,11:23,+03:23.1
NEW,Matilda,Compston,0:06:47.6,06:48
NEW,Jack,Macmunn,0:05:49.6,05:50
