place,first,last,start,pace,est Time
1,Eric,Aardvark,00:00,8:0,24:00
2,Imogen,Douglass,02:50,7:2,21:06
3,Jayden,Walsh,04:00,6:40,20:00
4,Tracie,Gleisner,05:20,6:15,18:45
5,Bella,Livingston,05:30,6:10,18:30
6,Isabella,Douglass,06:00,6:0,18:00
7,Houston,Pearse,06:00,6:0,18:00
8,Sol,Musk,06:00,6:0,18:00
9,Imogen,Thompson,06:10,5:57,17:51
10,Harry,Terry,06:10,5:57,17:51
11,Lucy,Terry,06:10,5:56,17:48
12,Julie,Evely,06:20,5:53,17:39
13,Lachlan,Walsh,06:20,5:52,17:36
14,Amber,Lyons,06:30,5:50,17:30
15,Megan,McDonald,06:50,5:45,17:15
16,Emily,Heislers,07:30,5:30,16:30
17,Murray,Cordell,07:40,5:27,16:21
18,Amy,Sim,07:50,5:23,16:09
19,Bronte,Walsh,07:50,5:25,16:15
20,Joanne,Weatherhead,07:50,5:25,16:15
21,Sebastian,Rowe,08:00,5:20,16:00
22,Morgan,Dunn,08:20,5:15,15:45
23,Zac,Walsh,08:40,5:6,15:18
24,Bailey,Dunn,08:50,5:5,15:15
25,Carissa,Brooke,08:50,5:3,15:09
26,Alister,Brasher,09:00,5:0,15:00
27,Scott,Roberts,09:20,4:52,14:36
28,Floyd,Cartner,09:20,4:55,14:45
29,Matisse,Perez,09:30,4:49,14:27
30,Greg,Christie,09:30,4:50,14:30
31,Noah,Walsh,09:40,4:48,14:24
32,Luke,Padgham,09:50,4:45,14:15
33,Steffany,Roberts,10:00,4:40,14:00
34,Will,Kenny,10:00,4:40,14:00
35,Shaina,Brooke,10:00,4:40,14:00
36,Blaze,Houlden,10:20,4:32,13:36
37,Jordan,Doherty,10:30,4:30,13:30
38,David,Lonsdale,10:50,4:24,13:12
39,Jack,Cripps,11:20,4:13,12:39
40,Riley,Walsh,11:20,4:12,12:36
41,Madeleine,Evely,12:00,4:0,12:00
42,Matthew,Heislers,12:10,3:56,11:48
43,John,Rose,12:20,3:52,11:36
44,Pat,Kenny,13:00,3:40,11:00
45,Fraser,Walsh,13:30,3:30,10:30