place,first,last,net Time,diff
1,Lisa,McDermid,43:55,- 2:39
2,Max,Pearse,29:41,- 2:10
3,Joanne,Weatherhead,40:19,- 1:05
4,Aaron,Anderson,29:07,- 0:40
5,Jennifer,Lee,34:11,- 0:39
6,Gavin,Fiedler,30:29,- 0:34
7,Craig,Fuerherdt,27:12,- 0:24
8,Laura,Reynolds,35:59,- 0:14
9,John,McCullagh,30:12,- 0:16
10,Angela,Slattery,36:25,- 0:10
11,Kylie,Cheal,37:11,- 0:11
12,Janet,Hodnett,34:22,- 0:01
13,Nicole,Richardson,36:04,- 0:03
14,Ryan,Brook,29:55,- 0:06
15,Melissa,Douglas,39:38,- 0:03
16,Alan,Buchanan,30:09,+ 0:02
17,Charles,Chambers,27:40,+ 0:04
18,Maree,Platt,38:36,+ 0:05
19,Justin,Lee,31:38,+ 0:07
20,Jeff,Pethybridge,28:30,+ 0:13
21,Erica,Wilkinson,30:22,+ 0:14
22,Tracy,Wilson,28:03,+ 0:14
23,Gary,Crouch,31:42,+ 0:25
24,Brian,Watson,27:44,+ 0:22
25,Shayne,Rushan,34:26,+ 0:31
26,David,Heislers,32:00,+ 0:36
27,Michael,Bieleny,25:41,+ 0:30
28,Ben,McDermid,27:13,+ 0:32
29,Shann,Anderson,37:06,+ 0:39
30,Rebecca,Tweed,27:52,+ 0:44
31,Jenny,Buchanan,31:47,+ 0:50
32,Brad,Russell,35:08,+ 0:52
33,Ingrid,Douglass,31:44,+ 1:01
34,Andrew,Buchanan,23:53,+ 1:20
35,Laura,Terry,35:54,+ 1:31
36,Holly,Randall,33:16,+ 2:13
37,Alison,McCullagh,39:07,+ 3:21
38,Alan,East,44:38,+ 3:21
39,John,Brewin,38:07,+ 4:12