place,member,first,last,start,Pace,est Time
1,222,Virginia,Grills-Marsily,0:50,7.35,15:10
2,235,Aoife,Cunningham,0:50,7.35,15:10
3,206,Elisa,Christie,2:10,6.55,13:50
4,225,Leyslie,Fabian,2:20,6.5,13:40
5,148,Matisse,Grills-Marsily,2:30,6.45,13:30
6,146,David,Ashman,2:40,6.4,13:20
7,226,Drew,Parry,2:40,6.39,13:18
8,106,Suellen,Bambrick,2:50,6.35,13:10
9,159,Renelle,McManus,3:10,6.23,12:46
10,21,Michelle,Bieleny,3:20,6.2,12:40
11,229,Harrison,Pitson,3:20,6.2,12:40
12,208,Houston,Pearse,3:30,6.13,12:26
13,300,Lucinda,Terry,3:40,6.1,12:20
14,210,Fiona,Dangerfield,4:00,5.59,11:58
15,270,Tyler,Wilkie,4:00,5.59,11:58
16,101,Paula,Saxon,4:20,5.5,11:40
17,105,Toby,McCaig,4:20,5.5,11:40
18,195,Luke,Creer,4:20,5.5,11:40
19,214,Amy,Sim,4:20,5.5,11:40
20,147,Lachlan,Feuerherdt,4:30,5.43,11:26
21,150,Rebecca,Ashman,4:30,5.46,11:32
22,89,Natalie,Watson,4:40,5.39,11:18
23,173,Melanie,Cuzzillo,4:40,5.4,11:20
24,187,Nicole,Kelly,4:40,5.4,11:20
25,249,Will,Gleisner,4:40,5.39,11:18
26,191,Phoebe,Lonsdale,4:50,5.35,11:10
27,66,Megan,McDonald,5:00,5.32,11:04
28,98,Tanya,Fleming,5:00,5.32,11:04
29,170,Abbey,Saxon,5:00,5.31,11:02
30,190,Micheala,Meharry,5:00,5.29,10:58
31,200,Jack,Cripps,5:00,5.29,10:58
32,228,Sam,Pitson,5:00,5.3,11:00
33,230,McKinley,Grills-Marsily,5:00,5.3,11:00
34,99,Oscar,Terry,5:10,5.25,10:50
35,188,Darcy,Tucker,5:10,5.23,10:46
36,215,Emerson,Sim,5:10,5.25,10:50
37,269,Cooper,Charnas,5:10,5.25,10:50
38,277,Luke,Feuerherdt,5:10,5.26,10:52
39,1,Ashlee,Bull,5:20,5.22,10:44
40,182,Hanna,Crane,5:20,5.21,10:42
41,213,Phoebe,a'Beckett,5:30,5.16,10:32
42,164,Imogen,Thompson,5:40,5.12,10:24
43,176,Kaidyn,Tucker,5:40,5.12,10:24
44,132,Tracie,Gleisner,6:00,4.58,9:56
45,171,Oliver,Sanderson,6:00,5,10:00
46,189,Tim,Creer,6:00,4.59,9:58
47,201,Beatrice,Lonsdale,6:00,4.59,9:58
48,193,Emily,Heislers,6:10,4.55,9:50
49,275,Max,Rowe,6:10,4.55,9:50
50,77,Brad,Russell,6:20,4.5,9:40
51,169,Floyd,Cartner,6:20,4.49,9:38
52,184,Will,Crane,6:20,4.49,9:38
53,94,David,Lonsdale,6:30,4.46,9:32
54,107,Hayden,Brook,6:30,4.44,9:28
55,35,Conor,Cunningham,6:40,4.38,9:16
56,39,Melissa,Douglas,6:40,4.38,9:16
57,198,Matthew,Saxon,6:40,4.38,9:16
58,227,Joseph,Glanville,6:40,4.4,9:20
59,131,Carrisa,Brook,7:00,4.28,8:56
60,203,Tullie,Rowe,7:00,4.31,9:02
61,192,Nicholas,Ashman,7:20,4.2,8:40
62,219,Will,McCaig,7:20,4.2,8:40
63,218,Noah,Walsh,7:40,4.09,8:18
64,202,Callum,Tucker,7:50,4.07,8:14
65,224,Cooper,Hale,7:50,4.06,8:12
66,167,Jack,Meade,8:00,3.59,7:58
67,19,Troy,Cartner,8:10,3.56,7:52
68,137,Anton,Paholek,8:10,3.57,7:54
69,42,Craig,Feuerherdt,8:20,3.5,7:40
70,143,Maxine,Paholek,8:20,3.5,7:40
71,33,Andrew,Creer,8:40,3.4,7:20
72,46,Richard,Gleisner,9:20,3.2,6:40
73,97,Adam,Fleming,9:20,3.22,6:44
74,27,Andrew,Buchanan,9:50,3.04,6:08