place,first,last,net Time,diff
1,Will,deVries,5:33,-0:57
2,Olivia,Douglas,5:48,-0:42
3,Lily,Sanderson,4:39,-0:29
4,Lucy,McCaig,5:08,-0:22
5,Aoife,Cunningham,5:30,-0:18
6,Abbey,Cartner,4:32,-0:17
7,Lewis,Lonsdale,4:23,-0:19
7,Joshua,Feuerherdt,5:23,-0:18
8,Billy,Meade,4:22,-0:04
9,Lewis,Kallour,6:15,-0:05
10,Lacey,Wilkie,5:37,-0:03
11,Jack,Gleisner,5:31,0:03
12,Paige,a'Beckett,5:32,0:03
13,Dylan,Sim,5:48,0:10
14,Lucinda,Terry,5:08,0:15
15,Lachlan,Feuerherdt,5:20,0:43
16,Finn,Cunningham,7:00,0:35
17,Luke,Feuerherdt,5:31,0:45
18,Jesse,Brook,7:44,1:22
New,Henry,Turnbull,5:34,
New,Archie,Ross,5:42,
New,Tadhg,Hughan,5:55,
New,Annabel,Hancock,6:05,
New,Maddi,Bray,5:54,
New,Harry,Cripps,5:55,
New,Jett,Grundy,4:12,
New,Elouise,Wilby,5:36,
New,Mitchell,Brey,7:31,
New,Sean,Hughan,8:09,
New,Matthew,Creer,10:54,
New,George,Pitson,10:43,