place,first,last,start,pace,est Time
1,Sarah,Cunningham,0:20,7:37,7:37
2,Olivia,Kealy,0:30,7:26,7:26
3,Rex,Lourie,0:30,7:30,7:30
4,Ella,Meharry,0:50,7:15,7:15
5,Xavier,Thomas,1:00,6:58,6:58
6,Allerah,Thomas,1:00,6:58,6:58
7,Joshua,Feuerherdt,1:00,7:0,7:00
8,Abbey,Reid,1:00,7:0,7:00
9,Joshua,Kelly,1:00,7:0,7:00
10,Ethan,Fletcher,1:00,7:3,7:03
11,Luke,Creer,1:10,6:49,6:49
12,Moira,Coleman,1:20,6:36,6:36
13,Avery,McDermid,1:20,6:45,6:45
14,Kalan,Thomas,1:20,6:45,6:45
15,Tara,Anderson,1:30,6:27,6:27
16,Eliza,Christie,1:30,6:27,6:27
17,Finn,Cunningham,1:30,6:30,6:30
18,Amber,Anderson,1:30,6:30,6:30
19,Kevin,Wheatley,1:30,6:30,6:30
20,Jack,Gleisner,1:40,6:16,6:16
21,Jasmine,Padgham,1:40,6:19,6:19
22,Lucinda,Terry,1:40,6:20,6:20
23,Aoife,Cunningham,2:00,6:3,6:03
24,Ruby,Fletcher,2:00,6:3,6:03
25,Nick,Meharry,2:10,5:46,5:46
26,Hannah,Crane,2:10,5:51,5:51
27,Jade,Kelly,2:10,5:55,5:55
28,Oscar,Terry,2:20,5:37,5:37
29,Nellie,Rose,2:20,5:39,5:39
30,Tyler,Wilkie,2:20,5:41,5:41
31,Rebecca,Ashman,2:20,5:44,5:44
32,Manny,Rose,2:30,5:27,5:27
33,Melana,Cordell,2:30,5:30,5:30
34,Abbey,Cartner,2:30,5:30,5:30
35,Matthew,Saxon,2:30,5:30,5:30
36,Albert,Cordell,2:30,5:31,5:31
37,Georgia,Pearce,2:30,5:35,5:35
38,Tim,Creer,2:40,5:17,5:17
39,Vincent,Weatherhead,2:40,5:17,5:17
40,Pheobe,Lonsdale,2:40,5:25,5:25
41,Catelynd,Wheatley,2:40,5:25,5:25
42,Henry,Cordell,2:50,5:9,5:09
43,Kaidyn,Tucker,2:50,5:14,5:14
44,Luke,Feuerherdt,2:50,5:15,5:15
45,Lewis,Lonsdale,2:50,5:15,5:15
46,Beatrice,Lonsdale,2:50,5:15,5:15
47,Harrison,Kelly,3:00,4:58,4:58
48,Nina,Lenard,3:00,5:3,5:03
49,Emerson,Sim,3:10,4:46,4:46
50,Morgan,Dunn,3:10,4:48,4:48
51,Emily,Heislers,3:10,4:50,4:50
52,Lachlan,Feuerherdt,3:10,4:55,4:55
53,Max,Rowe,3:10,4:55,4:55
54,Jayden,Padgham,3:10,4:55,4:55
55,Jack,Meharry,3:20,4:45,4:45
56,Floyd,Cartner,3:40,4:20,4:20
57,Jake,Lyons,3:40,4:20,4:20
58,Bailey,Dunn,3:40,4:20,4:20
59,Tullie,Rowe,3:40,4:24,4:24
60,Brayden,Roberts,3:50,4:7,4:07
61,Noah,Walsh,3:50,4:10,4:10
62,Melissa,Douglas,4:00,4:0,4:00