place,first,last,net Time,club
1,Jamie,Cook,26:23.5,HARRIERS
2,Ben,Stolz,29:01.0,HARRIERS
3,Daniel,Plowright,29:08.6,STH BENDIGO
4,Tom,Barkmeyer,29:15.1,BUAC
5,Andrew,Hosking,31:22.7,BUAC
6,Matthew,Le Nepveu,31:55.5,STH BENDIGO
7,Luke,Matthews,32:45.1,HARRIERS
8,Jordan,Buckell,33:49.3,HARRIERS
9,Brett,Gilligan,33:50.5,HARRIERS
10,Lee,Bray,34:06.1,BUAC
11,Ryan,Brook,35:31.6,BUAC
12,Harvey,Gibbs,35:31.6,HARRIERS
13,Jay,Sanderson,36:42.3,BUAC
14,Rory,Weightman,38:28.6,BUAC
15,Rob,Redmond,45:29.1,BUAC