PLACE, FIRST, LAST, TIME, PACE, CLUB
1,Amy,McCormick,0:29:54.0,03:56.1,UNI
2,Sarah,Jalim,0:31:33.7,04:09.2,UNI
3,Rebecca,Wilkinson,0:32:02.3,04:12.9,UNI
4,Rebecca,Kirkby,0:32:35.6,04:17.3,UNI
5,Jill,Wilkie,0:33:28.2,04:24.2,HARRIERS
6,Joanne,Russell,0:34:32.4,04:32.7,UNI
7,Anne ,Buckley,0:35:42.5,04:41.9,HARRIERS
8,Gabrielle,Rusbridge,0:35:48.4,04:42.7,EAGLEHAWK
9,Anne,McIntosh,0:36:07.6,04:45.2,UNI
10,Melissa,Douglas,0:36:51.3,04:51.0,UNI
11,Jan,Densley,0:37:06.2,04:52.9,UNI
12,Andrea,Smith,0:37:07.7,04:53.1,UNI
13,Debby ,Kirne,0:37:43.9,04:57.9,SOUTH BENDIGO
14,Alison,Cartner,0:38:15.6,05:02.1,UNI
15,Molly,Butler,0:38:16.8,05:02.2,UNI
16,Trinity,Sanderson,0:38:44.3,05:05.8,UNI
17,Nadene,Macdonald,0:38:59.0,05:07.8,HARRIERS
18,Tina,McBain,0:40:21.3,05:18.6,UNI
19,Casey,Crapper,0:40:41.5,05:21.2,EAGLEHAWK
20,Deanna,Marshall,0:40:55.9,05:23.1,UNI
21,Liz,Foster,0:41:42.0,05:29.2,UNI
22,Maree,Platt,0:41:47.5,05:29.9,UNI
23,Leah,Cripps,0:43:04.8,05:40.1,UNI
24,Janis,Bull,0:43:39.8,05:44.7,OTHER
25,Wendy,Stibbe,0:47:25.4,06:14.4,HARRIERS
