PLACE,FIRST,LAST,TIME,PACE,CLUB
1,Steven,Field,1:30:25.7,04:18.4,UNI
2,James,Harper,1:39:39.6,04:44.7,UNI
3,Aaron,Anderson,1:49:00.7,05:11.5,UNI
4,Dean,Trew,1:54:32.4,05:27.3,UNI
5,Darren,Rowe,1:54:45.1,05:27.9,UNI
6,Russell,Easton,1:58:53.6,05:39.7,UNI
7,Leigh,Draper,2:05:57.7,05:59.9,UNI
