Place,First,Last,NET Time,Pace,Diff
1,Jack,Milligan,0:14:05.0,03:50,-00:32.1
2,Melinda,Marwood,0:23:06.6,06:18,-00:19.0
3,William,Robinson,0:16:51.2,04:36,+00:16.6
4,James,Trew,0:15:37.1,04:15,+00:26.9
5,Tanner,Fear,0:16:12.3,04:25,+00:32.8
6,Josephine,Robinson,0:21:47.9,05:56,+00:34.4
7,Mason,Woodward,0:17:06.3,04:40,+00:35.4
8,David,Cripps,0:17:34.8,04:47,+00:45.6
9,Jonty,McDermid,0:19:43.7,05:23,+00:46.0
10,Tammy,Fear,0:21:28.0,05:51,+00:58.5
11,Abbey,Cartner,0:18:10.4,04:57,+00:59.1
12,Lewis,Lonsdale,0:18:26.1,05:01,+01:07.5
13,Lachlan,Feuerherdt,0:17:33.1,04:47,+01:09.5
14,Tim,Creer,0:17:04.3,04:39,+01:10.1
15,Andrew,Creer,0:15:30.9,04:14,+01:12.1
16,Chloe,Green,0:19:44.7,05:23,+01:16.4
17,Jazlin,Fear,0:17:51.1,04:52,+01:16.5
18,Jaron,Ekanayake,0:17:36.9,04:48,+01:17.0
19,Lachlan,Edwards,0:17:46.6,04:51,+01:26.7
20,Avery,McDermid,0:20:00.8,05:27,+01:47.1
21,Ethen,Marwood,0:19:37.1,05:21,+02:03.8
22,Ben,McDermid,0:16:19.2,04:27,+02:11.4
23,Lynley,McDonald,0:25:45.5,07:01,+02:52.9
NEW,Michelle,Scott,0:23:05.0,06:17
NEW,Ebony,Whiley,0:18:39.5,05:05
NEW,Kane,Safstrom,0:19:21.2,05:16
