PLACE,FIRST,LAST,RACES,POINTS
1,Andrea,Smith,8,166
2,Mason,Woodward,9,165
3,Tanner,Fear,7,151
4,Tim,Creer,7,138
5,William,Robinson,6,122
6,Tammy,Fear,8,113
7,Tullie,Rowe,7,107
8,Ben,McDermid,9,106
9,Jazlin,Fear,8,104
10,James,Trew,5,100
11,Jonty,McDermid,7,97
12,Jennifer,Lee,6,95
13,Melinda,Marwood,4,93
14,Luke,Creer,3,92
15,Abbey,Cartner,6,92
16,Phoebe,Lonsdale,6,92
17,Avery,McDermid,8,91
18,Charlotte,Murphy,5,89
19,Max,Rowe,6,85
20,Beatrice,Lonsdale,5,85
21,Chloe,Green,4,81
22,Lachlan,Feuerherdt,6,80
23,Jaron,Ekanayake,3,78
24,Jonte,Breen,4,75
25,Lachlan,Edwards,4,75
26,Ethen,Marwood,4,69
27,Genevieve,Draper,2,66
28,David,Cripps,5,65
29,Megan,McDonald,3,65
30,Kim,Carter,2,62
31,Lewis,Lonsdale,3,58
32,Chris,Giffin,4,58
33,Lynley,McDonald,5,56
34,Tyler,Wilkie,2,52
35,Christopher,Epworth,3,51
36,Darren,Rowe,4,50
37,Tanya,Fleming,3,49
38,Floyd,Cartner,2,48
39,Bec,Lacy,4,46
40,Harry,Cripps,3,43
41,Hamish,Draper,3,42
42,Bec,Woodward,7,42
43,Jack,Milligan,2,40
44,Lesley,Fabian,2,36
45,Scott,Broad,2,35
46,Ross,Douglas,1,30
47,Phoebe,Martin,1,30
48,Amelia,Mitchell,3,28
49,Jasmine,Murphy,6,26
50,Fiona,Preston,1,25
51,Josephine,Robinson,2,24
52,Oliver,Sanderson,1,24
53,Jye,Ekanayake,2,23
54,Ella,Smith,2,20
55,Toby,McCaig,1,18
56,Andrew,Creer,2,15
57,John,Robinson,1,12
58,Melissa,Douglas,1,11
59,Kevin,de Vries,1,11
60,Aida,Escall,1,10
61,Travis,Edwards,1,9
62,Justine,Rowe,1,5
63,Noah,Armstrong,2,4
64,Miller,Armstrong,2,2
65,Leah,Cripps,1,1
66,Sal,Ekanayake,1,0
67,Alison,Cartner,1,0
68,Danny,Breen,1,0
69,Harry,Wright,1,0
70,Ella,Meharry,1,0
71,Kane,Safstrom,1,0
72,Owen,Draper,1,0
73,Luke,Feuerherdt,1,0
74,Zacch,Martin,1,0
75,Xavier,Marwood,1,0
76,Geoffrey,Robinson,1,0
