PLACE,FIRST,LAST,RACES,POINTS
1,Mason,Woodward,9,140
2,Avery,McDermid,8,120
3,Lewis,Lonsdale,6,111
4,Ebony,Woodward,9,100
5,Luke,Feuerherdt,6,95
6,Jonty,McDermid,7,87
7,Logan,Beesley,6,85
8,Joshua,Feuerherdt,5,77
9,April,Wainwright,9,74
10,William,Robinson,4,70
11,Skylar,Woodward,9,55
12,Jaron,Ekanayake,3,54
13,Ivy,Bray,3,39
14,Tully,Cripps,7,38
15,Noah,Armstrong,2,38
16,Poppy,Wainwright,4,34
17,Jye,Ekanayake,2,32
18,Harry,Cripps,5,32
19,Miller,Armstrong,2,29
20,Olivia,Douglas,4,28
21,Chloe,Beesley,6,27
22,Jemma,Carter,5,26
23,Eiliyah,Daneen,5,24
24,Harry,Scott,2,22
25,Elliott,Lavery,5,21
26,Max,Rowe,1,20
27,Sebastian,Stewart,2,20
28,Xavier,Marwood,3,20
29,Geoffrey,Robinson,7,20
30,Savannah,Marwood,3,17
31,Braxton,Safstrom,4,16
32,Lucy,McCaig,1,16
33,Samuel,Preston,3,15
34,Anna,de Vries,2,15
35,Lily,Sanderson,1,15
36,Phoebe,Martin,1,14
37,Will,de Vries,3,14
38,Lacey,Wilkie,1,11
39,Liam,Carter,5,11
40,Abigail,Epworth,6,11
41,Eden,Howes,1,10
42,Spencer,Lavery,1,8
43,Ruby,Meharry,1,7
44,Ruby,Douglas,8,6
45,Genevieve,Draper,1,4
46,Ellie,Beesley,5,2
47,Belle,Howes,1,2
48,Owen,Draper,3,2
49,Tom,Roberts,4,1
50,Tobias,Preston,2,1
51,Genevieve,Robinson,6,0
52,Edie,Gibbons,1,0
53,Spencer,Epworth,3,0
54,Jimeal,Ekanayake,1,0
55,Jack,Wright,1,0
56,Megan,Howes,1,0
57,Giana,Ekanayake,1,0
58,Bonnie,Scott,2,0
