PLACE,FIRST,LAST,RACES,POINTS
1,Andrew,Creer,7,103
2,Rebecca,Wilkinson,7,103
3,Ben,McDermid,9,95
4,Chris,Giffin,8,95
5,Craig,Feuerherdt,5,91
6,Nicholas,Cherry,6,81
7,David,Lonsdale,6,69
8,John,Robinson,6,63
9,David,Cripps,7,59
10,Nigel,Preston,3,59
11,Danny,Burgess,8,59
12,Matthew,Schepisi,3,57
13,Wil,McCaig,3,55
14,Lee,McCullagh,3,54
15,Garry,Marwood,3,51
16,Greg,Carter,5,50
17,Tim,Lauder,3,48
18,David,Heislers,5,48
19,Damien,Roberts,8,46
20,Justin,Lee,9,40
21,Jack,Milligan,3,33
22,Rik,McCaig,2,32
23,Lisa,Wilkinson,6,26
24,Craig,Green,5,25
25,Mumtaz,Hussain,6,21
26,Andrew,Buchanan,1,20
27,Stephen,van Rees,1,19
28,Ben,Stolz,1,18
29,Andrew,Van Agtmaal,1,17
30,Alan,Buchanan,4,17
31,Brian,Watson,1,16
32,Sarah,Jalim,1,15
33,James,Russell,3,15
34,Michael,Gibbons,1,14
35,Andrew,Wilkie,2,13
36,Clare,Montgomery,5,12
37,Travis,Edwards,4,9
38,Ross,Douglas,7,8
39,Harry,Wright,1,7
40,Jenny,Buchanan,3,7
41,Greg,McBain,2,6
42,Todd,Foster,4,5
43,Tanner,Fear,1,4
44,Mathew,Creer,1,4
45,Shayne,Rushan,8,4
46,Alison,Cartner,4,3
47,Leah,Cripps,6,2
48,Charles,Chambers,1,2
49,Frances,Walsh,1,1
50,Darren,Rowe,6,1
51,Beth,Lavery,5,0
52,Hamish,Draper,1,0
53,Vicki,Lane,3,0
54,Kathleen,Pleasants,4,0
55,Michaela,Meharry,1,0
56,Genevieve,Draper,1,0
57,Sue,Taylor,6,0
58,Gavin,Fiedler,3,0
59,Mel,Debham,1,0
60,Jay,Sanderson,1,0
61,Tyler,Wilkie,1,0
62,Alan,East,5,0
63,Tina,McBain,1,0
64,Amelia,Mitchell,1,0
65,Brad,Russell,2,0
66,Megan,McDonald,1,0
67,Maree,Platt,6,0
68,Lachlan,Cherry,1,0
69,Phoebe,Lonsdale,1,0
70,Trinity,Sanderson,3,0
71,Janet,Hodnett,1,0
72,Alistair,Stewart,2,0
73,Justine,Rowe,4,0
74,Charlotte,Murphy,1,0
75,Emma,Gibbons,2,0
76,Kim,Carter,1,0
77,Melissa,Wilkie,5,0
78,Beatrice,Lonsdale,1,0
79,Ann-Marie,Wangdi,1,0
80,Kevin,de Vries,2,0
81,Jeremy,Draper,2,0
82,Josephine,Robinson,3,0
83,Jennifer,Lee,1,0
84,Liz,Foster,4,0
85,Leeza,Meharry,1,0
86,Fiona,Dangerfield,4,0
87,Troy,Davis,5,0
88,David,Howes,3,0
89,Janelle,Giffin,2,0
90,Bec,Lacy,2,0
91,Philip,Shambrook,3,0
