PLACE, FIRST, LAST, TIME, PACE, CLUB
1,Avery,McDermid,0:10:48.6,03:32.7,UNI
2,Thomas,McArthur,0:11:00.4,03:36.5,SOUTH BENDIGO
3,Mason,Beesley,0:11:17.4,03:42.1,UNI
4,Tanner,Fear,0:12:10.2,03:59.4,UNI
5,Thom,Hosking,0:18:54.5,06:12.0,UNI
6,Harry,Cripps,0:21:48.2,07:08.9,UNI
