place,first,last,net Time,diff
1,Nathaniel,McMaster,17:40,-1:07
2,Jack,Meade,14:45,1:15
3,Adam,Fleming,13:05,1:12
4,Wil,McCaig,15:55,1:20
5,Matthew,Saxon,18:21,1:29
6,Josephine,Robinson,24:32:00,1:33
7,Tanya,Fleming,22:14,2:12
8,Beatrice,Lonsdale,19:26,2:38
9,Max,Rowe,20:44,2:44
10,Melanie,Makris,24:14:00,2:45
11,Avery,McDermid,22:19,3:03