Place,First,Last,NET Time,Pace,Diff
1,Janet,Hodnett,0:42:45.7,05:24,-01:59.2
2,Alison,Cartner,0:39:27.6,04:59,-01:51.4
3,Phoebe,Lonsdale,0:34:32.7,04:22,-01:05.7
4,Kerry,Amor,0:59:26.6,07:30,-01:00.8
5,David,Heislers,0:33:22.9,04:13,-00:56.3
6,Alan,Buchanan,0:40:24.6,05:06,-00:46.4
7,Deanna,Marshall,0:44:39.1,05:38,-00:37.5
8,Damien,Roberts,0:41:38.1,05:15,-00:36.3
9,James,Harper,0:37:09.4,04:41,-00:35.7
10,Ben,McDermid,0:36:26.7,04:36,-00:30.9
11,Nathan,Crowley,0:32:41.7,04:08,-00:18.3
12,David,Cripps,0:33:30.3,04:14,-00:09.3
13,Caitlin,Clarke,0:45:45.0,05:47,-00:03.2
14,Lisa,Wilkinson,0:37:49.5,04:47,-00:03.5
15,Rebecca,Kirkby,0:33:43.2,04:15,+00:03.6
16,Sue,Taylor,0:46:07.4,05:49,+00:03.3
17,Vanessa,Bull,0:34:30.0,04:21,+00:10.8
18,Justin,Lee,0:39:48.5,05:02,+00:12.5
19,David,Lonsdale,0:33:59.5,04:18,+00:35.7
20,Andrew,Creer,0:31:49.9,04:01,+00:48.7
21,Anne,McIntosh,0:37:53.9,04:47,+00:48.4
22,Gavin,Fiedler,0:44:16.0,05:35,+01:45.8
23,Darren,Rowe,0:42:11.1,05:20,+01:55.5
24,Nigel,Preston,0:29:52.9,03:46,+02:01.8
25,Richard,Martin,0:35:52.9,04:32,+02:05.4
26,Erin,Williams,0:40:45.1,05:09,+02:12.5
27,Fiona,Dangerfield,0:52:13.5,06:36,+02:43.5
28,Jack,Milligan,0:36:31.9,04:37,+03:08.1
29,Max,Rowe,0:33:27.0,04:13,+03:13.3
30,Leah,Cripps,0:45:33.0,05:45,+03:18.6
31,Greg,Carter,0:40:07.4,05:04,+05:00.7
32,Shayne,Rushan,0:50:38.3,06:24,+05:29.7
33,David,Burrow,0:44:57.5,05:41,+07:12.4
34,Lauren,Crowley,0:55:10.6,06:58,+10:02.0
NEW,Sarah,Jalim,0:32:34.4,04:07
