Place,Member,First,Last,Start,Pace,Est Time
1,435,Ashton ,Chivers,00:00,08:00,0:27:31.2
2,436,Lily,Chivers,00:00,08:00,0:27:31.2
3,485,Alannah,Ralph,00:00,08:00,0:27:31.2
4,1084,Naghmana,Tehseen,00:00,08:00,0:27:31.2
5,433,Leonie,Chivers,00:30,07:50,0:26:56.8
6,437,Grace,Chivers,00:50,07:46,0:26:43.0
7,225,Lesley,Fabian,01:10,07:40,0:26:22.4
8,484,Mel,Ralph,02:20,07:18,0:25:06.7
9,1097,Evie,Niblett,02:30,07:15,0:24:56.4
10,1020,Mumtaz,Hussain,02:40,07:14,0:24:53.0
11,464,Jen,Pollard,03:00,07:09,0:24:35.8
12,159,Renelle,McManus,03:10,07:06,0:24:25.4
13,3764,Belinda,Dobbin,03:20,07:03,0:24:15.1
14,482,Cohen,Smith,03:40,06:55,0:23:47.6
15,3760,Karl,Stoltz,03:40,06:55,0:23:47.6
16,3762,Leo,Stoltz,03:40,06:55,0:23:47.6
17,40,Aida,Escall,04:00,06:51,0:23:33.8
18,3752,Chloe,Beesley,04:00,06:51,0:23:33.8
19,3776,Kathleen,Pleasants,04:40,06:40,0:22:56.0
20,3798,Charli,Hosking,04:40,06:40,0:22:56.0
21,489,David,Fagg,04:40,06:38,0:22:49.1
22,354,Alice,McIntosh,05:10,06:31,0:22:25.0
23,250,Tully,Cripps,05:10,06:30,0:22:21.6
24,356,Lynley,McDonald,05:10,06:30,0:22:21.6
25,241,Andrea,Smith,05:10,06:29,0:22:18.2
26,1028,Mel,Debnam-Smith,05:10,06:29,0:22:18.2
27,1092,Sihanna,Carter,05:20,06:26,0:22:07.8
28,1026,Eiliyah,Daneen,05:30,06:25,0:22:04.4
29,52,Leah,Cripps,05:40,06:21,0:21:50.6
30,54,Kevin,de Vries,05:50,06:19,0:21:43.8
31,3778,Sebastian,Stewart,05:50,06:17,0:21:36.9
32,246,Poppy,Wainwright,06:20,06:10,0:21:12.8
33,804,Abby,Colt,06:30,06:07,0:21:02.5
34,453,Marcene,Haythrope,06:30,06:06,0:20:59.0
35,1085,Michelle,Scott,06:40,06:04,0:20:52.2
36,3742,Jemma,Carter,06:50,06:02,0:20:45.3
37,281,Will,de Vries,06:50,06:00,0:20:38.4
38,3720,Bec,Beesley,06:50,06:00,0:20:38.4
39,808,Lottie,Macmunn,07:00,05:58,0:20:31.5
40,1065,Sonya,Walker,07:00,05:58,0:20:31.5
41,50,Harry,Cripps,07:00,05:57,0:20:28.1
42,74,Maree,Platt,07:00,05:57,0:20:28.1
43,16,Jennifer,Lee,07:10,05:55,0:20:21.2
44,1089,Ruby,Carter,07:10,05:55,0:20:21.2
45,458,Caitlin,Clarke,07:20,05:52,0:20:10.9
46,407,Cadi,Watchman,07:30,05:50,0:20:04.0
47,408,Trevor,Watchman,07:30,05:50,0:20:04.0
48,442,Marina,Damijanic,07:30,05:50,0:20:04.0
49,1046,Bonnie,Scott,07:30,05:50,0:20:04.0
50,803,Emma,Colt,07:30,05:49,0:20:00.6
51,39,Melissa,Douglas,07:30,05:48,0:19:57.1
52,466,Francesco,Biasi,07:30,05:48,0:19:57.1
53,3743,Liam,Carter,07:40,05:47,0:19:53.7
54,400,Darren,Rowe,07:40,05:45,0:19:46.8
55,465,Deb,Banks,07:40,05:45,0:19:46.8
56,3753,Logan,Beesley,07:40,05:45,0:19:46.8
57,398,Angus,McPherson,07:50,05:43,0:19:39.9
58,805,Bradie,Sheldon,08:00,05:40,0:19:29.6
59,359,Anne,McIntosh,08:10,05:38,0:19:22.7
60,1076,Sarah,Trew,08:10,05:38,0:19:22.7
61,3711,Eryn,McManus,08:20,05:34,0:19:09.0
62,463,Lila,Hensley,08:30,05:32,0:19:02.1
63,267,Kayla,McManus,08:40,05:30,0:18:55.2
64,480,Casey,Smith,08:40,05:30,0:18:55.2
65,1090,Chase,Carter,08:50,05:26,0:18:41.4
66,322,Thom,Hosking,08:50,05:25,0:18:38.0
67,440,Sophie,Pedrotti,08:50,05:25,0:18:38.0
68,355,Millie,McIntosh,09:00,05:22,0:18:27.7
69,473,James,Bradshaw,09:10,05:21,0:18:24.2
70,441,Jimmy,Byrne,09:10,05:20,0:18:20.8
71,406,Mietta,Watchman,09:20,05:18,0:18:13.9
72,1035,Braxton,Safstrom,09:30,05:15,0:18:03.6
73,283,Lily,Sanderson,09:30,05:14,0:18:00.2
74,449,Belinda,Whelan,09:30,05:14,0:18:00.2
75,451,Julia,Starr,09:30,05:14,0:18:00.2
76,1025,Liz,Foster,09:30,05:14,0:18:00.2
77,420,Sarah,Crowley,09:40,05:11,0:17:49.8
78,421,Alicia,Crowley,09:40,05:11,0:17:49.8
79,22,Ross,Douglas,09:40,05:10,0:17:46.4
80,457,Emily,Harris,09:40,05:10,0:17:46.4
81,1077,Dean,Trew,09:50,05:09,0:17:43.0
82,1024,Todd,Foster,09:50,05:08,0:17:39.5
83,1047,Harry,Scott,10:10,05:04,0:17:25.8
84,276,Joshua,Feuerherdt,10:20,05:00,0:17:12.0
85,477,Michael,Carney,10:20,05:00,0:17:12.0
86,3774,Ryan,Haythorpe,10:20,05:00,0:17:12.0
87,425,Nathan,Crowley,10:20,04:59,0:17:08.6
88,459,Archie,Clarke,10:20,04:59,0:17:08.6
89,3763,Brett,Dobbin,10:30,04:57,0:17:01.7
90,3704,Callen,Bayliss,10:40,04:55,0:16:54.8
91,418,Vanessa,Bull,10:40,04:54,0:16:51.4
92,3702,Vicki,Bayliss,10:40,04:54,0:16:51.4
93,422,Quinn,Casey,10:50,04:52,0:16:44.5
94,474,Erin,Bradshaw,10:50,04:52,0:16:44.5
95,333,Jon,McIntosh,10:50,04:50,0:16:37.6
96,455,Suzie,Pedrotti,10:50,04:50,0:16:37.6
97,14,Lisa,Wilkinson,11:00,04:48,0:16:30.7
98,481,Daniel,Smith,11:00,04:48,0:16:30.7
99,3788,Matthew,Schubert,11:00,04:48,0:16:30.7
100,266,Lewis,Lonsdale,11:10,04:45,0:16:20.4
101,488,John,Starr,11:10,04:45,0:16:20.4
102,497,Oscar,Lethbridge,11:10,04:44,0:16:17.0
103,3730,Greg,Carter,11:10,04:44,0:16:17.0
104,55,Justin,Lee,11:20,04:41,0:16:06.6
105,386,Danny,Burgess,11:30,04:40,0:16:03.2
106,3737,Ebony,Beesley,11:30,04:38,0:15:56.3
107,272,Abbey,Cartner,11:40,04:37,0:15:52.9
108,1023,Matthew,Schepisi,11:40,04:37,0:15:52.9
109,109,Tim,Lovell,11:50,04:34,0:15:42.6
110,381,April,Wainwright,11:50,04:34,0:15:42.6
111,1099,Kelvin,Niblett,11:50,04:33,0:15:39.1
112,147,Lachlan,Feuerherdt,12:00,04:32,0:15:35.7
113,183,Janet,Hodnett,12:00,04:31,0:15:32.2
114,3754,Elijah,Willits,12:00,04:30,0:15:28.8
115,15,Rebecca,Wilkinson,12:10,04:29,0:15:25.4
116,428,Matthew,Bell,12:20,04:25,0:15:11.6
117,3766,Anthony,Byrne,12:20,04:24,0:15:08.2
118,305,Jonty,McDermid,12:30,04:22,0:15:01.3
119,49,David,Heislers,12:40,04:20,0:14:54.4
120,65,Ben,McDermid,12:40,04:19,0:14:51.0
121,1080,Jayson,Carter,12:40,04:18,0:14:47.5
122,1060,William,Trew,12:50,04:16,0:14:40.6
123,84,Craig,Green,13:00,04:14,0:14:33.8
124,1083,Rebecca,Kirkby,13:00,04:14,0:14:33.8
125,452,Noah,Pedrotti,13:00,04:13,0:14:30.3
126,394,Rhianna,Wik-Gamble,13:00,04:12,0:14:26.9
127,1051,Kane,Safstrom,13:00,04:12,0:14:26.9
128,191,Phoebe,Lonsdale,13:10,04:10,0:14:20.0
129,3755,Noah,Willits,13:20,04:07,0:14:09.7
130,3714,Tanner,Fear,13:20,04:06,0:14:06.2
131,189,Tim,Creer,13:30,04:05,0:14:02.8
132,203,Tullie,Rowe,13:30,04:04,0:13:59.4
133,358,Lewis,McIntosh,13:40,04:03,0:13:55.9
134,438,Damian,Hughes,13:50,03:59,0:13:42.2
135,171,Oliver,Sanderson,14:10,03:54,0:13:25.0
136,277,Luke,Feuerherdt,14:20,03:49,0:13:07.8
137,423,Hugh,Casey,14:30,03:48,0:13:04.3
138,432,Jarrod,Epps,14:30,03:48,0:13:04.3
139,1029,James,Trew,14:30,03:48,0:13:04.3
140,274,Avery,McDermid,14:30,03:47,0:13:00.9
141,3738,Mason,Beesley,14:30,03:46,0:12:57.4
142,51,Andrew,Hosking,14:40,03:44,0:12:50.6
143,275,Max,Rowe,14:50,03:41,0:12:40.2
144,169,Floyd,Cartner,15:20,03:32,0:12:09.3
