Place,Member,First,Last,Start,Pace,Est Time
1,159,Renelle,McManus,00:00,08:00,1:03:21.6
2,806,Kerry,Amor,02:50,07:38,1:00:27.4
3,3776,Kathleen,Pleasants,04:40,07:25,0:58:44.4
4,427,Cath,O'Leary,13:10,06:20,0:50:09.6
5,54,Kevin,de Vries,13:50,06:15,0:49:30.0
6,210,Fiona,Dangerfield,13:50,06:15,0:49:30.0
7,1025,Liz,Foster,14:30,06:10,0:48:50.4
8,39,Melissa,Douglas,14:50,06:08,0:48:34.6
9,74,Maree,Platt,15:50,06:00,0:47:31.2
10,3740,Vicki,Lane,16:30,05:55,0:46:51.6
11,76,Cara,Smith,17:10,05:50,0:46:12.0
12,1028,Mel,Debnam-Smith,17:10,05:50,0:46:12.0
13,3758,Janis,Bull,17:10,05:50,0:46:12.0
14,197,Sue,Taylor,17:20,05:49,0:46:04.1
15,182,Hannah,Crane,17:30,05:48,0:45:56.2
16,458,Caitlin,Clarke,17:30,05:47,0:45:48.2
17,386,Danny,Burgess,17:50,05:45,0:45:32.4
18,1066,Jodie,McLeod,18:00,05:43,0:45:16.6
19,1087,Deanna,Marshall,18:00,05:43,0:45:16.6
20,6,Shayne,Rushan,18:10,05:42,0:45:08.6
21,424,Lauren,Crowley,18:10,05:42,0:45:08.6
22,449,Belinda,Whelan,18:10,05:42,0:45:08.6
23,22,Ross,Douglas,18:30,05:40,0:44:52.8
24,91,Melissa,Wilkie,18:30,05:40,0:44:52.8
25,183,Janet,Hodnett,18:40,05:39,0:44:44.9
26,31,Charles,Chambers,19:00,05:36,0:44:21.1
27,398,Angus,McPherson,19:20,05:33,0:43:57.4
28,3777,Alistair,Stewart,19:20,05:33,0:43:57.4
29,87,Frances,Walsh,20:10,05:27,0:43:09.8
30,807,Kristian,Dowler,20:20,05:26,0:43:01.9
31,13,Gavin,Fiedler,20:50,05:22,0:42:30.2
32,270,Tyler,Wilkie,20:50,05:22,0:42:30.2
33,52,Leah,Cripps,21:10,05:20,0:42:14.4
34,1003,Damien,Roberts,21:10,05:20,0:42:14.4
35,1024,Todd,Foster,21:10,05:20,0:42:14.4
36,29,Alison,Cartner,22:00,05:13,0:41:19.0
37,3,Alan,Buchanan,22:10,05:12,0:41:11.0
38,333,Jon,McIntosh,23:10,05:05,0:40:15.6
39,400,Darren,Rowe,23:10,05:05,0:40:15.6
40,476,Sheena,Carney,23:40,05:01,0:39:43.9
41,55,Justin,Lee,23:50,05:00,0:39:36.0
42,241,Andrea,Smith,23:50,05:00,0:39:36.0
43,3763,Brett,Dobbin,24:10,04:57,0:39:12.2
44,278,James,Russell,24:20,04:56,0:39:04.3
45,9,Trinity,Sanderson,24:30,04:55,0:38:56.4
46,3739,Stephen,van Rees,24:30,04:55,0:38:56.4
47,3702,Vicki,Bayliss,24:30,04:54,0:38:48.5
48,1040,Erin,Williams,24:50,04:52,0:38:32.6
49,455,Suzie,Pedrotti,25:00,04:50,0:38:16.8
50,3760,Karl,Stoltz,25:00,04:50,0:38:16.8
51,14,Lisa,Wilkinson,25:30,04:47,0:37:53.0
52,18,Georgie,Lanyon,25:30,04:47,0:37:53.0
53,274,Avery,McDermid,25:30,04:47,0:37:53.0
54,1020,Mumtaz,Hussain,25:30,04:47,0:37:53.0
55,802,James,Harper,25:40,04:46,0:37:45.1
56,1074,David,Burrow,25:40,04:46,0:37:45.1
57,1099,Kelvin,Niblett,25:40,04:46,0:37:45.1
58,1080,Jayson,Carter,25:40,04:45,0:37:37.2
59,3766,Anthony,Byrne,25:40,04:45,0:37:37.2
60,408,Trevor,Watchman,26:00,04:43,0:37:21.4
61,3788,Matthew,Schubert,26:00,04:43,0:37:21.4
62,384,Andrew,Wilkie,26:10,04:42,0:37:13.4
63,359,Anne,McIntosh,26:20,04:41,0:37:05.5
64,65,Ben,McDermid,26:20,04:40,0:36:57.6
65,109,Tim,Lovell,26:20,04:40,0:36:57.6
66,171,Oliver,Sanderson,26:50,04:37,0:36:33.8
67,1051,Kane,Safstrom,27:00,04:35,0:36:18.0
68,84,Craig,Green,27:40,04:30,0:35:38.4
69,191,Phoebe,Lonsdale,27:40,04:30,0:35:38.4
70,203,Tullie,Rowe,28:00,04:28,0:35:22.6
71,469,Paul,Boxshall,28:10,04:26,0:35:06.7
72,3730,Greg,Carter,28:10,04:26,0:35:06.7
73,490,Aaron,Anderson,28:20,04:25,0:34:58.8
74,394,Rhianna,Wik-Gamble,28:30,04:24,0:34:50.9
75,428,Matthew,Bell,28:30,04:24,0:34:50.9
76,49,David,Heislers,29:00,04:20,0:34:19.2
77,418,Vanessa,Bull,29:00,04:20,0:34:19.2
78,472,John,Flood,29:30,04:16,0:33:47.5
79,499,Richard,Martin,29:30,04:16,0:33:47.5
80,350,David,Cripps,29:40,04:15,0:33:39.6
81,438,Damian,Hughes,29:40,04:15,0:33:39.6
82,1083,Rebecca,Kirkby,29:40,04:15,0:33:39.6
83,15,Rebecca,Wilkinson,29:50,04:14,0:33:31.7
84,430,Brianna,Maddern,29:50,04:14,0:33:31.7
85,94,David,Lonsdale,30:00,04:13,0:33:23.8
86,1031,Jack,Milligan,30:00,04:13,0:33:23.8
87,399,Darren,Hartland,30:10,04:12,0:33:15.8
88,432,Jarrod,Epps,30:10,04:12,0:33:15.8
89,1027,Andrew,Van Agtmaal,30:10,04:12,0:33:15.8
90,425,Nathan,Crowley,30:20,04:10,0:33:00.0
91,801,Rebecca ,Beagley,30:20,04:10,0:33:00.0
92,429,Gavin,Hicks,30:40,04:08,0:32:44.2
93,448,Rory,Flanagan,30:40,04:08,0:32:44.2
94,1022,Ben,Stolz,31:20,04:03,0:32:04.6
95,88,Brian,Watson,31:30,04:01,0:31:48.7
96,8,Rik,McCaig,31:40,04:00,0:31:40.8
97,1023,Matthew,Schepisi,31:40,04:00,0:31:40.8
98,33,Andrew,Creer,32:20,03:55,0:31:01.2
99,462,Eliot,Walton,32:40,03:52,0:30:37.4
100,23,Michael,Bieleny,32:50,03:51,0:30:29.5
101,169,Floyd,Cartner,33:00,03:50,0:30:21.6
102,275,Max,Rowe,33:10,03:49,0:30:13.7
103,447,Jake,Delaney,33:10,03:49,0:30:13.7
104,492,Zeb,Broadbent,33:10,03:49,0:30:13.7
105,51,Andrew,Hosking,33:20,03:47,0:29:57.8
106,404,Leon,Griffin,34:40,03:38,0:28:46.6
107,467,Glenn,McMillian,35:20,03:32,0:27:59.0
108,3701,Nigel,Preston,35:30,03:31,0:27:51.1
109,487,Ned,Buckell,35:50,03:28,0:27:27.4
