Place,First,Last,NET Time,Pace,Diff
1,Abby,Colt,0:19:32.1,05:41,-01:30.4
2,Alicia,Crowley,0:16:40.1,04:51,-01:09.7
3,Bec,Beesley,0:19:42.9,05:44,-00:55.5
4,Emma,Colt,0:19:23.6,05:38,-00:37.0
5,Callen,Bayliss,0:16:18.7,04:44,-00:36.1
6,Erin,Bradshaw,0:16:08.1,04:41,-00:36.4
7,Vicki,Bayliss,0:16:24.9,04:46,-00:26.5
8,Leah,Cripps,0:21:33.1,06:16,-00:17.5
9,Abbey,Cartner,0:15:46.8,04:35,-00:06.1
10,Mason,Beesley,0:12:52.6,03:45,-00:04.8
11,Ebony,Beesley,0:16:01.0,04:39,+00:04.7
12,Michelle,Scott,0:20:58.7,06:06,+00:06.5
13,James,Bradshaw,0:18:36.9,05:25,+00:12.7
14,Ben,McDermid,0:15:04.0,04:23,+00:13.0
15,Dean,Trew,0:18:18.2,05:19,+00:35.2
16,James,Trew,0:13:47.4,04:01,+00:43.1
17,Justin,Lee,0:16:54.6,04:55,+00:48.0
18,Harry,Cripps,0:21:20.7,06:12,+00:52.6
19,Harry,Scott,0:18:24.5,05:21,+00:58.7
20,April,Wainwright,0:16:52.6,04:54,+01:10.0
21,Eiliyah,Daneen,0:23:16.6,06:46,+01:12.2
22,Emily,Harris,0:19:27.0,05:39,+01:40.6
23,Naghmana,Tehseen,0:29:59.3,08:43,+02:28.1
24,Lewis,Lonsdale,0:18:53.8,05:30,+02:33.4
25,Bonnie,Scott,0:24:43.2,07:11,+04:39.2
26,Poppy,Wainwright,0:25:52.8,07:31,+04:40.0
27,Tully,Cripps,0:27:38.0,08:02,+05:16.4
NEW,Jazmin,Marshall,0:19:41.5,05:43
NEW,Nick,Best,0:18:58.5,05:31
NEW,Owen,Best,0:18:26.5,05:22
