PLACE,FIRST,LAST,RACES,POINTS
1,Lisa,Wilkinson,4,156
2,Ben,McDermid,4,143
3,Damien,Roberts,4,142
4,Sue,Taylor,4,139
5,Alison,Cartner,3,135
6,Justin,Lee,4,134
7,Rebecca,Kirkby,4,131
8,Andrew,Hosking,3,128
9,Vanessa,Bull,3,128
10,Phoebe,Lonsdale,3,117
11,David,Lonsdale,3,116
12,Richard,Martin,4,114
13,Gavin,Fiedler,3,109
14,Max,Rowe,3,109
15,Erin,Williams,4,104
16,James,Harper,3,101
17,Deanna,Marshall,4,101
18,Kelvin,Niblett,2,92
19,Zeb,Broadbent,3,89
20,Vicki,Bayliss,2,89
21,David,Heislers,2,85
22,Anne,McIntosh,2,84
23,Jake,Delaney,2,82
24,Rebecca,Wilkinson,2,81
25,Darren,Rowe,3,79
26,Darren,Hartland,2,77
27,Jack,Milligan,3,76
28,Greg,Carter,3,73
29,David,Cripps,2,72
30,Jayson,Carter,2,70
31,Brian,Watson,3,68
32,Andrew,Creer,2,63
33,Janet,Hodnett,2,60
34,Rhianna,Wik-Gamble,1,55
35,Ross,Douglas,2,50
36,Kerry,Amor,2,46
37,Alan,Buchanan,2,44
38,David,Burrow,2,44
39,Tullie,Rowe,1,43
40,Matthew,Bell,2,42
41,Nathan,Crowley,2,39
42,Caitlin,Clarke,1,37
43,Anthony,Byrne,1,32
44,Maree,Platt,1,31
45,Nigel,Preston,1,26
46,Kevin,de Vries,1,25
47,Fiona,Dangerfield,1,23
48,Vicki,Lane,1,22
49,Matthew,Schepisi,1,21
50,Leah,Cripps,1,20
51,Trinity,Sanderson,1,19
52,Shayne,Rushan,1,18
53,Lauren,Crowley,2,16
54,Charles,Chambers,1,0
55,Sarah,Jalim,1,0
56,Hannah,Crane,1,0
57,Avery,McDermid,1,0
58,Rebecca ,Beagley,1,0
59,Kristian,Dowler,1,0
60,Brett,Dobbin,1,0
