place,first,last,club,net Time,pace
1,Rick,Jackel,UNI,1:01:36,4:24
2,John,McCullagh,UNI,1:02:39,4:29
3,Gavin,Fielder,UNI,1:05:10,4:39
4,Kevin,Walsh,UNI,1:05:46,4:42
5,Victor,Cook,HAR,1:08:41,4:54
6,Leon,Gilbert,HAR,1:08:49,4:55
7,Paul,Bennet,HAR,1:10:21,5:01