Place,First,Last,NET Time,Pace,Diff
1,Melissa,Douglas,0:25:33.9,05:53,-01:06.9
2,Casey,Smith,0:24:14.9,05:34,-01:03.2
3,James,Bradshaw,0:25:15.7,05:48,-00:59.0
4,Sophie,Pedrotti,0:25:38.6,05:54,-00:14.3
5,Suzie,Pedrotti,0:20:59.4,04:50,-00:06.4
6,Mason,Beesley,0:16:23.1,03:46,-00:04.3
7,Mel,Ralph,0:32:10.9,07:24,+00:25.6
8,James,Trew,0:17:00.7,03:55,+00:28.9
9,Logan,Beesley,0:25:36.9,05:53,+00:36.2
10,William,Trew,0:19:11.7,04:25,+00:38.1
11,Harry,Scott,0:22:51.1,05:15,+00:44.3
12,Ebony,Beesley,0:21:10.1,04:52,+01:00.8
13,Abbey,Cartner,0:20:58.2,04:49,+01:02.0
14,Rebecca,Kirkby,0:19:30.2,04:29,+01:05.3
15,Dean,Trew,0:23:30.6,05:24,+01:06.5
16,Tanner,Fear,0:18:56.9,04:21,+01:06.8
17,Ryan,Haythorpe,0:22:54.0,05:16,+01:09.0
18,Michelle,Scott,0:29:12.8,06:43,+01:31.1
19,Bec,Beesley,0:28:14.6,06:30,+02:08.6
20,Kathleen,Pleasants,0:31:32.1,07:15,+03:02.6
21,Harry,Cripps,0:30:48.9,07:05,+03:29.0
22,Matthew,Schubert,0:24:23.2,05:36,+03:30.4
23,Eiliyah,Daneen,0:31:26.1,07:14,+03:53.1
24,Tully,Cripps,0:33:06.0,07:37,+05:11.3
25,Bonnie,Scott,0:40:08.6,09:14,+10:33.8
NEW,Angus,McPherson,0:24:50.5,05:43
NEW,Darren,Rowe,0:24:58.9,05:45
NEW,Ashton ,Chivers,0:41:31.8,09:33
NEW,Daniel,Smith,0:20:52.6,04:48
NEW,Alannah,Ralph,0:44:13.0,10:10
NEW,David,Fagg,0:28:51.8,06:38
NEW,Mumtaz,Hussain,0:31:27.0,07:14
