place,first,last,net Time,diff
1,Tracie,Gleisner,16:19,- 1:47
2,Max,Rowe,14:47,- 0:58
3,Hanna,Crane,16:07,- 0:23
4,Will,McCaig,13:27,- 0:18
5,Brad,Russell,16:05,+ 0:20
6,Phoebe,a'Beckett,16:00,+ 0:30
7,Beatrice,Lonsdale,15:22,+ 0:37
8,Tyler,Wilkie,19:47,+ 0:47
9,Carissa,Brook,14:38,+ 0:50
10,Amy,Sim,17:32,+ 0:53
11,Fiona,Dangerfield,17:53,+ 0:53
12,Matthew,Saxon,15:07,+ 0:52
13,Phoebe,Lonsdale,18:22,+ 1:37
14,Suellen,Bambrick,20:40,+ 1:55
15,Toby,McCaig,17:48,+ 2:15
16,Emerson,Sim,17:49,+ 2:49
17,Tullie,Rowe,16:20,+ 2:50