PLACE,FIRST,LAST,TIME,PACE,CLUB
1,Wil,McCaig,0:10:26.7,03:28.9,UNI
2,Ben,Powell,0:10:30.2,03:30.1,HARRIERS
3,Riley,Osborne,0:10:33.6,03:31.2,HARRIERS
4,Matt,Buckell,0:10:47.0,03:35.7,HARRIERS
5,Craig,Green,0:11:12.2,03:44.1,UNI
6,Declan,Osborne,0:11:30.2,03:50.1,HARRIERS
7,David,Morrissey,0:11:32.4,03:50.8,HARRIERS
8,Jackson,Eadon,0:11:33.3,03:51.1,HARRIERS
9,Logan,Tickell,0:11:43.6,03:54.5,SOUTH BENDIGO
10,Eli,Pearce,0:12:06.4,04:02.1,SOUTH BENDIGO
11,Ben,Wallace,0:12:07.2,04:02.4,SOUTH BENDIGO
12,Toby,McCaig,0:12:17.9,04:06.0,UNI
13,Luke,Matthews,0:12:18.7,04:06.2,HARRIERS
14,Floyd,Cartner,0:12:41.5,04:13.8,UNI
15,Oscar,Fox,0:12:52.0,04:17.3,SOUTH BENDIGO
16,Max,Rowe,0:13:03.3,04:21.1,UNI
17,Tim,Creer,0:13:33.7,04:31.2,UNI
18,Tanner,Fear,0:13:34.8,04:31.6,UNI
19,Lachlan,Feuerherdt,0:13:47.9,04:36.0,UNI
20,Connor,Bedson,0:13:55.4,04:38.5,UNI
21,Geoff,Jordan,0:13:58.9,04:39.6,HARRIERS
22,Ross,Douglas,0:14:07.2,04:42.4,UNI
23,Lewis,Lonsdale,0:14:19.2,04:46.4,UNI
24,Ethan,Mathews,0:14:19.6,04:46.5,HARRIERS
25,Mark,Boyd,0:15:18.3,05:06.1,HARRIERS
26,Nathan,Jones-Stibbe,0:15:33.6,05:11.2,HARRIERS
27,Samuel,Graham,0:17:20.8,05:46.9,EAGLEHAWK
28,Sam,Burns,0:17:46.0,05:55.3,OTHER
29,Luke,Creer,0:18:43.3,06:14.4,UNI
30,Hamish,Draper,0:22:55.0,07:38.3,UNI
31,John,Watson,0:23:11.0,07:43.7,HARRIERS
32,Ken,Bruechert,0:29:41.4,09:53.8,HARRIERS
