PLACE,NAME,TIME,PACE,CLUB,GENDER,AGE
1,Ian Wellard,0:27:34.9,03:56.4,HARRIERS,M,47
2,Craig Green,0:27:46.6,03:58.1,UNI,M,48
3,Matilda Moore,0:29:55.5,04:16.5,HARRIERS,F,15
4,Maddison Hooke,0:30:21.8,04:20.3,HARRIERS,F,15
5,Leigh Browell,0:30:46.8,04:23.8,SOUTH,M,41
6,Gavin Fiedler,0:32:44.4,04:40.6,UNI,M,62
7,Tullie Rowe,0:33:39.1,04:48.4,UNI,F,12
8,Shayne Rushan,0:35:32.7,05:04.7,UNI,M,65
9,Hunter Gill,0:35:48.6,05:06.9,HARRIERS,M,68
10,Kevin de Vries,0:35:58.1,05:08.3,UNI,M,48
11,Donna Bowe,0:36:44.0,05:14.9,SOUTH,F,42
12,Tony Fahy,0:42:37.4,06:05.3,HARRIERS,M,73
13,Lynley McDonald,0:42:47.7,06:06.8,UNI,F,65
14,Chloe Green,0:43:34.0,06:13.4,HARRIERS,F,16
15,Lou Bray,0:47:17.1,06:45.3,UNI,F,45
16,Sarah Schroeder,0:50:25.3,07:12.2,OTHER,F,37
