PLACE,NAME,TIME,PACE,CLUB
1,Matilda Moore,0:29:55.5,04:16.5,HARRIERS
2,Maddison Hooke,0:30:21.8,04:20.3,HARRIERS
3,Tullie Rowe,0:33:39.1,04:48.4,UNI
4,Chloe Green,0:43:34.0,06:13.4,HARRIERS
5,Sarah Schroeder,0:50:25.3,07:12.2,OTHER
