Place,Member,First,Last,Start,Pace,Est Time
1,2,Alan,East,00:10,06:59,1:00:03.4
2,3776,Kathleen,Pleasants,02:10,06:45,0:58:03.0
3,3715,Chloe,Green,03:40,06:35,0:56:37.0
4,159,Renelle,McManus,05:00,06:25,0:55:11.0
5,145,Joshua,Condon,05:00,06:25,0:55:11.0
6,66,Megan,McDonald,05:20,06:23,0:54:53.8
7,397,Taylor,Lovell,07:30,06:08,0:52:44.8
8,37,John,Doering,07:40,06:06,0:52:27.6
9,197,Sue,Taylor,08:50,05:58,0:51:18.8
10,35,Conor,Cunningham,09:10,05:56,0:51:01.6
11,77,Brad,Russell,09:20,05:55,0:50:53.0
12,57,Adam,Henderson,09:20,05:55,0:50:53.0
13,43,Josephine,Robinson,09:40,05:52,0:50:27.2
14,149,Janelle,Giffin,10:00,05:50,0:50:10.0
15,233,Sue,Condon,10:20,05:48,0:49:52.8
16,68,Justin,O'Brien,10:40,05:46,0:49:35.6
17,6,Shayne,Rushan,10:40,05:45,0:49:27.0
18,3732,Emma,Gibbons,10:50,05:44,0:49:18.4
19,392,Mark,Logan,11:10,05:42,0:49:01.2
20,111,Troy,Davis,11:30,05:40,0:48:44.0
21,186,Jason,Anderton,11:30,05:40,0:48:44.0
22,87,Frances,Walsh,11:50,05:37,0:48:18.2
23,251,Beth,Lavery,12:50,05:30,0:47:18.0
24,40,Aida,Escall,12:50,05:30,0:47:18.0
25,299,Jay,Sanderson,13:00,05:29,0:47:09.4
26,16,Jennifer,Lee,13:10,05:28,0:47:00.8
27,91,Melissa,Wilkie,13:20,05:27,0:46:52.2
28,81,Laura,Terry,13:20,05:27,0:46:52.2
29,400,Darren,Rowe,13:20,05:27,0:46:52.2
30,210,Fiona,Dangerfield,13:30,05:26,0:46:43.6
31,398,Angus,McPherson,13:40,05:25,0:46:35.0
32,321,Brett,Houlden,13:40,05:25,0:46:35.0
33,52,Leah,Cripps,13:50,05:24,0:46:26.4
34,331,Scott,Roberts,13:50,05:24,0:46:26.4
35,339,James,Toomey,14:30,05:19,0:45:43.4
36,364,David,Howes,14:30,05:19,0:45:43.4
37,3747,Jeremy,Draper,15:00,05:15,0:45:09.0
38,74,Maree,Platt,15:00,05:15,0:45:09.0
39,333,Jon,McIntosh,15:10,05:14,0:45:00.4
40,370,James,Deacon,15:10,05:14,0:45:00.4
41,180,Lauren,Hancock,15:30,05:12,0:44:43.2
42,315,Paul,Lomax,15:50,05:09,0:44:17.4
43,3726,Clare,Montgomery,16:00,05:08,0:44:08.8
44,22,Ross,Douglas,16:00,05:08,0:44:08.8
45,54,Kevin,deVries,16:20,05:06,0:43:51.6
46,13,Gavin,Fiedler,16:30,05:05,0:43:43.0
47,34,Matthew,Creer,17:40,04:57,0:42:34.2
48,363,Philippa,Morris,17:50,04:56,0:42:25.6
49,29,Alison,Cartner,17:50,04:56,0:42:25.6
50,359,Anne,McIntosh,18:00,04:54,0:42:08.4
51,5,Jenny,Buchanan,18:00,04:54,0:42:08.4
52,59,Tina,McBain,18:10,04:53,0:41:59.8
53,369,Stephen,Wainwright,18:20,04:52,0:41:51.2
54,330,Kate,Hadkins,18:40,04:50,0:41:34.0
55,384,Andrew,Wilkie,18:50,04:49,0:41:25.4
56,3735,Travis,Edwards,19:00,04:48,0:41:16.8
57,307,Philip,Shambrook,19:00,04:48,0:41:16.8
58,241,Andrea,Smith,19:00,04:47,0:41:08.2
59,9,Trinity,Sanderson,19:10,04:46,0:40:59.6
60,55,Justin,Lee,19:10,04:46,0:40:59.6
61,3702,Vicki,Bayliss,19:20,04:45,0:40:51.0
62,90,Rory,Weightman,19:20,04:45,0:40:51.0
63,296,Ashlee,Diston,19:40,04:43,0:40:33.8
64,394,Rhianna,Wik-Gamble,19:50,04:42,0:40:25.2
65,60,Greg,McBain,20:00,04:40,0:40:08.0
66,3,Alan,Buchanan,20:10,04:39,0:39:59.4
67,18,Georgie,Lanyon,20:20,04:38,0:39:50.8
68,14,Lisa,Wilkinson,20:30,04:37,0:39:42.2
69,117,Ingrid,Douglass,20:50,04:35,0:39:25.0
70,31,Charles,Chambers,20:50,04:35,0:39:25.0
71,3744,Finn,MacGregor,21:20,04:31,0:38:50.6
72,350,David,Cripps,21:30,04:30,0:38:42.0
73,396,Simon,Hunt,21:30,04:30,0:38:42.0
74,39,Melissa,Douglas,21:30,04:30,0:38:42.0
75,17,Karl,Lanyon,21:30,04:30,0:38:42.0
76,203,Tullie,Rowe,21:30,04:30,0:38:42.0
77,346,Paul,Vickery,21:40,04:29,0:38:33.4
78,49,David,Heislers,21:50,04:28,0:38:24.8
79,15,Rebecca,Wilkinson,22:10,04:25,0:37:59.0
80,231,Paul,Seaward,22:10,04:25,0:37:59.0
81,109,Tim,Lovell,22:10,04:25,0:37:59.0
82,70,Els,Viester,22:10,04:25,0:37:59.0
83,3730,Greg,Carter,22:40,04:22,0:37:33.2
84,386,Danny,Burgess,22:50,04:21,0:37:24.6
85,94,David,Lonsdale,23:00,04:20,0:37:16.0
86,399,Darren,Hartland,23:00,04:20,0:37:16.0
87,308,Chris,Giffin,23:00,04:19,0:37:07.4
88,352,Amy,Holmes,23:00,04:19,0:37:07.4
89,3734,Lukas,Jara,23:30,04:16,0:36:41.6
90,167,Jack,Meade,23:40,04:15,0:36:33.0
91,317,John,Flood,23:40,04:15,0:36:33.0
92,10,Lee,Bray,24:00,04:12,0:36:07.2
93,351,Matt,Holmes,25:00,04:05,0:35:07.0
94,61,Chris,McCormack,25:00,04:05,0:35:07.0
95,118,Tim,Lauder,25:20,04:03,0:34:49.8
96,65,Ben,McDermid,25:20,04:03,0:34:49.8
97,3746,Peter,King,25:50,04:00,0:34:24.0
98,336,Brock,Prime,26:00,03:59,0:34:15.4
99,125,Sarah,Jalim,26:00,03:59,0:34:15.4
100,3739,Stephen,Van Rees,26:20,03:56,0:33:49.6
101,84,Craig,Green,26:50,03:53,0:33:23.8
102,88,Brian,Watson,27:00,03:52,0:33:15.2
103,23,Michael,Bieleny,27:10,03:50,0:32:58.0
104,33,Andrew,Creer,27:10,03:50,0:32:58.0
105,42,Craig,Feuerherdt,27:10,03:50,0:32:58.0
106,8,Rik,McCaig,27:10,03:50,0:32:58.0
107,62,Lee,McCullagh,27:30,03:48,0:32:40.8
108,63,John,Robinson,28:00,03:45,0:32:15.0
109,166,David,Meade,29:20,03:35,0:30:49.0
110,3701,Nigel,Preston,30:00,03:31,0:30:14.6
111,48,Matthew,Heislers,30:10,03:30,0:30:06.0
112,86,Fraser,Walsh,31:40,03:19,0:28:31.4
113,27,Andrew,Buchanan,32:50,03:11,0:27:22.6
