place,first,last,net Time,diff
1,Seykll,Hamond,4:57,- 1:18
2,Albert,Cordell,6:20,- 1:10
3,Kaidyn,Tucker,6:04,- 0:41
4,Manny,Rose,6:55,- 0:35
5,Livinia,Douglass,6:05,- 0:14
6,Henry,Cordell,5:07,- 0:05
7,Luke,Feuerherdt,6:58,+ 0:02
8,Tara,Anderson,5:50,- 0:02
9,Oscar,Terry,6:05,+ 0:01
10,Nellie,Rose,5:26,+ 0:03
11,Vincent,Weatherhead,5:08,+ 0:08
12,Melana,Cordell,6:03,+ 0:09
13,Nina,Lenard,5:15,+ 0:18
14,Lachlan,Feuerherdt,5:43,+ 0:18
15,Pheobe,Lonsdale,6:10,+ 0:25
16,Max,Rowe,5:53,+ 0:33
17,Olivia,Kealy,7:40,+ 1:15
18,Eliza,Christie,7:34,+ 1:37