place,first,last,net Time,diff
1,Tracie,Gleisner,14:58,- 3:47
2,Emily,Heislers,13:38,- 2:52
3,Morgan,Dunn,14:40,- 2:20
4,Reuben,White,13:32,- 2:13
5,Tullie,Rowe,13:25,- 2:05
6,Amber,Lyons,15:54,- 1:36
7,Shaina,Brooke,12:27,- 1:33
8,Megan,McDonald,16:10,- 1:32
9,Bailey,Dunn,14:19,- 1:26
10,Will,Gleisner,17:26,- 1:04
11,Carissa,Brooke,14:19,- 0:50
12,Callum,Tucker,12:10,- 0:50
13,Henry,Cordell,15:56,- 0:34
14,Matthew,Heislers,10:20,- 0:10