place,first,last,net Time,diff
1,Amber,Lyons,16:37,- 1:08
2,Emily,Heislers,15:56,- 0:43
3,Jack,Cripps,13:31,- 0:23
4,Joanne,Weatherhead,16:23,- 0:07
5,Matthew,Heislers,11:54,- 0:09
6,Scott,Roberts,14:57,+ 0:27
7,Bronte,Walsh,16:46,+ 0:31
8,David,Heislers,13:33,+ 0:48
9,Steffany,Roberts,15:29,+ 0:59
10,Noah,Walsh,15:59,+ 1:05
11,Connor,O'Farrell,21:46,+ 5:16