place,first,last,net Time,diff
1,Olivia,Kealy,06:38,- 1:05
2,Henry,Spencer,05:37,- 0:53
3,Lachlan,Feuerherdt,05:42,- 0:48
4,Wilham,Gleisner,06:23,- 0:52
5,Jake,Lyons,04:15,- 0:35
6,Floyd,Cartner,04:27,- 0:31
7,Amber,Lyons,05:00,- 0:20
8,Tim,Creer,05:42,- 0:18
9,Brayden,Roberts,04:14,- 0:14
10,Luke,Feuerherdt,06:58,- 0:17
11,Emerson,Sim,05:40,- 0:11
12,Nellie,Rose,05:22,- 0:01
13,Beatrice,Lonsdale,04:44,+ 0:01
14,James,Kealy,04:45,+ 0:03
15,Pheobe,Lonsdale,06:06,+ 0:10
16,Tanner,Nally,04:47,+ 0:02
17,Tullie,Rowe,04:30,+ 0:08
18,Nina,Lenard,05:02,+ 0:09
19,Sol,Musk,05:15,+ 0:15
20,McKinley,Musk,05:16,+ 0:16
21,Ruby,Fletcher,05:38,+ 0:18
22,Bronte,Walsh,04:59,+ 0:18
23,Finn,Cunningham,07:40,+ 0:20
24,Sarah,Cunningham,07:21,+ 0:19
25,Tara,Anderson,06:16,+ 0:24
26,Eliza,Christie,06:48,+ 0:38
27,Oscar,Terry,06:38,+ 0:35
28,Lucinda,Terry,06:34,+ 0:41
29,Max,Rowe,06:27,+ 1:09
30,Luke,Creer,06:43,+ 1:43