place,first,last,club,net Time
1,Jett,Petullo,STH,4:08
2,Floyd,Cartner,UNI,4:09
3,Lewis,Fisher,UNI,4:41
4,Ethan,Matthews,HAR,4:43
5,Thomas,Reid,UNI,4:48
6,Lachlan,Feuerherdt,UNI,4:50
7,Benjamin,Reid,UNI,5:04
8,Luke,Feuerherdt,UNI,5:07
9,Kaidyn,Tucker,UNI,5:12
10,Jake,Naughton,HAR,5:28
11,Manny,Rose,UNI,5:32
12,Albert,Cordell,UNI,5:43
13,Monte,Levis,STH,5:52
14,Josh,Feuerherdt,UNI,7:37