place,first,last,club,net Time
1,Emma,Gilligan,HAR,3:52
2,Chloe,Naughton,HAR,5:10
3,Stella,Harrop,HAR,5:13
4,Georgia,Lee,EWK,5:22
5,Grace,Whitsed,HAR,5:50
6,Melana,Cordell,UNI,6:03
7,Ada,Levis,STH,6:19
8,Abbey,Reid,UNI,6:39