PLACE,FIRST,LAST,TIME,PACE,CLUB
1,Lauren,Preston,0:59:04.1,04:13.2,OTHER
2,Joanne,Russell,1:07:23.3,04:48.8,UNI
3,Laura,Reynolds,1:13:49.0,05:16.4,UNI
4,Alison,Cartner,1:15:10.3,05:22.2,UNI
5,Sue,Taylor,1:29:44.0,06:24.6,UNI
6,Renelle,McManus,1:35:19.9,06:48.6,UNI
7,Kathleen,Pleasants,1:49:26.4,07:49.0,UNI
