Place,Member,First,Last,Start,Pace,Est Time
1,3750,Genevieve,Draper,01:20,07:52,1:16:32.6
2,806,Kerry,Amor,03:10,07:40,1:14:35.8
3,433,Leonie,Chivers,03:50,07:36,1:13:56.9
4,3776,Kathleen,Pleasants,07:20,07:15,1:10:32.6
5,3747,Jeremy,Draper,08:30,07:08,1:09:24.4
6,39,Melissa,Douglas,09:00,07:05,1:08:55.2
7,1028,Mel,Debnam-Smith,09:50,06:59,1:07:56.9
8,356,Lynley,McDonald,13:00,06:40,1:04:52.0
9,74,Maree,Platt,14:40,06:30,1:03:14.7
10,3764,Belinda,Dobbin,16:00,06:21,1:01:47.1
11,54,Kevin,de Vries,17:00,06:15,1:00:48.8
12,210,Fiona,Dangerfield,17:00,06:15,1:00:48.8
13,1085,Michelle,Scott,19:10,06:02,0:58:42.3
14,449,Belinda,Whelan,19:30,06:00,0:58:22.8
15,814,Sam,Esmore,19:50,05:58,0:58:03.3
16,1076,Sarah,Trew,20:00,05:57,0:57:53.6
17,3740,Vicki,Lane,20:20,05:55,0:57:34.2
18,3,Alan,Buchanan,21:00,05:50,0:56:45.5
19,6,Shayne,Rushan,21:00,05:50,0:56:45.5
20,3758,Janis,Bull,21:00,05:50,0:56:45.5
21,3777,Alistair,Stewart,21:00,05:50,0:56:45.5
22,182,Hannah,Crane,21:20,05:48,0:56:26.0
23,52,Leah,Cripps,21:50,05:45,0:55:56.9
24,197,Sue,Taylor,21:50,05:45,0:55:56.9
25,458,Caitlin,Clarke,22:10,05:43,0:55:37.4
26,424,Lauren,Crowley,22:20,05:42,0:55:27.7
27,183,Janet,Hodnett,22:40,05:40,0:55:08.2
28,1087,Deanna,Marshall,23:00,05:38,0:54:48.7
29,31,Charles,Chambers,23:20,05:36,0:54:29.3
30,1074,David,Burrow,24:20,05:30,0:53:30.9
31,848,Clemence,Lavie,24:50,05:27,0:53:01.7
32,807,Kristian,Dowler,25:00,05:26,0:52:52.0
33,22,Ross,Douglas,25:10,05:25,0:52:42.2
34,13,Gavin,Fiedler,25:40,05:22,0:52:13.1
35,1003,Damien,Roberts,26:00,05:20,0:51:53.6
36,1077,Dean,Trew,26:30,05:17,0:51:24.4
37,55,Justin,Lee,26:50,05:15,0:51:05.0
38,400,Darren,Rowe,27:30,05:10,0:50:16.3
39,850,Peter,Compston,27:30,05:10,0:50:16.3
40,241,Andrea,Smith,27:50,05:08,0:49:56.8
41,841,Alex,Delbridge,27:50,05:08,0:49:56.8
42,272,Abbey,Cartner,28:30,05:04,0:49:17.9
43,65,Ben,McDermid,28:40,05:03,0:49:08.2
44,333,Jon,McIntosh,29:10,05:00,0:48:39.0
45,29,Alison,Cartner,29:50,04:56,0:48:00.1
46,9,Trinity,Sanderson,30:00,04:55,0:47:50.3
47,455,Suzie,Pedrotti,30:00,04:55,0:47:50.3
48,476,Sheena,Carney,30:00,04:55,0:47:50.3
49,14,Lisa,Wilkinson,30:10,04:54,0:47:40.6
50,828,Russell,Easton,30:10,04:54,0:47:40.6
51,3763,Brett,Dobbin,30:20,04:53,0:47:30.9
52,1040,Erin,Williams,30:30,04:52,0:47:21.2
53,359,Anne,McIntosh,30:50,04:50,0:47:01.7
54,3760,Karl,Stoltz,30:50,04:50,0:47:01.7
55,843,Vanessa,Garry,31:30,04:46,0:46:22.8
56,1099,Kelvin,Niblett,31:40,04:45,0:46:13.1
57,3702,Vicki,Bayliss,31:40,04:45,0:46:13.1
58,429,Gavin,Hicks,32:00,04:43,0:45:53.6
59,3766,Anthony,Byrne,32:20,04:41,0:45:34.1
60,849,Aden,Thomsen,33:00,04:37,0:44:55.2
61,3730,Greg,Carter,33:10,04:35,0:44:35.8
62,1009,Nicholas,Cherry,34:00,04:30,0:43:47.1
63,203,Tullie,Rowe,34:10,04:29,0:43:37.4
64,823,Joe,Stoltz,34:10,04:29,0:43:37.4
65,15,Rebecca,Wilkinson,34:50,04:25,0:42:58.5
66,94,David,Lonsdale,34:50,04:25,0:42:58.5
67,1031,Jack,Milligan,35:20,04:22,0:42:29.3
68,847,Rossi,Evans,35:40,04:20,0:42:09.8
69,84,Craig,Green,36:10,04:17,0:41:40.6
70,394,Rhianna,Wik-Gamble,36:10,04:17,0:41:40.6
71,802,James,Harper,36:10,04:17,0:41:40.6
72,1080,Jayson,Carter,36:10,04:17,0:41:40.6
73,191,Phoebe,Lonsdale,36:20,04:16,0:41:30.9
74,418,Vanessa,Bull,36:20,04:16,0:41:30.9
75,33,Andrew,Creer,36:30,04:15,0:41:21.2
76,1083,Rebecca,Kirkby,36:30,04:15,0:41:21.2
77,49,David,Heislers,36:50,04:13,0:41:01.7
78,852,Benjamin ,Ward,36:50,04:13,0:41:01.7
79,350,David,Cripps,37:10,04:11,0:40:42.2
80,829,Adam,Parker,37:10,04:11,0:40:42.2
81,499,Richard,Martin,37:20,04:10,0:40:32.5
82,801,Rebecca ,Beagley,37:20,04:10,0:40:32.5
83,425,Nathan,Crowley,37:40,04:08,0:40:13.0
84,125,Sarah,Jalim,37:50,04:07,0:40:03.3
85,831,Mitch,Fitzgerald,37:50,04:07,0:40:03.3
86,274,Avery,McDermid,38:00,04:06,0:39:53.6
87,846,Tom,Gamble,38:00,04:06,0:39:53.6
88,88,Brian,Watson,38:50,04:01,0:39:04.9
89,275,Max,Rowe,39:40,03:55,0:38:06.6
90,1023,Matthew,Schepisi,39:40,03:55,0:38:06.6
91,830,Steven,Field,39:50,03:54,0:37:56.8
92,428,Matthew,Bell,40:10,03:52,0:37:37.4
93,23,Michael,Bieleny,40:30,03:50,0:37:17.9
94,169,Floyd,Cartner,40:30,03:50,0:37:17.9
95,51,Andrew,Hosking,40:40,03:49,0:37:08.2
96,447,Jake,Delaney,40:40,03:49,0:37:08.2
97,492,Zeb,Broadbent,40:40,03:49,0:37:08.2
98,822,Mitch,Whitham,40:40,03:49,0:37:08.2
99,399,Darren,Hartland,40:50,03:48,0:36:58.4
100,1029,James,Trew,41:10,03:46,0:36:39.0
101,3701,Nigel,Preston,43:40,03:31,0:34:13.0
102,851,Bryan,Keely,44:30,03:26,0:33:24.4
