Place,Member,First,Last,Start,Pace,Est Time
1,837,Otto,Gamble,-1:20,08:36,0:08:36.0
2,493,Hugo,Beesley,00:10,07:50,0:07:50.0
3,857,Audrey,Bradshaw,00:20,07:40,0:07:40.0
4,840,Elke,Gamble,00:20,07:39,0:07:39.0
5,842,Penny,Gamble,00:30,07:33,0:07:33.0
6,410,Luella,Griffin,00:30,07:30,0:07:30.0
7,496,Melanie,Lethbridge,00:50,07:07,0:07:07.0
8,838,Lachlan,Kirkby,01:10,06:53,0:06:53.0
9,3764,Belinda,Dobbin,01:10,06:52,0:06:52.0
10,444,Lenny,Byrne,01:20,06:39,0:06:39.0
11,832,Rani,Sheldon,01:30,06:28,0:06:28.0
12,1070,Thomas,Lee,01:40,06:23,0:06:23.0
13,443,Julianna,Hicks,01:40,06:21,0:06:21.0
14,426,Zarwa,Daneen,01:40,06:18,0:06:18.0
15,405,Mohid,Zaman,01:50,06:10,0:06:10.0
16,495,Kaitlyn,Smith,01:50,06:09,0:06:09.0
17,436,Lily,Chivers,02:00,06:03,0:06:03.0
18,861,Clementine,Field,02:00,06:03,0:06:03.0
19,403,Ivie,Safstrom,02:00,06:02,0:06:02.0
20,473,James,Bradshaw,02:00,06:00,0:06:00.0
21,479,Grace,Carney,02:00,06:00,0:06:00.0
22,844,Sharon,Sheldon,02:00,06:00,0:06:00.0
23,867,Matlida,Dolphin,02:00,06:00,0:06:00.0
24,419,Will,Kirkby,02:00,05:58,0:05:58.0
25,434,Grant,Chivers,02:00,05:58,0:05:58.0
26,3760,Karl,Stoltz,02:00,05:55,0:05:55.0
27,415,Leo,Epps,02:10,05:51,0:05:51.0
28,815,Jack,Macmunn,02:10,05:50,0:05:50.0
29,390,Ruby,Douglas,02:10,05:49,0:05:49.0
30,864,Addison,Bickerdike,02:20,05:45,0:05:45.0
31,820,Layla,Burn,02:20,05:44,0:05:44.0
32,470,Samuel,Nurse,02:20,05:43,0:05:43.0
33,413,Eleanor,Stoltz,02:20,05:42,0:05:42.0
34,437,Grace,Chivers,02:20,05:41,0:05:41.0
35,250,Tully,Cripps,02:20,05:40,0:05:40.0
36,1014,Tom,Roberts,02:20,05:40,0:05:40.0
37,836,Andeon,Haasbroek,02:20,05:39,0:05:39.0
38,866,Elijah,Dolphin,02:20,05:39,0:05:39.0
39,3790,Zahli,Bayliss,02:20,05:39,0:05:39.0
40,454,Anna,Scott,02:20,05:36,0:05:36.0
41,460,Miles,Clarke,02:30,05:31,0:05:31.0
42,811,Matilda,Compston,02:30,05:29,0:05:29.0
43,246,Poppy,Wainwright,02:40,05:25,0:05:25.0
44,1042,Savannah,Marwood,02:40,05:24,0:05:24.0
45,3789,Jack,Haythorpe,02:40,05:23,0:05:23.0
46,478,Owen,Carney,02:40,05:21,0:05:21.0
47,821,Angus,Carney,02:40,05:21,0:05:21.0
48,411,Alice,Griffin,02:40,05:18,0:05:18.0
49,816,Percy,Jones,02:50,05:13,0:05:13.0
50,1092,Sihanna,Carter,02:50,05:12,0:05:12.0
51,3767,Polly,Byrne,02:50,05:10,0:05:10.0
52,3751,Ellie,Beesley,02:50,05:09,0:05:09.0
53,209,Olivia,Douglas,02:50,05:07,0:05:07.0
54,3773,Eden,Haythorpe,02:50,05:06,0:05:06.0
55,498,Alec,Bradshaw,03:00,05:05,0:05:05.0
56,1096,Miriam,Niblett,03:00,05:04,0:05:04.0
57,412,Harry,Griffin,03:00,05:03,0:05:03.0
58,855,Kaden,Hooke,03:00,05:03,0:05:03.0
59,1046,Bonnie,Scott,03:00,05:01,0:05:01.0
60,494,Kye,McCarthy,03:00,05:00,0:05:00.0
61,1082,Mikayla,Kirkby,03:00,05:00,0:05:00.0
62,50,Harry,Cripps,03:00,04:58,0:04:58.0
63,3762,Leo,Stoltz,03:00,04:55,0:04:55.0
64,3772,Lyra,Haythorpe,03:10,04:54,0:04:54.0
65,812,Jazmin,Marshall,03:10,04:51,0:04:51.0
66,1026,Eiliyah,Daneen,03:10,04:50,0:04:50.0
67,845,Will,Jackson Sloane,03:10,04:47,0:04:47.0
68,1097,Evie,Niblett,03:20,04:41,0:04:41.0
69,440,Sophie,Pedrotti,03:20,04:40,0:04:40.0
70,808,Lottie,Macmunn,03:20,04:39,0:04:39.0
71,868,Louis,Lapthorne,03:20,04:38,0:04:38.0
72,818,Lucy,Jones,03:20,04:37,0:04:37.0
73,354,Alice,McIntosh,03:20,04:36,0:04:36.0
74,455,Suzie,Pedrotti,03:20,04:36,0:04:36.0
75,1089,Ruby,Carter,03:20,04:36,0:04:36.0
76,402,Mitchell,Nurse,03:30,04:34,0:04:34.0
77,441,Jimmy,Byrne,03:30,04:34,0:04:34.0
78,456,Patrick,Harris,03:30,04:34,0:04:34.0
79,827,Elise,Stoltz,03:30,04:34,0:04:34.0
80,3705,Sienna,Bayliss,03:30,04:33,0:04:33.0
81,355,Millie,McIntosh,03:30,04:32,0:04:32.0
82,414,Ronny,Epps,03:30,04:27,0:04:27.0
83,803,Emma,Colt,03:30,04:27,0:04:27.0
84,1090,Chase,Carter,03:40,04:25,0:04:25.0
85,3742,Jemma,Carter,03:40,04:23,0:04:23.0
86,1035,Braxton,Safstrom,03:40,04:20,0:04:20.0
87,420,Sarah,Crowley,03:40,04:17,0:04:17.0
88,451,Julia,Starr,03:40,04:16,0:04:16.0
89,421,Alicia,Crowley,03:50,04:14,0:04:14.0
90,450,Maison,Hooke,03:50,04:13,0:04:13.0
91,1077,Dean,Trew,03:50,04:11,0:04:11.0
92,876,Florence,Lapthorne,03:50,04:10,0:04:10.0
93,457,Emily,Harris,03:50,04:09,0:04:09.0
94,381,April,Wainwright,03:50,04:06,0:04:06.0
95,804,Abby,Colt,04:00,04:03,0:04:03.0
96,266,Lewis,Lonsdale,04:00,04:01,0:04:01.0
97,459,Archie,Clarke,04:00,04:01,0:04:01.0
98,474,Erin,Bradshaw,04:00,04:01,0:04:01.0
99,1047,Harry,Scott,04:00,03:59,0:03:59.0
100,1080,Jayson,Carter,04:00,03:56,0:03:56.0
101,835,Milanke,Haasbroek,04:00,03:55,0:03:55.0
102,452,Noah,Pedrotti,04:10,03:47,0:03:47.0
103,805,Bradie,Sheldon,04:20,03:45,0:03:45.0
104,305,Jonty,McDermid,04:30,03:33,0:03:33.0
105,1029,James,Trew,04:30,03:26,0:03:26.0
