place,first,last,club,net Time
1,Luke,Salvador,HAR,07:58.5
2,Floyd,Cartner,UNI,08:22.5
3,Matthew,Saxon,UNI,08:44.7
4,Joshua,Smith,UNI,09:02.4
5,Daniel,Chisholm,EGWK,09:37.6
6,Max,Rowe,UNI,09:44.7
7,Samuel,Graham,EGWK,09:53.4
8,Oscar,Terry,UNI,10:22.4