PLACE,FIRST,LAST,TIME,PACE,CLUB
1,Craig,Feuerherdt,0:29:03.9,03:49.5,UNI
2,Andrew,Creer,0:30:43.6,04:02.6,UNI
3,Brett,Gilligan,0:31:24.0,04:07.9,HARRIERS
4,Mick,Hobson,0:32:30.8,04:16.7,HARRIERS
5,David,Cripps,0:33:30.4,04:24.5,UNI
6,Ian,Wellard,0:34:16.5,04:30.6,HARRIERS
7,Justin,Lee,0:36:14.7,04:46.1,UNI
8,Travis,Edwards,0:37:55.8,04:59.4,UNI
9,Jeremy,Draper,0:41:04.0,05:24.2,UNI
10,Simon,Egerton,0:42:52.3,05:38.5,OTHER
