place,first,last,net Time,diff
1,Imogen,Douglass,19:33,- 1:57
2,Jemma,Makeham,15:13,- 1:17
3,Laura,Terry,14:34,- 1:20
4,Kyle,Butcher,12:47,- 1:13
5,Steffany,Roberts,13:59,- 1:13
6,David,Lonsdale,12:40,- 1:14
7,Jack,Cripps,12:48,- 0:42
8,Joanne,Weatherhead,19:44,- 0:10
9,Bronte,Walsh,16:21,+ 0:15
10,Noah,Walsh,14:58,+ 0:16
11,Madison,Makeham,17:01,+ 0:31
12,Riley,Walsh,14:15,+ 0:39
13,Madeleine,Evely,11:53,+ 0:56
14,Matisse,Perez,15:04,+ 1:01
15,Harry,Wright,15:13,+ 1:43
16,Luke,Padgham,14:19,+ 2:40
17,Bella,Livingston,19:11,+ 4:05
18,Scott,Butcher,19:48,+ 4:21
19,Janine,Butcher,17:10,+ 5:01