place,first,last,start,pace,est Time
1,Eric,Aardvark,00:00,8:0,24:00
2,Sarah,Cunningham,01:30,7:30,22:30
3,Imogen,Douglass,02:50,7:2,21:06
4,Jayden,Walsh,04:00,6:40,20:00
5,Anna,Hindson,04:30,6:30,19:30
6,Heather,Robson,04:50,6:25,19:15
7,Megan,McDonald,05:00,6:20,19:00
8,Tracie,Gleisner,05:20,6:15,18:45
9,Bella,Livingston,05:30,6:10,18:30
10,Lachlan,Walsh,05:30,6:10,18:30
11,Lucy,Terry,05:40,6:8,18:24
12,Isabella,Douglass,06:00,6:0,18:00
13,Houston,Pearse,06:00,6:0,18:00
14,Sayku,Hamond,06:00,6:0,18:00
15,Sol,Musk,06:00,6:0,18:00
16,Imogen,Thompson,06:10,5:57,17:51
17,Harry,Terry,06:10,5:57,17:51
18,Julie,Evely,06:20,5:53,17:39
19,Amber,Lyons,06:50,5:43,17:09
20,Ross,Douglas,07:00,5:39,16:57
21,Morgan,Dunn,07:20,5:35,16:45
22,Emily,Heislers,07:30,5:30,16:30
23,Winnie,Hamond,07:30,5:30,16:30
24,Amy,Sim,07:50,5:23,16:09
25,Bronte,Walsh,07:50,5:25,16:15
26,Joanne,Weatherhead,07:50,5:25,16:15
27,Sebastian,Rowe,07:50,5:25,16:15
28,Murray,Cordell,08:00,5:20,16:00
29,Zac,Walsh,08:00,5:20,16:00
30,Beatrice,Lonsdale,08:00,5:20,16:00
31,James,Kealy,08:10,5:16,15:48
32,Bailey,Dunn,08:30,5:10,15:30
33,Sayyu,Hamond,08:30,5:10,15:30
34,Carissa,Brooke,08:50,5:3,15:09
35,Alister,Brasher,09:00,5:0,15:00
36,Chris,Hamond,09:00,5:0,15:00
37,Scott,Roberts,09:20,4:52,14:36
38,Greg,Christie,09:20,4:55,14:45
39,Tullie,Rowe,09:20,4:55,14:45
40,Floyd,Cartner,09:20,4:55,14:45
41,Matisse,Perez,09:30,4:49,14:27
42,Noah,Walsh,09:40,4:48,14:24
43,Luke,Padgham,09:50,4:45,14:15
44,Liz,Foster,09:50,4:45,14:15
45,Brad,Russell,09:50,4:45,14:15
46,David,Lonsdale,10:00,4:40,14:00
47,Steffany,Roberts,10:00,4:40,14:00
48,Will,Kenny,10:00,4:40,14:00
49,Shaina,Brooke,10:00,4:40,14:00
50,Blaze,Houlden,10:20,4:32,13:36
51,Callum,Tucker,10:30,4:30,13:30
52,Jordan,Doherty,10:30,4:30,13:30
53,Roy,Preece,10:50,4:25,13:15
54,Bweku,Hamond,10:50,4:25,13:15
55,Jack,Cripps,11:20,4:13,12:39
56,Riley,Walsh,11:20,4:12,12:36
57,Leon,Hamond,11:30,4:10,12:30
58,Madeleine,Evely,12:00,4:0,12:00
59,Matthew,Heislers,12:10,3:56,11:48
60,John,Rose,12:20,3:52,11:36
61,Pat,Kenny,13:00,3:40,11:00
62,Fraser,Walsh,13:20,3:32,10:36