place,first,last,club,net Time,pace
1,Spencer,Evans,HAR,11:49.6,3:56.5
2,Will,McCaig,BUAC,12:06.3,4:02.1
3,Troy,Cartner,BUAC,12:39.4,4:13.1
4,David,Lonsdale,BUAC,13:35.1,4:31.7
5,Mark,Saxon,BUAC,14:27.2,4:49.1
6,Matthew,Saxon,BUAC,14:34.2,4:51.4
7,Tyler,Wilkie,BUAC,16:41.7,5:33.9
8,William,Gleisner,BUAC,16:46.6,5:35.5
9,Max,Rowe,BUAC,17:06.6,5:42.2
10,Thomas,McArthur,BUAC,17:29.1,5:49.7
11,Levi,Bowe,STH,20:41.2,6:53.7