place,first,last,net Time,diff
1,Luke,Feuerherdt,04:50,+ 0:04
2,Joshua,Feuerherdt,05:41,- 0:00
3,Lily,Sanderson,05:18,+ 0:10
4,Lachlan,Feuerherdt,04:50,+ 0:13
5,William,Robinson,05:05,+ 0:11
6,Toby,McCaig,04:27,+ 0:17
7,Kayla,McManus,04:51,+ 0:17
8,Lewis,Lonsdale,05:01,+ 0:19
9,Jazz,Bieleny,06:24,+ 0:23
10,Lacey,Wilkie,06:22,+ 0:42
11,Ellise,Twadle,06:17,+ 1:42
12,Olivia,Douglas,08:31,+ 2:01