member,first,last,start,pace,est Time
144,Tiffany,McCullough,00:00,8:0,24:00
142,Olivia,Kealy,00:20,7:53,23:39
222,Virginia,Grills-Marsily,01:20,7:35,22:45
204,Kane,Charnas,01:30,7:30,22:30
205,Amelia,Charnas,01:30,7:30,22:30
235,Aoife,Cunningham,02:30,7:9,21:27
207,Lewis,Kalloun,03:00,7:0,21:00
196,Kathryn,Charnas,03:00,6:59,20:57
206,Eliza,Christie,03:20,6:55,20:45
177,Ella,Fisher,03:30,6:50,20:30
155,Katie,Dean,03:40,6:47,20:21
179,Imogen,Douglass,03:40,6:47,20:21
148,Matisse,Grills-Marsily,03:50,6:45,20:15
135,Ruby,Fletcher,04:00,6:40,20:00
134,Collette,Fletcher,04:10,6:37,19:51
136,Kath,O'Shea,04:10,6:36,19:48
146,David,Ashman,04:30,6:30,19:30
195,Luke,Creer,04:30,6:30,19:30
209,Olivia,Douglas,04:30,6:30,19:30
228,Sam,Pitson,04:30,6:30,19:30
229,Harrison,Pitson,04:30,6:30,19:30
176,Kaidyn,Tucker,04:40,6:27,19:21
181,Tom,Coleman,04:50,6:25,19:15
152,Karina,Bray,04:50,6:24,19:12
186,Nellie,Rose,04:50,6:22,19:06
270,Tyler,Wilkie,05:00,6:20,19:00
141,Eliza,O'Sullivan,05:00,6:19,18:57
189,Tim,Creer,05:00,6:19,18:57
175,Livinia,Douglass,05:10,6:18,18:54
106,Suellen,Bambrick,05:20,6:15,18:45
158,Amber,Lyons,05:20,6:14,18:42
165,Sophie,Shoebridge,05:20,6:13,18:39
208,Houston,Pearse,05:20,6:13,18:39
300,Lucinda,Terry,05:40,6:7,18:21
162,Layla,Day,05:40,6:6,18:18
174,Charlie,Lourie,05:50,6:3,18:09
132,Tracie,Gleisner,05:50,6:2,18:06
211,Jesse,Brook,06:00,6:0,18:00
166,Jayden,Padgham,06:00,5:59,17:57
163,Samara,Finch,06:10,5:56,17:48
178,Millie,Lourie,06:20,5:54,17:42
150,Rebecca,Ashman,06:40,5:46,17:18
147,Lachlan,Feuerherdt,06:50,5:43,17:09
161,Henry,Cordell,06:50,5:43,17:09
187,Nicole,Kelly,07:00,5:40,17:00
210,Fiona,Dangerfield,07:00,5:40,17:00
139,Leila,Padgham,07:10,5:38,16:54
170,Abbey,Saxon,07:10,5:36,16:48
191,Phoebe,Lonsdale,07:20,5:35,16:45
190,Micheala,Meharry,07:20,5:34,16:42
214,Amy,Sim,07:20,5:33,16:39
197,Lewis,Fisher,07:20,5:32,16:36
138,Danni,Padgham,07:30,5:31,16:33
35,Conor,Cunningham,07:30,5:30,16:30
182,Hanna,Crane,07:30,5:30,16:30
193,Emily,Heislers,07:30,5:30,16:30
230,McKinley,Grills-Marsily,07:30,5:30,16:30
185,Morgan,Dunn,07:40,5:26,16:18
277,Luke,Feuerherdt,07:40,5:26,16:18
188,Darcy,Tucker,07:50,5:25,16:15
199,Oscar,Terry,07:50,5:25,16:15
180,Ella,Finch,07:50,5:24,16:12
154,Andrew,Dean,08:10,5:18,15:54
183,Murray,Cordell,08:20,5:15,15:45
269,Cooper,Charnas,08:20,5:15,15:45
275,Max,Rowe,08:20,5:15,15:45
164,Imogen,Thompson,08:20,5:12,15:36
105,Toby,McCaig,08:30,5:11,15:33
153,Amy,Dean,08:30,5:11,15:33
213,Phoebe,a'Beckett,08:30,5:10,15:30
149,Tom,Meharry,08:50,5:5,15:15
157,Sayyu,Hamond,09:00,5:0,15:00
184,Will,Crane,09:00,5:0,15:00
215,Emerson,Sim,09:00,5:0,15:00
192,Nicholas,Ashman,09:20,4:55,14:45
201,Beatrice,Lonsdale,09:20,4:55,14:45
172,Bailey,Dunn,09:20,4:54,14:42
194,David,Lonsdale,09:20,4:52,14:36
22,Ross,Douglas,09:30,4:50,14:30
169,Floyd,Cartner,09:30,4:49,14:27
198,Matthew,Saxon,09:50,4:45,14:15
151,Bella,Livingston,09:50,4:43,14:09
227,Joseph,Glanville,10:00,4:40,14:00
160,Sebastian,Rowe,10:10,4:37,13:51
131,Carissa,Brook,10:10,4:36,13:48
219,Will,McCaig,10:20,4:35,13:45
39,Melissa,Douglas,10:30,4:30,13:30
156,Miles,Livingston,10:30,4:30,13:30
203,Tullie,Rowe,10:30,4:30,13:30
200,Jack,Cripps,10:30,4:29,13:27
212,Miles,Livingston,10:40,4:28,13:24
133,Bweku,Hamond,11:10,4:18,12:54
140,Luke,Padgham,11:30,4:9,12:27
218,Noah,Walsh,11:30,4:9,12:27
145,Leon,Hamond,11:50,4:3,12:09
202,Callum,Tucker,12:00,4:1,12:03
216,Ava,Terry,12:00,4:0,12:00
217,Freya,Berenyl,12:00,4:0,12:00
19,Troy,Cartner,12:10,3:58,11:54