place,first,last,net Time,diff
1,Ben,McBain,38:36,- 6:33
2,Alan,East,52:33,- 2:46
3,Alison,McCullagh,42:54,- 2:32
4,Sarah,Jalim,40:46,- 2:14
5,Tom,Barkmeyer,29:13,- 2:10
6,Darren,Burgess,41:01,- 1:59
7,Tanya,Fleming,48:43,- 2:01
8,Tina,McBain,40:58,- 1:44
9,Rory,Weightman,39:13,- 1:38
10,Harry,Terry,47:51,- 1:36
11,Gary,Crouch,38:45,- 1:23
12,Justin,Lee,38:57,- 1:28
13,Lisa,Wilkinson,38:27,- 1:23
14,Rebecca,Wilkinson,39:22,- 1:20
15,Laura,Terry,44:02,- 1:24
16,Georgie,Lanyon,37:25,- 1:17
17,Greg,McBain,37:18,- 1:15
18,Tom,Russell,41:53,- 1:07
19,Max,Pearse,35:44,- 1:06
20,Andrew,Buchanan,26:48,- 1:01
21,Ross,Douglas,40:10,- 1:07
22,Alison,Cartner,39:15,- 1:02
23,Shayne,Rushan,42:55,- 0:48
24,Andrew,Hosking,32:36,- 0:39
25,Tim,Lauder,34:30,- 0:37
26,Rick,McCaig,34:37,- 0:30
27,John,Robinson,33:40,- 0:18
28,Jenny,Buchanan,42:42,- 0:18
29,Michael,Gillies Smith,37:02,- 0:22
30,Lee,McCullagh,30:13,- 0:19
31,Kathryne,Charnas,51:01,- 0:09
32,Brian,Watson,31:54,- 0:03
33,Russell,Jenkins,33:35,+ 0:03
34,Luke,Hutchins,31:29,+ 0:15
35,Melissa,Wilkie,43:43,+ 0:26
36,Kevin,deVries,49:49,+ 0:22
37,Mark,Saxon,40:20,+ 0:29
38,Alan,Buchanan,37:00,+ 0:36
39,Jennifer,Lee,47:12,+ 0:37
40,Ryan,Brook,37:30,+ 1:05
41,Rebecca,Tweed,43:04,+ 1:21
42,Tracey,Wilson,36:17,+ 2:02
43,Ben,McDermid,36:38,+ 2:32
44,Andrew,Creer,35:39,+ 3:24
45,Maddy,Evely,45:42,+ 4:51