PLACE,FIRST,LAST,RACES,POINTS
1,Mikayla,Kirkby,3,68
2,Emma,Colt,3,61
3,Abby,Colt,3,57
4,Millie,McIntosh,2,45
5,Callen,Bayliss,3,44
6,Vicki,Bayliss,3,42
7,Emily,Harris,2,40
8,Amelia,Mitchell,2,40
9,Belinda,Dobbin,1,40
10,Poppy,Wainwright,2,39
11,Matthew,Bell,3,38
12,Harry,Scott,2,38
13,Karl,Stoltz,2,36
14,Lisa,Wilkinson,3,35
15,Hamish,Draper,2,35
16,Jennifer,Lee,3,33
17,Ebony,Beesley,2,32
18,Harry,Cripps,2,31
19,Steven,Harris,2,30
20,Leah,Cripps,2,26
21,Lewis,Lonsdale,2,26
22,Eiliyah,Daneen,1,26
23,Amdeon,Haasbroek,2,25
24,Ruby,Carter,1,25
25,Andrea,Smith,2,23
26,Chantal,Taylor,2,23
27,Michelle,Scott,3,23
28,Logan,Beesley,1,23
29,April,Wainwright,1,22
30,Milanke,Haasbroek,2,22
31,Braxton,Safstrom,1,22
32,Anne,McIntosh,2,20
33,Sarah,Crowley,1,20
34,Jimmy,Byrne,1,19
35,Aida,Escall,1,18
36,Mitch,Fitzgerald,2,18
37,Chloe,Beesley,1,18
38,Erin,Bradshaw,1,17
39,Naghmana,Tehseen,2,17
40,Dean,Trew,1,15
41,Abbey,Cartner,1,14
42,Tully,Cripps,2,13
43,James,Trew,2,13
44,Bec,Beesley,2,13
45,Chase,Carter,1,12
46,Justin,Lee,1,8
47,Jon,McIntosh,1,8
48,Merridee,Griffin,1,7
49,Ashton ,Chivers,1,6
50,Leonie,Chivers,1,5
51,Lewis,McIntosh,1,3
52,Sonya,Walker,1,3
53,James,Bradshaw,1,2
54,Kelvin,Niblett,2,1
55,Gavin,Fiedler,1,0
56,Alison,Cartner,1,0
57,Andrew,Creer,1,0
58,Melissa,Douglas,1,0
59,Ben,McDermid,1,0
60,Janet,Hodnett,1,0
61,Ronny,Epps,1,0
62,Jarrod,Epps,1,0
63,Maison,Hooke,1,0
64,Anna,Scott,1,0
65,Patrick,Harris,1,0
66,Matilda,Compston,2,0
67,Mitch,Whitham,1,0
68,Russell,Easton,1,0
69,Adam,Parker,1,0
70,Elke,Gamble,1,0
71,Will,Jackson Sloane,1,0
72,Tom,Gamble,1,0
73,Oskar,Hall,1,0
74,Fleur,Jackson,1,0
75,Mumtaz,Hussain,1,0
76,Mel,Debnam-Smith,1,0
77,Jack,Milligan,1,0
78,Eryn,McManus,1,0
79,Genevieve,Draper,1,0
80,Owen,Draper,1,0
