Place,First,Last,NET Time,Pace,Diff
1,Kevin,de Vries,0:37:38.5,06:16,-08:33.5
2,Leah,Cripps,0:32:07.8,05:21,-05:46.2
3,Fiona,Dangerfield,0:37:47.2,06:18,-05:30.8
4,Jon,McIntosh,0:29:32.1,04:55,-01:33.9
5,Matthew,Bell,0:26:22.1,04:24,-01:19.9
6,Floyd,Cartner,0:22:29.7,03:45,-01:18.3
7,Sue,Taylor,0:36:46.6,06:08,-01:13.4
8,Maree,Platt,0:34:53.5,05:49,-01:00.5
9,Anne,McIntosh,0:29:17.7,04:53,-00:54.3
10,Rebecca,Wilkinson,0:25:50.9,04:18,-00:51.1
11,Mumtaz,Hussain,0:29:58.5,05:00,-00:49.5
12,Trinity,Sanderson,0:29:33.4,04:56,-00:38.6
13,Ben,Stolz,0:24:17.1,04:03,-00:30.9
14,Phoebe,Lonsdale,0:25:23.3,04:14,-00:30.7
15,Jayson,Carter,0:29:00.2,04:50,-00:23.8
16,Gavin,Fiedler,0:32:30.6,05:25,-00:11.4
17,David,Lonsdale,0:25:50.2,04:18,-00:09.8
18,Kane,Safstrom,0:26:05.0,04:21,-00:01.0
19,Ben,McDermid,0:28:04.9,04:41,+00:10.9
20,Tim,Lovell,0:27:32.1,04:35,+00:14.1
21,Justin,Lee,0:29:19.6,04:53,+00:19.6
22,Andrea,Smith,0:29:57.8,05:00,+00:21.8
23,Cath,O'Leary,0:38:42.5,06:27,+00:42.5
24,David,Cripps,0:26:26.4,04:24,+00:44.4
25,Karl,Stoltz,0:29:50.4,04:58,+01:26.4
26,Nigel,Preston,0:23:32.8,03:55,+02:26.8
27,Craig,Green,0:28:01.9,04:40,+03:07.9
28,Mel,Debnam-Smith,0:37:21.6,06:14,+03:21.6
29,Ross,Douglas,0:36:58.2,06:10,+04:40.2
30,Alison,Cartner,0:34:57.6,05:50,+05:15.6
NEW,Lisa,Wilkinson,0:29:54.4,04:59
NEW,Georgie,Lanyon,0:28:39.6,04:47
NEW,Tullie,Rowe,0:28:19.0,04:43
NEW,Max,Rowe,0:26:15.0,04:23
NEW,Jake,Delaney,0:23:55.4,03:59
NEW,Rory,Flanagan,0:24:45.3,04:08
NEW,Belinda,Whelan,0:33:46.2,05:38
NEW,Sapphaire,Gackenheimer,0:32:13.6,05:22
NEW,Anthony,Byrne,0:28:45.7,04:48
