Place,Member,First,Last,Start,Pace,Est Time
1,250,Tully,Cripps,00:00,08:00,0:24:00.0
2,1084,Naghmana,Tehseen,00:00,08:00,0:24:00.0
3,1097,Evie,Niblett,00:00,08:00,0:24:00.0
4,3748,Amelia,Mitchell,00:00,08:00,0:24:00.0
5,3749,Isabella,Draper,00:00,08:00,0:24:00.0
6,3782,Owen,Draper,00:00,08:00,0:24:00.0
7,3781,Hamish,Draper,02:40,07:08,0:21:24.0
8,3753,Logan,Beesley,03:00,06:59,0:20:57.0
9,40,Aida,Escall,03:30,06:51,0:20:33.0
10,1026,Eiliyah,Daneen,03:50,06:42,0:20:06.0
11,3776,Kathleen,Pleasants,04:20,06:33,0:19:39.0
12,3778,Sebastian,Stewart,04:40,06:27,0:19:21.0
13,3798,Charli,Hosking,05:00,06:21,0:19:03.0
14,356,Lynley,McDonald,05:20,06:14,0:18:42.0
15,22,Ross,Douglas,05:50,06:03,0:18:09.0
16,322,Thom,Hosking,06:10,05:58,0:17:54.0
17,425,Nathan,Crowley,06:10,05:56,0:17:48.0
18,3720,Bec,Beesley,06:20,05:55,0:17:45.0
19,16,Jennifer,Lee,06:30,05:50,0:17:30.0
20,442,Marina,Damijanic,06:30,05:50,0:17:30.0
21,355,Millie,McIntosh,06:50,05:43,0:17:09.0
22,1076,Sarah,Trew,07:00,05:40,0:17:00.0
23,408,Trevor,Watchman,07:00,05:39,0:16:57.0
24,407,Cadi,Watchman,07:10,05:38,0:16:54.0
25,420,Sarah,Crowley,07:40,05:25,0:16:15.0
26,1080,Jayson,Carter,08:10,05:18,0:15:54.0
27,1077,Dean,Trew,08:10,05:16,0:15:48.0
28,441,Jimmy,Byrne,08:20,05:14,0:15:42.0
29,1025,Liz,Foster,08:20,05:14,0:15:42.0
30,1035,Braxton,Safstrom,08:30,05:09,0:15:27.0
31,1024,Todd,Foster,08:40,05:08,0:15:24.0
32,270,Tyler,Wilkie,08:50,05:02,0:15:06.0
33,3766,Anthony,Byrne,09:10,04:58,0:14:54.0
34,1047,Harry,Scott,09:10,04:56,0:14:48.0
35,3774,Ryan,Haythorpe,09:10,04:56,0:14:48.0
36,422,Quinn,Casey,09:20,04:52,0:14:36.0
37,386,Danny,Burgess,09:30,04:51,0:14:33.0
38,3788,Matthew,Schubert,09:40,04:48,0:14:24.0
39,350,David,Cripps,09:40,04:45,0:14:15.0
40,3737,Ebony,Beesley,10:20,04:35,0:13:45.0
41,147,Lachlan,Feuerherdt,10:20,04:32,0:13:36.0
42,1099,Kelvin,Niblett,10:40,04:25,0:13:15.0
43,191,Phoebe,Lonsdale,10:50,04:22,0:13:06.0
44,277,Luke,Feuerherdt,11:00,04:20,0:13:00.0
45,272,Abbey,Cartner,11:00,04:19,0:12:57.0
46,3714,Tanner,Fear,11:10,04:18,0:12:54.0
47,394,Rhianna,Wik-Gamble,11:20,04:15,0:12:45.0
48,1083,Rebecca,Kirkby,11:20,04:14,0:12:42.0
49,423,Hugh,Casey,11:40,04:05,0:12:15.0
50,203,Tullie,Rowe,11:50,04:04,0:12:12.0
51,358,Lewis,McIntosh,11:50,04:03,0:12:09.0
52,1060,William,Trew,11:50,04:03,0:12:09.0
53,1029,James,Trew,11:50,04:02,0:12:06.0
54,438,Damian,Hughes,12:00,03:59,0:11:57.0
55,171,Oliver,Sanderson,12:20,03:54,0:11:42.0
56,3738,Mason,Beesley,12:30,03:51,0:11:33.0
57,274,Avery,McDermid,12:30,03:49,0:11:27.0
58,275,Max,Rowe,13:00,03:41,0:11:03.0
