PLACE,FIRST,LAST,RACES,POINTS
1,Ben,McDermid,5,97
2,Tullie,Rowe,5,84
3,Max,Rowe,4,72
4,Mason,Woodward,5,63
5,Andrea,Smith,5,53
6,Tanner,Fear,3,51
7,Jazlin,Fear,4,49
8,Tim,Creer,3,46
9,Phoebe,Lonsdale,3,42
10,Lachlan,Edwards,3,34
11,Charlotte,Murphy,2,31
12,William,Robinson,3,24
13,Lachlan,Feuerherdt,2,23
14,Avery,McDermid,4,23
15,Chris,Giffin,1,20
16,Oliver,Sanderson,1,20
17,Beatrice,Lonsdale,3,20
18,Tyler,Wilkie,2,20
19,Chloe,Green,3,19
20,Abbey,Cartner,2,18
21,Floyd,Cartner,1,18
22,James,Trew,1,18
23,Jonte,Breen,2,17
24,Toby,McCaig,1,16
25,John,Robinson,1,16
26,Luke,Creer,2,16
27,Danny,Breen,1,12
28,Darren,Rowe,4,12
29,David,Cripps,2,12
30,Melissa,Douglas,1,10
31,Jonty,McDermid,5,10
32,Jasmine,Murphy,3,7
33,Scott,Broad,2,7
34,Jennifer,Lee,5,7
35,Ella,Smith,1,7
36,Noah,Armstrong,2,5
37,Jye,Ekanayake,1,5
38,Ella,Meharry,1,4
39,Travis,Edwards,1,2
40,Kevin,de Vries,1,2
41,Tammy,Fear,4,2
42,Fiona,Preston,1,1
43,Miller,Armstrong,2,1
44,Megan,McDonald,2,1
45,Owen,Draper,1,0
46,Christopher,Epworth,3,0
47,Aida,Escall,1,0
48,Lesley,Fabian,2,0
49,Luke,Feuerherdt,1,0
50,Bec,Woodward,4,0
51,Kim,Carter,2,0
52,Harry,Cripps,2,0
53,Justine,Rowe,1,0
54,Tanya,Fleming,3,0
55,Geoffrey,Robinson,1,0
56,Lynley,McDonald,3,0
57,Bec,Lacy,1,0
58,Sal,Ekanayake,1,0
