place,first,last,net Time
1,Jody,Pickering,35:57
2,Stewart,Scoble,31:25
3,John,Brewin,32:53
4,Jodie,Scoble,38:55
5,Mark,Nicholson,33:55
6,Mick,McCarthy,34:36
7,Russell,Tremayne,29:06
8,Ben,McDermid,29:43
9,Tony,Vlaeminck,30:25
10,Michael,Hogan,30:30
11,Leon,Hamond,29:23
12,David,Tarrant,27:40
13,Nick,Walsh,30:42
14,Michael,Bieleny,25:22
15,Brad,Russell,34:16
16,Gaby,Walsh,35:26
17,Lisa,Wilkinson,29:41
18,Julie,Hogan,43:51
19,Gary,Crouch,30:35
20,Justin,Lee,30:15
21,Wolf,Heiden,29:06
22,Tony,Gellatly,31:59
23,Anne,Theobald,37:52
24,Ingrid,Douglass,31:24
25,Janet,Hodnett,33:47
26,Eliot,Roberts,31:11
27,Gavin,Fiedler,32:13
28,Shayne,Rushan,42:27
29,Jennifer,Jones,34:51
30,Lee,McCullagh,29:05
31,Peter,Martin,34:16
32,David,Ottrey,34:47