place,first,last,net Time,diff
1,Tim,Creer,15:46,- 3:11
2,Sam,Pitson,17:16,- 2:14
3,Richard,Gleisner,10:31,- 1:23
4,Tullie,Rowe,14:24,- 1:06
5,Emily,Heislers,16:09,- 0:21
6,Micheala,Meharry,16:27,- 0:15
7,Phoebe,a'Beckett,15:31,- 0:08
8,Nicholas,Ashman,14:32,- 0:13
9,Carissa,Brook,13:52,- 0:11
10,Jack,Meade,13:22,- 0:05
11,Floyd,Cartner,14:31,+ 0:04
12,Brad,Russell,15:52,+ 0:13
13,Max,Rowe,15:10,+ 0:22
14,Beatrice,Lonsdale,15:21,+ 0:24
15,Matthew,Saxon,15:09,+ 0:24
16,Tyler,Wilkie,19:52,+ 0:28
17,Fiona,Dangerfield,17:53,+ 0:38
18,Darcy,Tucker,16:54,+ 0:39
19,Will,McCaig,14:29,+ 1:02
20,Callum,Tucker,13:00,+ 0:57
21,Abbey,Saxon,18:34,+ 1:46
22,Luke,Creer,21:57,+ 2:27
23,Harrison,Pitson,21:59,+ 2:29
24,Aoife,Cunningham,24:12,+ 2:45
25,Jack,Cripps,17:13,+ 3:46
26,Rebecca,Ashman,21:14,+ 3:56
27,Troy,Cartner,17:46,+ 5:52
28,Lachlan,Feuerherdt,23:55,+ 6:46