Place,Member,First,Last,Start,Pace,Est Time
1,3782,Owen,Draper,00:00,07:59,0:23:09.1
2,3750,Genevieve,Draper,01:30,07:30,0:21:45.0
3,3781,Hamish,Draper,01:40,07:25,0:21:30.5
4,3708,Janine,Butcher,01:50,07:22,0:21:21.8
5,3748,Amelia,Mitchell,02:00,07:20,0:21:16.0
6,44,Geoffrey,Robinson,02:00,07:17,0:21:07.3
7,2,Alan,East,03:10,06:53,0:19:57.7
8,3749,Isabella,Draper,04:00,06:38,0:19:14.2
9,3709,Scott,Butcher,04:10,06:33,0:18:59.7
10,3741,Kim,Carter,04:20,06:31,0:18:53.9
11,356,Lynley,McDonald,04:20,06:30,0:18:51.0
12,210,Fiona,Dangerfield,04:20,06:29,0:18:48.1
13,347,Louise,Toomey,04:30,06:26,0:18:39.4
14,3776,Kathleen,Pleasants,04:30,06:26,0:18:39.4
15,100,Justine,Rowe,04:40,06:25,0:18:36.5
16,150,Rebecca,Ashman,05:00,06:15,0:18:07.5
17,341,Greg,Toomey,05:10,06:12,0:17:58.8
18,225,Lesley,Fabian,05:20,06:08,0:17:47.2
19,66,Megan,McDonald,05:20,06:08,0:17:47.2
20,50,Harry,Cripps,05:30,06:07,0:17:44.3
21,1019,Christopher,Epworth,05:30,06:06,0:17:41.4
22,159,Renelle,McManus,05:30,06:05,0:17:38.5
23,3779,Mathilda,Stewart,05:30,06:05,0:17:38.5
24,3729,Fiona,Preston,05:50,06:01,0:17:26.9
25,1002,Tammy,Fear,05:50,06:00,0:17:24.0
26,237,Lou,Bray,06:00,05:55,0:17:09.5
27,98,Tanya,Fleming,06:10,05:53,0:17:03.7
28,277,Luke,Feuerherdt,06:20,05:49,0:16:52.1
29,397,Taylor,Lovell,06:30,05:47,0:16:46.3
30,40,Aida,Escall,06:30,05:45,0:16:40.5
31,156,Will,Murphy,06:30,05:44,0:16:37.6
32,3716,Gus,Edwards,06:40,05:43,0:16:34.7
33,3720,Bec,Woodward,06:40,05:42,0:16:31.8
34,3777,Alistair,Stewart,06:40,05:41,0:16:28.9
35,16,Jennifer,Lee,06:50,05:40,0:16:26.0
36,214,Amy,Sim,07:00,05:34,0:16:08.6
37,195,Luke,Creer,07:10,05:33,0:16:05.7
38,3722,Natasha,Dean,07:10,05:31,0:15:59.9
39,157,Bec,Lacy,07:20,05:30,0:15:57.0
40,360,Phoebe,Martin,07:20,05:30,0:15:57.0
41,398,Angus,McPherson,07:20,05:30,0:15:57.0
42,3706,Ebony,Butcher,07:20,05:30,0:15:57.0
43,1017,Scott,Broad,07:20,05:28,0:15:51.2
44,3703,Trent,Bayliss,07:30,05:26,0:15:45.4
45,220,Ella,Meharry,07:30,05:25,0:15:42.5
46,52,Leah,Cripps,07:30,05:24,0:15:39.6
47,1015,Miller,Armstrong,07:30,05:24,0:15:39.6
48,251,Beth,Lavery,07:40,05:23,0:15:36.7
49,281,Will,de Vries,07:40,05:20,0:15:28.0
50,359,Anne,McIntosh,07:50,05:18,0:15:22.2
51,236,Harry,Seaward,07:50,05:18,0:15:22.2
52,54,Kevin,de Vries,08:00,05:16,0:15:16.4
53,400,Darren,Rowe,08:00,05:15,0:15:13.5
54,3721,Gabrielle,Dean,08:10,05:12,0:15:04.8
55,1016,Noah,Armstrong,08:10,05:11,0:15:01.9
56,78,Mark,Saxon,08:10,05:11,0:15:01.9
57,13,Gavin,Fiedler,08:20,05:09,0:14:56.1
58,95,Jason,Sim,08:20,05:08,0:14:53.2
59,22,Ross,Douglas,08:20,05:08,0:14:53.2
60,215,Emerson,Sim,08:20,05:07,0:14:50.3
61,305,Jonty,McDermid,08:20,05:06,0:14:47.4
62,198,Matthew,Saxon,08:30,05:03,0:14:38.7
63,3715,Chloe,Green,08:40,05:02,0:14:35.8
64,244,Jaron,Ekanayake,08:40,05:01,0:14:32.9
65,252,Jasmine,Murphy,08:40,05:00,0:14:30.0
66,3785,Jake,Wight,08:40,04:59,0:14:27.1
67,270,Tyler,Wilkie,08:50,04:58,0:14:24.2
68,34,Mathew,Creer,08:50,04:57,0:14:21.3
69,3793,Anna,Christen,09:00,04:54,0:14:12.6
70,266,Lewis,Lonsdale,09:10,04:51,0:14:03.9
71,201,Beatrice,Lonsdale,09:10,04:50,0:14:01.0
72,274,Avery,McDermid,09:10,04:49,0:13:58.1
73,267,Kayla,McManus,09:10,04:49,0:13:58.1
74,296,Ashlee,Diston,09:20,04:46,0:13:49.4
75,9,Trinity,Sanderson,09:20,04:46,0:13:49.4
76,254,William,Robinson,09:30,04:45,0:13:46.5
77,3735,Travis,Edwards,09:30,04:45,0:13:46.5
78,241,Andrea,Smith,09:30,04:45,0:13:46.5
79,55,Justin,Lee,09:30,04:45,0:13:46.5
80,272,Abbey,Cartner,09:40,04:41,0:13:34.9
81,147,Lachlan,Feuerherdt,09:40,04:39,0:13:29.1
82,109,Tim,Lovell,10:00,04:33,0:13:11.7
83,189,Tim,Creer,10:00,04:33,0:13:11.7
84,3717,Lachlan,Edwards,10:00,04:32,0:13:08.8
85,3713,Jazlin,Fear,10:10,04:31,0:13:05.9
86,3707,Kyle,Butcher,10:10,04:31,0:13:05.9
87,386,Danny,Burgess,10:10,04:30,0:13:03.0
88,3745,Gus,MacGregor,10:10,04:30,0:13:03.0
89,387,Connor,Bedson,10:10,04:29,0:13:00.1
90,191,Phoebe,Lonsdale,10:10,04:29,0:13:00.1
91,3744,Finn,MacGregor,10:20,04:27,0:12:54.3
92,3738,Mason,Woodward,10:20,04:27,0:12:54.3
93,350,David,Cripps,10:20,04:25,0:12:48.5
94,253,Charlotte,Murphy,10:20,04:25,0:12:48.5
95,39,Melissa,Douglas,10:30,04:24,0:12:45.6
96,369,Stephen,Wainwright,10:30,04:23,0:12:42.7
97,339,James,Toomey,10:30,04:22,0:12:39.8
98,3714,Tanner,Fear,10:50,04:16,0:12:22.4
99,169,Floyd,Cartner,11:00,04:12,0:12:10.8
100,80,Bridie,Blake-Burrows,11:00,04:11,0:12:07.9
101,105,Toby,McCaig,11:10,04:10,0:12:05.0
102,63,John,Robinson,11:20,04:06,0:11:53.4
103,275,Max,Rowe,11:40,04:00,0:11:36.0
104,203,Tullie,Rowe,11:50,03:56,0:11:24.4
105,42,Craig,Feuerherdt,11:50,03:54,0:11:18.6
106,84,Craig,Green,12:00,03:53,0:11:15.7
107,65,Ben,McDermid,12:00,03:51,0:11:09.9
108,171,Oliver,Sanderson,12:00,03:51,0:11:09.9
109,219,Wil,McCaig,12:50,03:35,0:10:23.5
