PLACE,FIRST,LAST,TIME,PACE,CLUB
1,John,Robinson,1:02:08.9,04:26.4,UNI
2,Rossi,Evans,1:04:26.8,04:36.2,HARRIERS
3,Stephen,van Rees,1:04:55.9,04:38.3,UNI
4,Todd,Foster,1:10:06.0,05:00.4,UNI
5,Mick,Hobson,1:10:19.6,05:01.4,HARRIERS
6,Greg,McBain,1:11:28.6,05:06.3,UNI
7,Ross,Douglas,1:16:45.8,05:29.0,UNI
8,Garnet,Rodda,1:23:37.4,05:58.4,HARRIERS
9,Craig,Graham,1:25:15.5,06:05.4,EAGLEHAWK
10,George,Thomas,1:28:13.2,06:18.1,UNI
11,Kevin,de Vries,1:29:27.3,06:23.4,UNI
12,Tony,Fahy,1:29:42.5,06:24.5,HARRIERS
13,Troy,Davis,1:31:56.8,06:34.1,UNI
