Place,First,Last,NET Time,Pace,Diff
1,Genevieve,Draper,0:22:48.0,07:09,-01:07.5
2,William,Robinson,0:14:57.6,04:41,-00:11.5
3,Tullie,Rowe,0:12:52.8,04:02,+00:07.2
4,Luke,Creer,0:16:37.4,05:13,+00:08.5
5,James,Trew,0:14:01.0,04:24,+00:14.8
6,Floyd,Cartner,0:13:42.7,04:18,+00:18.8
7,Tanner,Fear,0:14:10.3,04:27,+00:33.7
8,Tim,Creer,0:14:25.9,04:31,+00:36.5
9,Chris,Giffin,0:13:33.3,04:15,+00:38.1
10,Ella,Smith,0:17:09.5,05:23,+00:40.6
11,Andrea,Smith,0:15:38.1,04:54,+00:41.7
12,Abbey,Cartner,0:15:47.4,04:57,+00:51.0
13,Charlotte,Murphy,0:14:59.9,04:42,+00:54.5
14,David,Cripps,0:15:05.4,04:44,+01:00.0
15,Mason,Woodward,0:15:30.6,04:52,+01:09.3
16,Jennifer,Lee,0:18:08.7,05:41,+01:14.3
17,Max,Rowe,0:14:02.9,04:24,+01:17.3
18,Megan,McDonald,0:19:21.2,06:04,+01:19.8
19,Bec,Lacy,0:18:54.1,05:56,+01:21.4
20,Avery,McDermid,0:17:08.1,05:22,+01:39.8
21,Jasmine,Murphy,0:17:58.2,05:38,+01:45.3
22,Ben,McDermid,0:14:07.2,04:26,+01:50.3
23,Tammy,Fear,0:19:42.2,06:11,+01:53.5
24,Jazlin,Fear,0:16:31.3,05:11,+02:06.8
25,Jonty,McDermid,0:18:43.1,05:52,+02:27.0
26,Lachlan,Feuerherdt,0:16:42.2,05:14,+02:27.3
27,Phoebe,Lonsdale,0:16:37.1,05:13,+02:28.6
28,Amelia,Mitchell,0:26:09.3,08:12,+02:45.7
29,Bec,Woodward,0:23:06.6,07:15,+03:10.4
30,Hamish,Draper,0:28:19.3,08:53,+04:39.8
NEW,Alison,Cartner,0:17:28.3,05:29
NEW,Michelle,Scott,0:21:10.3,06:38
NEW,Belinda,Holden,0:25:51.4,08:06
NEW,Ethen,Marwood,0:16:30.5,05:10
NEW,Xavier,Marwood,0:23:36.5,07:24
NEW,Melinda,Marwood,0:22:08.5,06:56
