Place,Member,First,Last,Start,Pace,Est Time
1,3794,Amelia ,Christen,00:00,07:59,0:07:59.0
2,3705,Sienna,Bayliss,00:00,07:59,0:07:59.0
3,1032,Spencer,Epworth,00:00,07:59,0:07:59.0
4,3733,Madeline,Gibbons,00:00,07:59,0:07:59.0
5,3791,Olivia,Christen,00:00,07:57,0:07:57.0
6,3782,Owen,Draper,00:20,07:38,0:07:38.0
7,3728,Tobias,Preston,00:20,07:36,0:07:36.0
8,335,Lenny,Hancock,00:50,07:06,0:07:06.0
9,3751,Ellie,Beesley,01:10,06:52,0:06:52.0
10,354,Alice,McIntosh,01:10,06:52,0:06:52.0
11,3708,Janine,Butcher,01:10,06:51,0:06:51.0
12,3741,Kim,Carter,01:30,06:31,0:06:31.0
13,3743,Liam,Carter,01:40,06:23,0:06:23.0
14,382,Genevieve,Robinson,01:40,06:23,0:06:23.0
15,390,Ruby,Douglas,01:40,06:22,0:06:22.0
16,3781,Hamish,Draper,01:40,06:20,0:06:20.0
17,365,Megan,Howes,01:40,06:16,0:06:16.0
18,1014,Tom,Roberts,01:50,06:13,0:06:13.0
19,3704,Callen,Bayliss,01:50,06:09,0:06:09.0
20,1018,Abigail,Epworth,01:50,06:08,0:06:08.0
21,3783,Zacch,Martin,02:00,06:03,0:06:03.0
22,234,Finn,Cunningham,02:00,05:58,0:05:58.0
23,372,Belle,Howes,02:10,05:52,0:05:52.0
24,1007,Ruby,Meharry,02:20,05:44,0:05:44.0
25,3742,Jemma,Carter,02:20,05:43,0:05:43.0
26,3727,Samuel,Preston,02:20,05:42,0:05:42.0
27,3716,Gus,Edwards,02:20,05:38,0:05:38.0
28,355,Millie,McIntosh,02:30,05:34,0:05:34.0
29,1026,Eiliyah,Daneen,02:30,05:33,0:05:33.0
30,178,Annabel,Hancock,02:30,05:32,0:05:32.0
31,255,Dylan,Sim,02:40,05:24,0:05:24.0
32,250,Tully,Cripps,02:40,05:23,0:05:23.0
33,209,Olivia,Douglas,02:40,05:21,0:05:21.0
34,246,Poppy,Wainwright,02:40,05:20,0:05:20.0
35,381,April,Wainwright,02:40,05:15,0:05:15.0
36,3752,Chloe,Beesley,02:50,05:13,0:05:13.0
37,3778,Sebastian,Stewart,02:50,05:13,0:05:13.0
38,298,Elliott,Lavery,02:50,05:10,0:05:10.0
39,44,Geoffrey,Robinson,02:50,05:08,0:05:08.0
40,368,Eden,Howes,02:50,05:06,0:05:06.0
41,360,Phoebe,Martin,02:50,05:06,0:05:06.0
42,3711,Eryn,McManus,03:00,05:05,0:05:05.0
43,245,Lacey,Wilkie,03:00,05:04,0:05:04.0
44,3749,Isabella,Draper,03:00,05:03,0:05:03.0
45,282,Anna,de Vries,03:00,05:01,0:05:01.0
46,3736,Skylar,Woodward,03:00,05:00,0:05:00.0
47,3719,Charli,Green,03:00,05:00,0:05:00.0
48,3709,Scott,Butcher,03:00,05:00,0:05:00.0
49,358,Lewis,McIntosh,03:00,04:57,0:04:57.0
50,50,Harry,Cripps,03:00,04:56,0:04:56.0
51,244,Jaron,Ekanayake,03:10,04:50,0:04:50.0
52,297,Declan,Lavery,03:10,04:48,0:04:48.0
53,174,Sam,Hancock,03:10,04:47,0:04:47.0
54,305,Jonty,McDermid,03:20,04:43,0:04:43.0
55,281,Will,de Vries,03:20,04:42,0:04:42.0
56,3717,Lachlan,Edwards,03:20,04:36,0:04:36.0
57,3737,Ebony,Woodward,03:20,04:36,0:04:36.0
58,283,Lily,Sanderson,03:20,04:36,0:04:36.0
59,391,Sebastian,Boromeo,03:30,04:32,0:04:32.0
60,191,Phoebe,Lonsdale,03:30,04:32,0:04:32.0
61,3706,Ebony,Butcher,03:30,04:32,0:04:32.0
62,3753,Logan,Beesley,03:30,04:29,0:04:29.0
63,258,Ivy,Bray,03:30,04:28,0:04:28.0
64,252,Jasmine,Murphy,03:30,04:28,0:04:28.0
65,253,Charlotte,Murphy,03:30,04:28,0:04:28.0
66,276,Joshua,Feuerherdt,03:30,04:26,0:04:26.0
67,3721,Gabrielle,Dean,03:40,04:25,0:04:25.0
68,292,Jye,Ekanayake,03:40,04:22,0:04:22.0
69,267,Kayla,McManus,03:40,04:22,0:04:22.0
70,274,Avery,McDermid,03:40,04:17,0:04:17.0
71,3785,Jake,Wight,03:40,04:17,0:04:17.0
72,277,Luke,Feuerherdt,03:40,04:15,0:04:15.0
73,279,Lucy,McCaig,03:50,04:11,0:04:11.0
74,1015,Miller,Armstrong,03:50,04:07,0:04:07.0
75,272,Abbey,Cartner,04:00,04:05,0:04:05.0
76,254,William,Robinson,04:00,03:59,0:03:59.0
77,266,Lewis,Lonsdale,04:00,03:56,0:03:56.0
78,1016,Noah,Armstrong,04:00,03:55,0:03:55.0
79,3738,Mason,Woodward,04:10,03:53,0:03:53.0
80,275,Max,Rowe,04:10,03:47,0:03:47.0
81,42,Craig,Feuerherdt,04:20,03:41,0:03:41.0
