Place,First,Last,NET Time,Pace,Diff
1,Jack,Milligan,0:31:26.7,04:29,-01:37.1
2,Matthew,Schepisi,0:27:44.2,03:57,+00:16.9
3,James,Russell,0:33:47.4,04:49,+00:29.6
4,Craig,Feuerherdt,0:27:24.1,03:55,+00:38.8
5,Jeremy,Draper,0:37:46.3,05:23,+01:05.2
6,Rik,McCaig,0:28:40.5,04:05,+01:20.2
7,David,Cripps,0:32:10.5,04:35,+01:26.9
8,Darren,Rowe,0:36:53.1,05:16,+01:29.1
9,Wil,McCaig,0:28:10.8,04:01,+01:32.5
10,Brian,Watson,0:29:24.2,04:12,+02:03.9
11,Rebecca,Wilkinson,0:31:17.0,04:28,+02:32.5
12,Tim,Lauder,0:31:00.0,04:25,+02:36.6
13,Clare,Montgomery,0:36:04.8,05:09,+02:39.9
14,Lisa,Wilkinson,0:36:09.4,05:09,+02:44.5
15,Beth,Lavery,0:41:51.4,05:58,+03:11.1
16,Mumtaz,Hussain,0:37:22.2,05:20,+03:22.3
17,Fiona,Dangerfield,0:45:37.2,06:30,+03:26.6
18,Ben,McDermid,0:32:11.0,04:35,+03:33.5
19,Chris,Giffin,0:33:24.8,04:46,+03:37.3
20,Sue,Taylor,0:43:53.2,06:16,+03:41.8
21,Maree,Platt,0:41:54.3,05:59,+03:56.1
22,Andrew,Creer,0:31:09.2,04:27,+04:16.9
23,David,Heislers,0:34:23.0,04:54,+04:21.4
24,Greg,Carter,0:35:10.0,05:01,+05:22.5
25,Damien,Roberts,0:36:30.8,05:13,+05:33.2
26,Alan,East,0:53:47.9,07:40,+05:32.8
27,Danny,Burgess,0:37:24.6,05:20,+07:02.0
28,Justin,Lee,0:38:58.3,05:34,+07:18.6
29,Craig,Green,0:35:42.1,05:06,+07:46.7
30,Leah,Cripps,0:51:02.9,07:17,+13:11.7
NEW,Mel,Debham,0:57:35.0,08:13
NEW,Garry,Marwood,0:30:47.5,04:24
