PLACE,FIRST,LAST,RACES,POINTS
1,Jonty,McDermid,6,133
2,Ebony,Woodward,6,130
3,April,Wainwright,6,125
4,Mason,Woodward,6,119
5,Chloe,Beesley,4,111
6,Tully,Cripps,5,99
7,Liam,Carter,3,94
8,Avery,McDermid,5,91
9,Skylar,Woodward,6,90
10,Logan,Beesley,4,88
11,Ruby,Douglas,5,86
12,Abigail,Epworth,5,85
13,Samuel,Preston,3,73
14,Geoffrey,Robinson,5,72
15,Poppy,Wainwright,4,71
16,Genevieve,Robinson,4,70
17,Ellie,Beesley,3,70
18,Olivia,Douglas,4,67
19,Luke,Feuerherdt,3,66
20,Tom,Roberts,3,63
21,Joshua,Feuerherdt,3,63
22,Jemma,Carter,3,61
23,William,Robinson,4,60
24,Elliott,Lavery,4,59
25,Sebastian,Stewart,2,57
26,Tobias,Preston,2,52
27,Harry,Cripps,3,44
28,Lewis,Lonsdale,3,42
29,Miller,Armstrong,2,40
30,Noah,Armstrong,2,35
31,Ivy,Bray,2,34
32,Will,de Vries,2,30
33,Lily,Sanderson,1,30
34,Anna,de Vries,2,26
35,Lucy,McCaig,1,16
36,Eiliyah,Daneen,2,15
37,Owen,Draper,1,14
38,Lacey,Wilkie,1,14
39,Eden,Howes,1,14
40,Belle,Howes,1,13
41,Spencer,Epworth,2,10
42,Ruby,Meharry,1,0
43,Spencer,Lavery,1,0
44,Braxton,Safstrom,1,0
45,Jye,Ekanayake,1,0
46,Max,Rowe,1,0
47,Megan,Howes,1,0
