PLACE,FIRST,LAST,RACES,POINTS
1,Darren,Rowe,6,255
2,Justin,Lee,6,232
3,Chris,Giffin,6,225
4,David,Heislers,5,200
5,Damien,Roberts,6,200
6,Rebecca,Wilkinson,5,198
7,David,Lonsdale,5,187
8,Sue,Taylor,5,176
9,Shayne,Rushan,5,170
10,Danny,Burgess,5,167
11,Ben,McDermid,6,163
12,David,Cripps,4,151
13,Ross,Douglas,4,140
14,Alan,Buchanan,4,135
15,John,Robinson,4,134
16,Jenny,Buchanan,3,132
17,Melissa,Wilkie,4,130
18,Lisa,Wilkinson,4,127
19,Justine,Rowe,4,123
20,Clare,Montgomery,3,120
21,Andrew,Creer,4,113
22,Beth,Lavery,4,111
23,Greg,Carter,3,109
24,Nigel,Preston,3,108
25,Leah,Cripps,4,106
26,Matthew,Schepisi,3,96
27,Maree,Platt,3,94
28,Gavin,Fiedler,3,92
29,Travis,Edwards,3,92
30,Craig,Feuerherdt,2,88
31,Mumtaz,Hussain,3,84
32,Craig,Green,4,83
33,Andrew,Wilkie,2,82
34,Wil,McCaig,3,78
35,James,Russell,3,77
36,Rik,McCaig,2,76
37,Philip,Shambrook,3,75
38,Kathleen,Pleasants,3,72
39,Tim,Lauder,2,67
40,David,Howes,3,67
41,Josephine,Robinson,3,65
42,Nicholas,Cherry,3,64
43,Troy,Davis,2,61
44,Bec,Lacy,2,60
45,Jack,Milligan,2,60
46,Vicki,Lane,2,60
47,Emma,Gibbons,2,58
48,Megan,McDonald,1,55
49,Stephen,van Rees,1,55
50,Trinity,Sanderson,2,55
51,Alan,East,2,53
52,Kevin,de Vries,2,52
53,Jeremy,Draper,1,45
54,Alistair,Stewart,1,44
55,Jay,Sanderson,1,43
56,Lee,McCullagh,2,43
57,Brad,Russell,2,40
58,Brian,Watson,1,40
59,Mathew,Creer,1,38
60,Alison,Cartner,1,35
61,Fiona,Dangerfield,2,33
62,Charles,Chambers,1,26
63,Michaela,Meharry,1,0
64,Tyler,Wilkie,1,0
65,Andrew,Buchanan,1,0
66,Tanner,Fear,1,0
67,Genevieve,Draper,1,0
68,Ben,Stolz,1,0
69,Todd,Foster,1,0
70,Leeza,Meharry,1,0
71,Phoebe,Lonsdale,1,0
72,Garry,Marwood,1,0
73,Andrew,Van Agtmaal,1,0
74,Hamish,Draper,1,0
75,Ann-Marie,Wangdi,1,0
76,Charlotte,Murphy,1,0
77,Liz,Foster,1,0
78,Mel,Debham,1,0
79,Amelia,Mitchell,1,0
80,Beatrice,Lonsdale,1,0
