Place,First,Last,NET Time,Pace,Diff
1,Bec,Woodward,0:17:23.6,05:48,-01:30.4
2,Poppy,Wainwright,0:17:08.8,05:43,-01:09.2
3,John,Robinson,0:11:24.2,03:48,-01:02.8
4,Ally,Collett,0:16:04.1,05:21,-00:58.9
5,Kane,Safstrom,0:12:07.5,04:02,-00:46.5
6,Leah,Cripps,0:16:29.0,05:30,-00:46.0
7,Luke,Feuerherdt,0:12:43.8,04:15,-00:43.2
8,Jazlin,Fear,0:13:36.1,04:32,-00:38.9
9,Rebecca,Kirkby,0:12:26.3,04:09,-00:36.7
10,Phoebe,Lonsdale,0:12:05.0,04:02,-00:22.0
11,Melinda,Marwood,0:19:44.2,06:35,-00:21.8
12,Joshua,Feuerherdt,0:13:45.3,04:35,-00:20.7
13,Abbey,Cartner,0:13:01.1,04:20,-00:19.9
14,Lachlan,Feuerherdt,0:12:34.8,04:12,-00:16.2
15,Dean,Trew,0:15:49.9,05:17,-00:16.1
16,Floyd,Cartner,0:11:01.2,03:40,-00:07.8
17,Tullie,Rowe,0:11:49.2,03:56,-00:07.8
18,Avery,McDermid,0:13:30.5,04:30,-00:02.5
19,Thom,Hosking,0:18:36.3,06:12,+00:00.3
20,Josephine,Robinson,0:16:22.3,05:27,+00:07.3
21,Mason,Woodward,0:12:18.1,04:06,+00:09.1
22,Max,Rowe,0:12:16.0,04:05,+00:13.0
23,Ebony,Woodward,0:14:36.1,04:52,+00:18.1
24,Lewis,Lonsdale,0:13:54.8,04:38,+00:18.8
25,Kelvin,Niblett,0:13:13.3,04:24,+00:25.3
26,William,Trew,0:13:00.5,04:20,+00:27.5
27,Michelle,Scott,0:17:06.6,05:42,+00:33.6
28,Ethan,Marwood,0:14:39.4,04:53,+00:39.4
29,Leigh,Draper,0:15:41.5,05:14,+00:44.5
30,Kevin,de Vries,0:17:12.1,05:44,+00:45.1
31,Justin,Lee,0:14:27.0,04:49,+00:54.0
32,Alison,Cartner,0:15:34.0,05:11,+01:07.0
33,Harry,Scott,0:16:52.1,05:37,+01:07.1
34,Harry,Cripps,0:17:57.2,05:59,+01:27.2
35,Xavier,Marwood,0:22:10.3,07:23,+07:04.3
36,Eiliyah,Daneen,0:25:03.1,08:21,+08:12.1
NEW,Craig,Green,0:11:49.3,03:56
NEW,Kayla,McManus,0:15:04.6,05:02
NEW,Ryan,Haythorpe,0:15:11.9,05:04
