1;100;0000-00-00;00:00:31.806;11573;100;-39;43636d
2;AABM-3712;0000-00-00;00:00:32.253;;78;-43;ce97a1
3;191;0000-00-00;00:00:32.700;11573;2;-64;5ac884
4;6;0000-00-00;00:03:12.030;11573;73;-40;4deb47
5;149;0000-00-00;00:04:02.346;11573;94;-38;5e6762
6;197;0000-00-00;00:04:12.588;11573;102;-35;767221
7;54;0000-00-00;00:05:23.098;11573;88;-42;dae820
8;74;0000-00-00;00:07:02.136;11573;102;-35;c80b90
9;299;0000-00-00;00:07:41.985;11573;88;-34;18d2fd
10;22;0000-00-00;00:08:42.001;11573;67;-38;bbcefd
11;77;0000-00-00;00:09:13.991;11573;93;-35;243ef2
12;AAAA-1025;0000-00-00;00:09:14.585;;56;-48;9594a5
13;AAAA-1024;0000-00-00;00:09:24.051;;96;-47;29262c
14;AAAA-1078;0000-00-00;00:09:33.044;;68;-40;07fbd6
15;13;0000-00-00;00:10:23.409;11573;80;-43;fbb6b4
16;29;0000-00-00;00:10:43.540;11573;82;-44;7a6169
17;241;0000-00-00;00:10:54.011;11573;62;-39;9496bd
18;55;0000-00-00;00:10:54.312;11573;68;-38;35de4f
19;AACT-400;0000-00-00;00:11:53.015;;83;-46;bf92b3
20;AACT-333;0000-00-00;00:12:14.065;;86;-39;8d45ea
21;AAAA-1074;0000-00-00;00:12:23.101;;58;-38;421b07
22;AACT-359;0000-00-00;00:12:42.647;;100;-48;0b40ae
23;9;0000-00-00;00:12:54.199;11573;94;-35;5b3749
24;AAAA-1072;0000-00-00;00:12:54.465;;60;-46;4c0fd6
25;AAAA-1099;0000-00-00;00:13:02.985;;70;-46;be3c1d
26;14;0000-00-00;00:13:24.428;11573;70;-40;c5b123
27;AAAA-1029;0000-00-00;00:14:21.021;;91;-48;96be7c
28;AAAA-1020;0000-00-00;00:15:01.826;;84;-44;3a232e
29;254;0000-00-00;00:15:40.294;11573;48;-47;71de89
30;63;0000-00-00;00:15:41.064;11573;38;-43;0ef4b9
31;AABM-3730;0000-00-00;00:16:42.631;;88;-46;42cb26
32;94;0000-00-00;00:16:52.969;11573;77;-44;85eab1
33;AACT-350;0000-00-00;00:17:22.220;;67;-53;48f4f4
34;84;0000-00-00;00:18:31.506;11573;70;-35;a70a7f
35;51;0000-00-00;00:18:51.235;11573;66;-46;8693de
36;AACT-308;0000-00-00;00:19:42.610;;68;-50;0898ba
37;AAAA-901;0000-00-00;00:19:42.888;;38;-48;ff1766
38;500;0000-00-00;00:41:02.135;11573;4;-68;5eb6ec
39;299;0000-00-00;00:50:43.964;11573;92;-42;d0063f
40;100;0000-00-00;00:51:03.571;11573;82;-28;96db78
41;AAAA-1078;0000-00-00;00:51:05.502;;50;-40;227eff
42;74;0000-00-00;00:51:27.782;11573;160;-31;ba9150
43;77;0000-00-00;00:51:32.735;11573;108;-38;2c85d1
44;84;0000-00-00;00:51:36.099;11573;94;-45;c3e53d
45;55;0000-00-00;00:51:47.443;11573;83;-36;3eac89
46;AAAA-1072;0000-00-00;00:51:49.118;;62;-49;989230
47;AACT-359;0000-00-00;00:51:54.376;;50;-51;2c788f
48;AAAA-901;0000-00-00;00:51:54.954;;32;-47;a1ab28
49;191;0000-00-00;00:51:56.013;11573;2;-64;2613a1
50;149;0000-00-00;00:51:58.395;11573;58;-37;9b99d0
51;51;0000-00-00;00:51:59.159;11573;96;-42;04d6f4
52;AAAA-1024;0000-00-00;00:52:17.079;;102;-48;910309
53;AACT-400;0000-00-00;00:52:19.528;;42;-54;e3ef11
54;AABM-3730;0000-00-00;00:52:19.999;;38;-43;034f37
55;191;0000-00-00;00:52:20.277;11573;10;-62;c5f2e6
56;AAAA-1025;0000-00-00;00:52:22.925;;86;-42;673a33
57;AACT-308;0000-00-00;00:52:23.805;;85;-47;ae7449
58;6;0000-00-00;00:52:26.609;11573;100;-40;0eb940
59;29;0000-00-00;00:52:26.658;11573;86;-41;a8dc4b
60;191;0000-00-00;00:52:27.939;11573;10;-63;483eac
61;AAAA-1029;0000-00-00;00:52:31.196;;72;-46;f603be
62;14;0000-00-00;00:52:40.641;11573;101;-38;a53c6d
63;AACT-350;0000-00-00;00:52:47.427;;158;-45;ef0724
64;241;0000-00-00;00:52:49.267;11573;180;-34;7efce3
65;94;0000-00-00;00:52:51.601;11573;76;-44;66eeab
66;191;0000-00-00;00:52:53.170;11573;12;-64;8b5960
67;54;0000-00-00;00:53:07.360;11573;102;-32;7b3105
68;197;0000-00-00;00:53:23.633;11573;90;-38;782d40
69;AAAA-1020;0000-00-00;00:53:31.790;;81;-42;49fd29
70;AABM-3712;0000-00-00;00:53:52.051;;44;-46;23ca73
71;9;0000-00-00;00:54:16.535;11573;170;-35;bfa0ee
72;22;0000-00-00;00:54:16.667;11573;74;-36;a1736a
73;AAAA-1099;0000-00-00;00:54:23.587;;122;-45;3a7ce5
74;191;0000-00-00;00:54:24.186;11573;2;-65;fc6005
75;191;0000-00-00;00:54:30.963;11573;8;-64;0d0026
76;191;0000-00-00;00:55:49.938;11573;12;-65;98c803
77;AACT-333;0000-00-00;00:56:00.472;;74;-47;9b0720
78;191;0000-00-00;00:56:01.571;11573;2;-65;2a5ffd
79;254;0000-00-00;00:56:19.592;11573;22;-45;3e83a8
80;63;0000-00-00;00:56:20.210;11573;60;-42;3057e1
81;191;0000-00-00;00:56:21.222;11573;26;-63;83df49
82;191;0000-00-00;00:57:07.174;11573;11;-65;b571c4
83;191;0000-00-00;00:57:12.822;11573;4;-65;446890
84;191;0000-00-00;00:57:24.993;11573;4;-64;b140ba
85;13;0000-00-00;00:57:46.385;11573;116;-45;c0ee4d
86;191;0000-00-00;00:57:47.259;11573;10;-64;f0c24b
87;191;0000-00-00;00:58:06.006;11573;9;-64;5498cb
88;191;0000-00-00;01:00:15.154;11573;28;-63;09790a
89;191;0000-00-00;01:00:33.186;11573;7;-65;82628c
90;191;0000-00-00;01:01:01.366;11573;20;-64;a19b8a
91;191;0000-00-00;01:02:20.613;11573;37;-64;15a7c9
92;191;0000-00-00;01:02:53.055;11573;21;-63;663ec0
93;191;0000-00-00;01:03:00.215;11573;4;-64;f30cd0
94;191;0000-00-00;01:03:14.365;11573;3;-65;66165d
95;191;0000-00-00;01:03:27.365;11573;60;-63;989001
96;191;0000-00-00;01:03:32.505;11573;44;-63;451fa3
97;191;0000-00-00;01:03:38.197;11573;3;-65;56cb26
98;191;0000-00-00;01:03:44.979;11573;4;-64;20845f
99;191;0000-00-00;01:04:39.260;11573;2;-66;c538a9
100;191;0000-00-00;01:05:12.992;11573;4;-64;0266f0
101;AABM-3773;0000-00-00;01:05:13.652;;120;-49;ee5d16
102;191;0000-00-00;01:05:18.332;11573;15;-64;5aba76
103;191;0000-00-00;01:05:35.993;11573;7;-65;55a348
104;AAAA-1074;0000-00-00;01:08:25.424;;78;-51;cce061
