Place,First,Last,NET Time,Pace,Diff
1,Erin,Bradshaw,0:04:29.5,04:29,-00:15.5
2,Alicia,Crowley,0:04:18.2,04:18,-00:06.8
3,James,Trew,0:03:30.3,03:30,-00:00.7
4,Bradie,Sheldon,0:03:55.7,03:56,+00:01.7
5,Jonty,McDermid,0:03:46.5,03:47,+00:06.5
6,Thomas,Lee,0:08:07.0,08:07,+00:08.0
7,Kye,McCarthy,0:05:47.7,05:48,+00:08.7
8,Emily,Harris,0:04:41.3,04:41,+00:09.3
9,Alice,McIntosh,0:04:59.3,04:59,+00:12.3
10,April,Wainwright,0:03:57.7,03:58,+00:13.7
11,Braxton,Safstrom,0:04:36.6,04:37,+00:16.6
12,Abby,Colt,0:04:52.9,04:53,+00:21.9
13,Eiliyah,Daneen,0:05:07.1,05:07,+00:22.1
14,Patrick,Harris,0:05:15.5,05:15,+00:24.5
15,Mikayla,Kirkby,0:05:25.0,05:25,+00:26.0
16,Emma,Colt,0:04:53.1,04:53,+00:26.1
17,Maison,Hooke,0:04:46.6,04:47,+00:27.6
18,Sihanna,Carter,0:05:49.6,05:50,+00:37.6
19,Sophie,Pedrotti,0:05:18.0,05:18,+00:38.0
20,Harry,Griffin,0:05:45.6,05:46,+00:50.6
21,Mohid,Zaman,0:07:50.1,07:50,+01:00.1
22,Alec,Bradshaw,0:06:48.9,06:49,+01:09.9
23,Zarwa,Daneen,0:08:14.2,08:14,+01:18.2
24,Will,Kirkby,0:08:31.7,08:32,+02:33.7
NEW,James,Bradshaw,0:06:47.8,06:48
NEW,Matilda,Compston,0:07:33.7,07:34
