Place,Member,First,Last,Start,Pace,Est Time
1,159,Renelle,McManus,00:00,08:00,1:01:21.6
2,806,Kerry,Amor,03:50,07:30,0:57:31.5
3,3776,Kathleen,Pleasants,04:30,07:25,0:56:53.2
4,814,Sam,Esmore,11:30,06:30,0:49:51.3
5,427,Cath,O'Leary,12:50,06:20,0:48:34.6
6,54,Kevin,de Vries,13:30,06:15,0:47:56.2
7,210,Fiona,Dangerfield,13:30,06:15,0:47:56.2
8,1025,Liz,Foster,14:00,06:10,0:47:17.9
9,39,Melissa,Douglas,14:20,06:08,0:47:02.6
10,74,Maree,Platt,15:20,06:00,0:46:01.2
11,3740,Vicki,Lane,16:00,05:55,0:45:22.8
12,76,Cara,Smith,16:40,05:50,0:44:44.5
13,1028,Mel,Debnam-Smith,16:40,05:50,0:44:44.5
14,3758,Janis,Bull,16:40,05:50,0:44:44.5
15,197,Sue,Taylor,16:40,05:49,0:44:36.8
16,182,Hannah,Crane,16:50,05:48,0:44:29.2
17,458,Caitlin,Clarke,17:00,05:47,0:44:21.5
18,386,Danny,Burgess,17:20,05:45,0:44:06.2
19,1066,Jodie,McLeod,17:30,05:43,0:43:50.8
20,6,Shayne,Rushan,17:40,05:42,0:43:43.1
21,424,Lauren,Crowley,17:40,05:42,0:43:43.1
22,449,Belinda,Whelan,17:40,05:42,0:43:43.1
23,22,Ross,Douglas,17:50,05:40,0:43:27.8
24,91,Melissa,Wilkie,17:50,05:40,0:43:27.8
25,1087,Deanna,Marshall,18:10,05:38,0:43:12.5
26,31,Charles,Chambers,18:20,05:36,0:42:57.1
27,398,Angus,McPherson,18:50,05:33,0:42:34.1
28,3777,Alistair,Stewart,18:50,05:33,0:42:34.1
29,87,Frances,Walsh,19:30,05:27,0:41:48.1
30,807,Kristian,Dowler,19:40,05:26,0:41:40.4
31,13,Gavin,Fiedler,20:10,05:22,0:41:09.7
32,270,Tyler,Wilkie,20:10,05:22,0:41:09.7
33,52,Leah,Cripps,20:30,05:20,0:40:54.4
34,1024,Todd,Foster,20:30,05:20,0:40:54.4
35,1003,Damien,Roberts,21:10,05:15,0:40:16.1
36,183,Janet,Hodnett,21:10,05:14,0:40:08.4
37,3,Alan,Buchanan,22:10,05:06,0:39:07.0
38,333,Jon,McIntosh,22:20,05:05,0:38:59.3
39,400,Darren,Rowe,22:20,05:05,0:38:59.3
40,476,Sheena,Carney,22:50,05:01,0:38:28.7
41,55,Justin,Lee,23:00,05:00,0:38:21.0
42,241,Andrea,Smith,23:00,05:00,0:38:21.0
43,3763,Brett,Dobbin,23:20,04:57,0:37:58.0
44,278,James,Russell,23:30,04:56,0:37:50.3
45,9,Trinity,Sanderson,23:40,04:55,0:37:42.7
46,3739,Stephen,van Rees,23:40,04:55,0:37:42.7
47,29,Alison,Cartner,23:50,04:54,0:37:35.0
48,3702,Vicki,Bayliss,23:50,04:54,0:37:35.0
49,1040,Erin,Williams,24:00,04:52,0:37:19.6
50,455,Suzie,Pedrotti,24:20,04:50,0:37:04.3
51,3760,Karl,Stoltz,24:20,04:50,0:37:04.3
52,14,Lisa,Wilkinson,24:40,04:47,0:36:41.3
53,18,Georgie,Lanyon,24:40,04:47,0:36:41.3
54,274,Avery,McDermid,24:40,04:47,0:36:41.3
55,1020,Mumtaz,Hussain,24:40,04:47,0:36:41.3
56,1074,David,Burrow,24:50,04:46,0:36:33.6
57,1080,Jayson,Carter,25:00,04:45,0:36:25.9
58,3766,Anthony,Byrne,25:00,04:45,0:36:25.9
59,408,Trevor,Watchman,25:10,04:43,0:36:10.6
60,3788,Matthew,Schubert,25:10,04:43,0:36:10.6
61,384,Andrew,Wilkie,25:20,04:42,0:36:02.9
62,359,Anne,McIntosh,25:30,04:41,0:35:55.3
63,802,James,Harper,25:30,04:41,0:35:55.3
64,109,Tim,Lovell,25:30,04:40,0:35:47.6
65,171,Oliver,Sanderson,26:00,04:37,0:35:24.6
66,1099,Kelvin,Niblett,26:00,04:37,0:35:24.6
67,65,Ben,McDermid,26:00,04:36,0:35:16.9
68,1051,Kane,Safstrom,26:10,04:35,0:35:09.2
69,84,Craig,Green,26:50,04:30,0:34:30.9
70,203,Tullie,Rowe,27:10,04:28,0:34:15.6
71,469,Paul,Boxshall,27:20,04:26,0:34:00.2
72,3730,Greg,Carter,27:20,04:26,0:34:00.2
73,490,Aaron,Anderson,27:30,04:25,0:33:52.5
74,394,Rhianna,Wik-Gamble,27:40,04:24,0:33:44.9
75,418,Vanessa,Bull,28:10,04:20,0:33:14.2
76,191,Phoebe,Lonsdale,28:20,04:19,0:33:06.5
77,472,John,Flood,28:40,04:16,0:32:43.5
78,499,Richard,Martin,28:40,04:16,0:32:43.5
79,438,Damian,Hughes,28:50,04:15,0:32:35.8
80,1083,Rebecca,Kirkby,28:50,04:15,0:32:35.8
81,15,Rebecca,Wilkinson,28:50,04:14,0:32:28.2
82,350,David,Cripps,28:50,04:14,0:32:28.2
83,430,Brianna,Maddern,28:50,04:14,0:32:28.2
84,49,David,Heislers,29:00,04:13,0:32:20.5
85,94,David,Lonsdale,29:00,04:13,0:32:20.5
86,1031,Jack,Milligan,29:00,04:13,0:32:20.5
87,399,Darren,Hartland,29:10,04:12,0:32:12.8
88,432,Jarrod,Epps,29:10,04:12,0:32:12.8
89,1027,Andrew,Van Agtmaal,29:10,04:12,0:32:12.8
90,801,Rebecca ,Beagley,29:20,04:10,0:31:57.5
91,428,Matthew,Bell,29:30,04:09,0:31:49.8
92,425,Nathan,Crowley,29:40,04:08,0:31:42.2
93,429,Gavin,Hicks,29:40,04:08,0:31:42.2
94,448,Rory,Flanagan,29:40,04:08,0:31:42.2
95,125,Sarah,Jalim,29:50,04:07,0:31:34.5
96,1022,Ben,Stolz,30:20,04:03,0:31:03.8
97,88,Brian,Watson,30:30,04:01,0:30:48.5
98,8,Rik,McCaig,30:40,04:00,0:30:40.8
99,1023,Matthew,Schepisi,30:40,04:00,0:30:40.8
100,33,Andrew,Creer,31:20,03:55,0:30:02.5
101,462,Eliot,Walton,31:40,03:52,0:29:39.4
102,23,Michael,Bieleny,31:50,03:51,0:29:31.8
103,169,Floyd,Cartner,32:00,03:50,0:29:24.1
104,275,Max,Rowe,32:10,03:49,0:29:16.4
105,447,Jake,Delaney,32:10,03:49,0:29:16.4
106,492,Zeb,Broadbent,32:10,03:49,0:29:16.4
107,51,Andrew,Hosking,32:20,03:47,0:29:01.1
108,404,Leon,Griffin,33:30,03:38,0:27:52.1
109,467,Glenn,McMillian,34:20,03:32,0:27:06.0
110,3701,Nigel,Preston,34:20,03:31,0:26:58.4
111,487,Ned,Buckell,34:50,03:28,0:26:35.4
