Place,Member,First,Last,Start,Pace,Est Time
1,435,Ashton ,Chivers,00:00,08:00,0:29:21.6
2,436,Lily,Chivers,00:00,08:00,0:29:21.6
3,485,Alannah,Ralph,00:00,08:00,0:29:21.6
4,1084,Naghmana,Tehseen,00:00,08:00,0:29:21.6
5,433,Leonie,Chivers,00:40,07:50,0:28:44.9
6,437,Grace,Chivers,00:50,07:46,0:28:30.2
7,225,Lesley,Fabian,01:10,07:40,0:28:08.2
8,484,Mel,Ralph,02:30,07:18,0:26:47.5
9,1097,Evie,Niblett,02:50,07:15,0:26:36.5
10,1020,Mumtaz,Hussain,02:50,07:14,0:26:32.8
11,464,Jen,Pollard,03:10,07:09,0:26:14.4
12,159,Renelle,McManus,03:20,07:06,0:26:03.4
13,3764,Belinda,Dobbin,03:30,07:03,0:25:52.4
14,482,Cohen,Smith,04:00,06:55,0:25:23.0
15,3760,Karl,Stoltz,04:00,06:55,0:25:23.0
16,40,Aida,Escall,04:10,06:51,0:25:08.4
17,3752,Chloe,Beesley,04:10,06:51,0:25:08.4
18,3776,Kathleen,Pleasants,04:50,06:40,0:24:28.0
19,3798,Charli,Hosking,04:50,06:40,0:24:28.0
20,489,David,Fagg,05:00,06:38,0:24:20.7
21,354,Alice,McIntosh,05:30,06:31,0:23:55.0
22,250,Tully,Cripps,05:30,06:30,0:23:51.3
23,356,Lynley,McDonald,05:30,06:30,0:23:51.3
24,241,Andrea,Smith,05:30,06:29,0:23:47.6
25,1028,Mel,Debnam-Smith,05:30,06:29,0:23:47.6
26,1092,Sihanna,Carter,05:40,06:26,0:23:36.6
27,1026,Eiliyah,Daneen,05:50,06:25,0:23:33.0
28,54,Kevin,de Vries,06:10,06:19,0:23:10.9
29,3778,Sebastian,Stewart,06:20,06:17,0:23:03.6
30,52,Leah,Cripps,06:20,06:16,0:22:59.9
31,246,Poppy,Wainwright,06:40,06:10,0:22:37.9
32,1085,Michelle,Scott,07:10,06:04,0:22:15.9
33,3762,Leo,Stoltz,07:10,06:03,0:22:12.2
34,453,Marcene,Haythrope,07:10,06:02,0:22:08.5
35,3742,Jemma,Carter,07:10,06:02,0:22:08.5
36,281,Will,de Vries,07:20,06:00,0:22:01.2
37,808,Lottie,Macmunn,07:30,05:58,0:21:53.9
38,50,Harry,Cripps,07:30,05:57,0:21:50.2
39,74,Maree,Platt,07:30,05:57,0:21:50.2
40,16,Jennifer,Lee,07:40,05:55,0:21:42.8
41,1089,Ruby,Carter,07:40,05:55,0:21:42.8
42,458,Caitlin,Clarke,07:50,05:52,0:21:31.8
43,407,Cadi,Watchman,08:00,05:50,0:21:24.5
44,408,Trevor,Watchman,08:00,05:50,0:21:24.5
45,442,Marina,Damijanic,08:00,05:50,0:21:24.5
46,1046,Bonnie,Scott,08:00,05:50,0:21:24.5
47,39,Melissa,Douglas,08:00,05:48,0:21:17.2
48,466,Francesco,Biasi,08:00,05:48,0:21:17.2
49,3743,Liam,Carter,08:10,05:47,0:21:13.5
50,400,Darren,Rowe,08:20,05:45,0:21:06.1
51,465,Deb,Banks,08:20,05:45,0:21:06.1
52,3753,Logan,Beesley,08:20,05:45,0:21:06.1
53,398,Angus,McPherson,08:20,05:43,0:20:58.8
54,1096,Miriam,Niblett,08:30,05:41,0:20:51.5
55,3720,Bec,Beesley,08:30,05:41,0:20:51.5
56,805,Bradie,Sheldon,08:30,05:40,0:20:47.8
57,359,Anne,McIntosh,08:40,05:38,0:20:40.5
58,1076,Sarah,Trew,08:40,05:38,0:20:40.5
59,804,Abby,Colt,08:50,05:36,0:20:33.1
60,3711,Eryn,McManus,09:00,05:34,0:20:25.8
61,463,Lila,Hensley,09:00,05:32,0:20:18.4
62,1065,Sonya,Walker,09:00,05:32,0:20:18.4
63,809,Nick,Best,09:10,05:31,0:20:14.8
64,267,Kayla,McManus,09:10,05:30,0:20:11.1
65,480,Casey,Smith,09:10,05:30,0:20:11.1
66,803,Emma,Colt,09:10,05:30,0:20:11.1
67,1090,Chase,Carter,09:30,05:26,0:19:56.4
68,322,Thom,Hosking,09:30,05:25,0:19:52.8
69,440,Sophie,Pedrotti,09:30,05:25,0:19:52.8
70,473,James,Bradshaw,09:40,05:21,0:19:38.1
71,441,Jimmy,Byrne,09:50,05:20,0:19:34.4
72,406,Mietta,Watchman,09:50,05:18,0:19:27.1
73,810,Owen,Best,10:00,05:17,0:19:23.4
74,1035,Braxton,Safstrom,10:10,05:15,0:19:16.0
75,283,Lily,Sanderson,10:10,05:14,0:19:12.4
76,449,Belinda,Whelan,10:10,05:14,0:19:12.4
77,1025,Liz,Foster,10:10,05:14,0:19:12.4
78,420,Sarah,Crowley,10:20,05:11,0:19:01.4
79,22,Ross,Douglas,10:20,05:10,0:18:57.7
80,1077,Dean,Trew,10:30,05:09,0:18:54.0
81,1024,Todd,Foster,10:30,05:08,0:18:50.4
82,451,Julia,Starr,10:40,05:05,0:18:39.3
83,1047,Harry,Scott,10:50,05:04,0:18:35.7
84,276,Joshua,Feuerherdt,11:00,05:00,0:18:21.0
85,477,Michael,Carney,11:00,05:00,0:18:21.0
86,3774,Ryan,Haythorpe,11:00,05:00,0:18:21.0
87,425,Nathan,Crowley,11:00,04:59,0:18:17.3
88,459,Archie,Clarke,11:00,04:59,0:18:17.3
89,355,Millie,McIntosh,11:10,04:57,0:18:10.0
90,3763,Brett,Dobbin,11:10,04:57,0:18:10.0
91,457,Emily,Harris,11:20,04:55,0:18:02.7
92,418,Vanessa,Bull,11:20,04:54,0:17:59.0
93,422,Quinn,Casey,11:30,04:52,0:17:51.6
94,333,Jon,McIntosh,11:40,04:50,0:17:44.3
95,455,Suzie,Pedrotti,11:40,04:50,0:17:44.3
96,14,Lisa,Wilkinson,11:40,04:48,0:17:37.0
97,481,Daniel,Smith,11:40,04:48,0:17:37.0
98,3788,Matthew,Schubert,11:40,04:48,0:17:37.0
99,421,Alicia,Crowley,11:50,04:47,0:17:33.3
100,3702,Vicki,Bayliss,11:50,04:46,0:17:29.6
101,266,Lewis,Lonsdale,12:00,04:45,0:17:26.0
102,488,John,Starr,12:00,04:45,0:17:26.0
103,497,Oscar,Lethbridge,12:00,04:44,0:17:22.3
104,3704,Callen,Bayliss,12:00,04:44,0:17:22.3
105,3730,Greg,Carter,12:00,04:44,0:17:22.3
106,55,Justin,Lee,12:10,04:41,0:17:11.3
107,474,Erin,Bradshaw,12:10,04:41,0:17:11.3
108,386,Danny,Burgess,12:10,04:40,0:17:07.6
109,1023,Matthew,Schepisi,12:20,04:37,0:16:56.6
110,3737,Ebony,Beesley,12:20,04:37,0:16:56.6
111,109,Tim,Lovell,12:40,04:34,0:16:45.6
112,272,Abbey,Cartner,12:40,04:34,0:16:45.6
113,381,April,Wainwright,12:40,04:34,0:16:45.6
114,147,Lachlan,Feuerherdt,12:40,04:32,0:16:38.2
115,183,Janet,Hodnett,12:50,04:31,0:16:34.6
116,3754,Elijah,Willits,12:50,04:30,0:16:30.9
117,15,Rebecca,Wilkinson,12:50,04:29,0:16:27.2
118,428,Matthew,Bell,13:10,04:25,0:16:12.5
119,3766,Anthony,Byrne,13:10,04:24,0:16:08.9
120,305,Jonty,McDermid,13:20,04:22,0:16:01.5
121,49,David,Heislers,13:30,04:20,0:15:54.2
122,65,Ben,McDermid,13:30,04:19,0:15:50.5
123,1099,Kelvin,Niblett,13:30,04:19,0:15:50.5
124,1080,Jayson,Carter,13:30,04:18,0:15:46.9
125,1060,William,Trew,13:40,04:16,0:15:39.5
126,84,Craig,Green,13:50,04:14,0:15:32.2
127,1083,Rebecca,Kirkby,13:50,04:14,0:15:32.2
128,452,Noah,Pedrotti,13:50,04:13,0:15:28.5
129,394,Rhianna,Wik-Gamble,14:00,04:12,0:15:24.8
130,1051,Kane,Safstrom,14:00,04:12,0:15:24.8
131,191,Phoebe,Lonsdale,14:00,04:10,0:15:17.5
132,3755,Noah,Willits,14:20,04:07,0:15:06.5
133,3714,Tanner,Fear,14:20,04:06,0:15:02.8
134,189,Tim,Creer,14:20,04:05,0:14:59.1
135,203,Tullie,Rowe,14:30,04:04,0:14:55.5
136,438,Damian,Hughes,14:40,03:59,0:14:37.1
137,171,Oliver,Sanderson,15:00,03:54,0:14:18.8
138,358,Lewis,McIntosh,15:10,03:51,0:14:07.8
139,277,Luke,Feuerherdt,15:20,03:49,0:14:00.4
140,423,Hugh,Casey,15:20,03:48,0:13:56.8
141,432,Jarrod,Epps,15:20,03:48,0:13:56.8
142,1029,James,Trew,15:20,03:48,0:13:56.8
143,274,Avery,McDermid,15:30,03:47,0:13:53.1
144,51,Andrew,Hosking,15:40,03:44,0:13:42.1
145,275,Max,Rowe,15:50,03:41,0:13:31.1
146,3738,Mason,Beesley,16:20,03:34,0:13:05.4
147,169,Floyd,Cartner,16:20,03:32,0:12:58.0
