place,member,first,last,start,Pace,est Time
1,257,Fin,Bray,0:00,7:59,27:09:00
2,222,Virginia,Grills-Marsily,1:30,7:35,25:47:00
3,212,Michelle,Parry,2:00,7:25,25:13:00
4,206,Elisa,Christie,3:40,6:55,23:31
5,148,Matisse,Grills-Marsily,4:20,6:45,22:57
6,146,David,Ashman,4:30,6:40,22:40
7,79,Liz,Stewart,4:30,6:42,22:47
8,226,Drew,Parry,4:40,6:39,22:37
9,106,Suellen,Bambrick,4:50,6:35,22:23
10,155,Jasmine,Rielley,4:50,6:35,22:23
11,179,Paula,Rielley,4:50,6:35,22:23
12,30,Amanda,Turnbull,5:10,6:28,21:59
13,43,Josephine,Robinson,5:20,6:25,21:49
14,159,Renelle,McManus,5:30,6:23,21:42
15,21,Michelle,Bieleny,5:40,6:20,21:32
16,239,Paula,a'Beckett,6:00,6:13,21:08
17,208,Houston,Pearse,6:00,6:15,21:15
18,136,Livinia,Douglass,6:10,6:11,21:01
19,24,Karina,Bray,6:20,6:07,20:48
20,225,Lesley,Fabian,6:30,6:06,20:44
21,229,Harrison,Pitson,6:40,6:02,20:31
22,101,Paula,Saxon,6:40,6:01,20:27
23,173,Melanie,Cuzzillo,6:50,6:00,20:24
24,282,Anna,deVries,6:50,6:00,20:24
25,292,Jye,Ekanayake,6:50,5:59,20:21
26,151,Jo,Williams,7:10,5:54,20:04
27,149,Janelle,Giffin,7:40,5:46,19:36
28,147,Lachlan,Feuerherdt,7:50,5:43,19:26
29,66,Megan,McDonald,8:00,5:40,19:16
30,89,Natalie,Watson,8:00,5:39,19:13
31,187,Nicole,Kelly,8:00,5:40,19:16
32,11,Jane,McCaig,8:10,5:35,18:59
33,99,Oscar,Terry,8:10,5:35,18:59
34,150,Rebecca,Ashman,8:10,5:36,19:02
35,157,Bec,Murphy,8:10,5:35,18:59
36,174,Sam,Hancock,8:10,5:35,18:59
37,214,Amy,Sim,8:10,5:37,19:06
38,240,Jenelle,Seaward,8:10,5:36,19:02
39,243,Max,Bray,8:10,5:35,18:59
40,98,Tanya,Fleming,8:20,5:32,18:49
41,210,Fiona,Dangerfield,8:20,5:32,18:49
42,170,Abbey,Saxon,8:30,5:31,18:45
43,190,Micheala,Meharry,8:30,5:29,18:39
44,200,Jack,Cripps,8:30,5:29,18:39
45,230,McKinley,Grills-Marsily,8:30,5:30,18:42
46,237,Lou,Bray,8:30,5:30,18:42
47,274,Avery,McDermid,8:30,5:30,18:42
48,249,Will,Gleisner,8:40,5:28,18:35
49,277,Luke,Feuerherdt,8:40,5:26,18:28
50,1,Ashlee,Bull,8:50,5:25,18:25
51,52,Leah,Cripps,8:50,5:23,18:18
52,152,Alannah,Rielley,8:50,5:25,18:25
53,188,Darcy,Tucker,8:50,5:25,18:25
54,195,Luke,Creer,8:50,5:25,18:25
55,215,Emerson,Sim,9:00,5:22,18:15
56,269,Cooper,Charnas,9:00,5:22,18:15
57,164,Imogen,Thompson,9:00,5:21,18:11
58,182,Hanna,Crane,9:00,5:20,18:08
59,241,Andrea,Smith,9:00,5:20,18:08
60,253,Charlotte,Murphy,9:10,5:19,18:05
61,297,Declan,Lavery,9:10,5:19,18:05
62,156,Will,Murphy,9:10,5:18,18:01
63,242,Halle,Blake-Burrows,9:20,5:15,17:51
64,288,Kate,McIntosh,9:20,5:16,17:54
65,132,Tracie,Gleisner,9:20,5:14,17:48
66,176,Kaidyn,Tucker,9:20,5:14,17:48
67,189,Tim,Creer,9:20,5:16,17:54
68,228,Sam,Pitson,9:20,5:15,17:51
69,270,Tyler,Wilkie,9:30,5:12,17:41
70,32,Oliver,Turnbull,9:40,5:10,17:34
71,158,Annalise,Murphy,9:40,5:08,17:27
72,191,Phoebe,Lonsdale,9:40,5:08,17:27
73,193,Emily,Heislers,10:00,5:05,17:17
74,275,Max,Rowe,10:00,5:04,17:14
75,300,Lucinda,Terry,10:00,5:03,17:10
76,259,Jasmine,Santley,10:20,4:57,16:50
77,112,Jett,Grundy,10:20,4:59,16:57
78,171,Oliver,Sanderson,10:40,4:53,16:36
79,77,Brad,Russell,10:40,4:51,16:29
80,169,Floyd,Cartner,10:50,4:50,16:26
81,213,Phoebe,a'Beckett,10:50,4:49,16:23
82,94,David,Lonsdale,11:00,4:45,16:09
83,29,Alison,Cartner,11:00,4:46,16:12
84,82,Sophie,Adamson,11:10,4:42,15:59
85,107,Hayden,Brook,11:10,4:44,16:06
86,201,Beatrice,Lonsdale,11:10,4:43,16:02
87,227,Joseph,Glanville,11:20,4:40,15:52
88,35,Conor,Cunningham,11:30,4:38,15:45
89,198,Matthew,Saxon,11:30,4:38,15:45
90,39,Melissa,Douglas,11:40,4:34,15:32
91,131,Carrisa,Brook,11:40,4:34,15:32
92,184,Will,Crane,11:50,4:32,15:25
93,105,Toby,McCaig,12:00,4:28,15:11
94,12,Josie,Aitken,12:20,4:21,14:47
95,192,Nicholas,Ashman,12:30,4:20,14:44
96,203,Tullie,Rowe,12:50,4:15,14:27
97,236,Harry,Seaward,12:50,4:14,14:24
98,177,Ben,Wilby,13:00,4:11,14:13
99,218,Noah,Walsh,13:10,4:07,14:00
100,202,Callum,Tucker,13:10,4:09,14:07
101,224,Cooper,Hale,13:20,4:05,13:53
102,114,Spencer,Evans,13:20,4:06,13:56
103,19,Troy,Cartner,13:50,3:56,13:22
104,80,Bridie,Blake-Burrows,13:50,3:57,13:26
105,137,Anton,Paholek,13:50,3:57,13:26
106,219,Wil,McCaig,13:50,3:56,13:22
107,42,Craig,Feuerherdt,14:10,3:50,13:02
108,143,Maxine,Paholek,14:10,3:50,13:02
109,167,Jack,Meade,14:20,3:46,12:48
110,33,Andrew,Creer,14:50,3:38,12:21
111,115,Alexander,Evans,15:00,3:35,12:11
112,46,Richard,Gleisner,15:40,3:23,11:30
113,97,Adam,Fleming,16:00,3:18,11:13
114,27,Andrew,Buchanan,16:50,3:04,10:26