place,first,last,net Time,diff
1,Lacey,Wilkie,5:24,-0:15
2,Oscar,Terry,4:57,-0:18
3,Poppy,Wainwright,6:07,-0:18
4,Cooper,Charnas,4:41,-0:09
5,Finn,Cunningham,5:49,-0:06
6,Jesse,Brook,6:21,-0:03
7,Oliver,Sanderson,4:04,0:01
8,Joshua,Feuerherdt,5:15,0:08
9,Billy,Meade,4:26,0:09
10,Eloise,Wilby,5:36,0:04
11,Lachlan,Feuerherdt,4:27,0:02
12,Elliot,Lavery,5:48,0:05
13,Matilda,Wilby,5:39,0:09
14,Spencer,Lavery,6:19,0:07
15,William,Robinson,4:30,0:07
16,Amelia,Charnas,7:11,0:12
17,Imogen,Stewart,5:32,0:07
18,Ivy,Bray,6:22,0:10
19,Abbey,Cartner,4:43,0:13
20,Luke,Feuerherdt,4:57,0:21
21,Lucy,McCaig,5:08,0:14
22,Lily,Sanderson,5:05,0:21
23,Geoffrey,Robinson,7:31,0:36
24,Tully,Cripps,7:39,1:14
25,Olivia,Douglas,7:45,1:48
26,Harry,Cripps,8:26,2:36
27,Tadhg,Hughan,8:18,2:46
New,Annabelle,McPhee,6:22,
New,Abbey,Ridges,6:01,
New,Halle,Blake-Burrows,4:57,
New,Quinlan,Cody,8:10,
New,Stephanie,Carlson,6:07,
New,Sachin,Cody,7:17,