Place,First,Last,NET Time,Pace,Diff
1,Ross,Douglas,0:17:47.0,05:10,-03:01.7
2,Deb,Banks,0:20:01.5,05:49,-02:02.9
3,Emily,Harris,0:18:03.5,05:15,-01:33.0
4,Thom,Hosking,0:18:23.6,05:21,-01:23.2
5,Jayson,Carter,0:14:48.1,04:18,-01:22.0
6,Eiliyah,Daneen,0:20:48.0,06:03,-01:16.4
7,Lisa,Wilkinson,0:16:29.4,04:48,-01:10.1
8,Bec,Beesley,0:20:05.6,05:50,-01:07.2
9,Jarrod,Epps,0:13:02.9,03:48,-00:56.5
10,Danny,Burgess,0:15:48.8,04:36,-00:52.2
11,Hugh,Casey,0:13:03.3,03:48,-00:49.2
12,Kane,Safstrom,0:14:28.5,04:12,-00:43.1
13,Andrew,Hosking,0:12:49.9,03:44,-00:41.9
14,Harry,Cripps,0:21:38.0,06:17,-00:40.2
15,Jonty,McDermid,0:14:51.4,04:19,-00:37.4
16,Noah,Pedrotti,0:14:30.0,04:13,-00:31.3
17,Tanner,Fear,0:14:04.5,04:06,-00:29.3
18,Mason,Beesley,0:13:00.6,03:47,-00:27.8
19,Dean,Trew,0:17:42.9,05:09,-00:24.1
20,Avery,McDermid,0:12:48.9,03:44,-00:18.9
21,Ebony,Beesley,0:15:44.6,04:35,-00:18.6
22,Lachlan,Feuerherdt,0:15:21.6,04:28,-00:14.1
23,James,Trew,0:13:05.6,03:48,-00:09.0
24,Sarah,Trew,0:19:21.3,05:38,-00:08.3
25,Luke,Feuerherdt,0:13:07.1,03:49,-00:07.5
26,Naghmana,Tehseen,0:27:27.7,07:59,-00:03.5
27,Rebecca,Kirkby,0:14:35.6,04:15,+00:01.8
28,Abbey,Cartner,0:15:09.2,04:24,+00:18.2
29,Ruby,Carter,0:20:02.5,05:50,+00:22.6
30,William,Trew,0:14:45.8,04:18,+00:49.9
31,Joshua,Feuerherdt,0:17:10.6,05:00,+01:04.0
32,Harry,Scott,0:18:26.8,05:22,+01:28.6
33,Braxton,Safstrom,0:19:45.3,05:45,+02:02.3
34,Logan,Beesley,0:21:53.7,06:22,+02:44.7
35,Tully,Cripps,0:24:18.1,07:04,+03:05.3
NEW,David,Heislers,0:14:55.0,04:20
NEW,Justin,Lee,0:16:07.4,04:41
NEW,Ben,McDermid,0:14:50.7,04:19
NEW,Maree,Platt,0:20:29.6,05:57
NEW,Craig,Green,0:14:34.9,04:14
NEW,Floyd,Cartner,0:12:07.7,03:32
NEW,Janet,Hodnett,0:15:30.7,04:31
NEW,Belinda,Whelan,0:17:58.9,05:14
NEW,Matthew,Schepisi,0:15:52.1,04:37
