PLACE,FIRST,LAST,TIME,PACE,CLUB
1,Harrison,Boyd,0:12:04.4,03:57.5,HARRIERS
2,Jackson,Eadon,0:12:16.5,04:01.5,HARRIERS
3,Floyd,Cartner,0:12:22.4,04:03.4,UNI
4,James,Trew,0:12:40.1,04:09.2,UNI
5,Kade,McCay,0:12:46.1,04:11.2,HARRIERS
6,Tim,Creer,0:13:07.2,04:18.1,UNI
7,Lachlan,Feuerherdt,0:13:53.9,04:33.4,UNI
8,Connor,Griffiths,0:14:35.0,04:46.9,HARRIERS
