place,first,last,start,pace,est Time
1,Eric,Aardvark,00:00,7:0,57:24
2,Pam,Holland,00:00,7:0,57:24
3,Ali,Musk,01:30,6:49,55:54
4,Julie,Hogan,06:10,6:15,51:15
5,Verity,Perez,06:10,6:15,51:15
6,Natalie,Watson,06:30,6:12,50:50
7,Marianne,Richardson,06:50,6:10,50:34
8,Alan,East,07:20,6:6,50:01
9,John,Doering,08:00,6:1,49:20
10,Michael,Turner,08:10,6:0,49:12
11,Catherine,Pethybridge,08:40,5:57,48:47
12,Jodie,Scoble,09:30,5:50,47:50
13,Julia,Perez,09:30,5:50,47:50
14,Simone,Healy,09:30,5:50,47:50
15,John,Taylor,09:40,5:49,47:42
16,Joanne,Weatherhead,09:50,5:48,47:34
17,Maree,Reid,10:40,5:42,46:44
18,Tracie,Gleisner,10:40,5:42,46:44
19,Biljana,Ansted,11:00,5:40,46:28
20,Lisa,McDermid,12:30,5:28,44:50
21,Sheridan,Hail,12:40,5:27,44:41
22,Wayne,Forbes,12:50,5:26,44:33
23,Harry,Terry,12:50,5:26,44:33
24,Andrew,Boshcetti,13:00,5:25,44:25
25,Gabby,Walsh,13:00,5:25,44:25
26,Maree,Platt,13:00,5:25,44:25
27,Melissa,Douglass,13:00,5:25,44:25
28,Noah,Walsh,13:20,5:22,44:00
29,Frances,Walsh,13:30,5:21,43:52
30,Shann,Anderson,14:10,5:16,43:11
31,Helen,WeeHee,14:10,5:16,43:11
32,Emma,Burke,14:30,5:14,42:55
33,Brian,Brasher,14:50,5:12,42:38
34,Alison,McCullagh,14:50,5:12,42:38
35,Peter,Noble,14:50,5:12,42:38
36,Stacy,Hunter,14:50,5:11,42:30
37,Nicole,Richardson,14:50,5:12,42:38
38,Angela,Slattery,15:00,5:10,42:22
39,Kylie,Cheal,15:30,5:7,41:57
40,John,Brewin,15:40,5:5,41:41
41,Kevin,Perez,15:40,5:5,41:41
42,Jarrah,O'Shea,16:00,5:3,41:25
43,Kylie,Buchanan,16:20,5:0,41:00
44,Scott,Roberts,16:20,5:0,41:00
45,Laura,Terry,16:20,5:0,41:00
46,Penny,Spencer,16:20,5:0,41:00
47,Jackie,Tremayne,16:20,5:1,41:08
48,Brad,Russell,16:30,4:59,40:52
49,Andrew,Evely,16:30,4:59,40:52
50,Sam,Brewin,16:40,4:58,40:44
51,David,Perris,16:50,4:57,40:35
52,Genevieve,Green,17:10,4:55,40:19
53,Jaclyn,Munge,17:10,4:54,40:11
54,Jennifer,Lee,17:20,4:53,40:03
55,Kim,Townrow,17:20,4:53,40:03
56,Matt,Constable,17:30,4:52,39:54
57,Liz,Foster,17:30,4:52,39:54
58,Scott,Padgham,17:40,4:51,39:46
59,Tina,McBain,17:50,4:49,39:30
60,Hayden,Brook,18:00,4:48,39:22
61,Conor,Cunningham,18:00,4:48,39:22
62,Justin,O'Brien,18:10,4:47,39:13
63,Laura,Reynolds,18:10,4:47,39:13
64,Janet,Hodnett,18:30,4:45,38:57
65,Shayne,Rushan,18:30,4:45,38:57
66,Nick,Walsh,18:30,4:45,38:57
67,Dan,Holland,18:30,4:45,38:57
68,Alison,Cartner,18:40,4:43,38:41
69,Justin,Lee,19:10,4:40,38:16
70,Jenny,Buchanan,19:20,4:38,38:00
71,Maria,Slater,19:20,4:38,38:00
72,Gary,Crouch,19:20,4:38,38:00
73,Steve,Corrie,19:40,4:36,37:43
74,Roy,Preece,19:40,4:36,37:43
75,Lisa,Wilkinson,19:40,4:36,37:43
76,Brett,Houlden,19:50,4:35,37:35
77,Mark,Saxon,19:50,4:35,37:35
78,Maddy,Evely,19:50,4:35,37:35
79,Holly,Randall,20:00,4:34,37:27
80,Owen,Davies,20:10,4:32,37:10
81,Ingrid,Douglass,20:20,4:31,37:02
82,David,Heislers,20:30,4:30,36:54
83,Emma,Moylan,20:30,4:30,36:54
84,Greg,McBain,20:50,4:28,36:38
85,Todd,Foster,21:10,4:25,36:13
86,Michael,Hogan,21:30,4:23,35:57
87,John,McCullagh,21:50,4:20,35:32
88,Erica,Wilkinson,21:50,4:20,35:32
89,Alan,Buchanan,22:00,4:19,35:24
90,Georgie,Lanyon,22:00,4:19,35:24
91,Ryan,Brook,22:10,4:18,35:16
92,Aaron,Anderson,22:20,4:17,35:07
93,Gavin,Fiedler,22:20,4:17,35:07
94,Steve,Brereton,22:30,4:15,34:51
95,Leon,Hamond,22:30,4:15,34:51
96,Max,Pearse,22:30,4:15,34:51
97,Josh,Hunter,22:40,4:14,34:43
98,Michael,Gibbon,22:40,4:14,34:43
99,Chris,McCormack,22:50,4:13,34:35
100,Daniel,Vains,23:00,4:12,34:26
101,Scott,Alterater,23:10,4:11,34:18
102,Matthew,Heislers,23:20,4:9,34:02
103,Jeff,Pethybridge,23:40,4:7,33:45
104,Russell,Tremayne,23:40,4:7,33:45
105,Andrew,Creer,24:00,4:5,33:29
106,Tracy,Wilson,24:00,4:5,33:29
107,Brock,Prime,24:40,4:0,32:48
108,Charles,Chambers,24:40,4:0,32:48
109,Brian,Watson,24:50,3:58,32:32
110,Jim,Russell,25:00,3:57,32:23
111,Rebecca,Tweed,25:00,3:57,32:23
112,Craig,Feuerherdt,25:10,3:56,32:15
113,Luke,Gregory,25:10,3:56,32:15
114,Russell,Jenkins,25:10,3:56,32:15
115,David,Tarrant,25:10,3:56,32:15
116,Ben,McDermid,25:50,3:51,31:34
117,Jason,Fletcher,26:00,3:50,31:26
118,Jason,Sim,26:00,3:50,31:26
119,Lee,McCullagh,26:10,3:48,31:10
120,Troy,Cartner,26:10,3:49,31:18
121,Patrick,Kenny,26:30,3:46,30:53
122,Simon,Austin,26:40,3:45,30:45
123,Ross,McPhee,26:40,3:45,30:45
124,Michael,Bieleny,26:50,3:44,30:37
125,Luke,Hutchins,27:30,3:39,29:56
126,Fraser,Walsh,28:40,3:30,28:42
127,Richard,Gleisner,29:10,3:27,28:17
128,Bryan,Keely,29:20,3:25,28:01
129,Andrew,Buchanan,29:40,3:23,27:45