Place,First,Last,NET Time,Pace,Diff
1,Beatrice,Lonsdale,0:14:17.7,04:45.9,+00:02.7
2,Max,Rowe,0:13:50.4,04:36.8,-00:00.6
3,Tyler,Wilkie,0:15:53.7,05:17.9,+00:17.7
4,Connor,Bedson,0:13:04.4,04:21.5,+00:13.4
5,Nathan,Jones,0:15:55.3,05:18.4,+00:10.3
6,Wil,McCaig,0:11:56.7,03:58.9,+00:23.7
7,Josephine,Robinson,0:16:42.7,05:34.2,+00:33.7
8,Carrisa,Brook,0:14:05.3,04:41.8,+00:32.3
9,Toby,McCaig,0:12:43.6,04:14.5,+00:43.6
10,Bridie,Blake-Burrows,0:12:27.9,04:09.3,+00:42.9
11,Stephen,Wainwright,0:14:26.3,04:48.8,+00:56.3
12,Lynley,McDonald,0:18:09.4,06:03.1,+01:12.4
13,Tim,Creer,0:14:30.9,04:50.3,+01:21.9
14,Harry,Seaward,0:14:31.3,04:50.4,+01:46.3
15,Darren,Rowe,0:15:06.6,05:02.2,+02:18.6
16,Tullie,Rowe,0:13:58.4,04:39.5,+02:13.4
