PLACE,FIRST,LAST,TIME,PACE,CLUB
1,Harrison,Boyd,0:10:54.5,03:38.2,HARRIERS
2,Kane,Safstrom,0:12:30.9,04:10.3,UNI
3,Mason,Woodward,0:13:02.4,04:20.8,UNI
4,Lachlan,Feuerherdt,0:13:18.6,04:26.2,UNI
5,Avery,McDermid,0:13:26.1,04:28.7,UNI
6,Lewis,McIntosh,0:13:58.7,04:39.6,UNI
7,Mark,Boyd,0:14:43.6,04:54.5,HARRIERS
8,Jonty,McDermid,0:14:45.2,04:55.1,UNI
9,Ryan,Haythorpe,0:14:48.9,04:56.3,UNI
10,Luke,Feuerherdt,0:15:22.9,05:07.6,UNI
11,Jimmy,Byrne,0:15:42.3,05:14.1,OTHER
12,Joshua,Feuerherdt,0:15:45.7,05:15.2,UNI
13,Joshua,Condon,0:16:07.4,05:22.5,UNI
14,Thom,Hosking,0:17:19.0,05:46.3,UNI
15,Logan,Beesley,0:18:11.9,06:04.0,UNI
16,Harry,Cripps,0:18:30.2,06:10.1,UNI
17,Samuel,Preston,0:18:41.2,06:13.7,UNI
18,Nigel,Preston,0:18:42.0,06:14.0,UNI
19,Chris,Lightfoot,0:19:16.2,06:25.4,OTHER
20,Owen,Draper,0:25:14.9,08:25.0,UNI
