Place,First,Last,NET Time,Pace,Diff
1,Brian,Watson,0:25:15.6,03:54,+00:14.6
2,Kevin,deVries,0:35:37.7,05:30,+00:47.9
3,Rik,McCaig,0:25:12.4,03:54,+00:56.6
4,Chris,Giffin,0:30:00.2,04:38,+01:19.2
5,Ben,McDermid,0:29:05.3,04:30,+01:22.5
6,Sarah,Jalim,0:26:16.7,04:04,+01:28.6
7,Tim,Lauder,0:27:16.5,04:13,+01:30.2
8,Karl,Lanyon,0:30:18.8,04:41,+01:44.3
9,Melissa,Wilkie,0:35:56.9,05:33,+01:45.9
10,David,Cripps,0:31:10.4,04:49,+01:50.6
11,Andrea,Smith,0:32:55.7,05:05,+01:52.3
12,David,Heislers,0:30:21.1,04:41,+01:59.5
13,Georgie,Lanyon,0:31:22.7,04:51,+02:28.7
14,Andrew,Wilkie,0:31:10.4,04:49,+02:35.9
15,Alison,Cartner,0:33:02.3,05:06,+02:37.8
16,Troy,Davis,0:36:37.4,05:40,+02:39.4
17,David,Lonsdale,0:30:31.5,04:43,+02:42.2
18,Andrew,Creer,0:26:05.1,04:02,+02:54.1
19,Maree,Platt,0:36:56.2,05:43,+03:11.1
20,Trinity,Sanderson,0:33:08.1,05:07,+03:35.3
21,Justin,Lee,0:33:06.7,05:07,+04:12.7
22,Philip,Shambrook,0:35:55.5,05:33,+04:19.8
23,Ross,Douglas,0:36:11.4,05:36,+04:35.7
24,Leah,Cripps,0:38:30.8,05:57,+04:45.7
25,Shayne,Rushan,0:39:56.3,06:10,+05:00.0
26,Darren,Hartland,0:30:04.9,04:39,+05:16.8
27,Paul,Lomax,0:37:33.9,05:48,+06:17.6
28,James,Toomey,0:38:37.9,05:58,+08:39.2
29,Gavin,Fiedler,0:38:34.4,05:58,+08:55.2
NEW,Josephine,Robinson,0:41:43.6,06:27
NEW,Justin,O'Brien,0:38:47.5,06:00
NEW,Fraser,Walsh,0:22:04.5,03:25
NEW,Tim,Lovell,0:31:38.5,04:53
NEW,Ashlee,Diston,0:32:04.2,04:57
NEW,Jay,Sanderson,0:35:29.3,05:29
NEW,David,Howes,0:40:42.4,06:17
NEW,Stephen,Wainwright,0:31:58.8,04:57
NEW,Simon,Hunt,0:29:54.1,04:37
NEW,Taylor,Lovell,0:39:39.5,06:08
NEW,Angus,McPherson,0:37:39.1,05:49
NEW,Darren,Rowe,0:39:03.2,06:02
NEW,Nigel,Preston,0:22:43.2,03:31
NEW,Nicki,Bayliss,0:34:45.6,05:22
