Place,First,Last,NET Time,Pace,Diff
1,Max,Rowe,0:13:59.1,04:40,-00:00.9
2,Melissa,Douglas,0:13:12.3,04:24,+00:27.3
3,Connor,Bedson,0:13:27.8,04:29,+00:30.8
4,Lou,Bray,0:17:46.5,05:55,+00:31.5
5,Toby,McCaig,0:12:45.2,04:15,+00:45.2
6,Phoebe,Lonsdale,0:14:40.9,04:54,+00:46.9
7,Tullie,Rowe,0:12:45.9,04:15,+01:00.9
8,Megan,McDonald,0:18:23.6,06:08,+01:08.6
9,Bridie,Blake-Burrows,0:12:57.4,04:19,+01:12.4
10,Lachlan,Feuerherdt,0:15:26.5,05:09,+01:50.5
11,Lynley,McDonald,0:19:19.1,06:26,+03:10.1
12,Greg,Toomey,0:20:11.0,06:44,+03:17.0
13,Louise,Toomey,0:20:49.1,06:56,+03:49.1
14,Beatrice,Lonsdale,0:17:17.7,05:46,+03:53.7
15,Aida,Escall,0:22:25.6,07:29,+04:25.6
NEW,John,Robinson,0:12:35.4,04:12
NEW,Jason,Sim,0:15:22.9,05:08
NEW,Rebecca,Ashman,0:18:06.8,06:02
NEW,Oliver,Sanderson,0:12:42.3,04:14
NEW,Amy,Sim,0:16:42.7,05:34
NEW,Emerson,Sim,0:15:22.2,05:07
NEW,Abbey,Cartner,0:14:11.8,04:44
NEW,Philip,Shambrook,0:22:25.2,07:28
NEW,Angus,McPherson,0:22:15.6,07:25
NEW,Trent,Bayliss,0:16:29.2,05:30
NEW,Ebony,Butcher,0:22:42.0,07:34
NEW,Janine,Butcher,0:24:27.1,08:09
NEW,Renelle,McManus,0:18:16.4,06:05
NEW,Jazlin,Fear,0:14:35.2,04:52
NEW,Tanner,Fear,0:14:22.6,04:48
