place,first,last,start,pace,est Time
1,Sarah,Cunningham,0:00,7:37,11:25
2,Rex,Lourie,0:00,7:30,11:15
3,Olivia,Kealy,0:00,7:26,11:09
4,Ella,Meharry,0:00,7:15,10:52
5,Lacey,Wilkie,0:00,7:15,10:52
6,Joshua,Feuerherdt,0:00,7:12,10:48
7,Ethan,Fletcher,0:00,7:3,10:34
8,Max,Kavanagh,0:00,7:0,10:30
9,Xavier,Thomas,0:00,6:55,10:23
10,Allerah,Thomas,0:00,6:50,10:15
11,Kane,Charnas,0:00,6:50,10:15
12,Luke,Creer,0:00,6:49,10:13
13,Will,Smith,0:00,6:48,10:12
14,Kalan,Thomas,0:00,6:45,10:07
15,Lulu Too,Hamond,0:00,6:40,10:00
16,Neve,Coleman,0:00,6:40,10:00
17,Amber,Anderson,0:00,6:35,9:52
18,Finn,Cunningham,0:00,6:30,9:45
19,Kevin,Wheatley,0:00,6:30,9:45
20,Abbey,Reid,0:00,6:30,9:45
21,Jack,Gleisner,0:00,6:26,9:39
22,Joshua,Kelly,0:00,6:23,9:34
23,Lewis,Kailaur,0:00,6:22,9:33
24,Avery,McDermid,0:00,6:10,9:15
25,Miller,Finch,0:00,6:10,9:15
26,Charlotte,Crane,0:00,6:5,9:07
27,Katelyn,Kelly,0:00,6:5,9:07
28,Moira,Coleman,0:00,6:2,9:03
29,Ruby,Fletcher,0:00,6:0,9:00
30,Rhyse,Thorpe,0:00,6:0,9:00
31,Jade,Kelly,0:00,5:55,8:52
32,Hannah,Crane,0:00,5:51,8:46
33,Aoife,Cunningham,0:00,5:51,8:46
34,Eliza,Christie,0:00,5:50,8:45
35,Ella,Fisher,0:00,5:45,8:38
36,Saige,Finch,0:00,5:45,8:38
37,Rebecca,Ashman,0:00,5:44,8:36
38,Cooper,Rea,0:00,5:42,8:33
39,Manny,Rose,0:00,5:40,8:30
40,Jasmine,Padgham,0:00,5:40,8:30
41,Jordan,Wheatley,0:00,5:40,8:30
42,Nellie,Rose,0:00,5:39,8:29
43,James,Cheal,0:00,5:36,8:24
44,Albert,Cordell,0:00,5:33,8:20
45,Tara,Anderson,0:00,5:30,8:15
46,Murphy,Watson,0:00,5:30,8:15
47,Will,Gleisner,0:00,5:30,8:15
48,Lucinda,Terry,0:00,5:28,8:12
49,Melana,Cordell,0:00,5:25,8:07
50,Amity,Thorpe,0:00,5:22,8:03
51,Georgia,Pearce,0:00,5:20,8:00
52,Catelynd,Wheatley,0:00,5:20,8:00
53,Beatrice,Lonsdale,0:00,5:17,7:55
54,Vincent,Weatherhead,0:00,5:17,7:55
55,Jack,McCullough,0:00,5:16,7:54
56,Nick,Meharry,0:00,5:15,7:52
57,Kaidyn,Tucker,0:00,5:14,7:51
58,Luke,Feuerherdt,0:00,5:12,7:48
59,Phoebe,Lonsdale,0:00,5:10,7:45
60,Tyler,Wilkie,0:00,5:10,7:45
61,Rossi,Stevens,0:00,5:10,7:45
62,Lewis,Lonsdale,0:00,5:8,7:42
63,Henry,Cordell,0:00,5:5,7:38
64,Nina,Lenard,0:00,5:3,7:34
65,Abbey,Cartner,0:00,5:2,7:33
66,Tim,Creer,0:00,5:0,7:30
67,Matthew,Saxon,0:00,5:0,7:30
68,Tom,Coleman,0:00,4:58,7:27
69,Macey,O'Shea,0:00,4:58,7:27
70,Oscar,Terry,0:00,4:55,7:23
71,Jack,Meharry,0:00,4:52,7:18
72,Cooper,Charnas,0:00,4:52,7:18
73,Leila,Padgham,0:00,4:50,7:15
74,Morgan,Dunn,0:00,4:48,7:12
75,Emerson,Sim,0:00,4:46,7:09
76,Michaela,Meharry,0:00,4:42,7:03
77,Max,Rowe,0:00,4:40,7:00
78,Harrison,Kelly,0:00,4:40,7:00
79,Emily,Heislers,0:00,4:40,7:00
80,Jayden,Padgham,0:00,4:40,7:00
81,Lachlan,Feuerherdt,0:00,4:39,6:58
82,Jesse,Delves,0:00,4:30,6:45
83,Jake,Lyons,0:00,4:20,6:30
84,Bailey,Dunn,0:00,4:20,6:30
85,Tullie,Rowe,0:00,4:10,6:15
86,Brayden,Roberts,0:00,4:7,6:10
87,Noah,Walsh,0:00,4:5,6:07
88,Floyd,Cartner,0:00,4:2,6:03
89,Melissa,Douglas,0:00,4:0,6:00