PLACE,FIRST,LAST,TIME,PACE,CLUB
1,Leah,Cripps,1:58:58.2,05:39.9,UNI
2,Trinity,Sanderson,1:58:59.5,05:40.0,UNI
3,Maree,Platt,1:59:24.6,05:41.2,UNI
4,Fiona,Dangerfield,2:03:38.6,05:53.3,UNI
5,Jen,Pollard,2:19:13.0,06:37.8,UNI
