place,first,last,start,pace,est Time
1,Olivia,Kealy,00:00,7:0,28:00
2,Tiffany,McCullough,00:00,7:0,28:00
3,Moira,Coleman,00:00,7:0,28:00
4,Milla,Finch,00:00,7:0,28:00
5,Kevin,Wheatley,00:00,7:0,28:00
6,Kathryne,Charnas,00:00,6:47,27:08
7,Ella,Fisher,00:00,6:45,27:00
8,Ruby,Fletcher,00:00,6:44,26:56
9,Serge,Finch,00:00,6:40,26:40
10,Katie,Dean,00:00,6:35,26:20
11,Collette,Fletcher,00:00,6:32,26:08
12,Kath,O'Shea,00:00,6:30,26:00
13,Lucy,Terry,00:00,6:28,25:52
14,Fiona,Dangerfield,00:00,6:20,25:20
15,Lachlan,Walsh,00:00,6:15,25:00
16,Nellie,Rose,00:00,6:15,25:00
17,Layla,Day,00:00,6:10,24:40
18,William,Gleisner,00:00,6:10,24:40
19,Aoife,Cunningham,00:00,6:10,24:40
20,Murphy,Watson,00:00,6:10,24:40
21,Luke,Creer,00:00,6:5,24:20
22,David,Ashman,00:00,6:5,24:20
23,Eliza,O'Sullivan,00:00,6:0,24:00
24,Hamish,Walker,00:00,6:0,24:00
25,Imogen,Douglass,00:00,6:0,24:00
26,Tom,Colman,00:00,6:0,24:00
27,Oscar,Terry,00:00,6:0,24:00
28,Charlie,Lourie,00:00,5:58,23:52
29,Sophie,Shoebridge,00:00,5:57,23:48
30,Lulu,Hamond,00:00,5:55,23:40
31,Imogen,Thompson,00:00,5:54,23:36
32,Gretel,Douglas,00:00,5:53,23:32
33,Tara,Anderson,00:00,5:53,23:32
34,Rebecca,Ashman,00:00,5:50,23:20
35,Phoebe,Lonsdale,00:00,5:49,23:16
36,Kaidyn,Tucker,00:00,5:48,23:12
37,Amber,Lyons,00:00,5:45,23:00
38,Harry,Terry,00:00,5:45,23:00
39,Catelynd,Wheatley,00:00,5:45,23:00
40,Zac,Walsh,00:00,5:41,22:44
41,Tim,Creer,00:00,5:40,22:40
42,Belinda,O'Sullivan,00:00,5:40,22:40
43,Jayden,Padgham,00:00,5:40,22:40
44,Abbey,Saxon,00:00,5:40,22:40
45,Nicole,Kelly,00:00,5:39,22:36
46,Leila,Padgham,00:00,5:38,22:32
47,Henry,Cordell,00:00,5:37,22:28
48,Lachlan,Feuerherdt,00:00,5:35,22:20
49,Hanna,Crane,00:00,5:35,22:20
50,Danni,Padgham,00:00,5:33,22:12
51,Livinia,Douglass,00:00,5:32,22:08
52,Tracie,Gleisner,00:00,5:30,22:00
53,Lisa,Bortolotto,00:00,5:30,22:00
54,Amy,Sim,00:00,5:26,21:44
55,Megan,McDonald,00:00,5:23,21:32
56,Millie,Lourie,00:00,5:23,21:32
57,Ella,Finch,00:00,5:23,21:32
58,Riley,Tawton,00:00,5:22,21:28
59,James,Kealy,00:00,5:20,21:20
60,Lewis,Fisher,00:00,5:20,21:20
61,Darcy,Tucker,00:00,5:20,21:20
62,Jesse,Delves,00:00,5:20,21:20
63,Andrew,Dean,00:00,5:20,21:20
64,Matthew,Saxon,00:00,5:19,21:16
65,Peter,Thorpe,00:00,5:18,21:12
66,Morgan,Dunn,00:00,5:15,21:00
67,Michelle,Perry,00:00,5:15,21:00
68,Amy,Dean,00:00,5:11,20:44
69,Micheala,Meharry,00:00,5:10,20:40
70,Tom,Meharry,00:00,5:8,20:32
71,Jack,Bombardian,00:00,5:6,20:24
72,Greg,Christie,00:00,5:5,20:20
73,Beatrice,Lonsdale,00:00,5:5,20:20
74,Emily,Heislers,00:00,5:3,20:12
75,Ash,Bull,00:00,5:0,20:00
76,Murray,Cordell,00:00,5:0,20:00
77,Will,Crane,00:00,5:0,20:00
78,Sayyu,Hamond,00:00,5:0,20:00
79,Bailey,Dunn,00:00,4:58,19:52
80,Samara,Finch,00:00,4:58,19:52
81,Nicholas,Ashman,00:00,4:57,19:48
82,Luke,Stevens,00:00,4:55,19:40
83,Carissa,Brook,00:00,4:54,19:36
84,Bella,Livingston,00:00,4:52,19:28
85,Tullie,Rowe,00:00,4:50,19:20
86,Ross,Douglas,00:00,4:50,19:20
87,Fraser,Lourie,00:00,4:50,19:20
88,Floyd,Cartner,00:00,4:49,19:16
89,Blaze,Houlden,00:00,4:42,18:48
90,Sebastian,Rowe,00:00,4:40,18:40
91,Miles,Livingston,00:00,4:35,18:20
92,Henry,Bombardieri,00:00,4:30,18:00
93,Noah,Walsh,00:00,4:29,17:56
94,Matthew,Creer,00:00,4:28,17:52
95,David,Lonsdale,00:00,4:25,17:40
96,Shaina,Brook,00:00,4:24,17:36
97,John,Rose,00:00,4:20,17:20
98,Jack,Cripps,00:00,4:19,17:16
99,Bweku,Hamond,00:00,4:18,17:12
100,Leon,Hamond,00:00,4:16,17:04
101,Riley,Walsh,00:00,4:14,16:56
102,Callum,Tucker,00:00,4:13,16:52
103,Luke,Padgham,00:00,4:10,16:40
104,Maxwell,Pearse,00:00,4:5,16:20
105,Jim,Russell,00:00,3:55,15:40
106,Andrew,Creer,00:00,3:46,15:04
107,Matthew,Heislers,00:00,3:43,14:52
108,Fraser,Walsh,00:00,3:29,13:56