Place,First,Last,NET Time,Pace,Diff
1,Jeremy,Draper,0:40:15.2,05:18,+00:21.2
2,Shayne,Rushan,0:44:07.4,05:48,+00:25.4
3,Paul,Lomax,0:39:38.9,05:13,+00:30.5
4,Brian,Watson,0:31:02.7,04:05,+01:39.5
5,Darren,Rowe,0:43:07.3,05:40,+01:42.1
6,Michael,Bieleny,0:30:28.9,04:01,+01:51.3
7,Ross,Douglas,0:40:58.8,05:24,+01:58.0
8,Ben,McDermid,0:31:52.3,04:12,+01:58.7
9,David,Lonsdale,0:35:02.1,04:37,+02:06.1
10,Sarah,Jalim,0:32:25.2,04:16,+02:08.8
11,Greg,Carter,0:34:57.3,04:36,+02:16.5
12,Gavin,Fiedler,0:41:09.8,05:25,+02:31.8
13,Tim,Lauder,0:33:25.0,04:24,+02:38.2
14,Jon,McIntosh,0:39:33.3,05:12,+02:41.7
15,Chris,Giffin,0:34:14.0,04:30,+02:41.6
16,David,Howes,0:41:52.1,05:31,+02:58.9
17,Josephine,Robinson,0:47:35.4,06:16,+03:00.2
18,Stephen,Wainwright,0:40:10.7,05:17,+03:11.5
19,Nigel,Preston,0:30:01.1,03:57,+03:17.5
20,Trinity,Sanderson,0:39:42.9,05:14,+03:29.3
21,Justin,Lee,0:39:36.7,05:13,+03:30.7
22,Alison,Cartner,0:41:22.0,05:27,+03:52.4
23,Kevin,deVries,0:42:52.8,05:39,+04:07.2
24,Tim,Lovell,0:37:42.8,04:58,+04:08.8
25,Janelle,Giffin,0:48:44.4,06:25,+04:24.4
26,Leah,Cripps,0:45:30.5,05:59,+05:21.3
27,Danny,Burgess,0:39:25.2,05:11,+06:21.6
28,Renelle,McManus,0:57:16.3,07:32,+11:02.3
NEW,Jan,Walker,0:57:17.3,07:32
