Place,Member,First,Last,Start,Pace,Est Time
1,3705,Sienna,Bayliss,00:00,08:00,0:08:00.0
2,3794,Amelia ,Christen,00:00,08:00,0:08:00.0
3,3733,Madeline,Gibbons,00:00,07:59,0:07:59.0
4,3791,Olivia,Christen,00:00,07:57,0:07:57.0
5,379,Quinn,Holmes,00:40,07:22,0:07:22.0
6,382,Genevieve,Robinson,00:40,07:18,0:07:18.0
7,3782,Owen,Draper,00:50,07:09,0:07:09.0
8,3741,Kim,Carter,01:00,06:55,0:06:55.0
9,354,Alice,McIntosh,01:10,06:52,0:06:52.0
10,3708,Janine,Butcher,01:10,06:51,0:06:51.0
11,3727,Samuel,Preston,01:10,06:50,0:06:50.0
12,3781,Hamish,Draper,01:30,06:34,0:06:34.0
13,335,Lenny,Hancock,01:30,06:30,0:06:30.0
14,390,Ruby,Douglas,01:40,06:19,0:06:19.0
15,154,Sean,Hughan,01:40,06:15,0:06:15.0
16,3743,Liam,Carter,01:50,06:11,0:06:11.0
17,211,Jesse,Brook,02:00,06:03,0:06:03.0
18,348,Tazma,Ferrie,02:00,06:02,0:06:02.0
19,234,Finn,Cunningham,02:00,05:58,0:05:58.0
20,372,Belle,Howes,02:10,05:50,0:05:50.0
21,326,Sachin,Cody,02:10,05:50,0:05:50.0
22,178,Annabel,Hancock,02:20,05:43,0:05:43.0
23,3704,Callen,Bayliss,02:20,05:42,0:05:42.0
24,216,Ava,Terry,02:20,05:41,0:05:41.0
25,3742,Jemma,Carter,02:20,05:40,0:05:40.0
26,123,Michael,Terry,02:20,05:39,0:05:39.0
27,3716,Gus,Edwards,02:20,05:38,0:05:38.0
28,355,Millie,McIntosh,02:20,05:37,0:05:37.0
29,28,Mitchell,Bray,02:20,05:35,0:05:35.0
30,345,Jordan,Baker,02:30,05:33,0:05:33.0
31,3783,Zacch,Martin,02:30,05:33,0:05:33.0
32,324,Quinlan,Cody,02:30,05:32,0:05:32.0
33,271,Will,Smith,02:30,05:29,0:05:29.0
34,3778,Sebastian,Stewart,02:30,05:28,0:05:28.0
35,381,April,Wainwright,02:30,05:27,0:05:27.0
36,44,Geoffrey,Robinson,02:40,05:25,0:05:25.0
37,255,Dylan,Sim,02:40,05:24,0:05:24.0
38,209,Olivia,Douglas,02:40,05:21,0:05:21.0
39,250,Tully,Cripps,02:40,05:21,0:05:21.0
40,284,Imogen,Stewart,02:40,05:20,0:05:20.0
41,298,Elliot,Lavery,02:40,05:18,0:05:18.0
42,260,Thomas,Henderson,02:40,05:18,0:05:18.0
43,245,Lacey,Wilkie,02:50,05:12,0:05:12.0
44,3737,Ebony,Woodward,02:50,05:08,0:05:08.0
45,3711,Eryn,McManus,03:00,05:05,0:05:05.0
46,368,Eden,Howes,03:00,05:00,0:05:00.0
47,3719,Charli,Green,03:00,05:00,0:05:00.0
48,3709,Scott,Butcher,03:00,05:00,0:05:00.0
49,3749,Isabella,Draper,03:00,04:58,0:04:58.0
50,258,Ivy,Bray,03:00,04:57,0:04:57.0
51,282,Anna,deVries,03:00,04:56,0:04:56.0
52,50,Harry,Cripps,03:00,04:56,0:04:56.0
53,305,Jonty,McDermid,03:10,04:54,0:04:54.0
54,293,Spencer,Lavery,03:10,04:51,0:04:51.0
55,283,Lily,Sanderson,03:10,04:46,0:04:46.0
56,246,Poppy,Wainwright,03:20,04:45,0:04:45.0
57,358,Lewis,McIntosh,03:20,04:45,0:04:45.0
58,297,Declan,Lavery,03:20,04:44,0:04:44.0
59,3736,Skylar,Woodward,03:20,04:40,0:04:40.0
60,3785,Jake,Wight,03:20,04:38,0:04:38.0
61,281,Will,deVries,03:20,04:37,0:04:37.0
62,3717,Lachlan,Edwards,03:20,04:36,0:04:36.0
63,174,Sam,Hancock,03:20,04:36,0:04:36.0
64,153,Tadhg,Hughan,03:30,04:33,0:04:33.0
65,3706,Ebony,Butcher,03:30,04:32,0:04:32.0
66,99,Oscar,Terry,03:30,04:32,0:04:32.0
67,391,Sebastian,Boromeo,03:30,04:32,0:04:32.0
68,253,Charlotte,Murphy,03:30,04:28,0:04:28.0
69,360,Phoebe,Martin,03:30,04:27,0:04:27.0
70,276,Joshua,Feuerherdt,03:30,04:26,0:04:26.0
71,267,Kayla,McManus,03:40,04:25,0:04:25.0
72,319,Nikolas,Makris,03:40,04:20,0:04:20.0
73,252,Jasmine,Murphy,03:40,04:18,0:04:18.0
74,274,Avery,McDermid,03:40,04:17,0:04:17.0
75,277,Luke,Feuerherdt,03:40,04:16,0:04:16.0
76,279,Lucy,McCaig,03:50,04:11,0:04:11.0
77,191,Phoebe,Lonsdale,03:50,04:10,0:04:10.0
78,337,Steff,Roberts,03:50,04:09,0:04:09.0
79,3738,Mason,Woodward,03:50,04:08,0:04:08.0
80,272,Abbey,Cartner,04:00,04:05,0:04:05.0
81,189,Tim,Creer,04:00,04:03,0:04:03.0
82,147,Lachlan,Feuerherdt,04:00,03:59,0:03:59.0
83,266,Lewis,Lonsdale,04:00,03:56,0:03:56.0
84,131,Carrisa,Brook,04:00,03:55,0:03:55.0
85,254,William,Robinson,04:10,03:54,0:03:54.0
86,42,Craig,Feuerherdt,04:20,03:41,0:03:41.0
