PLACE,FIRST,LAST,RACES,POINTS
1,William,Robinson,10,139
2,Lewis,Lonsdale,9,133
3,Avery,McDermid,9,113
4,Mason,Woodward,6,108
5,Joshua,Feuerherdt,6,85
6,Luke,Feuerherdt,5,81
7,Harry,Cripps,10,75
8,Jonty,McDermid,9,70
9,Will,deVries,7,69
10,Jasmine,Murphy,4,58
11,Ebony,Woodward,5,56
12,Kayla,McManus,4,52
13,Jake,Wight,3,51
14,Sebastian,Boromeo,3,41
15,Phoebe,Martin,3,41
16,Poppy,Wainwright,6,41
17,Sebastian,Stewart,5,36
18,April,Wainwright,10,36
19,Tully,Cripps,10,34
20,Eden,Howes,5,33
21,Lucy,McCaig,2,32
22,Phoebe,Lonsdale,2,32
23,Lewis,McIntosh,4,31
24,Anna,deVries,4,31
25,Skylar,Woodward,4,31
26,Geoffrey,Robinson,9,24
27,Ivy,Bray,3,22
28,Elliot,Lavery,2,20
29,Craig,Feuerherdt,1,20
30,Isabella,Draper,3,19
31,Charlotte,Murphy,1,19
32,Abbey,Cartner,1,18
33,Lacey,Wilkie,2,17
34,Ebony,Butcher,1,16
35,Lily,Sanderson,1,14
36,Lachlan,Edwards,1,14
37,Dylan,Sim,1,13
38,Sam,Hancock,1,13
39,Declan,Lavery,1,12
40,Logan,Beesley,1,12
41,Annabel,Hancock,2,11
42,Olivia,Douglas,6,10
43,Eryn,McManus,2,10
44,Jemma,Carter,4,9
45,Charli,Green,1,9
46,Scott,Butcher,1,8
47,Zacch,Martin,2,8
48,Belle,Howes,4,7
49,Genevieve,Robinson,10,6
50,Finn,Cunningham,1,6
51,Millie,McIntosh,2,6
52,Kim,Carter,2,4
53,Callen,Bayliss,3,4
54,Gus,Edwards,1,4
55,Liam,Carter,5,3
56,Owen,Draper,5,2
57,Ruby,Douglas,6,2
58,Lenny,Hancock,1,1
59,Samuel,Preston,3,1
60,Amelia ,Christen,1,0
61,Sienna,Bayliss,2,0
62,Alice,McIntosh,4,0
63,Hamish,Draper,2,0
64,Chole,Beesley,1,0
65,Toby,Preston,1,0
66,Janine,Butcher,1,0
67,Ellie,Beesley,1,0
68,Madeline,Gibbons,1,0
69,Olivia,Christen,1,0
