PLACE,FIRST,LAST,TIME,PACE,CLUB
1,Craig,Feuerherdt,0:28:54.5,03:51.3,UNI
2,Ian,Wellard,0:32:54.1,04:23.2,HARRIERS
3,Danny,Burgess,0:33:16.2,04:26.2,UNI
4,David,Cripps,0:33:49.3,04:30.6,UNI
5,David,Lonsdale,0:33:54.1,04:31.2,UNI
6,Darren,Hartland,0:36:25.5,04:51.4,UNI
7,Kevin,deVries,0:38:57.5,05:11.7,UNI
8,Jeremy,Draper,0:39:12.7,05:13.7,UNI
9,Darren,Rowe,0:39:39.6,05:17.3,UNI
