place,first,last,club,net Time,pace
1,Alison,Cartner,BUAC,1:45:03.5,05:00.2
2,Wendy,Stibbe,HAR,1:47:50.8,05:08.1
3,Maree,Platt,BUAC,1:57:48.0,05:36.6
4,Tracey,Bolton,OTHER,1:15:22.2,06:26.8
5,Cadi,Watchman,HAR,1:15:23.1,06:26.8