PLACE,FIRST,LAST,TIME,PACE,CLUB
1,Yazmin,Hayes,0:11:17.2,03:45.7,SOUTH BENDIGO
2,Zahli,Drummond,0:12:20.2,04:06.7,HARRIERS
3,Bridie,Blake-Burrows,0:12:54.1,04:18.0,UNI
4,Sara,Berg,0:13:16.3,04:25.4,SOUTH BENDIGO
5,Hannah,Cotter,0:13:55.4,04:38.5,SOUTH BENDIGO
6,Beatrice,Lonsdale,0:14:04.7,04:41.6,UNI
7,Jazlin,Fear,0:14:23.7,04:47.9,UNI
8,Jess,Chisholm,0:14:39.4,04:53.1,EAGLEHAWK
