Place,First,Last,NET Time,Pace,Diff
1,Jennifer,Lee,0:48:07.9,05:33,-14:47.9
2,Alan,East,0:57:36.6,06:39,-03:26.6
3,Fiona,Dangerfield,0:49:15.2,05:41,-02:51.1
4,Leah,Cripps,0:45:39.3,05:16,-02:24.5
5,Michael,Gibbons,0:34:44.0,04:01,-02:21.6
6,Alison,Cartner,0:43:10.3,04:59,-02:17.6
7,Jeremy,Draper,0:43:37.7,05:02,-01:41.5
8,Lachlan,Cherry,0:44:31.9,05:09,-01:39.3
9,Maree,Platt,0:45:20.1,05:14,-01:34.4
10,David,Cripps,0:36:44.7,04:15,-01:30.2
11,David,Lonsdale,0:35:36.9,04:07,-01:28.7
12,Chris,Giffin,0:35:11.3,04:04,-01:28.3
13,Janelle,Giffin,0:49:39.0,05:44,-01:26.6
14,David,Heislers,0:35:40.6,04:07,-01:25.0
15,Tina,McBain,0:43:47.1,05:03,-01:23.5
16,Troy,Davis,0:47:32.0,05:29,-01:06.4
17,Tim,Lauder,0:34:23.4,03:58,-00:58.3
18,Lisa,Wilkinson,0:40:25.0,04:40,-00:51.8
19,Darren,Rowe,0:43:39.2,05:02,-00:30.8
20,Shayne,Rushan,0:45:33.3,05:16,-00:20.6
21,Ross,Douglas,0:43:34.4,05:02,-00:18.2
22,Travis,Edwards,0:41:21.0,04:46,-00:13.1
23,Rebecca,Wilkinson,0:35:45.4,04:08,+00:06.4
24,Andrew,Creer,0:34:11.0,03:57,+00:07.2
25,Mumtaz,Hussain,0:41:51.2,04:50,+00:34.4
26,Matthew,Schepisi,0:34:36.4,04:00,+01:07.3
27,Trinity,Sanderson,0:44:54.7,05:11,+01:10.7
28,Sue,Taylor,0:51:40.0,05:58,+01:26.3
29,Nicholas,Cherry,0:38:12.0,04:25,+01:41.0
30,Craig,Feuerherdt,0:34:47.5,04:01,+01:44.4
31,Damien,Roberts,0:40:49.7,04:43,+02:08.8
32,Ben,McDermid,0:38:00.1,04:23,+02:38.4
33,Megan,McDonald,0:57:37.1,06:39,+04:56.2
NEW,Matthew,Heislers,0:32:41.8,03:47
NEW,Rhianna,Wik-Gamble,0:39:38.2,04:35
NEW,Tarli,Bird,0:31:56.0,03:41
NEW,Sandra,Diss,0:42:30.9,04:55
NEW,Glenn,James,0:41:42.4,04:49
NEW,Heidi,Graham,0:57:10.2,06:36
NEW,Kye,Jenkyn,0:30:14.2,03:29
NEW,Wes,Jenkyn,0:37:33.7,04:20
NEW,Tyler,Swann,0:45:03.8,05:12
