PLACE,FIRST,LAST,RACES,POINTS
1,April,Wainwright,10,231
2,Ebony,Woodward,10,211
3,Mason,Woodward,10,200
4,Jonty,McDermid,8,179
5,Avery,McDermid,9,176
6,Logan,Beesley,7,156
7,Tully,Cripps,8,146
8,Chloe,Beesley,7,141
9,Ellie,Beesley,6,136
10,Joshua,Feuerherdt,6,135
11,Ruby,Douglas,9,130
12,Luke,Feuerherdt,7,130
13,Skylar,Woodward,10,129
14,Tom,Roberts,5,128
15,Liam,Carter,5,126
16,Lewis,Lonsdale,7,104
17,Braxton,Safstrom,5,94
18,Jemma,Carter,5,92
19,Abigail,Epworth,7,91
20,Geoffrey,Robinson,7,90
21,Genevieve,Robinson,6,81
22,Harry,Cripps,6,81
23,Jaron,Ekanayake,3,80
24,Eiliyah,Daneen,6,76
25,Elliott,Lavery,5,74
26,Samuel,Preston,3,73
27,Poppy,Wainwright,4,71
28,Owen,Draper,4,68
29,Olivia,Douglas,4,67
30,Savannah,Marwood,4,62
31,William,Robinson,4,60
32,Sebastian,Stewart,2,57
33,Xavier,Marwood,4,56
34,Ivy,Bray,3,55
35,Tobias,Preston,2,52
36,Miller,Armstrong,2,40
37,Harry,Scott,2,40
38,Noah,Armstrong,2,35
39,Genevieve,Draper,2,35
40,Will,de Vries,3,34
41,Phoebe,Martin,2,31
42,Lily,Sanderson,1,30
43,Anna,de Vries,2,26
44,Jack,Wright,2,25
45,Edie,Gibbons,2,23
46,Jye,Ekanayake,2,19
47,Lucy,McCaig,1,16
48,Lacey,Wilkie,1,14
49,Eden,Howes,1,14
50,Belle,Howes,1,13
51,Isabella,Draper,1,13
52,Spencer,Epworth,3,10
53,Bonnie,Scott,2,7
54,Jimeal,Ekanayake,1,0
55,Giana,Ekanayake,1,0
56,William,Trew,1,0
57,Tanner,Fear,1,0
58,Max,Rowe,1,0
59,Hunter,Pearce,1,0
60,Spencer,Lavery,1,0
61,Megan,Howes,1,0
62,James,Trew,1,0
63,Ruby,Meharry,1,0
