place,first,last,net Time,diff
1,Rosie,Hartney,04:19,- 1:41
2,Meg,McCarthy,05:44,- 0:55
3,Tara,Anderson,07:06,- 0:52
4,Floyd,Cartner,05:29,- 0:54
5,Abbey,McCarthy,04:21,- 0:50
6,Molly,Robinson,05:20,- 0:40
7,Imogen,Douglass,05:21,- 0:42
8,Bronte,Walsh,04:34,- 0:38
9,Stephanie,Roberts,04:19,- 0:16
10,Olivia,Houlden,04:43,- 0:10
11,Matisse,Perez,04:55,- 0:09
12,Ava,Perez,04:53,+ 0:02
13,Will,Hogan,04:01,+ 0:20
14,Connar,Pearson,07:25,+ 1:00
15,Livinia,Douglass,07:52,+ 1:15